x	Duration	RSS	HeapTotal	HeapUsed	External
0	NA	96030720	65679360	10977280	24992
1	1.4351	96030720	65679360	11657392	24992
2	2.528813	96030720	65679360	12995792	24992
3	3.630723	96030720	65679360	14993608	24992
4	3.045609	96030720	65679360	17650912	24992
5	3.766152	96030720	65679360	20968352	24992
6	4.732238	96030720	65679360	24945296	24992
7	5.50337	96030720	65679360	13115928	24992
8	6.396447	96030720	65679360	18412000	24992
9	6.708667	96030720	65679360	24368608	24992
10	8.175718	96030720	65679360	14525568	24992
11	8.488419	96030720	65679360	21801384	24992
12	9.572964	96030720	65679360	13269192	24992
13	9.968652	96030720	65679360	21864048	24992
14	12.181369	96030720	65679360	14664952	24992
15	11.725824	96030720	65679360	24578928	24992
16	12.316288	96030720	65679360	18687464	24992
17	12.836697	96030720	65679360	13454248	24992
18	13.597274	96030720	65679360	25348792	24992
19	14.807943	96030720	65679360	21437632	24992
20	15.22895	96030720	65679360	18187736	24992
21	16.140015	96030720	65679360	15591544	24992
22	16.728603	96030720	65679360	13656944	24992
23	17.476119	96030720	65679360	12382872	24992
24	18.379988	96030720	65679360	11769272	24992
25	19.011789	96030720	65679360	11816256	24992
26	20.454136	96030720	65679360	12524400	24992
27	21.170832	96030720	65679360	13892536	24992
28	21.479534	96030720	65679360	15926560	24992
29	22.013668	96030720	65679360	18615824	24992
30	23.060807	96030720	65679360	21964744	24992
31	23.65857	96030720	65679360	25974032	24992
32	24.651925	96030720	65679360	14179352	24992
33	25.220195	96030720	65679360	19511576	24992
34	26.366613	96030720	65679360	25510848	24992
35	27.481457	96030720	65679360	15707256	24992
36	27.45632	96030720	65679360	23020520	24992
37	28.675075	96030720	65679360	14538032	24992
38	28.625452	96030720	65679360	23170192	24992
39	30.42345	96030720	65679360	16010480	24992
40	30.208127	96030720	65679360	25965440	24992
41	32.278789	96030720	65679360	20125184	24992
42	31.972427	96030720	65679360	14943528	24992
43	32.311612	96030720	65679360	26877200	24992
44	34.318204	96030720	65679360	23018712	24992
45	34.225038	96030720	65679360	19821784	24992
46	34.771869	96030720	65679360	17280352	24992
47	35.684302	96030720	65679360	15400400	24992
48	36.150761	96030720	65679360	14181400	24992
49	36.922679	96030720	65679360	13623176	24992
50	37.839149	96030720	65679360	13726912	24992
51	38.976161	96030720	65679360	14492568	24992
52	0.817335	96030720	65679360	15746504	24992
53	1.554745	96030720	65679360	17084512	24992
54	2.289333	96030720	65679360	19081992	24992
55	3.032338	96030720	65679360	21738960	24992
56	3.948526	96030720	65679360	25055936	24992
57	4.868881	96030720	65679360	29032384	24992
58	5.598119	96030720	65679360	17199784	24992
59	6.127735	96030720	65679360	22495264	24992
60	6.68564	96030720	65679360	28451136	24992
61	7.588016	96030720	65679360	18606704	24992
62	8.328442	96030720	65679360	25881528	24992
63	9.305257	96030720	65679360	17348376	24992
64	9.646363	96030720	65679360	25942176	24992
65	10.585886	96030720	65679360	18727384	24992
66	11.301329	96030720	65679360	28640144	24992
67	12.263487	96030720	65679360	22746600	24992
68	13.080358	96030720	65679360	17511976	24992
69	13.886736	96030720	65679360	12934416	24992
70	14.443529	96030720	65679360	25486416	24992
71	15.897124	96030720	65679360	22234848	24992
72	16.05829	96030720	65679360	19642568	24992
73	16.805819	96030720	65679360	17704576	24992
74	17.458351	96030720	65679360	16427448	24992
75	18.145976	96030720	65679360	15810904	24992
76	19.084286	96030720	65679360	15854664	24992
77	20.107833	96030720	65679360	16558864	24992
78	20.625901	96030720	65679360	17923496	24992
79	21.425849	96030720	65679360	19948632	24992
80	22.157245	96030720	65679360	22633512	24992
81	22.491655	96030720	65679360	25979784	24992
82	23.439522	96030720	65679360	13516136	24992
83	25.500858	96030720	65679360	18189200	24992
84	25.439484	96030720	65679360	23538328	24992
85	26.060697	96030720	65679360	29567048	24992
86	26.897002	96030720	65679360	19779008	24992
87	27.110732	96030720	65679360	27117416	24992
88	28.817097	96030720	65679360	18678136	24992
89	28.558033	96030720	65679360	27321400	24992
90	29.88784	96030720	65679360	20211064	24992
91	30.413261	96030720	65679360	13734504	24992
92	31.352218	96030720	65679360	24359592	24992
93	32.152913	96030720	65679360	19235040	24992
94	33.073258	96030720	65679360	14739960	24992
95	33.040827	96030720	65679360	27346728	24992
96	34.894114	96030720	65679360	24207528	24992
97	34.936932	96030720	65679360	21700928	24992
98	35.935348	96030720	65679360	19852120	24992
99	36.876516	96030720	65679360	18664760	24992
100	37.389873	96030720	65679360	18139752	24992
101	38.168519	96030720	65679360	18276976	24992
102	0.809336	96030720	65679360	18884584	24992
103	1.540134	96030720	65679360	20222328	24992
104	2.242372	96030720	65679360	22219576	24992
105	3.024402	96030720	65679360	24876136	24992
106	3.92608	96030720	65679360	28192672	24992
107	4.963055	96030720	65679360	15715784	24992
108	5.629522	96030720	65679360	20351064	24992
109	6.106453	96030720	65679360	25645752	24992
110	7.112417	96030720	65679360	15176432	24992
111	7.43085	96030720	65679360	21790888	24992
112	8.324909	96030720	65679360	29064744	24992
113	9.40625	96030720	65679360	20578472	24992
114	9.846318	96030720	65679360	29171128	24992
115	10.903443	96030720	65679360	22004472	24992
116	11.746339	96030720	65679360	15474376	24992
117	12.059619	96030720	65679360	26045256	24992
118	13.135642	96030720	65679360	20841592	24992
119	14.28063	96030720	65679360	16301016	24992
120	14.206613	96030720	65679360	28852312	24992
121	15.400384	96030720	65679360	25636616	24992
122	16.362381	96030720	65679360	23083896	24992
123	17.036842	96030720	65679360	21170568	24992
124	17.68849	96030720	65679360	19918744	24992
125	18.520571	96030720	65679360	19329408	24992
126	19.418357	96030720	65679360	19401544	24992
127	20.790129	96030720	65679360	20135480	24992
128	20.984575	96030720	65679360	21530712	24992
129	22.04354	96030720	65679360	23586576	24992
130	22.997425	96030720	65679360	26304008	24992
131	24.437012	96030720	65679360	29682632	24992
132	24.96325	96030720	65679360	17265768	24992
133	24.301084	96030720	65679360	21939464	24992
134	25.716789	96030720	65679360	27305304	24992
135	26.898071	96030720	65679360	16880344	24992
136	26.819673	96030720	65679360	23542368	24992
137	28.08774	96030720	65679360	30894024	24992
138	29.04725	96030720	65679360	22454528	24992
139	29.484945	96030720	65679360	31097408	24992
140	30.527441	96030720	65679360	23987152	24992
141	31.428444	96030720	65679360	17510864	24992
142	31.781388	96030720	65679360	28142352	24992
143	32.610279	96030720	65679360	23017984	24992
144	33.707957	96030720	65679360	18526344	24992
145	33.642462	96301056	65679360	31133192	24992
146	35.400796	96301056	65679360	27998032	24992
147	35.550847	96301056	65679360	25490248	24992
148	37.199105	96301056	65679360	23643344	24992
149	37.223553	96571392	65679360	22456064	24992
150	38.072802	96571392	65679360	21930576	24992
151	39.189559	96571392	65679360	22067528	24992
152	0.807398	96571392	65679360	22675072	24992
153	1.52947	96571392	65679360	24012816	24992
154	2.232682	96571392	65679360	26009968	24992
155	3.010436	96571392	65679360	28666592	24992
156	3.737654	96571392	65679360	31983064	24992
157	5.485521	96571392	65679360	19506128	24992
158	5.232128	96571392	65679360	24141456	24992
159	5.892488	96571392	65679360	29436208	24992
160	7.578653	96571392	65679360	18966728	24992
161	7.417867	96571392	65679360	25581248	24992
162	8.319801	96571392	65679360	32855104	24992
163	9.972492	96571392	65679360	24368176	24992
164	9.576752	96571392	65679360	32960832	24992
165	11.42118	96571392	65679360	25793552	24992
166	12.388031	96841728	65679360	19263280	24992
167	11.969292	96841728	65679360	29834160	24992
168	14.239545	96841728	65679360	24639656	24992
169	14.439158	96841728	66203648	20099000	24992
170	14.020454	96841728	66203648	32650344	24992
171	15.762268	96841728	66203648	29434584	24992
172	16.439475	96841728	66203648	26881608	24992
173	17.160061	96841728	66203648	24968312	24992
174	18.543091	96841728	66203648	23716808	24992
175	19.125974	96841728	66203648	23126512	24992
176	19.432486	97112064	66203648	23198248	24992
177	20.606682	97112064	66203648	23931496	24992
178	21.256951	97112064	66203648	25325912	24992
179	21.972952	97112064	66203648	27381856	24992
180	22.664707	97112064	66203648	30099256	24992
181	23.556031	97112064	66203648	33477784	24992
182	25.057244	97112064	66203648	21060232	24992
183	25.137409	97112064	66203648	25734072	24992
184	25.711919	97382400	66203648	31099976	24992
185	28.139856	97382400	66203648	20673312	24992
186	27.158128	97382400	66203648	27335280	24992
187	28.952393	97382400	66203648	18239784	24992
188	28.872635	97382400	66203648	26222696	24992
189	30.679707	97382400	66203648	18448384	24992
190	30.50788	97382400	66203648	27752368	24992
191	32.236787	97652736	66203648	21303064	24992
192	31.769531	97652736	66203648	31928264	24992
193	33.817071	97652736	66203648	26801664	24992
194	34.072591	97652736	66203648	22310056	24992
195	34.141161	97652736	66203648	34916920	24992
196	36.068343	97652736	66203648	31746152	24992
197	37.033616	97652736	66203648	29257952	24992
198	37.514242	97652736	66203648	27412840	24992
199	39.458705	97652736	66203648	26233600	24992
200	39.468387	97652736	66203648	25708392	24992
201	40.098094	97652736	66203648	25845576	24992
202	0.810908	97652736	66203648	26453384	24992
203	1.53169	97652736	66203648	27791208	24992
204	2.237457	97652736	66203648	29788360	24992
205	3.017542	97652736	66203648	32444920	24992
206	3.75398	97652736	66203648	35761392	24992
207	5.922077	97652736	66203648	23276200	24992
208	5.403763	97652736	66203648	27911480	24992
209	5.886657	97652736	66203648	33206168	24992
210	8.375488	97652736	66203648	22736520	24992
211	7.38111	97652736	66203648	29350976	24992
212	9.413409	97652736	66203648	20196552	24992
213	9.126298	97652736	66203648	28129816	24992
214	11.141486	97652736	66203648	20287280	24992
215	10.571114	97652736	66203648	29539376	24992
216	12.578322	97652736	66203648	23024136	24992
217	11.82619	97652736	66203648	33595048	24992
218	14.044122	97652736	66203648	28408264	24992
219	14.802464	97652736	66203648	23867608	24992
220	15.481477	97652736	66203648	19970504	24992
221	15.140204	97652736	66203648	33181224	24992
222	16.863828	97652736	66203648	30628144	24992
223	17.801779	97652736	66203648	28738008	24992
224	18.478065	97652736	66203648	27486360	24992
225	19.584943	97652736	66203648	26896064	24992
226	20.083446	97652736	66203648	26967336	24992
227	21.148132	97652736	66203648	27700152	24992
228	21.770216	97652736	66203648	29094472	24992
229	22.470081	97652736	66203648	31156144	24992
230	23.147431	97652736	66203648	33876056	24992
231	25.309275	97652736	66203648	20796528	24992
232	24.724754	97652736	66203648	24806880	24992
233	25.634829	97652736	66203648	29513024	24992
234	26.179624	97652736	66203648	34884984	24992
235	28.392749	97923072	66203648	24465760	24992
236	27.738386	97923072	66203648	31128016	24992
237	30.073611	97923072	66203648	22040136	24992
238	28.951205	97923072	66203648	30023368	24992
239	31.481839	97923072	66203648	22257232	24992
240	30.660378	97923072	66203648	31561520	24992
241	33.065215	97923072	66203648	25120264	24992
242	32.528481	97923072	66203648	35745848	24992
243	34.211311	97923072	66203648	30628112	24992
244	35.490592	97923072	66203648	26137216	24992
245	36.21389	97923072	66203648	22304328	24992
246	35.292794	97923072	66203648	35571832	24992
247	37.363221	97923072	66203648	33104768	24992
248	38.450404	97923072	66203648	31258160	24992
249	38.965736	97923072	66203648	30075320	24992
250	40.38503	97923072	66203648	29550288	24992
251	40.843802	97923072	66203648	29687744	24992
252	0.814294	97923072	66203648	30295520	24992
253	1.541691	97923072	66203648	31633264	24992
254	2.244259	97923072	66203648	33630416	24992
255	3.060461	97923072	66203648	36286976	24992
256	5.867516	97923072	66203648	23141992	24992
257	4.862983	97923072	66203648	27117904	24992
258	5.384287	97923072	66203648	31753184	24992
259	6.096316	97923072	66203648	37047872	24992
260	8.413136	97923072	66203648	26578392	24992
261	7.396191	97923072	66203648	33192848	24992
262	10.017589	97923072	66203648	24041056	24992
263	9.108383	97923072	66203648	31974320	24992
264	11.320714	97923072	66203648	24131832	24992
265	10.749201	97923072	66203648	33383896	24992
266	12.99538	97923072	66203648	26868192	24992
267	11.822246	97923072	66203648	37439168	24992
268	14.514862	97923072	66203648	32252384	24992
269	15.166447	97923072	66203648	27711744	24992
270	16.012978	97923072	66203648	23814192	24992
271	14.908634	97923072	66203648	37024944	24992
272	17.355594	97923072	66203648	34471752	24992
273	18.621323	97923072	66203648	32581504	24992
274	18.819515	97923072	66203648	31329520	24992
275	20.087066	97923072	66203648	30739272	24992
276	20.831592	97923072	66203648	30810832	24992
277	21.50325	97923072	66203648	31543872	24992
278	22.08747	97923072	66203648	32938304	24992
279	23.528987	97923072	66203648	34993960	24992
280	23.687267	97923072	66203648	37710944	24992
281	26.53515	97923072	66203648	24631432	24992
282	25.141363	97923072	66203648	28641816	24992
283	25.790104	97923072	66203648	33347224	24992
284	27.077091	97923072	66203648	38718960	24992
285	29.000672	97923072	66203648	28293296	24992
286	28.322959	97923072	66203648	34955096	24992
287	30.591763	97923072	66203648	25861728	24992
288	29.927337	97923072	66203648	33845024	24992
289	32.374458	97923072	66203648	26082168	24992
290	31.334509	97923072	66203648	35386536	24992
291	34.063877	97923072	66203648	28943856	24992
292	32.830271	97923072	66203648	39568624	24992
293	35.413929	97923072	66203648	34407264	24992
294	36.278111	97923072	66203648	29948904	24992
295	37.344666	97923072	66203648	26117472	24992
296	36.7433	97923072	66203648	39385056	24992
297	39.620387	97923072	66203648	36923800	24992
298	40.346619	97923072	66203648	35081128	24992
299	39.909015	97923072	66203648	33896864	24992
300	40.938016	97923072	66203648	33373208	24992
301	41.61842	97923072	66203648	33510344	24992
302	0.829341	97923072	66203648	34118072	24992
303	1.517848	97923072	66203648	35455816	24992
304	2.296256	97923072	66203648	37452968	24992
305	2.964172	97923072	66203648	40109560	24992
306	5.832908	97923072	66203648	26961600	24992
307	4.475478	97923072	66203648	30937480	24992
308	5.393574	97923072	66203648	35572760	24992
309	8.21646	97923072	66203648	24427488	24992
310	6.87077	97923072	66203648	30382536	24992
311	7.34832	97923072	66203648	36996992	24992
312	10.474849	97923072	66203648	27843352	24992
313	9.710201	97923072	66203648	35786728	24992
314	11.97548	97923072	66203648	27953608	24992
315	10.389358	97923072	66203648	37205672	24992
316	13.6955	97923072	66203648	30688448	24992
317	14.694671	97923072	66203648	24819344	24992
318	12.869885	97923072	66203648	36051520	24992
319	15.785581	97923072	66203648	31509032	24992
320	16.463476	97923072	66203648	27629960	24992
321	15.061709	97923072	66203648	40840664	24992
322	17.834711	97923072	66203648	38270680	24992
323	18.620498	97923072	66203648	36378712	24992
324	19.866609	97923072	66203648	35139880	24992
325	20.735558	97923072	66203648	34548568	24992
326	20.70457	97923072	66203648	34618936	24992
327	21.612996	97923072	66203648	35350800	24992
328	22.65836	97923072	66203648	36743992	24992
329	23.257017	97923072	66203648	38798488	24992
330	26.499079	97923072	66203648	25054936	24992
331	24.9514	97923072	66203648	28404296	24992
332	25.656925	97923072	66203648	32444984	24992
333	27.57131	97923072	66203648	37157728	24992
334	29.295742	97923072	66203648	26074880	24992
335	28.32549	97923072	66203648	32076152	24992
336	28.623523	97923072	66203648	38774992	24992
337	31.664786	97923072	66203648	29679856	24992
338	30.301608	97923072	66203648	37662928	24992
339	33.35459	97923072	66203648	29897560	24992
340	31.463929	97923072	66203648	39201688	24992
341	35.561812	98193408	66203648	32761248	24992
342	36.335381	98193408	66203648	26946216	24992
343	33.844431	98193408	66203648	38231848	24992
344	37.109191	98193408	66203648	33775832	24992
345	37.599606	98193408	66203648	29945728	24992
346	38.704025	98193408	66203648	26774024	24992
347	36.74265	98193408	66203648	40701832	24992
348	40.104465	98193408	66203648	38896216	24992
349	40.566508	98193408	66203648	37710640	24992
350	41.170184	98193408	66203648	37187496	24992
351	41.99606	98193408	66203648	37325784	24992
352	0.817075	98193408	66203648	37933192	24992
353	1.524602	98193408	66203648	39270936	24992
354	2.256128	98193408	66203648	41268088	24992
355	5.480501	98193408	66203648	27453240	24992
356	3.938258	98193408	66203648	30769712	24992
357	4.490184	98193408	66203648	34745592	24992
358	5.254635	98193408	66203648	39380888	24992
359	8.417918	98193408	66203648	28234440	24992
360	6.647944	98193408	66203648	34193936	24992
361	7.350345	98193408	66203648	40808440	24992
362	10.987654	98193408	66203648	31664008	24992
363	9.071891	98193408	66203648	39597272	24992
364	12.132928	98193408	66203648	31767352	24992
365	10.583296	98193408	66203648	41019416	24992
366	14.271917	98193408	66203648	34500928	24992
367	14.448056	98193408	66203648	28631304	24992
368	12.767622	98193408	66203648	39863504	24992
369	16.00562	98193408	66203648	35320376	24992
370	16.751889	98193408	66203648	31440792	24992
371	17.538418	98193408	66203648	28203976	24992
372	15.677493	98193408	66203648	42074216	24992
373	19.023091	98193408	66203648	40181784	24992
374	19.845159	98193408	66203648	38952248	24992
375	20.720189	98193408	66203648	38360200	24992
376	21.183594	98193408	66203648	38429704	24992
377	22.119206	98193408	66203648	39160752	24992
378	23.388022	98193408	66203648	40553368	24992
379	24.06203	98193408	66203648	42607384	24992
380	26.94462	98193408	66203648	28862584	24992
381	25.515293	98193408	66203648	32211848	24992
382	25.771298	98193408	66203648	36252408	24992
383	26.678708	98193408	66203648	40956168	24992
384	30.158808	98193408	66203648	29872952	24992
385	28.133073	98193408	66203648	35874288	24992
386	29.084102	98193408	66203648	42573176	24992
387	32.609112	98193408	66203648	33478072	24992
388	30.605687	98193408	66203648	41460296	24992
389	33.805123	98193408	66203648	33694592	24992
390	32.143689	98193408	66203648	42997904	24992
391	35.37327	98193408	66203648	36557624	24992
392	36.174087	98193408	66203648	30742656	24992
393	34.339742	98193408	66203648	42028336	24992
394	37.8194	98193408	66203648	37572160	24992
395	38.437703	98193408	66203648	33741928	24992
396	39.237556	98193408	66203648	30569904	24992
397	36.826183	98193408	66203648	44499168	24992
398	40.931097	98193408	66203648	42669560	24992
399	41.997752	98193408	66203648	41496024	24992
400	42.704701	98193408	66203648	40972000	24992
401	43.429588	98193408	66203648	41110528	24992
402	0.824948	98193408	66203648	41719872	24992
403	1.520576	98193408	66203648	43057632	24992
404	2.248843	98193408	66203648	45054784	24992
405	5.895376	98193408	66203648	31239328	24992
406	3.763493	98193408	66203648	34555800	24992
407	4.657048	98193408	66203648	38531680	24992
408	5.362255	98193408	66203648	43166960	24992
409	9.036162	98193408	66203648	32024000	24992
410	6.912868	98193408	66203648	37979048	24992
411	7.411076	98193408	66203648	44593504	24992
412	11.296877	98193408	66203648	35443936	24992
413	9.038135	98193408	66203648	43377200	24992
414	12.722225	98193408	66203648	35542624	24992
415	10.524322	98193408	66203648	44794720	24992
416	14.193279	98193408	66203648	38275592	24992
417	15.077311	98193408	66203648	32406016	24992
418	12.745662	98193408	66203648	43638152	24992
419	16.238757	98193408	66203648	39094880	24992
420	17.12876	98193408	66203648	35215216	24992
421	17.979093	98193408	66203648	31977568	24992
422	18.65475	98193408	66203648	29402256	24992
423	16.6632	98193408	66203648	43931776	24992
424	20.402773	98193408	66203648	42701832	24992
425	20.835043	98193408	66203648	42134672	24992
426	22.304359	98193408	66203648	42204288	24992
427	22.391048	98193408	66203648	42935336	24992
428	23.916565	98193408	66203648	44327952	24992
429	26.993392	98193408	66203648	29921256	24992
430	24.70049	98193408	66203648	32609960	24992
431	25.971518	98193408	66203648	35988760	24992
432	26.317219	98463744	66727936	40028032	24992
433	27.662828	98463744	66727936	44731520	24992
434	30.788255	98463744	66727936	33648240	24992
435	28.422554	98463744	66727936	39649640	24992
436	29.629402	98463744	66727936	46348896	24992
437	33.208629	98734080	66727936	37210592	24992
438	30.994295	98734080	66727936	45228096	24992
439	34.546272	98734080	66727936	37458536	24992
440	35.612945	98734080	66727936	30320264	24992
441	33.605962	98734080	67252224	40284712	24992
442	37.222188	99004416	67252224	34505528	24992
443	34.61891	99004416	67252224	45791336	24992
444	38.960958	99004416	67252224	41334536	24992
445	39.719783	99274752	67252224	37504304	24992
446	39.897404	99274752	67252224	34331960	24992
447	40.949099	99274752	67252224	31821864	24992
448	38.417776	99274752	67252224	46410168	24992
449	42.393656	99545088	67252224	45266528	24992
450	43.541331	99545088	67252224	44742648	24992
451	44.029622	99545088	67252224	44881064	24992
452	0.815958	99545088	67252224	45490408	24992
453	1.520918	99545088	67252224	46828152	24992
454	5.531501	99545088	67252224	32348024	24992
455	3.039183	99545088	67252224	35004584	24992
456	3.724104	99545088	67252224	38321056	24992
457	4.72331	99545088	67252224	42296936	24992
458	5.374755	99545088	67252224	46932216	24992
459	9.612911	99545088	67252224	35789352	24992
460	6.883729	99545088	67252224	41744416	24992
461	10.889169	99545088	67252224	31929416	24992
462	8.139269	99545088	67252224	39203272	24992
463	8.81728	99545088	67252224	47136536	24992
464	13.422692	99545088	67252224	39301320	24992
465	13.656837	99545088	67252224	32119824	24992
466	11.249758	99545088	67252224	42031296	24992
467	15.312517	99545088	67252224	36161464	24992
468	12.497106	99545088	67252224	47393600	24992
469	16.765637	99545088	67252224	42867208	24992
470	17.730143	99545088	67252224	38987112	24992
471	18.366079	99545088	67252224	35749352	24992
472	19.581258	99545088	67776512	33174080	24992
473	16.638291	99545088	67776512	47703592	24992
474	20.798033	99545088	68300800	46472960	24992
475	21.625594	99545088	68300800	45905624	24992
476	23.343774	99545088	68300800	45974904	24992
477	23.067266	99545088	68300800	46705808	24992
478	23.747903	99815424	68300800	48098184	24992
479	27.613109	99815424	68300800	33680632	24992
480	25.383343	99815424	68300800	36376848	24992
481	26.058338	99815424	68300800	39755800	24992
482	26.925117	99815424	68300800	43795064	24992
483	27.417033	100085760	68300800	48498344	24992
484	32.036414	100085760	68300800	37381576	24992
485	28.778866	100085760	68300800	43407152	24992
486	33.651486	100085760	68300800	33650704	24992
487	30.300091	100085760	68300800	40973288	24992
488	34.683764	100356096	68825088	32545344	24992
489	31.762071	100356096	68825088	41188688	24992
490	36.522576	100356096	68825088	34084256	24992
491	33.503103	100626432	68825088	44048784	24992
492	37.936104	100626432	68825088	38268416	24992
493	38.953464	100626432	68825088	33113360	24992
494	35.538127	100626432	68825088	45059408	24992
495	39.563016	100896768	68825088	41265928	24992
496	40.376623	100896768	68825088	38097312	24992
497	40.917956	100896768	69349376	35586912	24992
498	41.764572	101167104	69349376	33738288	24992
499	39.311832	101167104	69873664	48987200	24992
500	43.498236	101167104	69873664	48506160	24992
501	44.079885	101437440	69873664	48644688	24992
502	0.813062	101437440	69873664	49254320	24992
503	5.102105	101437440	69873664	34109920	24992
504	2.254746	101437440	69873664	36107072	24992
505	3.015084	101437440	69873664	38763632	24992
506	3.734205	101437440	69873664	42080104	24992
507	4.519959	101437440	69873664	46055984	24992
508	9.627153	101437440	69873664	34243792	24992
509	5.995769	101437440	69873664	39538480	24992
510	6.913118	101437440	69873664	45493528	24992
511	11.264052	101437440	69873664	35682976	24992
512	8.244943	101437440	69873664	42956864	24992
513	12.846509	101707776	69873664	34458256	24992
514	9.881974	101707776	69873664	43050912	24992
515	14.171423	101707776	69873664	35869408	24992
516	11.543991	101707776	69873664	45780880	24992
517	15.871898	101707776	69873664	39926224	24992
518	16.225011	101707776	69873664	34721064	24992
519	13.436142	101707776	69873664	46612800	24992
520	18.134687	101707776	69873664	42732728	24992
521	18.705965	101707776	69873664	39515744	24992
522	19.741977	101978112	69873664	36940032	24992
523	20.747273	101978112	69873664	35026344	24992
524	17.119356	101978112	69873664	50215272	24992
525	21.636636	101978112	70397952	49644240	24992
526	22.362056	101978112	70397952	49738816	24992
527	23.09177	101978112	70397952	50472072	24992
528	27.555972	102248448	70397952	35389008	24992
529	25.225912	102248448	70397952	37427560	24992
530	26.1914	102248448	70397952	40144784	24992
531	28.504642	102264832	70397952	43522568	24992
532	27.478569	102264832	70397952	47561808	24992
533	31.762992	102531072	70922240	35809232	24992
534	28.456551	102531072	70922240	41148392	24992
535	29.422139	102531072	70922240	47182384	24992
536	33.554007	102531072	70922240	37424824	24992
537	30.803738	102531072	70922240	44747208	24992
538	35.375557	102801408	70922240	36321224	24992
539	31.913649	102801408	70922240	44964872	24992
540	37.022216	102801408	70922240	37859880	24992
541	33.784317	102801408	70922240	47824568	24992
542	38.668491	103071744	70922240	42043224	24992
543	39.294573	103071744	71446528	36889752	24992
544	36.145521	103071744	71446528	48835880	24992
545	41.020823	103342080	71970816	45042336	24992
546	41.308219	103342080	71970816	41874008	24992
547	42.039983	103342080	71970816	39363192	24992
548	43.246716	103612416	71970816	37514600	24992
549	43.9586	103612416	71970816	36327616	24992
550	45.155231	103612416	71970816	35794328	24992
551	45.024872	103882752	71970816	35926616	24992
552	4.98255	103882752	71970816	36535424	24992
553	1.584338	103882752	71970816	37873168	24992
554	2.301032	103882752	71970816	39870320	24992
555	3.118075	103882752	71970816	42526880	24992
556	3.992348	103882752	71970816	45850152	24992
557	4.625481	103882752	71970816	49826032	24992
558	11.226036	103882752	71970816	38017192	24992
559	10.865765	103882752	71970816	43311912	24992
560	10.955627	103882752	71970816	16571176	24992
561	7.666287	103882752	71970816	23187312	24992
562	8.362603	103882752	71970816	13983632	24992
563	9.153978	103882752	71970816	21917936	24992
564	9.88105	103882752	71970816	14042000	24992
565	10.596549	103882752	71970816	23295264	24992
566	11.444359	103882752	71970816	16740984	24992
567	11.830437	103882752	71970816	27313240	24992
568	13.061145	103882752	71970816	22081944	24992
569	14.026906	103882752	71970816	17507352	24992
570	14.844678	103882752	71970816	13588096	24992
571	15.291569	103882752	71970816	26800480	24992
572	16.13854	103882752	71970816	24208064	24992
573	16.746166	103882752	71970816	22276632	24992
574	18.757871	103882752	71970816	21013552	24992
575	18.082522	103882752	71970816	20397104	24992
576	19.102514	103882752	71970816	20441024	24992
577	19.884236	103882752	71970816	21145480	24992
578	20.54922	103882752	71970816	22510704	24992
579	21.406007	103882752	71970816	24535648	24992
580	22.168519	103882752	71970816	27220976	24992
581	23.480145	103882752	71970816	14096744	24992
582	23.58903	103882752	71970816	18097960	24992
583	24.581192	103882752	71970816	22768544	24992
584	24.746176	103882752	71970816	28103272	24992
585	25.887312	103882752	71970816	17606808	24992
586	27.106848	103882752	71970816	24260968	24992
587	28.31187	103882752	71970816	15117368	24992
588	27.99941	103882752	71970816	23086344	24992
589	28.966366	103882752	71970816	15261880	24992
590	29.394567	103882752	71970816	24551120	24992
591	30.576034	103882752	71970816	18046360	24992
592	31.391242	103882752	71970816	12200056	24992
593	31.593668	103882752	71970816	23469744	24992
594	32.603262	104153088	71970816	18947352	24992
595	33.436598	104153088	71970816	15082040	24992
596	33.987797	104153088	71970816	28332328	24992
597	34.731739	104153088	71970816	25777864	24992
598	36.192036	104153088	71970816	23898352	24992
599	36.938842	104153088	71970816	22677600	24992
600	36.814077	104153088	71970816	22117360	24992
601	38.035383	104153088	71970816	22216696	24992
602	0.846216	104153088	71970816	22808912	24992
603	1.551676	104153088	71970816	24146656	24992
604	2.300479	104153088	71970816	26143808	24992
605	3.028438	104153088	71970816	28800368	24992
606	4.190758	104153088	71970816	15640936	24992
607	4.7146	104153088	71970816	19616816	24992
608	5.373662	104153088	71970816	24252096	24992
609	6.160582	104153088	71970816	13078776	24992
610	6.84425	104153088	71970816	19033824	24992
611	7.374326	104153088	71970816	25648312	24992
612	8.454954	104153088	71970816	16455808	24992
613	9.178346	104153088	71970816	24389072	24992
614	10.081712	104153088	71970816	16515888	24992
615	10.32504	104153088	71970816	25767952	24992
616	11.634389	104153088	71970816	19212760	24992
617	12.317943	104153088	71970816	13313992	24992
618	12.786981	104153088	71970816	24546136	24992
619	13.567791	104153088	71970816	19970192	24992
620	14.314175	104153088	71970816	16055760	24992
621	14.786853	104153088	71970816	29266464	24992
622	16.050894	104153088	71970816	26663312	24992
623	16.500125	104153088	71970816	24730136	24992
624	17.2624	104153088	71970816	23453040	24992
625	18.682751	104153088	71970816	22835704	24992
626	19.89936	104153088	71970816	22877560	24992
627	20.637007	104153088	71970816	23583192	24992
628	20.715563	104153088	71970816	24946000	24992
629	21.263347	104153088	71970816	26968576	24992
630	22.367589	104153088	71970816	13181360	24992
631	22.348666	104153088	71970816	16519728	24992
632	23.897215	104153088	71970816	20525072	24992
633	24.489266	104153088	71970816	25192512	24992
634	25.107394	104153088	71970816	14057904	24992
635	25.906378	104153088	71970816	20046136	24992
636	26.563201	104153088	71970816	26703016	24992
637	28.581713	104153088	71970816	17560576	24992
638	28.018343	104153088	71970816	25544016	24992
639	28.986698	104153088	71970816	17771304	24992
640	29.684411	104153088	71970816	27075560	24992
641	30.670835	104153088	71970816	20627712	24992
642	31.395216	104153088	71970816	14812768	24992
643	31.640272	104153088	71970816	26098432	24992
644	33.046888	104153088	71970816	21634496	24992
645	33.445408	104153088	71970816	17804512	24992
646	34.282179	104153088	71970816	14632928	24992
647	34.84794	104153088	71970816	28560688	24992
648	36.069673	104153088	71970816	26746352	24992
649	36.852419	104153088	71970816	25561008	24992
650	37.597017	104153088	71970816	25037632	24992
651	37.909587	104153088	71970816	25176120	24992
652	0.812737	104153088	71970816	25783312	24992
653	1.52054	104153088	71970816	27121040	24992
654	2.242587	104153088	71970816	29118176	24992
655	3.596691	104153088	71970816	15305696	24992
656	3.776292	104153088	71970816	18622152	24992
657	4.459825	104153088	71970816	22598032	24992
658	5.374825	104153088	71970816	27233296	24992
659	6.584615	104153088	71970816	16091808	24992
660	6.635185	104153088	71970816	22046840	24992
661	7.429512	104153088	71970816	28661280	24992
662	8.859367	104153088	71970816	19516912	24992
663	9.059316	104153088	71970816	27450160	24992
664	10.035476	104153088	71970816	19619016	24992
665	10.557737	104153088	71970816	28871064	24992
666	11.772838	104153088	71970816	22355120	24992
667	12.681457	104153088	71970816	16487528	24992
668	12.499655	104153088	71970816	27719744	24992
669	14.192388	104153088	71970816	23178688	24992
670	14.498168	104153088	71970816	19301520	24992
671	15.410098	104153088	71970816	16065960	24992
672	15.681853	104153088	71970816	29936056	24992
673	17.122576	104153088	71970816	28045440	24992
674	17.835658	104153088	71970816	26817616	24992
675	18.799485	104153088	71970816	26226952	24992
676	19.181852	104153088	71970816	26297760	24992
677	19.818074	104153088	71970816	27030096	24992
678	20.919849	104153088	71970816	28423984	24992
679	21.997575	104153088	71970816	30479288	24992
680	22.775062	104153088	71970816	16737128	24992
681	23.171242	104153088	71970816	20087016	24992
682	23.757336	104153088	71970816	24128672	24992
683	24.965374	104153088	71970816	28833496	24992
684	26.264334	104153088	71970816	17744664	24992
685	26.232832	104153088	71970816	23746032	24992
686	26.760459	104153088	71970816	30438080	24992
687	28.589044	104153088	71970816	21336080	24992
688	28.62552	104153088	71970816	29320568	24992
689	29.66588	104153088	71970816	21547680	24992
690	29.897827	104153088	71970816	30851168	24992
691	31.364804	104153088	71970816	24403576	24992
692	32.081007	104153088	71970816	18588744	24992
693	32.043659	104153088	71970816	29874520	24992
694	34.137148	104153088	71970816	25410344	24992
695	34.555016	104153088	71970816	21580632	24992
696	35.155231	104153088	71970816	18408744	24992
697	35.516394	104153088	71970816	32336616	24992
698	37.294727	104153088	71970816	30518696	24992
699	37.18808	104153088	71970816	29330368	24992
700	38.20592	104153088	71970816	28806560	24992
701	38.582439	104153088	71970816	28945192	24992
702	0.818958	104153088	71970816	29554336	24992
703	1.533034	104153088	71970816	30892064	24992
704	2.234608	104153088	71970816	32889200	24992
705	3.827586	104153088	71970816	19076144	24992
706	3.830527	104153088	71970816	22392600	24992
707	4.484129	104153088	71970816	26368464	24992
708	5.204004	104153088	71970816	31003728	24992
709	6.706352	104153088	71970816	19865760	24992
710	6.631081	104153088	71970816	25820792	24992
711	7.355688	104153088	71970816	32435264	24992
712	8.98848	104153088	71970816	23290896	24992
713	8.827129	104153088	71970816	31224144	24992
714	10.732308	104153088	71970816	23392776	24992
715	10.479132	104153088	71970816	32644824	24992
716	11.930354	104153088	71970816	26128880	24992
717	12.723467	104153088	71970816	20261176	24992
718	12.678592	104153088	71970816	31493296	24992
719	14.313648	104153088	71970816	26951952	24992
720	14.976377	104153088	71970816	23074240	24992
721	15.813698	104153088	71970816	19838216	24992
722	15.660473	104153088	71970816	33708376	24992
723	17.544402	104153088	71970816	31796656	24992
724	18.443684	104153088	71970816	30568624	24992
725	19.510224	104153088	71970816	30004784	24992
726	19.731512	104153088	71970816	30075608	24992
727	20.787103	104153088	71970816	30808024	24992
728	21.164082	104153088	71970816	32201864	24992
729	23.464878	104153088	71970816	17797248	24992
730	22.686465	104153088	71970816	20486624	24992
731	23.646642	104153088	71970816	23866744	24992
732	24.247521	104153088	71970816	27907240	24992
733	25.397851	104153088	71970816	32612048	24992
734	26.66855	104153088	71970816	21523072	24992
735	26.824485	104153088	71970816	27524584	24992
736	27.054183	104153088	71970816	34216776	24992
737	29.334252	104153088	71970816	25096792	24992
738	28.71616	104153088	71970816	33091352	24992
739	30.573847	104153088	71970816	25314624	24992
740	30.554335	104153088	71970816	34618784	24992
741	32.021018	104153088	71970816	28129256	24992
742	32.859642	104153088	71970816	22335192	24992
743	33.017899	104153088	71970816	33620952	24992
744	34.096366	104153088	71970816	29156840	24992
745	36.185824	104153088	71970816	25326824	24992
746	36.375294	104153088	71970816	22154696	24992
747	36.978995	104153088	71970816	19644720	24992
748	36.502899	104153088	71970816	34233072	24992
749	38.160186	104153088	71970816	33080648	24992
750	39.638176	104153088	71970816	32565120	24992
751	39.710301	104153088	71970816	32704112	24992
752	0.812496	104153088	71970816	33313648	24992
753	1.518216	104153088	71970816	34651376	24992
754	3.351885	104153088	71970816	20173120	24992
755	3.208048	104153088	71970816	22829664	24992
756	4.147195	104153088	71970816	26146120	24992
757	4.632604	104153088	71970816	30121984	24992
758	5.574712	104153088	71970816	34757248	24992
759	7.070147	104153088	71970816	23619336	24992
760	6.843455	104153088	71970816	29574368	24992
761	8.564539	104153088	71970816	19763912	24992
762	8.25619	104153088	71970816	27037760	24992
763	9.181793	104153088	71970816	34971104	24992
764	11.001309	104153088	71970816	27139744	24992
765	11.496532	104153088	71970816	19961048	24992
766	11.324272	104153088	71970816	29872496	24992
767	13.218221	104153088	71970816	24004800	24992
768	12.780921	104153088	71970816	35236952	24992
769	14.889779	104153088	71970816	30713152	24992
770	15.530723	104153088	71970816	26835040	24992
771	16.23797	104153088	71970816	23598568	24992
772	16.8863	104153088	71970816	21024624	24992
773	16.436098	104153088	71970816	35554160	24992
774	18.527532	104153088	71970816	34325584	24992
775	19.175866	104153088	71970816	33760152	24992
776	20.577967	104153088	71970816	33830720	24992
777	20.610073	104153088	71970816	34562848	24992
778	21.796535	104153088	71970816	35956528	24992
779	23.745888	104153088	71970816	21551048	24992
780	23.051697	104153088	71970816	24240424	24992
781	24.154611	104153088	71970816	27620560	24992
782	24.766234	104153088	71970816	31661024	24992
783	25.1902	104153088	71970816	36365576	24992
784	27.489627	104153088	71970816	25268264	24992
785	26.941748	104153088	71970816	31278808	24992
786	29.050197	104153088	71970816	21524264	24992
787	28.704978	104153088	71970816	28846920	24992
788	29.142649	104153088	71970816	36865896	24992
789	31.380097	104153088	71970816	29053024	24992
790	31.940571	104153088	71970816	21946472	24992
791	31.960688	104153088	71970816	31911384	24992
792	33.24098	104153088	71970816	26131800	24992
793	34.661283	104153088	71970816	20977336	24992
794	34.274993	104153088	71970816	32923720	24992
795	35.738407	104153088	71970816	29131248	24992
796	36.653777	104153088	71970816	25963416	24992
797	37.391481	104153088	71970816	23454152	24992
798	38.435637	104153088	71970816	21606104	24992
799	37.523586	104153088	71970816	36854824	24992
800	39.390615	104153088	71970816	36374696	24992
801	40.676381	104153088	71970816	36514056	24992
802	0.814637	104153088	71970816	37123768	24992
803	2.973943	104153088	71970816	21980464	24992
804	2.474907	104153088	71970816	23977592	24992
805	2.969061	104153088	71970816	26634136	24992
806	3.709055	104153088	71970816	29950592	24992
807	4.491638	104153088	71970816	33926456	24992
808	6.679173	104153088	71970816	22118648	24992
809	6.118491	104153088	71970816	27413336	24992
810	6.612851	104153088	71970816	33368368	24992
811	9.249337	104153088	71970816	23563040	24992
812	8.222278	104153088	71970816	30836880	24992
813	10.963517	104153088	71970816	22341624	24992
814	9.597525	104153088	71970816	30934264	24992
815	12.212439	104153088	71970816	23755416	24992
816	11.232815	104153088	71970816	33666904	24992
817	13.550396	104153088	71970816	27814824	24992
818	14.320849	104153088	71970816	22611600	24992
819	13.568392	104153088	71970816	34503128	24992
820	16.058562	104153088	71970816	30624952	24992
821	16.855229	104153088	71970816	27409824	24992
822	17.551695	104153088	71970816	24835400	24992
823	17.999817	104153088	71970816	22922936	24992
824	16.867992	104153088	71970816	38111976	24992
825	19.745411	104153088	71970816	37545864	24992
826	19.955878	104153088	71970816	37643080	24992
827	21.31267	104153088	71970816	38375256	24992
828	23.383592	104153088	71970816	23304776	24992
829	22.866847	104153088	71970816	25333208	24992
830	23.192753	104153088	71970816	28051704	24992
831	24.009406	104153088	71970816	31431160	24992
832	25.014027	104153088	71970816	35471720	24992
833	27.042817	104153088	71970816	23720888	24992
834	27.191533	104153088	71970816	29060144	24992
835	26.849718	104153088	71970816	35094584	24992
836	29.446053	104153088	71970816	25337920	24992
837	29.04963	104153088	71970816	32660720	24992
838	31.341731	104153088	71970816	24235616	24992
839	30.024644	104153088	71970816	32879328	24992
840	32.713673	104153088	71970816	25776048	24992
841	31.815609	104153088	71970816	35740896	24992
842	34.183186	104153088	71970816	29960464	24992
843	34.95351	104153088	71970816	24807728	24992
844	33.806902	104153088	71970816	36754400	24992
845	36.046373	104153088	71970816	32961800	24992
846	37.37535	104153088	71970816	29793952	24992
847	37.826223	104153088	71970816	27283744	24992
848	38.84987	104153088	71970816	25436096	24992
849	40.666692	104153088	71970816	24262472	24992
850	39.16923	104153088	71970816	40201280	24992
851	41.171216	104153088	71970816	40336328	24992
852	2.671924	104153088	71970816	24497544	24992
853	1.547612	104153088	71970816	25835280	24992
854	2.243784	104153088	71970816	27832416	24992
855	3.203698	104153088	71970816	30488960	24992
856	3.939579	104153088	71970816	33805416	24992
857	4.480871	104153088	71970816	37781376	24992
858	7.262088	104153088	71970816	25965704	24992
859	5.894122	104153088	71970816	31260376	24992
860	6.841798	104153088	71970816	37215424	24992
861	9.29709	104153088	71970816	27410208	24992
862	8.210761	104153088	71970816	34684048	24992
863	10.958926	104153088	71970816	26186096	24992
864	9.775473	104153088	71970816	34778800	24992
865	12.237267	104153088	71970816	27597808	24992
866	11.594783	104153088	71970816	37509264	24992
867	13.894838	104153088	71970816	31655232	24992
868	14.675465	104153088	71970816	26450552	24992
869	13.754876	104153088	71970816	38343056	24992
870	16.261158	104153088	71970816	34463240	24992
871	16.875866	104153088	71970816	31246704	24992
872	17.59042	104153088	71970816	28670832	24992
873	18.456738	104153088	71970816	26757400	24992
874	19.128263	104153088	71970816	25505520	24992
875	20.147476	104153088	71970816	24915256	24992
876	20.783332	104153088	71970816	24986512	24992
877	21.246851	104153088	71970816	25719288	24992
878	22.23952	104153088	71970816	27113536	24992
879	23.312977	104153088	71970816	29169376	24992
880	24.10548	104153088	71970816	31886736	24992
881	24.780276	104153088	71970816	35264744	24992
882	25.287361	104153088	71970816	39304112	24992
883	28.07337	104153088	71970816	27551744	24992
884	26.744356	104153088	71970816	32890904	24992
885	27.7241	104153088	71970816	38925104	24992
886	31.296779	104153088	71970816	29176752	24992
887	29.311171	104153088	71970816	36499248	24992
888	32.091365	104153088	71970816	28071968	24992
889	30.72509	104153088	71970816	36715448	24992
890	33.591251	104153088	71970816	29611568	24992
891	31.806025	104153088	71970816	39576152	24992
892	35.075448	104153088	71970816	33796512	24992
893	35.655864	104153088	71970816	28643296	24992
894	34.556909	104153088	71970816	40589488	24992
895	36.852436	104153088	71970816	36795928	24992
896	37.728677	104153088	71970816	33627328	24992
897	38.652218	104153088	71970816	31116640	24992
898	39.189262	104153088	71970816	29267792	24992
899	40.6715	104153088	71970816	28080792	24992
900	41.069594	104153088	71970816	27555344	24992
901	41.590007	104153088	71970816	27692176	24992
902	0.926423	104153088	71970816	28300688	24992
903	1.535968	104153088	71970816	29638416	24992
904	2.23451	104153088	71970816	31635552	24992
905	3.016792	104153088	71970816	34292144	24992
906	3.74497	104153088	71970816	37608600	24992
907	4.475445	104153088	71970816	41584464	24992
908	7.89785	104153088	71970816	29772512	24992
909	5.915568	104153088	71970816	35067184	24992
910	6.626819	104153088	71970816	41022360	24992
911	9.654942	104153088	71970816	31218864	24992
912	8.148122	104153088	71970816	38492704	24992
913	11.155011	104153088	71970816	29993632	24992
914	9.613873	104153088	71970816	38586336	24992
915	12.692254	104153088	71970816	31404432	24992
916	11.148856	104153088	71970816	41315888	24992
917	14.307561	104153088	71970816	35461072	24992
918	15.088579	104153088	71970816	30255864	24992
919	13.469605	104153088	71970816	42147408	24992
920	16.516659	104153088	71970816	38267208	24992
921	17.241225	104153088	71970816	35049696	24992
922	17.9954	104153088	71970816	32473472	24992
923	18.668831	104153088	71970816	30559336	24992
924	19.435244	104153088	71970816	29307072	24992
925	20.504322	104153088	71970816	28716368	24992
926	20.920579	104153088	71970816	28787264	24992
927	22.075968	104153088	71970816	29519656	24992
928	22.580918	104153088	71970816	30913600	24992
929	23.035585	104153088	71970816	32969104	24992
930	24.22234	104153088	71970816	35685280	24992
931	24.432569	104153088	71970816	39062920	24992
932	25.080957	104153088	71970816	43101632	24992
933	28.345367	104153088	71970816	31348032	24992
934	27.206938	104153088	71970816	36687224	24992
935	28.213623	104153088	71970816	42721296	24992
936	31.091146	104153088	71970816	32963608	24992
937	29.509626	104153088	71970816	40285672	24992
938	32.467065	104153088	71970816	31857384	24992
939	30.819896	104153088	71970816	40500952	24992
940	33.940535	104153088	71970816	33397976	24992
941	32.127528	104153088	71970816	43362152	24992
942	35.329277	104153088	71970816	37583704	24992
943	36.136156	104153088	71970816	32430680	24992
944	34.304794	104153088	71970816	44376904	24992
945	37.601262	104153088	71970816	40548384	24992
946	38.295449	104153088	71970816	37399496	24992
947	38.990674	104153088	71970816	34892728	24992
948	39.946551	104153088	71970816	33043576	24992
949	41.104706	104153088	71970816	31856752	24992
950	41.641189	104153088	71970816	31331336	24992
951	42.664649	104153088	71970816	31468312	24992
952	0.8108	104153088	71970816	32076216	24992
953	1.525541	104153088	71970816	33413944	24992
954	2.239914	104153088	71970816	35411096	24992
955	3.010228	104153088	71970816	38067640	24992
956	3.925139	104153088	71970816	41384144	24992
957	7.174215	104153088	71970816	28903568	24992
958	5.375264	104153088	71970816	33538824	24992
959	5.871502	104153088	71970816	38833496	24992
960	6.812057	104153088	71970816	44788528	24992
961	10.101874	104153088	71970816	34984120	24992
962	8.250984	104153088	71970816	42257976	24992
963	11.685603	104153088	71970816	33767944	24992
964	9.860536	104153088	71970816	42360584	24992
965	12.900167	104153088	71970816	35178520	24992
966	11.249798	104153088	71970816	45089976	24992
967	14.592994	104153088	71970816	39234408	24992
968	15.629831	104153088	71970816	34029248	24992
969	16.200612	104153088	71970816	29469024	24992
970	14.305682	104153088	71970816	42020336	24992
971	17.856929	104153088	71970816	38802872	24992
972	18.101683	104153088	71970816	36248408	24992
973	19.243422	104153088	71970816	34333744	24992
974	19.861476	104153088	71970816	33081640	24992
975	20.742468	104153088	71970816	32491032	24992
976	21.664576	104153088	71970816	32561864	24992
977	22.038436	104153088	71970816	33295072	24992
978	23.084619	104153088	71970816	34689048	24992
979	23.791025	104153088	71970816	36744088	24992
980	24.572037	104153088	71970816	39460328	24992
981	24.95389	104153088	71970816	42837984	24992
982	28.605782	104153088	71970816	30419280	24992
983	26.688593	104153088	71970816	35092464	24992
984	27.368877	104153088	71970816	40464344	24992
985	31.296882	104153088	71970816	30046544	24992
986	29.046115	104153088	71970816	36708368	24992
987	29.820478	104153088	71970816	44065080	24992
988	33.744487	104153088	71970816	35632656	24992
989	31.32515	104153088	71970816	44275872	24992
990	35.069778	104153088	71970816	37172848	24992
991	35.214036	104153088	71970816	30696168	24992
992	33.285138	104153088	71970816	41321192	24992
993	36.919165	104153088	71970816	36204256	24992
994	37.822597	104153088	71970816	31708512	24992
995	36.739125	104153088	71970816	44319976	24992
996	39.37716	104153088	71970816	41189368	24992
997	40.117389	104153088	71970816	38682392	24992
998	40.991462	104153088	71970816	36833320	24992
999	41.554163	104153088	71970816	35645744	24992
1000	42.320597	104153088	71970816	35120472	24992
