x	Duration	RSS	HeapTotal	HeapUsed	External
0	NA	97329152	66727936	10981600	24992
1	1.751554	97329152	66727936	11661712	24992
2	3.104923	97329152	66727936	13000112	24992
3	3.93467	97329152	66727936	14997928	24992
4	3.017937	97329152	66727936	17655232	24992
5	3.73672	97329152	66727936	20972672	24992
6	4.714292	97329152	66727936	24949616	24992
7	5.535937	97329152	66727936	13120248	24992
8	6.206577	97329152	66727936	18416320	24992
9	6.697693	97329152	66727936	24372928	24992
10	7.900199	97329152	66727936	14529888	24992
11	8.130628	97329152	66727936	21805704	24992
12	9.076897	97329152	66727936	13273512	24992
13	9.821473	97329152	66727936	21868368	24992
14	12.083865	97329152	66727936	14669040	24992
15	11.231284	97329152	66727936	24583016	24992
16	12.005133	97329152	66727936	18691552	24992
17	12.91299	97329152	66727936	13458320	24992
18	13.429618	97329152	66727936	25352928	24992
19	14.339927	97329152	66727936	21441784	24992
20	15.019248	97329152	66727936	18191824	24992
21	15.877613	97329152	66727936	15595616	24992
22	16.675229	97329152	66727936	13661016	24992
23	18.036689	97329152	66727936	12392088	24992
24	18.052389	97329152	66727936	11778488	24992
25	18.853248	97329152	66727936	11825504	24992
26	19.861828	97329152	66727936	12533952	24992
27	20.372177	97329152	66727936	13902088	24992
28	21.414789	97329152	66727936	15930904	24992
29	23.174807	97329152	66727936	18628232	24992
30	22.663343	97329152	66727936	21978792	24992
31	23.517013	97329152	66727936	25988064	24992
32	24.51072	97329152	66727936	14193384	24992
33	25.297643	97329152	66727936	19527816	24992
34	26.224911	97329152	66727936	25530672	24992
35	26.685593	97329152	66727936	15720496	24992
36	26.949781	97329152	66727936	23032200	24992
37	28.519436	97329152	66727936	14549776	24992
38	28.687417	97329152	66727936	23181888	24992
39	30.38627	97329152	66727936	16022128	24992
40	30.026463	97329152	66727936	25974944	24992
41	31.228747	97329152	66727936	20134544	24992
42	31.593117	97329152	66727936	14952936	24992
43	32.787742	97329152	66727936	26886432	24992
44	33.140334	97329152	66727936	23028024	24992
45	34.625103	97329152	66727936	19831112	24992
46	34.572301	97329152	66727936	17289712	24992
47	35.312922	97329152	66727936	15409480	24992
48	35.822343	97329152	66727936	14190440	24992
49	37.023191	97329152	66727936	13632328	24992
50	38.781375	97329152	66727936	13735952	24992
51	38.24023	97329152	66727936	14500856	24992
52	0.812766	97329152	66727936	15754712	24992
53	1.516037	97329152	66727936	17092736	24992
54	2.231051	97329152	66727936	19090216	24992
55	2.959729	97329152	66727936	21747184	24992
56	3.912894	97329152	66727936	25064160	24992
57	4.619268	97329152	66727936	29040608	24992
58	5.825366	97329152	66727936	17208008	24992
59	6.089776	97329152	66727936	22503456	24992
60	6.854511	97329152	66727936	28459328	24992
61	7.570676	97329152	66727936	18614896	24992
62	8.110503	97329152	66727936	25889720	24992
63	9.327391	97329152	66727936	17356568	24992
64	9.75694	97329152	66727936	25950400	24992
65	10.481089	97329152	66727936	18735624	24992
66	11.020008	97329152	66727936	28648400	24992
67	12.166489	97329152	66727936	22754856	24992
68	13.043921	97329152	66727936	17520232	24992
69	13.866823	97329152	66727936	12942672	24992
70	14.301882	97329152	66727936	25494672	24992
71	15.146415	97329152	66727936	22241672	24992
72	16.217499	97329152	66727936	19650824	24992
73	16.385424	97329152	66727936	17712432	24992
74	17.331294	97329152	66727936	16435304	24992
75	18.146304	97329152	66727936	15818632	24992
76	18.766719	97329152	66727936	15862408	24992
77	19.479536	97329152	66727936	16566576	24992
78	20.646494	97329152	66727936	17931192	24992
79	20.812663	97329152	66727936	19956296	24992
80	21.832826	97329152	66727936	22641208	24992
81	22.874836	97329152	66727936	25987736	24992
82	23.641116	97329152	66727936	13524368	24992
83	24.456185	97329152	66727936	18189040	24992
84	25.806548	97329152	66727936	23533304	24992
85	25.976055	97329152	66727936	29541232	24992
86	26.613648	97329152	66727936	19754248	24992
87	27.265785	97329152	66727936	27091808	24992
88	28.754824	97329152	66727936	18652064	24992
89	28.499197	97329152	66727936	27295504	24992
90	29.939966	97329152	66727936	20184768	24992
91	30.618405	97329152	66727936	13707824	24992
92	31.299531	97329152	66727936	24332832	24992
93	31.843765	97329152	66727936	19207752	24992
94	32.813637	97329152	66727936	14712288	24992
95	33.037404	97329152	66727936	27318848	24992
96	34.418923	97329152	66727936	24179104	24992
97	34.907601	97329152	66727936	21672008	24992
98	35.796254	97329152	66727936	19822832	24992
99	36.575468	97329152	66727936	18635200	24992
100	37.430548	97329152	66727936	18109952	24992
101	37.915939	97329152	66727936	18247144	24992
102	0.820919	97329152	66727936	18854768	24992
103	1.551578	97329152	66727936	20192512	24992
104	2.271948	97329152	66727936	22189696	24992
105	3.036175	97329152	66727936	24846256	24992
106	3.732895	97329152	66727936	28162760	24992
107	5.297972	97329152	66727936	15684992	24992
108	5.391162	97329152	66727936	20320272	24992
109	5.844712	97329152	66727936	25614960	24992
110	7.300174	97329152	66727936	15144224	24992
111	7.32168	97329152	66727936	21758736	24992
112	8.024896	97329152	66727936	29032640	24992
113	9.464825	97329152	66727936	20545568	24992
114	9.706208	97329152	66727936	29138488	24992
115	10.706689	97329152	66727936	21971008	24992
116	11.69777	97329152	66727936	15440192	24992
117	11.939198	97329152	66727936	26011168	24992
118	12.921495	97329152	66727936	20806944	24992
119	14.013193	97329152	66727936	16265840	24992
120	14.377372	97329152	66727936	28817320	24992
121	15.351623	97329152	66727936	25601024	24992
122	16.101529	97329152	66727936	23047760	24992
123	16.582772	97329152	66727936	21134032	24992
124	17.753788	97329152	66727936	19881856	24992
125	18.221045	97329152	66727936	19292168	24992
126	19.236524	97329152	66727936	19363952	24992
127	19.977133	97329152	66727936	20097280	24992
128	20.493828	97329152	66727936	21492176	24992
129	21.56976	97329152	66727936	23547688	24992
130	22.512871	97329152	66727936	26264752	24992
131	23.032815	97329152	66727936	29642912	24992
132	24.12523	97329152	66727936	17225536	24992
133	24.633039	97329152	66727936	21899136	24992
134	25.134906	97329152	66727936	27264944	24992
135	26.664891	97329152	66727936	16839648	24992
136	27.26999	97329152	66727936	23501448	24992
137	27.669178	97329152	66727936	30852704	24992
138	29.001931	97599488	66727936	22412680	24992
139	28.8929	97599488	66727936	31055416	24992
140	30.64869	97599488	66727936	23944632	24992
141	30.859843	97599488	66727936	17467800	24992
142	31.655097	97599488	66727936	28096424	24992
143	32.381066	97599488	66727936	22971208	24992
144	33.688054	97599488	66727936	18479152	24992
145	33.618178	97599488	66727936	31085792	24992
146	35.255453	97599488	66727936	27950136	24992
147	35.316671	97599488	66727936	25442000	24992
148	36.087585	97599488	66727936	23594712	24992
149	36.984538	97599488	66727936	22407144	24992
150	37.486066	97599488	66727936	21880984	24992
151	38.636891	97599488	66727936	22017840	24992
152	0.810261	97599488	66727936	22625384	24992
153	1.533802	97599488	66727936	23963128	24992
154	2.231635	97599488	66727936	25960280	24992
155	3.000578	97599488	66727936	28616840	24992
156	3.713323	97599488	66727936	31933312	24992
157	5.241655	97599488	66727936	19455496	24992
158	5.22229	97599488	66727936	24090792	24992
159	5.946042	97599488	66727936	29385560	24992
160	7.407915	97599488	66727936	18914672	24992
161	7.361672	97599488	66727936	25529192	24992
162	8.08594	97599488	66727936	32803048	24992
163	9.608013	97599488	66727936	24315048	24992
164	9.599314	97599488	66727936	32907704	24992
165	11.146064	97599488	66727936	25739512	24992
166	11.825152	97599488	66727936	19208712	24992
167	11.78632	97599488	66727936	29779592	24992
168	14.398528	97599488	66727936	24584560	24992
169	14.719623	97599488	66727936	20045968	24992
170	13.864914	97599488	66727936	32597280	24992
171	15.797874	97599488	66727936	29381136	24992
172	16.407613	97599488	66727936	26827728	24992
173	17.200533	97599488	66727936	24914080	24992
174	17.894209	97599488	66727936	23661920	24992
175	18.623788	97599488	66727936	23071272	24992
176	19.560959	97599488	66727936	23142672	24992
177	20.172609	97599488	66727936	23875616	24992
178	21.20073	97599488	66727936	25269664	24992
179	22.13197	97869824	66727936	27325208	24992
180	22.451109	97869824	66727936	30042304	24992
181	23.099687	97869824	66727936	33420496	24992
182	25.046568	97869824	66727936	21002432	24992
183	24.647451	97869824	66727936	25676064	24992
184	25.574876	97869824	66727936	31041936	24992
185	27.455483	97869824	66727936	20614936	24992
186	27.373806	97869824	66727936	27276728	24992
187	28.782223	98140160	66727936	18180672	24992
188	28.294674	98140160	66727936	26163488	24992
189	30.332403	98140160	66727936	18388680	24992
190	30.253033	98140160	66727936	27692552	24992
191	31.992183	98140160	66727936	21242704	24992
192	31.302337	98140160	66727936	31867696	24992
193	33.969991	98410496	66727936	26740504	24992
194	34.272491	98410496	66727936	22248656	24992
195	33.673719	98410496	66727936	34855424	24992
196	35.502891	98410496	66727936	31686720	24992
197	36.056109	98410496	66727936	29195944	24992
198	37.585733	98680832	66727936	27350448	24992
199	39.205052	98680832	67252224	26170872	24992
200	38.301092	98680832	67252224	25645312	24992
201	40.018756	98680832	67252224	25782176	24992
202	0.805406	98951168	67252224	26389792	24992
203	1.534381	98951168	67252224	27727536	24992
204	2.224786	98951168	67252224	29724688	24992
205	2.99683	98951168	67252224	32381248	24992
206	3.711443	98951168	67252224	35697720	24992
207	5.662232	98951168	67252224	23217120	24992
208	5.404039	98951168	67252224	27852400	24992
209	5.869884	98951168	67252224	33147088	24992
210	7.871509	98951168	67252224	22676104	24992
211	7.318031	98951168	67252224	29290560	24992
212	9.495464	98951168	67252224	20131888	24992
213	9.024428	98951168	67252224	28065152	24992
214	10.999134	98951168	67252224	20222184	24992
215	10.214106	98951168	67252224	29474264	24992
216	12.438748	98951168	67252224	22958304	24992
217	11.884691	98951168	67252224	33529424	24992
218	13.920237	98951168	67252224	28341936	24992
219	14.606874	98951168	67252224	23800752	24992
220	15.183095	98951168	67252224	19903296	24992
221	14.850486	98951168	67252224	33114048	24992
222	16.844283	99221504	67252224	30560440	24992
223	17.797049	99221504	67252224	28669776	24992
224	18.371661	99221504	67252224	27417664	24992
225	18.951683	99221504	67252224	26827032	24992
226	19.77582	99221504	67252224	26897952	24992
227	21.149871	99221504	67252224	27630432	24992
228	21.303241	99221504	67252224	29024400	24992
229	22.308765	99221504	67252224	31085800	24992
230	23.215642	99221504	67252224	33805408	24992
231	24.904895	99221504	67252224	20725560	24992
232	25.000771	99221504	67252224	24735736	24992
233	25.632443	99221504	67252224	29441544	24992
234	26.382131	99221504	67252224	34813360	24992
235	28.264432	99221504	67252224	24393816	24992
236	27.430696	99221504	67252224	31056024	24992
237	29.719935	99221504	67252224	21967600	24992
238	28.945824	99221504	67252224	29950672	24992
239	31.597148	99221504	67252224	22184008	24992
240	30.207413	99221504	67252224	31488088	24992
241	32.815469	99491840	67252224	25046368	24992
242	31.850913	99491840	67252224	35671696	24992
243	34.992035	99491840	67252224	30553416	24992
244	35.304927	99491840	67252224	26062040	24992
245	37.654106	99491840	67252224	22228720	24992
246	36.31894	99491840	67252224	35496096	24992
247	37.40336	99491840	67252224	33028232	24992
248	38.781086	99491840	67252224	31181272	24992
249	39.304858	99491840	67252224	29998016	24992
250	39.498946	99491840	67252224	29472648	24992
251	40.401075	99491840	67252224	29609544	24992
252	1.034433	99491840	67252224	30217336	24992
253	1.522539	99491840	67252224	31555080	24992
254	2.232283	99491840	67252224	33552232	24992
255	2.993929	99491840	67252224	36208792	24992
256	5.762063	99491840	67252224	23063104	24992
257	4.647425	99491840	67252224	27038984	24992
258	5.323239	99491840	67252224	31674264	24992
259	5.85859	99491840	67252224	36968952	24992
260	8.416136	99491840	67252224	26497984	24992
261	7.315886	99491840	67252224	33112440	24992
262	9.682693	99491840	67252224	23959592	24992
263	8.979544	99491840	67252224	31892856	24992
264	11.344198	99491840	67252224	24049680	24992
265	10.33085	99491840	67252224	33301744	24992
266	12.862546	99491840	67252224	26785384	24992
267	11.89574	99491840	67252224	37356312	24992
268	14.397438	99491840	67252224	32168824	24992
269	15.065878	99491840	67252224	27627688	24992
270	15.80263	99491840	67252224	23729848	24992
271	14.854434	99491840	67252224	36940552	24992
272	17.23762	99491840	67252224	34386832	24992
273	17.944581	99491840	67252224	32495976	24992
274	18.672922	99491840	67252224	31243560	24992
275	19.406044	99491840	67252224	30652912	24992
276	20.430912	99491840	67252224	30723880	24992
277	21.083768	99491840	67252224	31456360	24992
278	21.509054	99491840	67252224	32850360	24992
279	23.392025	99491840	67252224	34905648	24992
280	23.594014	99491840	67252224	37622248	24992
281	26.246154	99491840	67252224	24542176	24992
282	24.766905	99491840	67252224	28552432	24992
283	25.637211	99491840	67252224	33257440	24992
284	26.5078	99491840	67252224	38629080	24992
285	28.742005	99491840	67252224	28207104	24992
286	28.1941	99491840	67252224	34866016	24992
287	30.441093	99491840	67252224	25771800	24992
288	29.679709	99491840	67252224	33754936	24992
289	32.1839	99491840	67252224	25991584	24992
290	31.208173	99491840	67252224	35295776	24992
291	32.896456	99491840	67252224	28852296	24992
292	32.498034	99491840	67252224	39476824	24992
293	34.857934	99491840	67252224	34325736	24992
294	35.949302	99491840	67252224	29856064	24992
295	36.464205	99491840	67252224	26024200	24992
296	35.891809	99491840	67252224	39291544	24992
297	39.296124	99491840	67252224	36834376	24992
298	39.473701	99491840	67252224	34988352	24992
299	39.166938	99491840	67252224	33803608	24992
300	40.357494	99491840	67252224	33279632	24992
301	40.455207	99491840	67252224	33416384	24992
302	0.823911	99491840	67252224	34024096	24992
303	1.508218	99491840	67252224	35361840	24992
304	2.228714	99491840	67252224	37359008	24992
305	2.944623	99491840	67252224	40015568	24992
306	6.097725	99491840	67252224	26866952	24992
307	4.612142	99491840	67252224	30842832	24992
308	5.325048	99491840	67252224	35478112	24992
309	8.055616	99491840	67252224	24331576	24992
310	6.99504	99491840	67252224	30286664	24992
311	7.428826	99491840	67252224	36902088	24992
312	10.369885	99491840	67252224	27746416	24992
313	9.904253	99491840	67252224	35690640	24992
314	11.808553	99491840	67252224	27856640	24992
315	10.460806	99491840	67252224	37108704	24992
316	13.100889	99491840	67252224	30590776	24992
317	13.942231	99491840	67252224	24721144	24992
318	12.716834	99491840	67252224	35953320	24992
319	15.256076	99491840	67252224	31410384	24992
320	16.356908	99491840	67252224	27530784	24992
321	14.796622	99491840	67252224	40741488	24992
322	17.84893	99491840	67252224	38174896	24992
323	18.204808	99491840	67252224	36282376	24992
324	19.368909	99491840	67252224	35039632	24992
325	20.03702	99491840	67252224	34447888	24992
326	20.9621	99491840	67252224	34517840	24992
327	22.022292	99491840	67252224	35249336	24992
328	22.445096	99491840	67252224	36642288	24992
329	23.238276	99491840	67252224	38696464	24992
330	25.902639	99491840	67252224	24952352	24992
331	24.49637	99491840	67252224	28301520	24992
332	25.565922	99491840	67252224	32341920	24992
333	26.070023	99491840	67252224	37045664	24992
334	28.873322	99491840	67252224	25962720	24992
335	27.548434	99491840	67252224	31963992	24992
336	28.372922	99491840	67252224	38662832	24992
337	31.453144	99491840	67252224	29567696	24992
338	29.514492	99491840	67252224	37550816	24992
339	32.917383	99491840	67252224	29785272	24992
340	31.303427	99491840	67252224	39089416	24992
341	34.251334	99491840	67252224	32649008	24992
342	35.101148	99491840	67252224	26833864	24992
343	33.271432	99491840	67252224	38119496	24992
344	36.613025	99491840	67252224	33663432	24992
345	37.502063	99491840	67252224	29833328	24992
346	37.99091	99491840	67252224	26661672	24992
347	36.689805	99491840	67252224	40589368	24992
348	39.962517	99491840	67252224	38783656	24992
349	39.89278	99491840	67252224	37598096	24992
350	41.124525	99491840	67252224	37075000	24992
351	41.557239	99491840	67252224	37213272	24992
352	0.810574	99491840	67252224	37820584	24992
353	1.509594	99491840	67252224	39158328	24992
354	2.233164	99491840	67252224	41155480	24992
355	5.508355	99491840	67252224	27340632	24992
356	3.921622	99491840	67252224	30657104	24992
357	4.454839	99491840	67252224	34632984	24992
358	5.175444	99491840	67252224	39268312	24992
359	8.30754	99491840	67252224	28121864	24992
360	6.604666	99491840	67252224	34081456	24992
361	7.501979	99491840	67252224	40695976	24992
362	10.917425	99491840	67252224	31551560	24992
363	8.817187	99491840	67252224	39484840	24992
364	11.991528	99491840	67252224	31654920	24992
365	10.431841	99491840	67252224	40906984	24992
366	13.653473	99491840	67252224	34388528	24992
367	14.316894	99491840	67252224	28518904	24992
368	12.84209	99491840	67252224	39751088	24992
369	15.837221	99491840	67252224	35207944	24992
370	16.436981	99762176	67252224	31328344	24992
371	17.81248	99762176	67252224	28091512	24992
372	15.580892	99762176	67252224	41961624	24992
373	18.804373	99762176	67252224	40069096	24992
374	19.456123	99762176	67252224	38839288	24992
375	20.302969	99762176	67252224	38247240	24992
376	21.252533	99762176	67252224	38316744	24992
377	21.830326	99762176	67252224	39047856	24992
378	22.615725	99762176	67252224	40440472	24992
379	23.225833	99762176	67252224	42494632	24992
380	27.169551	99762176	67252224	28750536	24992
381	24.643346	99762176	67252224	32099896	24992
382	25.641687	99762176	67252224	36140280	24992
383	26.266022	99762176	67252224	40844008	24992
384	29.834279	99762176	67252224	29760824	24992
385	27.954481	99762176	67252224	35762224	24992
386	28.610816	99762176	67252224	42461160	24992
387	32.687373	99762176	67252224	33366104	24992
388	30.178108	99762176	67252224	41348584	24992
389	34.206826	99762176	67252224	33582896	24992
390	31.74989	99762176	67252224	42886224	24992
391	35.573279	99762176	67252224	36445880	24992
392	35.51996	99762176	67252224	30630896	24992
393	34.004968	99762176	67252224	41916592	24992
394	37.21552	99762176	67252224	37460624	24992
395	37.998919	99762176	67252224	33630664	24992
396	39.024558	99762176	67252224	30458672	24992
397	36.707832	99762176	67252224	44386416	24992
398	40.349688	99762176	67252224	42559552	24992
399	41.275022	99762176	67252224	41381992	24992
400	41.41391	99762176	67252224	40858016	24992
401	42.802313	99762176	67252224	40996464	24992
402	0.81221	99762176	67252224	41605824	24992
403	1.563494	99762176	67252224	42943568	24992
404	2.227821	99762176	67252224	44940720	24992
405	5.958608	99762176	67252224	31125264	24992
406	3.737229	99762176	67252224	34441736	24992
407	4.698748	99762176	67252224	38417632	24992
408	5.171078	99762176	67252224	43052912	24992
409	8.990737	99762176	67252224	31909952	24992
410	6.648995	99762176	67252224	37865064	24992
411	7.611685	99762176	67252224	44479520	24992
412	11.344428	99762176	67252224	35330640	24992
413	9.100303	99762176	67252224	43263904	24992
414	12.402023	99762176	67252224	35429408	24992
415	10.460491	99762176	67252224	44681648	24992
416	14.141876	99762176	67252224	38162440	24992
417	14.762033	99762176	67252224	32292800	24992
418	12.697942	99762176	67252224	43524936	24992
419	16.239782	99762176	67252224	38981664	24992
420	17.055496	99762176	67252224	35102000	24992
421	17.900304	99762176	67252224	31864256	24992
422	18.487605	99762176	67252224	29288944	24992
423	16.2576	99762176	67252224	43818464	24992
424	20.036692	99762176	67252224	42588536	24992
425	20.579076	99762176	67252224	42021344	24992
426	21.76569	99762176	67252224	42090880	24992
427	22.539237	99762176	67252224	42821928	24992
428	22.878129	99762176	67252224	44214400	24992
429	26.565124	99762176	67252224	29807736	24992
430	24.852449	99762176	67252224	32496488	24992
431	25.408284	99762176	67252224	35875256	24992
432	26.454417	99762176	67252224	39914560	24992
433	26.920385	99762176	67252224	44618112	24992
434	30.997436	99762176	67252224	33534912	24992
435	28.491365	99762176	67252224	39536360	24992
436	29.646898	99762176	67252224	46235280	24992
437	33.072232	99762176	67252224	37106936	24992
438	30.520369	99762176	67252224	45113376	24992
439	34.679213	99762176	67252224	37343864	24992
440	35.110763	99762176	67252224	30205512	24992
441	32.882187	99762176	67252224	40169976	24992
442	36.376811	99762176	67252224	34390792	24992
443	33.888063	99762176	67252224	45676504	24992
444	37.867464	99762176	67252224	41219704	24992
445	38.469519	99762176	67252224	37389344	24992
446	39.162005	99762176	67252224	34216968	24992
447	40.176722	99762176	67252224	31706808	24992
448	37.802341	99762176	67252224	46295176	24992
449	42.937249	99762176	67252224	45151504	24992
450	42.950601	99762176	67252224	44627576	24992
451	43.218476	99762176	67252224	44765992	24992
452	0.810611	99762176	67252224	45375256	24992
453	1.510508	99762176	67252224	46713000	24992
454	5.504149	99762176	67252224	32232872	24992
455	3.185652	99762176	67252224	34889432	24992
456	3.822921	99762176	67252224	38205904	24992
457	4.406267	99762176	67252224	42181784	24992
458	5.355419	99762176	67252224	46817064	24992
459	9.09163	99762176	67252224	35674168	24992
460	6.600223	99762176	67252224	41629216	24992
461	10.526755	99762176	67252224	31814216	24992
462	8.113084	99762176	67252224	39088072	24992
463	8.752163	99762176	67252224	47021336	24992
464	13.025005	99762176	67252224	39186056	24992
465	13.75984	99762176	67252224	32004560	24992
466	10.953572	99762176	67252224	41916032	24992
467	15.245972	99762176	67252224	36046184	24992
468	12.609634	99762176	67252224	47278320	24992
469	16.925299	99762176	67252224	42751944	24992
470	17.323171	99762176	67252224	38871864	24992
471	17.85915	99762176	67252224	35634104	24992
472	18.856277	99762176	67252224	33058808	24992
473	16.154002	99762176	67252224	47588408	24992
474	20.537498	99762176	67776512	46357776	24992
475	21.195164	100032512	68300800	45790488	24992
476	22.200154	100032512	68300800	45859784	24992
477	22.499857	100032512	68300800	46590656	24992
478	23.700454	100032512	68300800	47983064	24992
479	27.739134	100032512	68300800	33569104	24992
480	24.801923	100032512	68300800	36261680	24992
481	26.001417	100302848	68300800	39640640	24992
482	26.836607	100302848	68300800	43679864	24992
483	27.517343	100302848	68300800	48383176	24992
484	31.163304	100302848	68300800	37276768	24992
485	29.106971	100302848	68300800	43294432	24992
486	32.60974	100573184	68300800	33538864	24992
487	30.319868	100573184	68300800	40861248	24992
488	34.197054	100573184	68825088	32431552	24992
489	31.62895	100573184	68825088	41074928	24992
490	35.999487	100843520	68825088	33970560	24992
491	32.994357	100843520	68825088	43935056	24992
492	37.408797	100843520	68825088	38154656	24992
493	38.503764	101113856	68825088	32999776	24992
494	35.519746	101113856	68825088	44945792	24992
495	39.586948	101113856	68825088	41152344	24992
496	40.779521	101113856	68825088	37983824	24992
497	41.53795	101384192	68825088	35473440	24992
498	41.673325	101384192	69349376	33624752	24992
499	39.717817	101384192	69873664	48873632	24992
500	43.522727	101654528	69873664	48392592	24992
501	44.251083	101654528	69873664	48531232	24992
502	0.814239	101654528	69873664	49140656	24992
503	5.094563	101654528	69873664	33996248	24992
504	2.30242	101654528	69873664	35993408	24992
505	3.003541	101654528	69873664	38649968	24992
506	3.901655	101654528	69873664	41966472	24992
507	4.597613	101654528	69873664	45942352	24992
508	8.742937	101924864	69873664	34130160	24992
509	5.877732	101924864	69873664	39424848	24992
510	6.663803	101924864	69873664	45379896	24992
511	11.248882	101924864	69873664	35569360	24992
512	8.318299	101924864	69873664	42843232	24992
513	12.431495	101924864	69873664	34344656	24992
514	9.723571	101924864	69873664	42937424	24992
515	14.051995	101924864	69873664	35755968	24992
516	11.534856	101924864	69873664	45667472	24992
517	15.548641	101924864	69873664	39812816	24992
518	16.126939	101924864	69873664	34607704	24992
519	13.430417	101924864	69873664	46499360	24992
520	17.892428	102195200	69873664	42619288	24992
521	18.835667	102195200	69873664	39402224	24992
522	19.037298	102195200	69873664	36826464	24992
523	20.369797	102195200	69873664	34912696	24992
524	17.051831	102195200	69873664	50101672	24992
525	21.400028	102195200	70397952	49532800	24992
526	22.310972	102465536	70397952	49627344	24992
527	22.902332	102465536	70397952	50357480	24992
528	27.353118	102465536	70397952	35278392	24992
529	24.88073	102465536	70397952	37313344	24992
530	25.290362	102465536	70397952	40030560	24992
531	26.279074	102465536	70397952	43408232	24992
532	26.880122	102735872	70397952	47447440	24992
533	31.566486	102735872	70397952	35694688	24992
534	28.552448	102735872	70397952	41033832	24992
535	28.905538	102735872	70397952	47067760	24992
536	33.756582	103006208	70922240	37310232	24992
537	30.386379	103006208	70922240	44632680	24992
538	35.124887	103006208	70922240	36206824	24992
539	32.296354	103006208	70922240	44850232	24992
540	36.444474	103276544	70922240	37745800	24992
541	34.073566	103276544	70922240	47710440	24992
542	38.036945	103276544	71446528	41929096	24992
543	39.093328	103546880	71446528	36775560	24992
544	35.852916	103546880	71446528	48721704	24992
545	40.110445	103546880	71446528	44928144	24992
546	40.730695	103546880	71446528	41759752	24992
547	42.118585	103817216	71446528	39248968	24992
548	42.680815	103817216	71446528	37400504	24992
549	43.397328	103817216	71446528	36213744	24992
550	40.654939	103817216	71446528	52123008	24992
551	44.892592	104087552	72495104	52246904	24992
552	4.866548	104087552	72495104	36407440	24992
553	1.660996	104087552	72495104	37745184	24992
554	2.415304	104087552	72495104	39742336	24992
555	3.159213	104087552	72495104	42398896	24992
556	3.913543	104087552	72495104	45722168	24992
557	4.69431	104087552	72495104	49698048	24992
558	9.34891	104087552	72495104	37889096	24992
559	6.286721	104087552	72495104	43183832	24992
560	6.84349	104087552	72495104	49138880	24992
561	11.597554	104357888	72495104	39340864	24992
562	8.171824	104357888	72495104	46614720	24992
563	14.537363	104357888	72495104	38117640	24992
564	17.947224	104357888	72495104	14046808	24992
565	10.495813	104357888	72495104	23299784	24992
566	11.478447	104357888	72495104	16736328	24992
567	11.706422	104357888	72495104	27307304	24992
568	12.891474	104357888	72495104	22075008	24992
569	13.671663	104357888	72495104	17499216	24992
570	14.430367	104357888	72495104	13578632	24992
571	14.828969	104357888	72495104	26789368	24992
572	15.911818	104357888	72495104	24195496	24992
573	16.521913	104357888	72495104	22262528	24992
574	17.288368	104357888	72495104	20983336	24992
575	18.111366	104357888	72495104	20364808	24992
576	18.825873	104357888	72495104	20406744	24992
577	19.615564	104357888	72495104	21109008	24992
578	20.695717	104357888	72495104	22471672	24992
579	21.598621	104357888	72495104	24494392	24992
580	21.851156	104357888	72495104	27177336	24992
581	22.452134	104357888	72495104	14050672	24992
582	23.309172	104357888	72495104	18049424	24992
583	24.707257	104357888	72495104	22717240	24992
584	25.174918	104357888	72495104	28049296	24992
585	25.807282	104357888	72495104	17547344	24992
586	26.503743	104357888	72495104	24199936	24992
587	27.178021	104357888	72495104	15048416	24992
588	27.940796	104357888	72495104	23017296	24992
589	29.213508	104357888	72495104	15192912	24992
590	29.188067	104357888	72495104	24482280	24992
591	30.34368	104357888	72495104	17977520	24992
592	31.690354	104357888	72495104	12131248	24992
593	31.281085	104357888	72495104	23400928	24992
594	32.727904	104357888	73019392	18878544	24992
595	33.320085	104357888	74067968	15013264	24992
596	34.049699	104357888	74592256	28263568	24992
597	35.261506	104357888	75640832	25708696	24992
598	35.318349	104628224	76689408	23831288	24992
599	36.739615	104628224	77737984	22610584	24992
600	37.128578	104628224	78786560	22049944	24992
601	38.986693	104628224	79835136	22149264	24992
602	0.825515	104898560	80883712	22741688	24992
603	1.514234	104898560	80883712	24079432	24992
604	2.249669	104898560	80883712	26076584	24992
605	2.983155	104898560	80883712	28733144	24992
606	3.986242	104898560	81408000	15573712	24992
607	4.661376	104898560	81408000	19549592	24992
608	5.210012	104898560	81408000	24184872	24992
609	6.488245	104898560	81932288	13011552	24992
610	6.641303	104898560	81932288	18966648	24992
611	7.599284	104898560	81932288	25581104	24992
612	8.355336	104898560	82456576	16388600	24992
613	8.793522	104898560	82456576	24321864	24992
614	10.049317	104898560	82980864	16448680	24992
615	10.503699	104898560	82980864	25700744	24992
616	11.286751	104898560	83505152	19145552	24992
617	12.24271	104898560	84029440	13246784	24992
618	12.645253	104898560	84029440	24478976	24992
619	13.745283	104898560	84553728	19902968	24992
620	14.437243	104898560	85078016	15988440	24992
621	14.853037	104898560	85078016	29199144	24992
622	15.877307	104898560	85602304	26592728	24992
623	16.589182	104898560	86126592	24659536	24992
624	17.304885	105168896	86650880	23382920	24992
625	18.032801	105168896	87175168	22764152	24992
626	19.366335	105168896	87699456	22806008	24992
627	20.238253	105168896	87699456	23513072	24992
628	20.259135	105168896	87699456	24875864	24992
629	21.071315	105168896	87699456	26898440	24992
630	22.423281	105168896	87699456	13111288	24992
631	22.645883	105168896	87699456	16449864	24992
632	23.166251	105168896	87699456	20455224	24992
633	24.110573	105168896	87699456	25122680	24992
634	25.716969	105168896	87699456	13987976	24992
635	26.122217	105168896	87699456	19976160	24992
636	26.4152	105168896	87699456	26633024	24992
637	28.67117	105168896	87699456	17489584	24992
638	27.589849	105168896	87699456	25472992	24992
639	29.077318	105439232	87699456	17701088	24992
640	29.255364	105439232	87699456	27005328	24992
641	30.641643	105439232	87699456	20557416	24992
642	31.415663	105439232	87699456	14742632	24992
643	31.381258	105439232	87699456	26028264	24992
644	33.022851	105709568	87699456	21564216	24992
645	33.552103	105709568	87699456	17734216	24992
646	33.932554	105709568	87699456	14562664	24992
647	34.716261	105709568	87699456	28490424	24992
648	35.535246	105709568	87699456	26676216	24992
649	36.541628	105979904	87699456	25490776	24992
650	37.393788	105979904	87699456	24967960	24992
651	37.823582	105979904	87699456	25106512	24992
652	0.826134	105979904	87699456	25713704	24992
653	1.513826	105979904	87699456	27051432	24992
654	2.236345	105979904	87699456	29048568	24992
655	3.357251	105979904	87699456	15236088	24992
656	3.960962	105979904	87699456	18552544	24992
657	4.662405	105979904	87699456	22528456	24992
658	5.358048	105979904	87699456	27163720	24992
659	6.547233	105979904	87699456	16022232	24992
660	6.582881	105979904	87699456	21977328	24992
661	7.512998	105979904	87699456	28591768	24992
662	8.629063	105979904	87699456	19447400	24992
663	8.767143	105979904	87699456	27380648	24992
664	10.314433	106250240	87699456	19549504	24992
665	10.454887	106250240	87699456	28801552	24992
666	11.51563	106250240	87699456	22285608	24992
667	12.409623	106250240	87699456	16417952	24992
668	12.923504	106250240	87699456	27650072	24992
669	13.686737	106250240	87699456	23108968	24992
670	14.839678	106250240	87699456	19231240	24992
671	15.225606	106250240	87699456	15995664	24992
672	15.542602	106250240	87699456	29865760	24992
673	16.858867	106250240	87699456	27975144	24992
674	17.810104	106250240	87699456	26747224	24992
675	18.512287	106250240	87699456	26156496	24992
676	19.637739	106520576	87699456	26227288	24992
677	20.126293	106520576	87699456	26959656	24992
678	20.959429	106520576	87699456	28353512	24992
679	21.01177	106520576	87699456	30408832	24992
680	22.440041	106520576	87699456	16666672	24992
681	22.83979	106520576	87699456	20016576	24992
682	24.151794	106520576	87699456	24058328	24992
683	24.472979	106520576	87699456	28763104	24992
684	25.915857	106790912	87699456	17674528	24992
685	26.167177	106790912	87699456	23675912	24992
686	27.042999	106790912	87699456	30368024	24992
687	28.073427	106790912	87699456	21266056	24992
688	28.369039	106790912	87699456	29248792	24992
689	29.227182	106790912	87699456	21475936	24992
690	29.594395	106790912	87699456	30779960	24992
691	31.25874	107061248	87699456	24332128	24992
692	31.591113	107061248	87699456	18517312	24992
693	32.048597	107061248	87699456	29803088	24992
694	32.951632	107061248	87699456	25338848	24992
695	34.499669	107061248	87699456	21509008	24992
696	34.987844	107331584	87699456	18337120	24992
697	34.912356	107331584	87699456	32265136	24992
698	37.031876	107331584	87699456	30440096	24992
699	37.374848	107331584	87699456	29256376	24992
700	37.902185	107601920	87699456	28732568	24992
701	38.655176	107601920	87699456	28871200	24992
702	0.813152	107601920	87699456	29480344	24992
703	1.509177	107601920	87699456	30818072	24992
704	2.246613	107601920	87699456	32815208	24992
705	3.948127	107601920	87699456	19002152	24992
706	3.902892	107601920	87699456	22318608	24992
707	4.444459	107601920	87699456	26294472	24992
708	5.117434	107601920	87699456	30929736	24992
709	6.711679	107601920	87699456	19791768	24992
710	6.806607	107601920	87699456	25746960	24992
711	7.579815	107601920	87699456	32361400	24992
712	8.943901	107601920	87699456	23217032	24992
713	8.82048	107601920	87699456	31150280	24992
714	10.572994	107601920	87699456	23318928	24992
715	10.460486	107601920	87699456	32570976	24992
716	12.157238	107601920	87699456	26055032	24992
717	12.778619	107872256	87699456	20187392	24992
718	12.668263	107872256	87699456	31419512	24992
719	14.029846	107872256	87699456	26878184	24992
720	15.00856	107872256	87699456	23000472	24992
721	15.749015	107872256	87699456	19764448	24992
722	15.583085	107872256	87699456	33634544	24992
723	17.141403	107872256	87699456	31716392	24992
724	18.132716	107872256	87699456	30488352	24992
725	18.836146	107872256	87699456	29922736	24992
726	19.731396	107872256	87699456	30002880	24992
727	20.39819	107872256	87699456	30735296	24992
728	21.487752	108142592	87699456	32129120	24992
729	22.448233	108142592	87699456	17724392	24992
730	22.671629	108142592	87699456	20413784	24992
731	23.684236	108142592	87699456	23793936	24992
732	24.256204	108142592	87699456	27834432	24992
733	25.071217	108142592	87699456	32539320	24992
734	26.624881	108142592	87699456	21450392	24992
735	26.459375	108142592	87699456	27451872	24992
736	26.981854	108412928	87699456	34144608	24992
737	28.97624	108412928	87699456	25022192	24992
738	28.569702	108412928	87699456	33019040	24992
739	30.261684	108412928	87699456	25242264	24992
740	30.578826	108412928	87699456	34545688	24992
741	31.721877	108412928	87699456	28050488	24992
742	31.987497	108683264	87699456	22263312	24992
743	32.680099	108683264	87699456	33549136	24992
744	33.774533	108683264	87699456	29084304	24992
745	34.838588	108683264	87699456	25254448	24992
746	35.614038	108683264	87699456	22082320	24992
747	37.455899	108953600	87699456	19572312	24992
748	36.031016	108953600	87699456	34160680	24992
749	37.419504	108953600	87699456	33008208	24992
750	39.741075	108953600	87699456	32492632	24992
751	39.259401	109223936	87699456	32631576	24992
752	0.814101	109223936	87699456	33241176	24992
753	1.519174	109223936	87699456	34578904	24992
754	3.394214	109223936	87699456	20100552	24992
755	2.967118	109223936	87699456	22757264	24992
756	3.720281	109223936	87699456	26073728	24992
757	4.641245	109223936	87699456	30049592	24992
758	5.146133	109223936	87699456	34684856	24992
759	7.257673	109223936	87699456	23546944	24992
760	6.590072	109223936	87699456	29501976	24992
761	8.803648	109223936	87699456	19691488	24992
762	8.276269	109223936	87699456	26965384	24992
763	8.76893	109223936	87699456	34898648	24992
764	10.93098	109223936	87699456	27066600	24992
765	11.443006	109223936	87699456	19887688	24992
766	11.16674	109223936	87699456	29799144	24992
767	13.127713	109494272	87699456	23931224	24992
768	12.410189	109494272	87699456	35163504	24992
769	14.562668	109494272	87699456	30639720	24992
770	15.580456	109494272	87699456	26761560	24992
771	16.365658	109494272	87699456	23525088	24992
772	16.810274	109494272	87699456	20951048	24992
773	16.355597	109494272	87699456	35480568	24992
774	18.230283	109494272	87699456	34251864	24992
775	19.006178	109494272	87699456	33686464	24992
776	19.720801	109494272	87699456	33757032	24992
777	20.42243	109494272	87699456	34489144	24992
778	21.594741	109764608	87699456	35882840	24992
779	24.134916	109764608	87699456	21477144	24992
780	23.518899	109764608	87699456	24164064	24992
781	24.198025	109764608	87699456	27544104	24992
782	24.998468	109764608	87699456	31584648	24992
783	25.52519	109764608	87699456	36289200	24992
784	27.42835	109764608	87699456	25190168	24992
785	27.009857	109764608	87699456	31202384	24992
786	28.504002	110034944	87699456	21447760	24992
787	28.14999	110034944	87699456	28770416	24992
788	28.971166	110034944	87699456	36789344	24992
789	30.744682	110034944	87699456	28974792	24992
790	31.583612	110034944	87699456	21871024	24992
791	31.049029	110034944	87699456	31835952	24992
792	33.837649	110305280	87699456	26056448	24992
793	33.966211	110305280	87699456	20902080	24992
794	33.219185	110305280	87699456	32848432	24992
795	35.773317	110305280	87699456	29055944	24992
796	36.279415	110575616	87699456	25888048	24992
797	37.415111	110575616	87699456	23378176	24992
798	37.694379	110575616	87699456	21530272	24992
799	37.644143	110575616	87699456	36779392	24992
800	39.119793	110575616	87699456	36299312	24992
801	40.030375	110845952	87699456	36438416	24992
802	0.816175	110845952	87699456	37048112	24992
803	2.939024	110845952	87699456	21904808	24992
804	2.24522	110845952	87699456	23901936	24992
805	3.184919	110845952	87699456	26558480	24992
806	3.730107	110845952	87699456	29874936	24992
807	4.439869	110845952	87699456	33850800	24992
808	6.658993	110845952	87699456	22042912	24992
809	5.875799	110845952	87699456	27337632	24992
810	6.795708	110845952	87699456	33292760	24992
811	9.124281	110845952	87699456	23487448	24992
812	8.131295	110845952	87699456	30761352	24992
813	10.825038	110845952	87699456	22266000	24992
814	9.720034	110845952	87699456	30858640	24992
815	12.074641	110845952	87699456	23679856	24992
816	10.967905	110845952	87699456	33591312	24992
817	13.700188	110845952	87699456	27739232	24992
818	14.251085	111116288	87699456	22535992	24992
819	13.18018	111116288	87699456	34427520	24992
820	15.899672	111116288	87699456	30549392	24992
821	16.198027	111116288	87699456	27334360	24992
822	17.413097	111116288	87699456	24759904	24992
823	17.678598	111116288	87699456	22847424	24992
824	17.081905	111116288	87699456	38036352	24992
825	19.574512	111116288	87699456	37470240	24992
826	20.28997	111116288	87699456	37567424	24992
827	20.612135	111116288	87699456	38298848	24992
828	23.262264	111386624	87699456	23225888	24992
829	22.894305	111386624	87699456	25256544	24992
830	23.758038	111386624	87699456	27975104	24992
831	24.230264	111386624	87699456	31354496	24992
832	25.062911	111386624	87699456	35394992	24992
833	27.296667	111386624	87699456	23644320	24992
834	26.823312	111386624	87699456	28983592	24992
835	27.242959	111386624	87699456	35018080	24992
836	29.867431	111656960	87699456	25261480	24992
837	28.596255	111656960	87699456	32584168	24992
838	31.115274	111656960	87699456	24159128	24992
839	30.205352	111656960	87699456	32802856	24992
840	32.253577	111656960	87699456	25699368	24992
841	31.842328	111656960	87699456	35664296	24992
842	33.80979	111927296	87699456	29883896	24992
843	35.370488	111927296	87699456	24731000	24992
844	33.690889	111927296	87699456	36677384	24992
845	36.434246	111927296	87699456	32884736	24992
846	36.968595	112197632	87699456	29717000	24992
847	37.763825	112197632	87699456	27206824	24992
848	38.399233	112197632	87699456	25358856	24992
849	39.258218	112197632	87699456	24172320	24992
850	39.337542	112197632	87699456	40115632	24992
851	41.360566	112467968	87699456	40259584	24992
852	2.657561	112467968	87699456	24419584	24992
853	1.545467	112467968	87699456	25757400	24992
854	2.225904	112467968	87699456	27754536	24992
855	2.996051	112467968	87699456	30411080	24992
856	3.889764	112467968	87699456	33727536	24992
857	4.647262	112467968	87699456	37703432	24992
858	7.446756	112467968	87699456	25887760	24992
859	6.069964	112467968	87699456	31182480	24992
860	6.572205	112467968	87699456	37137512	24992
861	9.505672	112467968	87699456	27332296	24992
862	8.051578	112467968	87699456	34606136	24992
863	10.88065	112467968	87699456	26108184	24992
864	9.735065	112467968	87699456	34700872	24992
865	12.165431	112467968	87699456	27519928	24992
866	11.213774	112467968	87699456	37431400	24992
867	13.94216	112467968	87699456	31577368	24992
868	14.604622	112738304	87699456	26372688	24992
869	13.58396	112738304	87699456	38264280	24992
870	16.059783	112738304	87699456	34384464	24992
871	17.039602	112738304	87699456	31168888	24992
872	17.594969	112738304	87699456	28593032	24992
873	18.424305	112738304	87699456	26679600	24992
874	18.75595	112738304	87699456	25427704	24992
875	19.982931	112738304	87699456	24837360	24992
876	20.698328	112738304	87699456	24908600	24992
877	21.438629	112738304	87699456	25641328	24992
878	21.721151	112738304	87699456	27035624	24992
879	22.990059	113008640	87699456	29091432	24992
880	23.549974	113008640	87699456	31808792	24992
881	24.729033	113008640	87699456	35186832	24992
882	25.533249	113008640	87699456	39226152	24992
883	27.665649	113008640	87699456	27473736	24992
884	26.816121	113008640	87699456	32812864	24992
885	27.265938	113008640	87699456	38847064	24992
886	30.367219	113278976	87699456	29089792	24992
887	29.784344	113278976	87699456	36420752	24992
888	32.140373	113278976	87699456	27993632	24992
889	30.057205	113278976	87699456	36637256	24992
890	33.214032	113278976	87699456	29533328	24992
891	31.995068	113278976	87699456	39497960	24992
892	34.312268	113549312	87699456	33718368	24992
893	35.280967	113549312	87699456	28565024	24992
894	33.810649	113549312	87699456	40511344	24992
895	36.547187	113549312	87699456	36717944	24992
896	37.316711	113549312	87699456	33548320	24992
897	38.082614	113819648	87699456	31039456	24992
898	38.700228	113819648	87699456	29190544	24992
899	39.520153	113819648	87699456	28004920	24992
900	40.532594	113819648	87699456	27479440	24992
901	41.066721	114089984	87699456	27616400	24992
902	0.974809	114089984	87699456	28224800	24992
903	1.512505	114089984	87699456	29562528	24992
904	2.236717	114089984	87699456	31559664	24992
905	2.945694	114089984	87699456	34216208	24992
906	3.735306	114089984	87699456	37532664	24992
907	4.440413	114089984	87699456	41508528	24992
908	7.404693	114089984	87699456	29696576	24992
909	5.874837	114089984	87699456	34991248	24992
910	6.580106	114089984	87699456	40946344	24992
911	9.791928	114089984	87699456	31142848	24992
912	8.080304	114089984	87699456	38416688	24992
913	11.199767	114089984	87699456	29917616	24992
914	9.767218	114089984	87699456	38510336	24992
915	12.773187	114089984	87699456	31328368	24992
916	11.000225	114089984	87699456	41239824	24992
917	14.523231	114089984	87699456	35384944	24992
918	15.302575	114089984	87699456	30179736	24992
919	13.597195	114089984	87699456	42071344	24992
920	16.376557	114089984	87699456	38191000	24992
921	17.309868	114360320	87699456	34973600	24992
922	17.797275	114360320	87699456	32397376	24992
923	18.593724	114360320	87699456	30483144	24992
924	19.301079	114360320	87699456	29230880	24992
925	20.215715	114360320	87699456	28640224	24992
926	21.369631	114360320	87699456	28711200	24992
927	21.764345	114360320	87699456	29443832	24992
928	22.401063	114360320	87699456	30837856	24992
929	23.474732	114360320	87699456	32893360	24992
930	24.045478	114630656	87699456	35609488	24992
931	24.738072	114630656	87699456	38987144	24992
932	25.812446	114630656	87699456	43025856	24992
933	28.298829	114630656	87699456	31272256	24992
934	26.90382	114630656	87699456	36611480	24992
935	27.910973	114630656	87699456	42645568	24992
936	30.786757	114630656	87699456	32887800	24992
937	29.766194	114630656	87699456	40209896	24992
938	32.192465	114900992	87699456	31781688	24992
939	30.956961	114900992	87699456	40425256	24992
940	33.751634	114900992	87699456	33322344	24992
941	32.018304	114900992	87699456	43286280	24992
942	35.614809	115171328	87699456	37507928	24992
943	36.018341	115171328	87699456	32354664	24992
944	34.380099	115171328	87699456	44300984	24992
945	37.391154	115171328	87699456	40465584	24992
946	38.109263	115171328	87699456	37323720	24992
947	38.709904	115441664	87699456	34816920	24992
948	39.62369	115441664	87699456	32967768	24992
949	40.079243	115441664	87699456	31780992	24992
950	41.12192	115441664	87699456	31255592	24992
951	42.765496	115441664	87699456	31392600	24992
952	0.803549	115712000	87699456	32000456	24992
953	1.507972	115712000	87699456	33338184	24992
954	2.288628	115712000	87699456	35335320	24992
955	3.147374	115712000	87699456	37991864	24992
956	3.711705	115712000	87699456	41308320	24992
957	6.999487	115712000	87699456	28827744	24992
958	5.15716	115712000	87699456	33463000	24992
959	5.862491	115712000	87699456	38757704	24992
960	6.638498	115712000	87699456	44712736	24992
961	10.190968	115712000	87699456	34908296	24992
962	8.537793	115712000	87699456	42182216	24992
963	11.798331	115712000	87699456	33692168	24992
964	9.716706	115712000	87699456	42284808	24992
965	12.831922	115712000	87699456	35102744	24992
966	11.216135	115712000	87699456	45014200	24992
967	14.638353	115712000	87699456	39158632	24992
968	15.080586	115712000	87699456	33953456	24992
969	15.964043	115712000	87699456	29393200	24992
970	14.062733	115712000	87699456	41944560	24992
971	17.643322	115712000	87699456	38727048	24992
972	18.220156	115982336	87699456	36172648	24992
973	19.180961	115982336	87699456	34258000	24992
974	20.130836	115982336	87699456	33005784	24992
975	20.378198	115982336	87699456	32415176	24992
976	21.399005	115982336	87699456	32486008	24992
977	22.7398	115982336	87699456	33218416	24992
978	22.593671	115982336	87699456	34612328	24992
979	23.498519	115982336	87699456	36667368	24992
980	24.361266	115982336	87699456	39383528	24992
981	25.139084	116252672	87699456	42761184	24992
982	28.53241	116252672	87699456	30342480	24992
983	26.697332	116252672	87699456	35015632	24992
984	27.164461	116252672	87699456	40387480	24992
985	31.644552	116252672	87699456	29969696	24992
986	28.936419	116252672	87699456	36631440	24992
987	29.598259	116252672	87699456	43988120	24992
988	33.099622	116523008	87699456	35555696	24992
989	30.659965	116523008	87699456	44198464	24992
990	34.605715	116523008	87699456	37095456	24992
991	35.339112	116523008	87699456	30618696	24992
992	33.290124	116523008	87699456	41243688	24992
993	36.820851	116523008	87699456	36125824	24992
994	37.873761	116793344	87699456	31631936	24992
995	36.20158	116793344	87699456	44243352	24992
996	38.948175	116793344	87699456	41112968	24992
997	39.93918	116793344	87699456	38606024	24992
998	40.555898	117063680	87699456	36756952	24992
999	41.24929	117063680	87699456	35569360	24992
1000	42.538197	117063680	87699456	35044104	24992
