x	Duration	RSS	HeapTotal	HeapUsed	External
0	NA	94187520	61485056	10975288	24992
1	1.272326	94187520	61485056	11655400	24992
2	2.178741	94187520	61485056	12993800	24992
3	3.189704	94187520	61485056	14991616	24992
4	4.11559	94187520	61485056	17648920	24992
5	4.498625	94187520	61485056	20966360	24992
6	4.600216	94187520	61485056	24943304	24992
7	5.817542	94187520	61485056	13113936	24992
8	5.847905	94187520	61485056	18410008	24992
9	6.763039	94187520	61485056	24366616	24992
10	7.810728	94187520	61485056	14523576	24992
11	8.269031	94187520	61485056	21799392	24992
12	9.332158	94187520	61485056	13267200	24992
13	9.680311	94187520	61485056	21862056	24992
14	10.619669	94187520	61485056	14648400	24992
15	11.420446	94187520	61485056	24562392	24992
16	12.086726	94187520	61485056	18670560	24992
17	12.67153	94187520	61485056	13436992	24992
18	13.510403	94187520	61485056	25331584	24992
19	13.998413	94187520	61485056	21420088	24992
20	15.302204	94187520	61485056	18169888	24992
21	17.21981	94187520	61485056	15587688	24992
22	16.216455	94187520	61485056	13652976	24992
23	17.195792	94187520	61485056	12378856	24992
24	18.510387	94187520	61485056	11765256	24992
25	18.567412	94187520	61485056	11812272	24992
26	19.782328	94187520	61485056	12520240	24992
27	20.039175	94187520	61485056	13888344	24992
28	21.197246	94187520	61485056	15922320	24992
29	22.67409	94187520	61485056	18624448	24992
30	23.421876	94187520	61485056	21981952	24992
31	23.286143	94187520	61485056	25991224	24992
32	24.667518	94187520	61485056	14196544	24992
33	24.916998	94187520	61485056	19528752	24992
34	25.705465	94187520	61485056	25531688	24992
35	26.330546	94187520	61485056	15721552	24992
36	27.123898	94187520	61485056	23035064	24992
37	27.348638	94187520	61485056	14552584	24992
38	28.811323	94187520	61485056	23185688	24992
39	29.862664	94187520	61485056	16026024	24992
40	29.760752	94187520	61485056	25981016	24992
41	30.580225	94187520	61485056	20140632	24992
42	31.177531	94187520	61485056	14958960	24992
43	32.704946	94187520	61485056	26892440	24992
44	33.237821	94187520	61485056	23033936	24992
45	33.265935	94187520	61485056	19837008	24992
46	34.089969	94187520	61485056	17295656	24992
47	35.925998	94187520	61485056	15423472	24992
48	35.554576	94187520	61485056	14204544	24992
49	36.453975	94187520	61485056	13646384	24992
50	37.00178	94187520	61485056	13750232	24992
51	37.901923	94187520	61485056	14515088	24992
52	0.811845	94187520	61485056	15769072	24992
53	1.492962	94187520	61485056	17107096	24992
54	2.235229	94187520	61485056	19104576	24992
55	2.904171	94187520	61485056	21761544	24992
56	3.661177	94187520	61485056	25078520	24992
57	4.595365	94187520	61485056	29054968	24992
58	5.3851	94187520	61485056	17222368	24992
59	6.021904	94187520	61485056	22517816	24992
60	6.622692	94187520	61485056	28473688	24992
61	7.521224	94187520	61485056	18629256	24992
62	8.420073	94187520	61485056	25904080	24992
63	8.881872	94187520	61485056	17370928	24992
64	9.585871	94187520	61485056	25964824	24992
65	10.32981	94187520	61485056	18750096	24992
66	11.252098	94187520	61485056	28662952	24992
67	12.031492	94187520	61485056	22769424	24992
68	12.597127	94187520	61485056	17534800	24992
69	13.595319	94187520	61485056	12957192	24992
70	13.872393	94187520	61485056	25509752	24992
71	15.04576	94187520	61485056	22258184	24992
72	15.873996	94187520	61485056	19665904	24992
73	16.140584	94187520	61485056	17727544	24992
74	17.318024	94187520	61485056	16450416	24992
75	17.571775	94187520	61485056	15833728	24992
76	18.770915	94187520	61485056	15877504	24992
77	18.999523	94187520	61485056	16581704	24992
78	20.09125	94187520	61485056	17946336	24992
79	21.015409	94187520	61485056	19971424	24992
80	21.339014	94187520	61485056	22656256	24992
81	22.424613	94187520	61485056	26002768	24992
82	23.272403	94187520	61485056	13539448	24992
83	24.201214	94187520	61485056	18204168	24992
84	25.568982	94187520	61485056	23549448	24992
85	25.425026	94187520	61485056	29556344	24992
86	26.643452	94187520	61485056	19769488	24992
87	26.697041	94187520	61485056	27106816	24992
88	28.176666	94187520	61485056	18666624	24992
89	28.610822	94187520	61485056	27309728	24992
90	29.23254	94187520	61485056	20198560	24992
91	29.898664	94187520	61485056	13721344	24992
92	30.112364	94187520	61485056	24346176	24992
93	32.161973	94187520	61485056	19220920	24992
94	32.085821	94187520	61485056	14725200	24992
95	32.302997	94187520	61485056	27331568	24992
96	34.28126	94187520	61485056	24191664	24992
97	34.329783	94187520	61485056	21684456	24992
98	34.787856	94187520	61485056	19834912	24992
99	36.241355	94187520	61485056	18647120	24992
100	36.390374	94187520	61485056	18121456	24992
101	37.612271	94187520	61485056	18258216	24992
102	0.804514	94187520	61485056	18865536	24992
103	1.663797	94187520	61485056	20203864	24992
104	2.202145	94187520	61485056	22201064	24992
105	2.955603	94187520	61485056	24857624	24992
106	3.667777	94187520	61485056	28174112	24992
107	4.85749	94187520	61485056	15693880	24992
108	5.093373	94187520	61485056	20329160	24992
109	6.194052	94187520	61485056	25623848	24992
110	6.981497	94187520	61485056	15149232	24992
111	7.22357	94187520	61485056	21763720	24992
112	8.137117	94187520	61485056	29037736	24992
113	9.387778	94187520	61485056	20547008	24992
114	9.556403	94187520	61485056	29139664	24992
115	10.538434	94187520	61485056	21969800	24992
116	11.504209	94187520	61485056	15437656	24992
117	11.855617	94187520	61485056	26008536	24992
118	12.732175	94187520	61485056	20802912	24992
119	13.849485	94187520	61485056	16260352	24992
120	13.873042	94187520	61485056	28811696	24992
121	15.127735	94187520	61485056	25594040	24992
122	16.183764	94187520	61485056	23039448	24992
123	16.600646	94187520	61485056	21124960	24992
124	17.115848	94187520	61485056	19871896	24992
125	18.123093	94187520	61485056	19281352	24992
126	19.034062	94187520	61485056	19352200	24992
127	19.997947	94187520	61485056	20084592	24992
128	20.114115	94187520	61485056	21478520	24992
129	21.255376	94187520	61485056	23533200	24992
130	22.114759	94187520	61485056	26249304	24992
131	22.298616	94187520	61485056	29626608	24992
132	23.652908	94187520	61485056	17207744	24992
133	24.287572	94187520	61485056	21880816	24992
134	24.339651	94187520	61485056	27245880	24992
135	26.54476	94187520	61485056	16820168	24992
136	26.185115	94187520	61485056	23481760	24992
137	27.070078	94187520	61485056	30832776	24992
138	28.491163	94187520	61485056	22392624	24992
139	28.700147	94187520	61485056	31035248	24992
140	30.206258	94187520	61485056	23923968	24992
141	30.6432	94187520	61485056	17448656	24992
142	30.968139	94187520	61485056	28077104	24992
143	32.111218	94187520	61485056	22951728	24992
144	33.247003	94187520	61485056	18459432	24992
145	32.963647	94187520	61485056	31065912	24992
146	34.671053	94187520	61485056	27929344	24992
147	35.168581	94187520	61485056	25420936	24992
148	36.016298	94187520	61485056	23573360	24992
149	36.260319	94187520	61485056	22385536	24992
150	37.300571	94187520	61485056	21859088	24992
151	37.793487	94187520	61485056	21995576	24992
152	0.813106	94187520	61485056	22602816	24992
153	1.493827	94187520	61485056	23940560	24992
154	2.199044	94187520	61485056	25937712	24992
155	2.901774	94187520	61485056	28594272	24992
156	3.657446	94187520	61485056	31910744	24992
157	5.273237	94187520	61485056	19430096	24992
158	5.113653	94187520	61485056	24065376	24992
159	5.782909	94187520	61485056	29360112	24992
160	7.316129	94187520	61485056	18884968	24992
161	7.211871	94187520	61485056	25499472	24992
162	8.171086	94187520	61485056	32773328	24992
163	9.447813	94187520	61485056	24282632	24992
164	9.346884	94187520	61485056	32875288	24992
165	10.874351	94187520	61485056	25704784	24992
166	11.575705	94187520	61485056	19172544	24992
167	11.486426	94187520	61485056	29743488	24992
168	13.400617	94187520	61485056	24537848	24992
169	14.027721	94187520	61485056	19995256	24992
170	14.731329	94187520	61485056	32554880	24992
171	15.524781	94187520	61485056	29337144	24992
172	16.452078	94187520	61485056	26782248	24992
173	16.836568	94187520	61485056	24867584	24992
174	17.555554	94187520	61485056	23614520	24992
175	18.505058	94187520	61485056	23022936	24992
176	18.950818	94187520	61485056	23093400	24992
177	19.756283	94187520	61485056	23825344	24992
178	21.148094	94187520	61485056	25218456	24992
179	21.434671	94187520	61485056	27273064	24992
180	22.239178	94187520	61485056	29989224	24992
181	23.123151	94187520	61485056	33366544	24992
182	24.505277	94187520	61485056	20947008	24992
183	24.368832	94187520	61485056	25620112	24992
184	25.763335	94187520	61485056	30985352	24992
185	26.545317	94187520	61485056	20557920	24992
186	26.756622	94187520	61485056	27219632	24992
187	28.139923	94187520	61485056	18123192	24992
188	28.514932	94187520	61485056	26106008	24992
189	29.751233	94187520	61485056	18330736	24992
190	29.656839	94187520	61485056	27634416	24992
191	31.311049	94187520	61485056	21184328	24992
192	31.178861	94187520	61485056	31809176	24992
193	33.114893	94187520	61485056	26681536	24992
194	33.747637	94187520	61485056	22191864	24992
195	33.213349	94187520	61485056	34798408	24992
196	35.103729	94187520	61485056	31631864	24992
197	35.780991	94187520	61485056	29138160	24992
198	36.861145	94187520	61485056	27292408	24992
199	37.808056	94187520	61485056	26112544	24992
200	38.110752	94187520	61485056	25586680	24992
201	39.011697	94187520	61485056	25723176	24992
202	0.807381	94187520	61485056	26330520	24992
203	1.484562	94187520	61485056	27668264	24992
204	2.204627	94187520	61485056	29665416	24992
205	2.898084	94187520	61485056	32321976	24992
206	3.665167	94187520	61485056	35638448	24992
207	6.091964	94187520	61485056	23155400	24992
208	5.294872	94187520	61485056	27790680	24992
209	6.184967	94187520	61485056	33085368	24992
210	7.647217	94187520	61485056	22610080	24992
211	7.404045	94187520	61485056	29224536	24992
212	9.084682	94187520	61485056	20061232	24992
213	8.64255	94187520	61485056	27994496	24992
214	10.750058	94187520	61485056	20149384	24992
215	10.469424	94187520	61485056	29401448	24992
216	12.7632	94187520	61485056	22883600	24992
217	11.88424	94187520	61485056	33454544	24992
218	13.474332	94187520	61485056	28265168	24992
219	14.288086	94187520	61485056	23722576	24992
220	15.532348	94187520	61485056	19824176	24992
221	14.445846	94187520	61485056	33035000	24992
222	16.532734	94187520	61485056	30479976	24992
223	17.527696	94187520	61485056	28587888	24992
224	18.084018	94187520	61485056	27334760	24992
225	18.691854	94187520	61485056	26743224	24992
226	19.704763	94187520	61485056	26813240	24992
227	20.11131	94187520	61485056	27544736	24992
228	21.19167	94187520	61485056	28938024	24992
229	21.945853	94187520	61485056	30998376	24992
230	22.229444	94187520	61485056	33716936	24992
231	24.342148	94187520	61485056	20635520	24992
232	24.270231	94187520	61485056	24645264	24992
233	24.666854	94187520	61485056	29350152	24992
234	25.302447	94187520	61485056	34721320	24992
235	27.545724	94187520	61485056	24301328	24992
236	26.992286	94187520	61485056	30963248	24992
237	29.17075	94187520	61485056	21874472	24992
238	28.514806	94187520	61485056	29857400	24992
239	30.772955	94187520	61485056	22090304	24992
240	30.118008	94187520	61485056	31394352	24992
241	32.188352	94187520	61485056	24952184	24992
242	31.538391	94187520	61485056	35577416	24992
243	33.261719	94187520	61485056	30458672	24992
244	34.349674	94187520	61485056	25967296	24992
245	35.12307	94187520	61485056	22133640	24992
246	34.605102	94187520	61485056	35400808	24992
247	36.448537	94187520	61485056	32932496	24992
248	37.460873	94187520	61485056	31085280	24992
249	38.341398	94187520	61485056	29901688	24992
250	38.596908	94187520	61485056	29375984	24992
251	39.563043	94187520	61485056	29512576	24992
252	0.797529	94187520	61485056	30120096	24992
253	1.507309	94187520	61485056	31457840	24992
254	2.18899	94187520	61485056	33454992	24992
255	2.944683	94187520	61485056	36111600	24992
256	5.652947	94187520	61485056	22963560	24992
257	4.581761	94187520	61485056	26939440	24992
258	5.270499	94187520	61485056	31574720	24992
259	5.97023	94187520	61485056	36869408	24992
260	8.353295	94187520	61485056	26394192	24992
261	7.246641	94187520	61485056	33008648	24992
262	9.714209	94187520	61485056	23853016	24992
263	8.634201	94187520	61485056	31786280	24992
264	11.208859	94187520	61485056	23941136	24992
265	10.060508	94187520	61485056	33193200	24992
266	12.868876	94187520	61485056	26674904	24992
267	11.787487	94187520	61485056	37245784	24992
268	14.072894	94187520	61485056	32056440	24992
269	14.524574	94187520	61485056	27513880	24992
270	15.678219	94187520	61485056	23615040	24992
271	14.616141	94187520	61485056	36825744	24992
272	16.968527	94187520	61485056	34270656	24992
273	17.623105	94187520	61485056	32378344	24992
274	18.639107	94187520	61485056	31125216	24992
275	19.428459	94187520	61485056	30533744	24992
276	19.690594	94187520	61485056	30603760	24992
277	20.873997	94187520	61485056	31335288	24992
278	21.742018	94187520	61485056	32728400	24992
279	22.391054	94187520	61485056	34782784	24992
280	23.540828	94187520	61485056	37498480	24992
281	25.32658	94187520	61485056	24417112	24992
282	24.308997	94187520	61485056	28427112	24992
283	25.361032	94187520	61485056	33131152	24992
284	25.790444	94187520	61485056	38502112	24992
285	28.845815	94187520	61485056	28081624	24992
286	27.764546	94187520	61485056	34743176	24992
287	30.041527	94187520	61485056	25652480	24992
288	28.777364	94187520	61485056	33635504	24992
289	31.661119	94187520	61485056	25871752	24992
290	30.117342	94187520	61485056	35175784	24992
291	33.136937	94187520	61485056	28731840	24992
292	31.625355	94187520	61485056	39356352	24992
293	34.35619	94187520	61485056	34213456	24992
294	34.815574	94187520	61485056	29737944	24992
295	36.24203	94187520	61485056	25903904	24992
296	34.401216	94187520	61485056	39171168	24992
297	37.276368	94187520	61485056	36702232	24992
298	38.161377	94187520	61485056	34854984	24992
299	38.718616	94187520	61485056	33670224	24992
300	39.288559	94187520	61485056	33146472	24992
301	40.028818	94187520	61485056	33283288	24992
302	0.820097	94187520	61485056	33890984	24992
303	1.489175	94187520	61485056	35228728	24992
304	2.255229	94187520	61485056	37225880	24992
305	2.901006	94187520	61485056	39882440	24992
306	5.643558	94187520	61485056	26733808	24992
307	4.388664	94187520	61485056	30709688	24992
308	5.26029	94187520	61485056	35344968	24992
309	8.175595	94187520	61485056	24198432	24992
310	6.791592	94187520	61485056	30153480	24992
311	7.172255	94187520	61485056	36767952	24992
312	9.989354	94187520	61485056	27612344	24992
313	9.555538	94187520	61485056	35556360	24992
314	11.633873	94187520	61485056	27722360	24992
315	10.282928	94187520	61485056	36974504	24992
316	12.913722	94187520	61485056	30456592	24992
317	13.700385	94187520	61485056	24586960	24992
318	12.386339	94187520	61485056	35819152	24992
319	15.125951	94187520	61485056	31276216	24992
320	16.299962	94187520	61485056	27396712	24992
321	14.336086	94187520	61485056	40607464	24992
322	17.386442	94187520	61485056	38045304	24992
323	18.13429	94187520	61485056	36152800	24992
324	18.911013	94187520	61485056	34905912	24992
325	19.463787	94187520	61485056	34314104	24992
326	20.625096	94187520	61485056	34384056	24992
327	21.200025	94187520	61485056	35115552	24992
328	21.764944	94187520	61485056	36508360	24992
329	22.586721	94187520	61485056	38562472	24992
330	25.187902	94187520	61485056	24818424	24992
331	24.500842	94187520	61485056	28167656	24992
332	25.077605	94187520	61485056	32208024	24992
333	25.505055	94187520	61485056	36911864	24992
334	28.243195	94187520	61485056	25828888	24992
335	27.378602	94187520	61485056	31830192	24992
336	27.878799	94187520	61485056	38529000	24992
337	30.778879	94187520	61485056	29434120	24992
338	28.941649	94187520	61485056	37417144	24992
339	32.090106	94187520	61485056	29651616	24992
340	30.365339	94187520	61485056	38955888	24992
341	33.558924	94187520	61485056	32515512	24992
342	34.339118	94187520	61485056	26700544	24992
343	32.516449	94187520	61485056	37986432	24992
344	35.861899	94187520	61485056	33530400	24992
345	36.26042	94187520	61485056	29700152	24992
346	37.131295	94187520	61485056	26528384	24992
347	35.554173	94187520	62009344	40456096	24992
348	38.765426	94457856	62533632	38650656	24992
349	39.161986	94457856	62533632	37465016	24992
350	40.122048	94457856	62533632	36941904	24992
351	40.962087	94728192	62533632	37080256	24992
352	0.797514	94728192	62533632	37687840	24992
353	1.499762	94728192	62533632	39025600	24992
354	2.201144	94728192	62533632	41022752	24992
355	5.299965	94728192	62533632	27207904	24992
356	3.680888	94728192	62533632	30524376	24992
357	4.387067	94728192	62533632	34500256	24992
358	5.064478	94728192	62533632	39135536	24992
359	8.170884	94728192	62533632	27989088	24992
360	6.472364	94728192	62533632	33948584	24992
361	7.189807	94728192	62533632	40563040	24992
362	10.320122	94728192	62533632	31418608	24992
363	8.845084	94728192	62533632	39352112	24992
364	11.867012	94728192	62533632	31522192	24992
365	10.065664	94728192	62533632	40774320	24992
366	13.229816	94998528	62533632	34256120	24992
367	13.98744	94998528	62533632	28386512	24992
368	12.270227	94998528	62533632	39618648	24992
369	15.362371	94998528	63057920	35075504	24992
370	16.099519	94998528	63057920	31195856	24992
371	16.868889	94998528	63057920	27959024	24992
372	15.275983	94998528	63057920	41829152	24992
373	18.268317	94998528	63057920	39936608	24992
374	18.955167	95268864	63057920	38706912	24992
375	19.665246	95268864	63057920	38114864	24992
376	20.473251	95268864	63057920	38184368	24992
377	21.449242	95268864	63057920	38915416	24992
378	22.376189	95268864	63057920	40307984	24992
379	23.254053	95268864	63057920	42362000	24992
380	25.923848	95539200	63057920	28617888	24992
381	24.913157	95539200	63057920	31967344	24992
382	25.562053	95539200	63057920	36007696	24992
383	26.6621	95539200	63057920	40711472	24992
384	28.927172	95809536	63057920	29628256	24992
385	27.16585	95809536	63057920	35629592	24992
386	28.102822	95809536	63582208	42328640	24992
387	31.46606	95809536	63582208	33233504	24992
388	30.136435	95809536	64106496	41215744	24992
389	32.835279	96079872	64106496	33450104	24992
390	30.863164	96079872	64106496	42753384	24992
391	34.064471	96079872	64106496	36312992	24992
392	34.947828	96350208	64106496	30497896	24992
393	32.941598	96350208	64106496	41783560	24992
394	36.173918	96350208	64106496	37327464	24992
395	37.121579	96620544	64106496	33497392	24992
396	37.662555	96620544	64106496	30325304	24992
397	35.931218	96620544	64106496	44253048	24992
398	39.605968	96620544	64630784	42431456	24992
399	39.866232	96890880	64630784	41249520	24992
400	40.789822	96890880	64630784	40725512	24992
401	41.442218	96890880	64630784	40863960	24992
402	0.803596	97161216	64630784	41473256	24992
403	1.490625	97161216	64630784	42811000	24992
404	2.20756	97161216	64630784	44808152	24992
405	5.619327	97161216	64630784	30992696	24992
406	3.694742	97161216	64630784	34309168	24992
407	4.412355	97161216	64630784	38285112	24992
408	5.243029	97161216	64630784	42920392	24992
409	8.699505	97161216	64630784	31777496	24992
410	6.512464	97161216	64630784	37732560	24992
411	7.366366	97161216	64630784	44347016	24992
412	11.00912	97161216	65155072	35198136	24992
413	8.633102	97161216	65155072	43131400	24992
414	12.292002	97161216	65155072	35296840	24992
415	10.322019	97161216	65155072	44548904	24992
416	13.765449	97161216	65155072	38029696	24992
417	14.457913	97431552	65155072	32160104	24992
418	12.404621	97431552	65155072	43392240	24992
419	15.87537	97431552	65155072	38849016	24992
420	16.67831	97431552	65155072	34969352	24992
421	17.86052	97431552	65155072	31731640	24992
422	15.882104	97431552	65155072	45601800	24992
423	19.281259	97431552	65155072	43682392	24992
424	19.561159	97431552	65155072	42452424	24992
425	20.269701	97701888	65155072	41884712	24992
426	21.248807	97701888	65155072	41954216	24992
427	21.900416	97701888	65155072	42685264	24992
428	22.120378	97701888	65155072	44077800	24992
429	26.219642	97701888	65155072	29671104	24992
430	24.543808	97972224	65679360	32359952	24992
431	24.801648	97972224	65679360	35738720	24992
432	25.653445	97972224	65679360	39777912	24992
433	26.245025	97972224	66203648	44481640	24992
434	30.404704	98242560	66203648	33398360	24992
435	28.008223	98242560	66203648	39399792	24992
436	28.509043	98242560	66203648	46098744	24992
437	32.548048	98242560	66203648	36980304	24992
438	30.187432	98242560	66203648	44979800	24992
439	33.8774	98512896	66203648	37210192	24992
440	31.230542	98512896	66203648	46513632	24992
441	35.259972	98512896	66203648	40025464	24992
442	35.983321	98512896	66203648	34245696	24992
443	33.468514	98783232	66203648	45531376	24992
444	37.395489	98783232	66727936	41074688	24992
445	38.032991	98783232	66727936	37244552	24992
446	38.681893	99053568	66727936	34072272	24992
447	39.148024	99053568	66727936	31562144	24992
448	37.417804	99053568	66727936	46150384	24992
449	40.589178	99323904	66727936	45006776	24992
450	41.789562	99323904	66727936	44482784	24992
451	42.654606	99323904	67252224	44621120	24992
452	0.804088	99594240	67252224	45230400	24992
453	1.492376	99594240	67252224	46568144	24992
454	5.179434	99594240	67252224	32088016	24992
455	2.922699	99594240	67252224	34744576	24992
456	3.616535	99594240	67252224	38061112	24992
457	4.321316	99594240	67252224	42036992	24992
458	5.053372	99594240	67252224	46672272	24992
459	8.918035	99594240	67252224	35529376	24992
460	6.492525	99594240	67252224	41484424	24992
461	10.301398	99594240	67252224	31669416	24992
462	8.100779	99594240	67252224	38943296	24992
463	8.722947	99594240	67252224	46876560	24992
464	12.478022	99594240	67252224	39041280	24992
465	13.625878	99594240	67252224	31859784	24992
466	10.780431	99594240	67252224	41771256	24992
467	14.654779	99594240	67252224	35901408	24992
468	12.392574	99594240	67252224	47133560	24992
469	16.267778	99864576	67776512	42607232	24992
470	17.467224	99864576	67776512	38727152	24992
471	18.216294	99864576	67776512	35489392	24992
472	18.537607	99864576	67776512	32914144	24992
473	16.243332	99864576	67776512	47443664	24992
474	19.844234	99864576	67776512	46213016	24992
475	20.551404	100134912	67776512	45645712	24992
476	21.69084	100134912	67776512	45714992	24992
477	22.377694	100134912	67776512	46445928	24992
478	22.980974	100134912	67776512	47838352	24992
479	26.949501	100134912	67776512	33429288	24992
480	24.543446	100134912	67776512	36116968	24992
481	25.065991	100405248	67776512	39495752	24992
482	25.986226	100405248	67776512	43535248	24992
483	27.006607	100405248	67776512	48238528	24992
484	30.961118	100405248	67776512	37136896	24992
485	28.375516	100405248	68300800	43150232	24992
486	32.213209	100675584	68825088	33394680	24992
487	29.863283	100675584	68825088	40717112	24992
488	30.572537	100675584	68825088	48735432	24992
489	34.411476	100675584	68825088	40920352	24992
490	35.495278	100945920	68825088	33815336	24992
491	33.094056	100945920	68825088	43779832	24992
492	36.456839	100945920	68825088	37999448	24992
493	37.113863	101216256	68825088	32844360	24992
494	34.572024	101216256	68825088	44790424	24992
495	38.839943	101216256	68825088	40996976	24992
496	39.199967	101486592	69349376	37828504	24992
497	40.558727	101486592	69349376	35318088	24992
498	41.081542	101486592	69349376	33469448	24992
499	38.713428	101486592	69349376	48718232	24992
500	45.341932	101756928	69349376	48237264	24992
501	43.874334	101756928	69349376	48375720	24992
502	0.806698	101756928	69349376	48985192	24992
503	4.832116	101756928	69349376	33840784	24992
504	2.205436	101756928	69349376	35837928	24992
505	3.129102	101756928	69349376	38494488	24992
506	3.894119	101756928	69349376	41810960	24992
507	4.541838	102027264	69349376	45786840	24992
508	8.662012	102027264	69349376	33974640	24992
509	6.001432	102027264	69349376	39269384	24992
510	6.467824	102027264	69349376	45224432	24992
511	10.678491	102027264	69349376	35413896	24992
512	8.436415	102027264	69349376	42687768	24992
513	12.300096	102027264	69349376	34189208	24992
514	9.51743	102027264	69349376	42781864	24992
515	13.74901	102027264	69349376	35600424	24992
516	11.027407	102027264	69349376	45511912	24992
517	15.161813	102027264	69873664	39657256	24992
518	16.093657	102297600	70397952	34452096	24992
519	13.157504	102297600	70397952	46343640	24992
520	17.308107	102297600	70397952	42463584	24992
521	18.386875	102297600	70397952	39246568	24992
522	18.829135	102297600	70397952	36670856	24992
523	19.642602	102297600	70397952	34757168	24992
524	16.746885	102297600	70397952	49946112	24992
525	21.583207	102297600	70397952	49378072	24992
526	21.768754	102567936	70397952	49473472	24992
527	22.640617	102567936	70397952	50203600	24992
528	26.867806	102567936	70397952	35129432	24992
529	23.945106	102567936	70397952	37159360	24992
530	24.806557	102567936	70397952	39876648	24992
531	25.303057	102567936	70397952	43254752	24992
532	26.302578	102838272	70397952	47293944	24992
533	30.531312	102838272	70397952	35541208	24992
534	27.589423	102838272	70397952	40880336	24992
535	28.826729	102838272	70922240	46914264	24992
536	32.849854	103108608	70922240	37156656	24992
537	30.173509	103108608	70922240	44479120	24992
538	34.321263	103108608	70922240	36053184	24992
539	31.427197	103108608	70922240	44696736	24992
540	36.241319	103378944	70922240	37592384	24992
541	32.724421	103378944	70922240	47556944	24992
542	37.467008	103378944	70922240	41775520	24992
543	38.01653	103649280	70922240	36621968	24992
544	35.508938	103649280	70922240	48568080	24992
545	39.507648	103649280	71446528	44774536	24992
546	40.565812	103649280	71446528	41606160	24992
547	41.440856	103919616	71446528	39095392	24992
548	41.89471	103919616	71970816	37246832	24992
549	42.605787	103919616	71970816	36059800	24992
550	39.813644	104189952	71970816	51969096	24992
551	44.26828	104189952	71970816	52093432	24992
552	4.518202	104189952	71970816	36252392	24992
553	1.517637	104189952	71970816	37590144	24992
554	2.222413	104189952	71970816	39587296	24992
555	2.894644	104189952	71970816	42243856	24992
556	4.006275	104189952	71970816	45567128	24992
557	4.405466	104189952	71970816	49543072	24992
558	9.343877	104189952	71970816	37733160	24992
559	5.782227	104189952	71970816	43027848	24992
560	6.705436	104189952	71970816	48982896	24992
561	11.137319	104460288	71970816	39182912	24992
562	8.032153	104460288	71970816	46456848	24992
563	12.901456	104460288	71970816	37958944	24992
564	9.97515	104460288	71970816	46551616	24992
565	14.485868	104460288	71970816	39371536	24992
566	11.347392	104460288	71970816	49283040	24992
567	21.252455	104460288	71970816	43430048	24992
568	17.819389	104460288	71970816	20651744	24992
569	13.428046	104460288	71970816	16066616	24992
570	14.019218	104460288	71970816	12147000	24992
571	14.772789	104460288	71970816	25357800	24992
572	15.589973	104460288	71970816	22763992	24992
573	16.342703	104460288	71970816	20831040	24992
574	16.965397	104460288	71970816	19552120	24992
575	17.793927	104460288	71970816	18933560	24992
576	18.682037	104460288	71970816	18975448	24992
577	19.25662	104460288	71970816	19677712	24992
578	19.903759	104460288	71970816	21040392	24992
579	21.098172	104460288	71970816	23063544	24992
580	22.258852	104460288	71970816	25746552	24992
581	22.763356	104460288	71970816	12620560	24992
582	23.091688	104460288	71970816	16619152	24992
583	23.898998	104460288	71970816	21287352	24992
584	24.454137	104460288	71970816	26619760	24992
585	25.259308	104460288	71970816	16145664	24992
586	26.158522	104460288	71970816	22794208	24992
587	27.015949	104460288	71970816	13647472	24992
588	27.498051	104460288	71970816	21616248	24992
589	28.560076	104460288	71970816	13791248	24992
590	28.834975	104460288	71970816	23080384	24992
591	30.221988	104460288	71970816	16574544	24992
592	30.250242	104460288	71970816	27184168	24992
593	31.745509	104460288	71970816	22000832	24992
594	31.794038	104460288	71970816	17476776	24992
595	33.316383	104460288	71970816	13609928	24992
596	33.17711	104460288	71970816	26860216	24992
597	34.519306	104460288	72495104	24320280	24992
598	35.165012	104730624	73543680	22437760	24992
599	35.813153	104730624	74592256	21218064	24992
600	36.748057	104730624	75640832	20655728	24992
601	37.241568	104730624	76689408	20754920	24992
602	0.817774	105000960	77737984	21347040	24992
603	1.506155	105000960	77737984	22684784	24992
604	2.21328	105000960	77737984	24681936	24992
605	2.915174	105000960	77737984	27338496	24992
606	4.147048	105000960	78262272	14179688	24992
607	4.635841	105000960	78262272	18155568	24992
608	5.106291	105000960	78262272	22790880	24992
609	5.791974	105000960	78262272	28085584	24992
610	7.029706	105000960	78786560	17576688	24992
611	7.226406	105000960	78786560	24191144	24992
612	8.546933	105000960	79310848	14998648	24992
613	8.659623	105000960	79310848	22931912	24992
614	9.913144	105000960	79835136	15055424	24992
615	10.094038	105000960	79835136	24307552	24992
616	11.343704	105000960	80359424	17752424	24992
617	11.552723	105000960	80359424	28323336	24992
618	13.014976	105000960	80883712	23090968	24992
619	13.530717	105000960	81408000	18515400	24992
620	14.276254	105000960	81932288	14595264	24992
621	14.596241	105000960	81932288	27805984	24992
622	15.419289	105000960	82456576	25212112	24992
623	16.562394	105000960	82980864	23279144	24992
624	17.000837	105000960	83505152	22000000	24992
625	18.479048	105271296	84029440	21381440	24992
626	18.709832	105271296	84029440	21426680	24992
627	19.732578	105271296	84029440	22129296	24992
628	20.547307	105271296	84029440	23491928	24992
629	20.903044	105271296	84029440	25516224	24992
630	21.479406	105271296	84029440	28199408	24992
631	22.988717	105271296	84029440	15073336	24992
632	23.190289	105271296	84029440	19071992	24992
633	23.577306	105271296	84029440	23739728	24992
634	24.312297	105271296	84029440	29071912	24992
635	25.43167	105271296	84029440	18597304	24992
636	25.888214	105271296	84029440	25245448	24992
637	27.003998	105271296	84029440	16097864	24992
638	27.538081	105271296	84029440	24066792	24992
639	29.457858	105271296	84029440	16251728	24992
640	29.015539	105271296	84029440	25556968	24992
641	30.217629	105541632	84029440	19105496	24992
642	30.345608	105541632	84029440	29729976	24992
643	31.68304	105541632	84029440	24584432	24992
644	32.056655	105541632	84029440	20105528	24992
645	33.292167	105541632	84029440	16271848	24992
646	32.951532	105541632	84029440	29539256	24992
647	34.219309	105811968	84029440	27062000	24992
648	34.92348	105811968	84029440	25214968	24992
649	35.776008	105811968	84029440	24030392	24992
650	36.633718	105811968	84029440	23506968	24992
651	37.363714	106082304	84029440	23643904	24992
652	0.808585	106082304	84029440	24251096	24992
653	1.485511	106082304	84029440	25588824	24992
654	2.20224	106082304	84029440	27585960	24992
655	2.898151	106082304	84029440	30242504	24992
656	4.246764	106082304	84029440	17096896	24992
657	4.396612	106082304	84029440	21072760	24992
658	5.103586	106082304	84029440	25708024	24992
659	6.248058	106082304	84029440	14566528	24992
660	6.729789	106082304	84029440	20521568	24992
661	7.182684	106082304	84029440	27136072	24992
662	8.614362	106082304	84029440	17984264	24992
663	8.842368	106082304	84029440	25917560	24992
664	10.075409	106082304	84029440	18086416	24992
665	10.123904	106082304	84029440	27338512	24992
666	11.545894	106082304	84029440	20822808	24992
667	11.990653	106352640	84029440	14955104	24992
668	12.672546	106352640	84029440	26187304	24992
669	13.77452	106352640	84029440	21646200	24992
670	14.631375	106352640	84029440	17768520	24992
671	14.563324	106352640	84029440	30979304	24992
672	15.670224	106352640	84029440	28421616	24992
673	16.784548	106352640	84029440	26531048	24992
674	17.18377	106352640	84029440	25282520	24992
675	18.195435	106352640	84029440	24691984	24992
676	18.774938	106352640	84029440	24763240	24992
677	19.928322	106352640	84029440	25496008	24992
678	20.596205	106622976	84029440	26890200	24992
679	20.944343	106622976	84029440	28945616	24992
680	22.354075	106622976	84029440	15203440	24992
681	22.953944	106622976	84029440	18553248	24992
682	23.328772	106622976	84029440	22594840	24992
683	24.052515	106622976	84029440	27299680	24992
684	25.754365	106622976	84029440	16210976	24992
685	25.713963	106622976	84029440	22212376	24992
686	26.303982	106893312	84029440	28904360	24992
687	27.746267	106893312	84029440	19802360	24992
688	27.529158	106893312	84029440	27785480	24992
689	29.403889	106893312	84029440	20012832	24992
690	28.978025	106893312	84029440	29316480	24992
691	31.233764	106893312	84029440	22869200	24992
692	31.176993	107163648	84029440	17054240	24992
693	31.615365	107163648	84029440	28339968	24992
694	32.958158	107163648	84029440	23875904	24992
695	33.572533	107163648	84029440	20045872	24992
696	34.119061	107163648	84029440	16874320	24992
697	34.271007	107163648	84029440	30802064	24992
698	36.309462	107433984	84029440	28987728	24992
699	36.814964	107433984	84029440	27802304	24992
700	37.60138	107433984	84029440	27281768	24992
701	37.706502	107704320	84029440	27420272	24992
702	0.802746	107704320	84029440	28028248	24992
703	1.512449	107704320	84029440	29366072	24992
704	2.184867	107704320	84029440	31363208	24992
705	3.895815	107704320	84029440	17550728	24992
706	3.699412	107704320	84029440	20867184	24992
707	4.386879	107704320	84029440	24843080	24992
708	5.134221	107704320	84029440	29478344	24992
709	6.572076	107704320	84029440	18336856	24992
710	6.485167	107704320	84029440	24291888	24992
711	7.45805	107704320	84029440	30906328	24992
712	8.976324	107704320	84029440	21761960	24992
713	8.852982	107704320	84029440	29695208	24992
714	10.445507	107704320	84029440	21864064	24992
715	10.072391	107704320	84029440	31116144	24992
716	11.84899	107704320	84029440	24600248	24992
717	12.833685	107704320	84029440	18732560	24992
718	12.206959	107704320	84029440	29964680	24992
719	14.045341	107704320	84029440	25423576	24992
720	14.798029	107974656	84029440	21545848	24992
721	15.464788	107974656	84029440	18310352	24992
722	15.296938	107974656	84029440	32180448	24992
723	16.643024	107974656	84029440	30289832	24992
724	17.824508	107974656	84029440	29061928	24992
725	18.367798	107974656	84029440	28471232	24992
726	19.316277	107974656	84029440	28542040	24992
727	19.830406	107974656	84029440	29274408	24992
728	21.408884	107974656	84029440	30677632	24992
729	21.985476	107974656	84029440	32733000	24992
730	23.227502	108244992	84029440	18990824	24992
731	23.51178	108244992	84029440	22340744	24992
732	23.762193	108244992	84029440	26382448	24992
733	24.420432	108244992	84029440	31087224	24992
734	26.094537	108244992	84029440	19998328	24992
735	25.863508	108244992	84029440	25999872	24992
736	26.687886	108244992	84029440	32691920	24992
737	28.694177	108515328	84029440	23589920	24992
738	28.081027	108515328	84029440	31572304	24992
739	29.861977	108515328	84029440	23799480	24992
740	29.729137	108515328	84029440	33102888	24992
741	31.389791	108515328	84029440	26654992	24992
742	31.953511	108515328	84029440	20840208	24992
743	31.95387	108515328	84029440	32125952	24992
744	34.323025	108785664	84029440	27661792	24992
745	34.250195	108785664	84029440	23831920	24992
746	35.154713	108785664	84029440	20660064	24992
747	34.657042	108785664	84029440	34587968	24992
748	36.991347	109056000	84029440	32758672	24992
749	37.007892	109056000	84029440	31575568	24992
750	37.705534	109056000	84029440	31051712	24992
751	39.583428	109056000	84029440	31198656	24992
752	0.801012	109056000	84029440	31808272	24992
753	1.485232	109056000	84029440	33146000	24992
754	2.206269	109056000	84029440	35143136	24992
755	4.03775	109056000	84029440	21330080	24992
756	3.672269	109056000	84029440	24646536	24992
757	4.378648	109056000	84029440	28622400	24992
758	5.256689	109056000	84029440	33257664	24992
759	6.934875	109326336	84029440	22119696	24992
760	6.730707	109326336	84029440	28074744	24992
761	7.189014	109326336	84029440	34689184	24992
762	9.233662	109326336	84029440	25544816	24992
763	8.928443	109326336	84029440	33478064	24992
764	10.769257	109326336	84029440	25646824	24992
765	10.30362	109326336	84029440	34898872	24992
766	12.228633	109326336	84029440	28382240	24992
767	12.96316	109326336	84029440	22514568	24992
768	12.230128	109326336	84029440	33746688	24992
769	14.359296	109326336	84029440	29205344	24992
770	15.099401	109326336	84029440	25327616	24992
771	15.836245	109326336	84029440	22091144	24992
772	15.333007	109326336	84029440	35961240	24992
773	17.299435	109326336	84029440	34043744	24992
774	18.255307	109596672	84029440	32815704	24992
775	18.520011	109596672	84029440	32250088	24992
776	19.626093	109596672	84029440	32320896	24992
777	20.240416	109596672	84029440	33053296	24992
778	20.868083	109596672	84029440	34447168	24992
779	22.953592	109596672	84029440	20042600	24992
780	22.748494	109596672	84029440	22731976	24992
781	23.69604	109596672	84029440	26112048	24992
782	24.296314	109867008	84029440	30152512	24992
783	24.911916	109867008	84029440	34857544	24992
784	26.783967	109867008	84029440	23775184	24992
785	26.817146	109867008	84029440	29776904	24992
786	26.830255	109867008	84029440	36476544	24992
787	29.428176	109867008	84029440	27358744	24992
788	28.26177	109867008	84029440	35358528	24992
789	30.975592	110137344	84029440	27589912	24992
790	29.848364	110137344	84029440	36893640	24992
791	31.951562	110137344	84029440	30406400	24992
792	32.678854	110137344	84029440	24627976	24992
793	32.103768	110137344	84029440	35913976	24992
794	34.288073	110407680	84029440	31458152	24992
795	35.348461	110407680	84029440	27628640	24992
796	36.003214	110407680	84029440	24456856	24992
797	36.514038	110407680	84029440	21947320	24992
798	36.021642	110407680	84029440	36535864	24992
799	37.769012	110678016	84029440	35393296	24992
800	38.93699	110678016	84029440	34869928	24992
801	39.598078	110678016	84029440	35008936	24992
802	0.804183	110678016	84029440	35618456	24992
803	1.491391	110678016	84029440	36956184	24992
804	3.615187	110678016	84029440	22477816	24992
805	2.942116	110678016	84029440	25134424	24992
806	3.639367	110678016	84029440	28450880	24992
807	4.615066	110678016	84029440	32426744	24992
808	5.248804	110678016	84029440	37062008	24992
809	7.927138	110678016	84029440	25924096	24992
810	6.516113	110678016	84029440	31879128	24992
811	8.989854	110948352	84029440	22068640	24992
812	7.932273	110948352	84029440	29342504	24992
813	8.77029	110948352	84029440	37275752	24992
814	11.155644	110948352	84029440	29443704	24992
815	11.810687	110948352	84029440	22264792	24992
816	10.792705	110948352	84029440	32176248	24992
817	13.215332	110948352	84029440	26308328	24992
818	12.441421	110948352	84029440	37540464	24992
819	14.696779	110948352	84029440	33016696	24992
820	15.672313	110948352	84029440	29138536	24992
821	15.942357	110948352	84029440	25902064	24992
822	17.052531	110948352	84029440	23328056	24992
823	15.829923	110948352	84029440	37857624	24992
824	18.698258	110948352	84029440	36629160	24992
825	19.527484	111218688	84029440	36063776	24992
826	19.723519	111218688	84029440	36134360	24992
827	21.176166	111218688	84029440	36866552	24992
828	21.151543	111218688	84029440	38260200	24992
829	23.738205	111218688	84029440	23851120	24992
830	22.826899	111218688	84029440	26540912	24992
831	24.044113	111218688	84029440	29921080	24992
832	24.558342	111218688	84029440	33961560	24992
833	25.45341	111489024	84029440	38666144	24992
834	27.389524	111489024	84029440	27564056	24992
835	26.685307	111489024	84029440	33579120	24992
836	29.146086	111489024	84029440	23824496	24992
837	28.114664	111489024	84029440	31147312	24992
838	28.998495	111489024	84029440	39166256	24992
839	31.146693	111759360	84029440	31352480	24992
840	32.264562	111759360	84029440	24248600	24992
841	31.078052	111759360	84029440	34213416	24992
842	33.617211	111759360	84029440	28433928	24992
843	34.531077	111759360	84029440	23279528	24992
844	33.752823	111759360	84029440	35225848	24992
845	35.998595	112029696	84029440	31433344	24992
846	36.028655	112029696	84029440	28265464	24992
847	37.356038	112029696	84029440	25755784	24992
848	38.046405	112029696	84029440	23909128	24992
849	36.5787	112029696	84029440	39158232	24992
850	39.571872	112300032	84029440	38709136	24992
851	41.384723	112300032	84029440	38861120	24992
852	0.816832	112300032	84029440	39470576	24992
853	3.259258	112300032	84029440	24326480	24992
854	2.544011	112300032	84029440	26332120	24992
855	3.132465	112300032	84029440	28988664	24992
856	3.840226	112300032	84029440	32305168	24992
857	4.540634	112300032	84029440	36281032	24992
858	6.915578	112300032	84029440	24469880	24992
859	5.98629	112300032	84029440	29764552	24992
860	6.468205	112300032	84029440	35719584	24992
861	9.09548	112570368	84029440	25910504	24992
862	8.16489	112570368	84029440	33184408	24992
863	10.71585	112570368	84029440	24686712	24992
864	9.338122	112570368	84029440	33279352	24992
865	12.228025	112570368	84029440	26098552	24992
866	11.057872	112570368	84029440	36010072	24992
867	13.628374	112570368	84029440	30156104	24992
868	14.297235	112570368	84029440	24951504	24992
869	13.161465	112570368	84029440	36843032	24992
870	16.063762	112570368	84029440	32963704	24992
871	17.329434	112570368	84029440	29747160	24992
872	17.32787	112570368	84029440	27171736	24992
873	18.732216	112570368	84029440	25259632	24992
874	16.527128	112570368	84029440	40448608	24992
875	19.612615	112840704	84029440	39881080	24992
876	19.89355	112840704	84029440	39976136	24992
877	21.123694	112840704	84029440	40706608	24992
878	23.675543	112840704	84029440	25628424	24992
879	22.646303	112840704	84029440	27662160	24992
880	23.035275	112840704	84029440	30379768	24992
881	23.774674	112840704	84029440	33757856	24992
882	24.746757	112840704	84029440	37797416	24992
883	27.174064	113111040	84029440	26045144	24992
884	26.509587	113111040	84029440	31384256	24992
885	26.966564	113111040	84029440	37419720	24992
886	29.686697	113111040	84029440	27662672	24992
887	28.449921	113111040	84029440	34985232	24992
888	32.067055	113111040	84029440	26568032	24992
889	30.507313	113111040	84029440	35211472	24992
890	32.718525	113381376	84029440	28107072	24992
891	31.914993	113381376	84029440	38071648	24992
892	34.350361	113381376	84029440	32290208	24992
893	35.19548	113381376	84029440	27136640	24992
894	33.603983	113381376	84029440	39082832	24992
895	36.378791	113651712	84029440	35289192	24992
896	36.742343	113651712	84029440	32120736	24992
897	37.926733	113651712	84029440	29609888	24992
898	38.295563	113651712	84029440	27761296	24992
899	39.279376	113922048	84029440	26574120	24992
900	37.533722	113922048	84029440	42483496	24992
901	40.633833	113922048	84029440	42607960	24992
902	3.074124	113922048	84029440	26770192	24992
903	1.537734	113922048	84029440	28107920	24992
904	2.190361	113922048	84029440	30105056	24992
905	3.14688	113922048	84029440	32761600	24992
906	3.674749	113922048	84029440	36078056	24992
907	4.560195	113922048	84029440	40053920	24992
908	7.705225	113922048	84029440	28237560	24992
909	6.023244	113922048	84029440	33532280	24992
910	6.722739	113922048	84029440	39487312	24992
911	9.859261	113922048	84029440	29680512	24992
912	8.067417	113922048	84029440	36954352	24992
913	11.270448	113922048	84029440	28455520	24992
914	9.783707	113922048	84029440	37048160	24992
915	12.536833	114192384	84029440	29866480	24992
916	10.851781	114192384	84029440	39777984	24992
917	14.09162	114192384	84029440	33923248	24992
918	14.928059	114192384	84029440	28718040	24992
919	12.966333	114192384	84029440	40609568	24992
920	16.413546	114192384	84029440	36729224	24992
921	16.583391	114192384	84029440	33512160	24992
922	17.784548	114192384	84029440	30936128	24992
923	18.203694	114192384	84029440	29022344	24992
924	19.425939	114192384	84029440	27770096	24992
925	20.493585	114192384	84029440	27179384	24992
926	20.477419	114462720	84029440	27250240	24992
927	21.552011	114462720	84029440	27982664	24992
928	22.612043	114462720	84029440	29376688	24992
929	22.837352	114462720	84029440	31432208	24992
930	23.46544	114462720	84029440	34149232	24992
931	24.418261	114462720	84029440	37526888	24992
932	24.904319	114462720	84029440	41565888	24992
933	27.969965	114733056	84029440	29812976	24992
934	26.93413	114733056	84029440	35152120	24992
935	27.293455	114733056	84029440	41186144	24992
936	30.801426	114733056	84029440	31428392	24992
937	29.1931	114733056	84029440	38750840	24992
938	32.310126	114733056	84029440	30323544	24992
939	30.314139	114733056	84029440	38966992	24992
940	33.628347	115003392	84029440	31863112	24992
941	31.391035	115003392	84029440	41827872	24992
942	34.946641	115003392	84029440	36048280	24992
943	35.449115	115003392	84029440	30894920	24992
944	34.33637	115003392	84029440	42841192	24992
945	37.222167	115273728	84029440	39047712	24992
946	37.857045	115273728	84029440	35878072	24992
947	38.762362	115273728	84029440	33369256	24992
948	38.953056	115273728	84029440	31520392	24992
949	39.859129	115273728	84029440	30333456	24992
950	40.533141	115544064	84029440	29807976	24992
951	41.377218	115544064	84029440	29944840	24992
952	0.806281	115544064	84029440	30552584	24992
953	1.533366	115544064	84029440	31890312	24992
954	2.238443	115544064	84029440	33887448	24992
955	2.989227	115544064	84029440	36543992	24992
956	3.844299	115544064	84029440	39860448	24992
957	4.666329	115544064	84029440	43836312	24992
958	7.868036	115544064	84029440	32023992	24992
959	5.836772	115544064	84029440	37318664	24992
960	6.688389	115544064	84029440	43273744	24992
961	9.945878	115544064	84029440	33470088	24992
962	7.925489	115544064	84029440	40743928	24992
963	11.385955	115544064	84029440	32244856	24992
964	9.550264	115544064	84029440	40837528	24992
965	12.893585	115544064	84029440	33655560	24992
966	10.842029	115544064	84029440	43567016	24992
967	14.293611	115814400	84029440	37712136	24992
968	14.962526	115814400	84029440	32506928	24992
969	13.325865	115814400	84029440	44398456	24992
970	16.363135	115814400	84029440	40518112	24992
971	16.87899	115814400	84029440	37300744	24992
972	18.12884	115814400	84029440	34724520	24992
973	18.449799	115814400	84029440	32810288	24992
974	19.522411	115814400	84029440	31558040	24992
975	20.107276	115814400	84029440	30967336	24992
976	21.057005	115814400	84029440	31038184	24992
977	21.684622	115814400	84029440	31770576	24992
978	22.911334	116084736	84029440	33164568	24992
979	23.518741	116084736	84029440	35220040	24992
980	23.848939	116084736	84029440	37936184	24992
981	25.094965	116084736	84029440	41313888	24992
982	25.605867	116084736	84029440	45352696	24992
983	28.674861	116084736	84029440	33599096	24992
984	27.077239	116084736	84029440	38938352	24992
985	27.536786	116355072	84029440	44972504	24992
986	31.231644	116355072	84029440	35214048	24992
987	29.058793	116355072	84029440	42536160	24992
988	32.4952	116355072	84029440	34107904	24992
989	30.286222	116355072	84029440	42751488	24992
990	34.367765	116355072	84029440	35648496	24992
991	31.680944	116355072	84029440	45612448	24992
992	35.547094	116625408	84029440	39834016	24992
993	35.966073	116625408	84029440	34680784	24992
994	34.295665	116625408	84029440	46627056	24992
995	38.177704	116625408	84029440	42791152	24992
996	38.210846	116625408	84029440	39654456	24992
997	39.537555	116625408	84029440	37147704	24992
998	39.78488	116625408	84029440	35298664	24992
999	41.815551	116625408	84029440	34111920	24992
1000	41.663343	116625408	84029440	33586680	24992
