x	Duration	RSS	HeapTotal	HeapUsed	External
0	NA	96903168	64630784	10977008	24992
1	1.736832	96903168	64630784	11657088	24992
2	3.019935	96903168	64630784	12995440	24992
3	2.740995	96903168	64630784	14993208	24992
4	2.991825	96903168	64630784	17650432	24992
5	3.712216	96903168	64630784	20967728	24992
6	4.577482	96903168	64630784	24944560	24992
7	5.3405	96903168	64630784	13114816	24992
8	5.845193	96903168	64630784	18410744	24992
9	6.520677	96903168	64630784	24367192	24992
10	7.719111	96903168	64630784	14523976	24992
11	8.009748	96903168	64630784	21799504	24992
12	9.265703	96903168	64630784	13267136	24992
13	9.591252	96903168	64630784	21861768	24992
14	11.679611	96903168	64630784	14662176	24992
15	11.058235	96903168	64630784	24575960	24992
16	11.947665	96903168	64630784	18684224	24992
17	13.066466	96903168	64630784	13450704	24992
18	13.189343	96903168	64630784	25344944	24992
19	14.15657	96903168	64630784	21433528	24992
20	15.031361	96903168	64630784	18183360	24992
21	15.480813	96903168	64630784	15587008	24992
22	16.55862	96903168	64630784	13651912	24992
23	17.189197	96903168	64630784	12377360	24992
24	17.550799	96903168	64630784	11763360	24992
25	18.859906	96903168	64630784	11809944	24992
26	19.416026	96903168	64630784	12517176	24992
27	20.207127	96903168	64630784	13884864	24992
28	21.281957	96903168	64630784	15918264	24992
29	21.32827	96903168	64630784	18607048	24992
30	22.51476	96903168	64630784	21955488	24992
31	23.021907	96903168	64630784	25964264	24992
32	24.035012	96903168	64630784	14169104	24992
33	25.536782	96903168	64630784	19500816	24992
34	25.483683	96903168	64630784	25503200	24992
35	25.915999	96903168	64630784	15693104	24992
36	26.946876	96903168	64630784	23006432	24992
37	27.375943	96903168	64630784	14523960	24992
38	28.116727	96903168	64630784	23156072	24992
39	29.754185	96903168	64630784	15996312	24992
40	31.72461	96903168	65155072	25972656	24992
41	30.40008	96903168	65155072	20132352	24992
42	31.185355	96903168	65155072	14950776	24992
43	31.264891	96903168	65155072	26884208	24992
44	32.475229	97173504	65155072	23025720	24992
45	33.09024	97173504	65155072	19828840	24992
46	33.774579	97173504	65155072	17287616	24992
47	34.825336	97173504	65155072	15408328	24992
48	35.149518	97173504	65155072	14189320	24992
49	36.781294	97443840	65155072	13631160	24992
50	37.023779	97443840	65155072	13734656	24992
51	37.58058	97443840	65155072	14499480	24992
52	0.795212	97443840	65155072	15753352	24992
53	1.496944	97443840	65155072	17091376	24992
54	2.378127	97443840	65155072	19088856	24992
55	3.082509	97443840	65155072	21745824	24992
56	3.699426	97443840	65155072	25062816	24992
57	4.499196	97443840	65155072	29039264	24992
58	5.366092	97443840	65155072	17206664	24992
59	5.759473	97443840	65155072	22502216	24992
60	6.509482	97443840	65155072	28458080	24992
61	7.631629	97443840	65155072	18613648	24992
62	7.910524	97443840	65155072	25888568	24992
63	9.104386	97443840	65155072	17355416	24992
64	9.540864	97443840	65155072	25949216	24992
65	10.47602	97443840	65155072	18734504	24992
66	10.975799	97443840	65155072	28647616	24992
67	12.497787	97443840	65155072	22754088	24992
68	12.673636	97443840	65155072	17519464	24992
69	13.362123	97443840	65155072	12941856	24992
70	13.930356	97443840	65155072	25493936	24992
71	15.572773	97443840	65155072	22249208	24992
72	15.702887	97443840	65155072	19658360	24992
73	16.262866	97443840	65155072	17719888	24992
74	17.086792	97443840	65155072	16442856	24992
75	17.901775	97443840	65155072	15826200	24992
76	18.53372	97443840	65155072	15870024	24992
77	19.098415	97443840	65155072	16574256	24992
78	20.191211	97443840	65155072	17938984	24992
79	20.877565	97443840	65155072	19964120	24992
80	21.27111	97443840	65155072	22648968	24992
81	22.241315	97443840	65155072	25995512	24992
82	23.046171	97443840	65155072	13532192	24992
83	24.461825	97443840	65155072	18196848	24992
84	25.435243	97443840	65155072	23542064	24992
85	25.056699	97443840	65155072	29548960	24992
86	26.514179	97443840	65155072	19762872	24992
87	26.336181	97443840	65155072	27099464	24992
88	27.625627	97443840	65155072	18659488	24992
89	27.945819	97443840	65155072	27302424	24992
90	29.167165	97443840	65155072	20191080	24992
91	29.759044	97710080	65155072	13698688	24992
92	30.362666	97710080	65155072	24319016	24992
93	30.784886	97710080	65155072	19193600	24992
94	32.024292	97710080	65155072	14697864	24992
95	32.438083	97710080	65155072	27304312	24992
96	33.434364	97710080	65155072	24164248	24992
97	34.053561	97710080	65155072	21656880	24992
98	34.972989	97710080	65155072	19807400	24992
99	36.343286	97710080	65155072	18619464	24992
100	36.647554	97710080	65155072	18093784	24992
101	37.18361	97710080	65155072	18230432	24992
102	0.792499	97710080	65155072	18837720	24992
103	1.483005	97710080	65155072	20175464	24992
104	2.201113	97710080	65155072	22172616	24992
105	3.083228	97710080	65155072	24829176	24992
106	3.619329	97710080	65155072	28145744	24992
107	4.771838	97710080	65155072	15665144	24992
108	5.134918	97710080	65155072	20300424	24992
109	5.735411	97710080	65155072	25595112	24992
110	7.121601	97710080	65155072	15120128	24992
111	7.170647	97710080	65155072	21734712	24992
112	8.055595	97710080	65155072	29008648	24992
113	9.088739	97710080	65155072	20518496	24992
114	9.538173	97710080	65155072	29111152	24992
115	10.730252	97710080	65155072	21941288	24992
116	11.221663	97710080	65155072	15409096	24992
117	11.816046	97710080	65155072	25979976	24992
118	13.006687	97710080	65155072	20774352	24992
119	13.422712	97710080	65155072	16231760	24992
120	13.747421	97710080	65155072	28783056	24992
121	15.00164	97710080	65155072	25565336	24992
122	15.736848	97710080	65155072	23010664	24992
123	16.702446	97710080	65155072	21096096	24992
124	16.971264	97710080	65155072	19843032	24992
125	18.232375	97710080	65155072	19252392	24992
126	18.597981	97710080	65155072	19323240	24992
127	19.372107	97710080	65155072	20055632	24992
128	20.614219	97710080	65155072	21449608	24992
129	20.955125	97710080	65155072	23504184	24992
130	21.507492	97710080	65155072	26220312	24992
131	22.593925	97710080	65155072	29597536	24992
132	23.606066	97710080	65155072	17178672	24992
133	24.265635	97710080	65155072	21851696	24992
134	24.783242	97710080	65155072	27216776	24992
135	26.340548	97710080	65155072	16790448	24992
136	26.535709	97710080	65155072	23452800	24992
137	26.916547	97710080	65155072	30803832	24992
138	28.380775	97710080	65155072	22363408	24992
139	28.216226	97710080	65155072	31005968	24992
140	29.790898	97710080	65155072	23894704	24992
141	30.539122	97710080	65155072	17417632	24992
142	30.44005	97710080	65155072	28046080	24992
143	31.888683	97710080	65155072	22920448	24992
144	32.583391	97710080	65155072	18428136	24992
145	32.566638	97710080	65155072	31034648	24992
146	34.174935	97710080	65155072	27898464	24992
147	34.903542	97710080	65155072	25390072	24992
148	35.692962	97710080	65155072	23542528	24992
149	36.655709	97710080	65155072	22354608	24992
150	37.034727	97710080	65155072	21828128	24992
151	37.369665	97710080	65155072	21964472	24992
152	0.80739	97710080	65155072	22571792	24992
153	1.486011	97710080	65155072	23909536	24992
154	2.182007	97710080	65155072	25906688	24992
155	2.898524	97710080	65155072	28563248	24992
156	3.649651	97710080	65155072	31879720	24992
157	5.195376	97710080	65155072	19399072	24992
158	5.126087	97710080	65155072	24034400	24992
159	5.919928	97710080	65155072	29329120	24992
160	7.245572	97710080	65155072	18853976	24992
161	7.358417	97710080	65155072	25468464	24992
162	7.91416	97710080	65155072	32742320	24992
163	9.373575	97710080	65155072	24251480	24992
164	9.534609	97710080	65155072	32844136	24992
165	10.992369	97710080	65155072	25673728	24992
166	11.91087	97710080	65155072	19141504	24992
167	11.618294	97710080	65155072	29712400	24992
168	13.162315	97710080	65155072	24506760	24992
169	13.922506	97710080	65155072	19964168	24992
170	14.670235	97710080	65155072	32523792	24992
171	15.66037	97710080	65155072	29306152	24992
172	16.000312	97710080	65155072	26751352	24992
173	16.922378	97710080	65155072	24836688	24992
174	17.450974	97710080	65155072	23583544	24992
175	18.552255	97710080	65155072	22992136	24992
176	18.736037	97710080	65155072	23062568	24992
177	19.96518	97710080	65155072	23794528	24992
178	20.901247	97710080	65155072	25187752	24992
179	21.201236	97710080	65155072	27242344	24992
180	22.006243	97710080	65155072	29958456	24992
181	22.898328	97710080	65155072	33335664	24992
182	24.25344	97710080	65155072	20916256	24992
183	24.281638	97710080	65155072	25589376	24992
184	25.148105	97710080	65155072	30954552	24992
185	26.390689	97710080	65155072	20527272	24992
186	26.788133	97710080	65155072	27188912	24992
187	28.255606	97710080	65155072	18092408	24992
188	27.859576	97710080	65155072	26075080	24992
189	29.714183	97710080	65155072	18299888	24992
190	29.445567	97710080	65155072	27603600	24992
191	31.336612	97710080	65155072	21153336	24992
192	31.537815	97710080	65155072	31778200	24992
193	32.124828	97710080	65155072	26650592	24992
194	33.002261	97710080	65155072	22158376	24992
195	33.197105	97710080	65155072	34764968	24992
196	34.433636	97710080	65155072	31599336	24992
197	35.622816	97710080	65155072	29104880	24992
198	35.946221	97710080	65155072	27259080	24992
199	37.917317	97710080	65155072	26079216	24992
200	37.331054	97710080	65155072	25553432	24992
201	38.509053	97710080	65155072	25689896	24992
202	0.808778	97710080	65155072	26299880	24992
203	1.479144	97710080	65155072	27637624	24992
204	2.192273	97710080	65155072	29634776	24992
205	2.898133	97710080	65155072	32291336	24992
206	3.652805	97710080	65155072	35607808	24992
207	5.498639	97710080	65155072	23126536	24992
208	5.081932	97710080	65155072	27761816	24992
209	5.766839	97710080	65155072	33056504	24992
210	7.583372	97710080	65155072	22581216	24992
211	7.165849	97710080	65155072	29195672	24992
212	9.064942	97710080	65155072	20032368	24992
213	8.762906	97710080	65155072	27965632	24992
214	10.651305	97710080	65155072	20120616	24992
215	10.250379	97710080	65155072	29372680	24992
216	11.92164	97710080	65155072	22854832	24992
217	11.689737	97710080	65155072	33425760	24992
218	13.483844	97710080	65155072	28236448	24992
219	14.265901	97710080	65155072	23693888	24992
220	14.951854	97710080	65155072	19795488	24992
221	14.520568	97710080	65155072	33006312	24992
222	16.32339	97710080	65155072	30451288	24992
223	17.69461	97710080	65155072	28559200	24992
224	17.599271	97710080	65155072	27306200	24992
225	18.700341	97710080	65155072	26714696	24992
226	19.36243	97710080	65155072	26784648	24992
227	19.955758	97710080	65155072	27516160	24992
228	20.766524	97710080	65155072	28909208	24992
229	21.286371	97710080	65155072	30969544	24992
230	22.103643	97710080	65155072	33688120	24992
231	24.401937	97710080	65155072	20606672	24992
232	24.226303	97710080	65155072	24616400	24992
233	24.678665	97710080	65155072	29321976	24992
234	25.233399	97710080	65155072	34693160	24992
235	27.293474	97710080	65155072	24273152	24992
236	27.020935	97710080	65155072	30935072	24992
237	28.566549	97710080	65155072	21846312	24992
238	27.920205	97710080	65155072	29829192	24992
239	30.446845	97710080	65155072	22062224	24992
240	29.718488	97710080	65155072	31366256	24992
241	31.497767	97710080	65155072	24924184	24992
242	31.020383	97710080	65155072	35549352	24992
243	32.998102	97710080	65155072	30430688	24992
244	33.689127	97710080	65155072	25939024	24992
245	34.309829	97710080	65155072	22105480	24992
246	33.814502	97710080	65155072	35372648	24992
247	36.000516	97710080	65155072	32904416	24992
248	37.13196	97710080	65155072	31057264	24992
249	37.653753	97710080	65155072	29873688	24992
250	38.493371	97710080	65155072	29347936	24992
251	39.368643	97710080	65155072	29484512	24992
252	0.794749	97710080	65155072	30092176	24992
253	1.520356	97710080	65155072	31429920	24992
254	2.202171	97710080	65155072	33427072	24992
255	3.091398	97710080	65155072	36083696	24992
256	5.521836	97710080	65155072	22935656	24992
257	4.414282	97710080	65155072	26911536	24992
258	5.394783	97710080	65155072	31546816	24992
259	5.728716	97710080	65155072	36841504	24992
260	8.222103	97710080	65155072	26366288	24992
261	7.167791	97710080	65155072	32980744	24992
262	9.558587	97710080	65155072	23825112	24992
263	8.777336	97710080	65155072	31758376	24992
264	11.054615	97710080	65155072	23913232	24992
265	10.026406	97710080	65155072	33165296	24992
266	12.444616	97710080	65155072	26647000	24992
267	11.636519	97710080	65155072	37217880	24992
268	13.940875	97710080	65155072	32028712	24992
269	14.579768	97710080	65155072	27486136	24992
270	15.320157	97710080	65155072	23587376	24992
271	14.837265	97710080	65155072	36798080	24992
272	16.749628	97710080	65155072	34242976	24992
273	17.260024	97710080	65155072	32350696	24992
274	18.388379	97710080	65155072	31097616	24992
275	18.895436	97710080	65155072	30506112	24992
276	19.674758	97710080	65155072	30576096	24992
277	20.529983	97710080	65155072	31307608	24992
278	21.297968	97710080	65155072	32700640	24992
279	21.64494	97710080	65155072	34755008	24992
280	22.823238	97710080	65155072	37470688	24992
281	25.348579	97710080	65155072	24389272	24992
282	24.424179	97710080	65155072	28399016	24992
283	25.325239	97710080	65155072	33103136	24992
284	25.535307	97710080	65155072	38474064	24992
285	28.008722	97710080	65155072	28053336	24992
286	27.131268	97710080	65155072	34715048	24992
287	29.67111	97710080	65155072	25624496	24992
288	28.732957	97710080	65155072	33607472	24992
289	31.163552	97710080	65155072	25843800	24992
290	29.88143	97710080	65155072	35147880	24992
291	32.616497	97710080	65155072	28703920	24992
292	31.352267	97710080	65155072	39328352	24992
293	33.908146	97710080	65155072	34186976	24992
294	34.230445	97710080	65155072	29710680	24992
295	35.505005	97710080	65155072	25876672	24992
296	34.312896	97710080	65155072	39143936	24992
297	37.376028	97710080	65155072	36675064	24992
298	37.544174	97710080	65155072	34827944	24992
299	38.48145	97710080	65155072	33643328	24992
300	38.748708	97710080	65155072	33119592	24992
301	39.420254	97710080	65155072	33256360	24992
302	0.793044	97710080	65155072	33863976	24992
303	1.523954	97710080	65155072	35201720	24992
304	2.234667	97710080	65155072	37198872	24992
305	2.980355	97710080	65155072	39855432	24992
306	5.536047	97710080	65155072	26706768	24992
307	4.364727	97710080	65155072	30682720	24992
308	5.065914	97710080	65155072	35317992	24992
309	7.651718	97710080	65155072	24171472	24992
310	6.503409	97710080	65155072	30126520	24992
311	7.159791	97710080	65155072	36741024	24992
312	9.862138	97710080	65155072	27585432	24992
313	9.504255	97710080	65155072	35529304	24992
314	11.59886	97710080	65155072	27695304	24992
315	10.386936	97710080	65155072	36947416	24992
316	12.714573	97710080	65155072	30429520	24992
317	13.600039	97710080	65155072	24559888	24992
318	12.350654	97710080	65155072	35792048	24992
319	14.985592	97710080	65155072	31249016	24992
320	15.902061	97710080	65155072	27369416	24992
321	14.539512	97710080	65155072	40580136	24992
322	17.036283	97710080	65155072	38019352	24992
323	18.230586	97710080	65155072	36126848	24992
324	18.439599	97710080	65155072	34879096	24992
325	19.642079	97710080	65155072	34287496	24992
326	20.249906	97710080	65155072	34357592	24992
327	20.996502	97710080	65155072	35089088	24992
328	21.677127	97710080	65155072	36481960	24992
329	22.384945	97710080	65155072	38536072	24992
330	24.931467	97710080	65155072	24791976	24992
331	24.383644	97710080	65155072	28141144	24992
332	24.74103	97710080	65155072	32181448	24992
333	25.483677	97710080	65155072	36885160	24992
334	28.247859	97710080	65155072	25802088	24992
335	26.720879	97710080	65155072	31803328	24992
336	27.650645	97710080	65155072	38502248	24992
337	30.150254	97710080	65155072	29407144	24992
338	28.848107	97710080	65155072	37390200	24992
339	31.759952	97710080	65155072	29624704	24992
340	30.30935	97710080	65155072	38928832	24992
341	33.394418	97710080	65155072	32488376	24992
342	33.739717	97710080	65155072	26673264	24992
343	32.86053	97710080	65155072	37958896	24992
344	35.210318	97710080	65155072	33502832	24992
345	36.198742	97710080	65155072	29672632	24992
346	36.890303	97710080	65155072	26500896	24992
347	35.733508	97710080	65155072	40428624	24992
348	38.314259	97710080	65155072	38622992	24992
349	39.004497	97710080	65155072	37437520	24992
350	40.119843	97710080	65155072	36914336	24992
351	40.671762	97710080	65155072	37052608	24992
352	0.809948	97710080	65155072	37660160	24992
353	1.482063	97710080	65155072	38997920	24992
354	2.189824	97710080	65155072	40995072	24992
355	5.173999	97710080	65155072	27180192	24992
356	3.671394	97710080	65155072	30496664	24992
357	4.495523	97710080	65155072	34472544	24992
358	5.05293	97710080	65155072	39107824	24992
359	8.330271	97710080	65155072	27961344	24992
360	6.732777	97710080	65155072	33920840	24992
361	7.14416	97710080	65155072	40535296	24992
362	10.296633	97710080	65155072	31390864	24992
363	8.778753	97710080	65155072	39324128	24992
364	11.807567	97710080	65155072	31494208	24992
365	10.247391	97710080	65155072	40746304	24992
366	13.292282	97710080	65155072	34227832	24992
367	14.125589	97710080	65155072	28358208	24992
368	12.383409	97710080	65155072	39590344	24992
369	15.469661	97710080	65155072	35047312	24992
370	16.352232	97710080	65155072	31167664	24992
371	17.151063	97710080	65155072	27930864	24992
372	15.349301	97710080	65155072	41800976	24992
373	18.539359	97710080	65155072	39908560	24992
374	19.265536	97710080	65155072	38678736	24992
375	19.598969	97710080	65155072	38086688	24992
376	20.64318	97710080	65155072	38156224	24992
377	21.387578	97710080	65155072	38887320	24992
378	21.997637	97710080	65155072	40279888	24992
379	22.439167	97710080	65155072	42333920	24992
380	25.934072	97710080	65155072	28589824	24992
381	24.406092	97710080	65155072	31939088	24992
382	25.546283	97710080	65155072	35979472	24992
383	25.735659	97710080	65155072	40683184	24992
384	28.614708	97710080	65155072	29600000	24992
385	27.579685	97710080	65155072	35601384	24992
386	28.007807	97710080	65155072	42300384	24992
387	31.296435	97710080	65155072	33205328	24992
388	29.538371	97710080	65155072	41187520	24992
389	32.617774	97980416	65679360	33421880	24992
390	31.090988	97980416	65679360	42725176	24992
391	34.254229	97980416	65679360	36284800	24992
392	35.000558	97980416	65679360	30469768	24992
393	32.796047	97980416	65679360	41755448	24992
394	36.74349	98250752	65679360	37299256	24992
395	37.023615	98250752	65679360	33469232	24992
396	37.719379	98250752	65679360	30297128	24992
397	35.966588	98250752	66203648	44224936	24992
398	39.22366	98521088	66203648	42405592	24992
399	39.823851	98521088	66203648	41224384	24992
400	40.304919	98521088	66203648	40700376	24992
401	41.343715	98791424	66203648	40838808	24992
402	0.80753	98791424	66203648	41448168	24992
403	1.477402	98791424	66203648	42785912	24992
404	2.198418	98791424	66203648	44783064	24992
405	5.615658	98791424	66203648	30967608	24992
406	3.655351	98791424	66203648	34284080	24992
407	4.359431	98791424	66203648	38259960	24992
408	5.062916	98791424	66203648	42895240	24992
409	8.575283	98791424	66203648	31752280	24992
410	6.457565	98791424	66203648	37707344	24992
411	7.212502	98791424	66203648	44321800	24992
412	10.799661	98791424	66203648	35172920	24992
413	8.774946	98791424	66203648	43106184	24992
414	12.144317	98791424	66203648	35271592	24992
415	10.015364	98791424	66203648	44523656	24992
416	14.014374	98791424	66203648	38004448	24992
417	14.483355	98791424	66203648	32134840	24992
418	12.413836	98791424	66203648	43366976	24992
419	15.746363	98791424	66727936	38823720	24992
420	16.983236	99061760	66727936	34944056	24992
421	17.605976	99061760	66727936	31706312	24992
422	15.236809	99061760	66727936	45576424	24992
423	18.841854	99061760	66727936	43657672	24992
424	19.642831	99061760	66727936	42427704	24992
425	20.215144	99061760	66727936	41860008	24992
426	20.936073	99061760	66727936	41929592	24992
427	21.647348	99061760	66727936	42660656	24992
428	22.207607	99061760	66727936	44053256	24992
429	25.826955	99332096	66727936	29646560	24992
430	23.841698	99332096	66727936	32335344	24992
431	24.779184	99332096	66727936	35714112	24992
432	25.347844	99332096	66727936	39753304	24992
433	26.157884	99332096	66727936	44457016	24992
434	30.002593	99332096	67252224	33373736	24992
435	27.482458	99332096	67252224	39375152	24992
436	28.460959	99602432	67252224	46074056	24992
437	32.42688	99602432	67252224	36956328	24992
438	29.70511	99602432	67252224	44955112	24992
439	33.596086	99602432	67252224	37185520	24992
440	31.046775	99602432	67252224	46488880	24992
441	35.185568	99872768	67252224	40001384	24992
442	35.512568	99872768	67252224	34221616	24992
443	33.529015	99872768	67252224	45507296	24992
444	36.665774	100143104	67252224	41050512	24992
445	37.960803	100143104	67252224	37220360	24992
446	38.127812	100143104	67252224	34048080	24992
447	39.327067	100143104	67252224	31537968	24992
448	37.086036	100143104	67776512	46126176	24992
449	40.751778	100143104	67776512	44982488	24992
450	41.265375	100143104	67776512	44458496	24992
451	42.168912	100413440	67776512	44597088	24992
452	0.809634	100413440	67776512	45206400	24992
453	1.484254	100413440	67776512	46544168	24992
454	5.245055	100413440	67776512	32064032	24992
455	2.912307	100413440	67776512	34720608	24992
456	3.799964	100413440	67776512	38037080	24992
457	4.310188	100413440	67776512	42012960	24992
458	5.067304	100413440	67776512	46648240	24992
459	9.021464	100413440	67776512	35505344	24992
460	6.665992	100413440	67776512	41460392	24992
461	10.447789	100413440	67776512	31645384	24992
462	8.110625	100413440	67776512	38919296	24992
463	8.761735	100413440	67776512	46852560	24992
464	12.630139	100413440	67776512	39017280	24992
465	13.250499	100683776	67776512	31835784	24992
466	10.970033	100683776	67776512	41747256	24992
467	14.720396	100683776	67776512	35877408	24992
468	12.203943	100683776	67776512	47109576	24992
469	16.408133	100683776	68300800	42583168	24992
470	16.900066	100683776	68300800	38703072	24992
471	17.960466	100683776	68300800	35465472	24992
472	18.854741	100683776	68300800	32890224	24992
473	16.104762	100683776	68300800	47419792	24992
474	19.874635	100954112	68300800	46189160	24992
475	20.451853	100954112	68300800	45621792	24992
476	21.364035	100954112	68300800	45691072	24992
477	21.709771	100954112	68300800	46421912	24992
478	22.764284	100954112	68300800	47814288	24992
479	26.947137	100954112	68300800	33405696	24992
480	24.389942	100954112	68300800	36092632	24992
481	25.178752	100954112	68300800	39471416	24992
482	25.785958	101224448	68300800	43510640	24992
483	26.715165	101224448	68825088	48214128	24992
484	30.964709	101224448	68825088	37113208	24992
485	27.905997	101224448	68825088	43125816	24992
486	32.243155	101494784	68825088	33370232	24992
487	29.54751	101494784	68825088	40692664	24992
488	30.333417	101494784	68825088	48710968	24992
489	34.226945	101494784	68825088	40895216	24992
490	34.878084	101494784	68825088	33790184	24992
491	32.570354	101494784	68825088	43754680	24992
492	36.328445	101765120	68825088	37974296	24992
493	37.425424	101765120	69349376	32819496	24992
494	34.498159	101765120	69349376	44765560	24992
495	38.805713	101765120	69349376	40972080	24992
496	39.729864	102035456	69349376	37803576	24992
497	39.898183	102035456	69349376	35293160	24992
498	40.794948	102035456	69349376	33444520	24992
499	38.584456	102035456	69349376	48693416	24992
500	41.972459	102305792	69349376	48212424	24992
501	43.562513	102305792	69349376	48350920	24992
502	0.797989	102305792	69349376	48960312	24992
503	4.873945	102305792	69349376	33815904	24992
504	2.205274	102305792	69349376	35813048	24992
505	2.950175	102305792	69349376	38469608	24992
506	3.675038	102305792	69349376	41786080	24992
507	4.511833	102305792	69349376	45761960	24992
508	8.70716	102305792	69349376	33949728	24992
509	6.007972	102305792	69349376	39244424	24992
510	6.641643	102305792	69349376	45199504	24992
511	10.647189	102305792	69349376	35388968	24992
512	8.135341	102305792	69349376	42662824	24992
513	12.314211	102305792	69349376	34164264	24992
514	9.484228	102305792	69349376	42756920	24992
515	13.637125	102305792	69349376	35574968	24992
516	10.782421	102305792	69349376	45486488	24992
517	15.077585	102305792	69349376	39631832	24992
518	15.867405	102305792	69873664	34426672	24992
519	12.874209	102305792	69873664	46318216	24992
520	17.669645	102305792	70397952	42438256	24992
521	17.830469	102305792	70397952	39221240	24992
522	18.959975	102305792	70397952	36645512	24992
523	21.376572	102576128	70397952	34731776	24992
524	17.198765	102576128	70397952	49920688	24992
525	21.703836	102576128	70397952	49352648	24992
526	21.85083	102576128	70397952	49447896	24992
527	22.435275	102576128	70397952	50178048	24992
528	26.959666	102576128	70397952	35104672	24992
529	23.993447	102846464	70397952	37133904	24992
530	24.73841	102846464	70397952	39851176	24992
531	25.255834	102846464	70397952	43229280	24992
532	26.286469	102846464	70397952	47268552	24992
533	30.383746	102846464	70397952	35515800	24992
534	27.290632	103116800	70397952	40854912	24992
535	28.266338	103116800	70397952	46888856	24992
536	33.013977	103116800	70922240	37131704	24992
537	29.541862	103116800	70922240	44454112	24992
538	33.938404	103387136	70922240	36028096	24992
539	31.475146	103387136	70922240	44671632	24992
540	35.683129	103387136	70922240	37567248	24992
541	32.761538	103387136	70922240	47531888	24992
542	37.08038	103657472	70922240	41750480	24992
543	37.736133	103657472	70922240	36597104	24992
544	35.183252	103657472	70922240	48543264	24992
545	39.460806	103927808	71446528	44749672	24992
546	39.946727	103927808	71446528	41581200	24992
547	40.742764	103927808	71446528	39070432	24992
548	41.22008	104198144	71446528	37221872	24992
549	42.077954	104198144	71446528	36034840	24992
550	39.238636	104198144	71970816	51944136	24992
551	43.329844	104198144	71970816	52069232	24992
552	4.721945	104468480	71970816	36227048	24992
553	1.513499	104468480	71970816	37564800	24992
554	2.193943	104468480	71970816	39561952	24992
555	2.892839	104468480	71970816	42218512	24992
556	3.654042	104468480	71970816	45541784	24992
557	4.354755	104468480	71970816	49517664	24992
558	9.046342	104468480	71970816	37707752	24992
559	5.758614	104468480	71970816	43002440	24992
560	6.680728	104468480	71970816	48957520	24992
561	11.117019	104468480	71970816	39157536	24992
562	8.186711	104468480	71970816	46431392	24992
563	13.008473	104468480	71970816	37933488	24992
564	9.50234	104468480	71970816	46526160	24992
565	14.661806	104468480	71970816	39346144	24992
566	11.851007	104468480	71970816	49257648	24992
567	21.528229	104738816	71970816	43404592	24992
568	17.084227	104738816	71970816	20886384	24992
569	13.395014	104738816	71970816	16302120	24992
570	14.533566	104738816	71970816	12383416	24992
571	14.557256	104738816	71970816	25595464	24992
572	15.595589	104738816	71970816	23002632	24992
573	16.318395	104738816	71970816	21070768	24992
574	17.576659	104738816	71970816	19792952	24992
575	17.725982	104738816	71970816	19175688	24992
576	18.697428	104738816	71970816	19218824	24992
577	19.113893	104738816	71970816	19922432	24992
578	21.071291	104738816	71970816	21300840	24992
579	20.839522	104738816	71970816	23325768	24992
580	21.232702	104738816	71970816	26010744	24992
581	22.568626	104738816	71970816	12886720	24992
582	22.878555	104738816	71970816	16887760	24992
583	23.644442	104738816	71970816	21558072	24992
584	24.560213	104738816	71970816	26892752	24992
585	26.046679	104738816	71970816	16423896	24992
586	26.068821	104738816	71970816	23072520	24992
587	26.659885	104738816	71970816	13925976	24992
588	27.087149	104738816	71970816	21894800	24992
589	28.411189	104738816	71970816	14069576	24992
590	28.730144	104738816	71970816	23358760	24992
591	29.736602	104738816	71970816	16853016	24992
592	30.643675	104738816	71970816	27462320	24992
593	31.847888	104738816	71970816	22279000	24992
594	32.022503	104738816	71970816	17754752	24992
595	33.167455	104738816	71970816	13887456	24992
596	33.326034	104738816	71970816	27137712	24992
597	33.99232	104738816	71970816	24597952	24992
598	34.826807	105009152	71970816	22715512	24992
599	35.573478	105009152	71970816	21495816	24992
600	36.236956	105009152	71970816	20933480	24992
601	37.190281	105009152	71970816	21032784	24992
602	0.844168	105009152	71970816	21624856	24992
603	1.525965	105009152	71970816	22962600	24992
604	2.255809	105009152	71970816	24959752	24992
605	3.087701	105009152	71970816	27616312	24992
606	4.038866	105009152	71970816	14457504	24992
607	4.37471	105009152	71970816	18433384	24992
608	5.269037	105009152	71970816	23068664	24992
609	5.769127	105009152	71970816	28363352	24992
610	6.901252	105009152	71970816	17853784	24992
611	7.18981	105009152	71970816	24468240	24992
612	8.496674	105009152	71970816	15275792	24992
613	8.772594	105009152	71970816	23209056	24992
614	9.925726	105009152	71970816	15332200	24992
615	10.133484	105009152	71970816	24584264	24992
616	11.056937	105009152	71970816	18029072	24992
617	11.703511	105009152	71970816	28599952	24992
618	12.754707	105009152	71970816	23367632	24992
619	13.463719	105009152	71970816	18791840	24992
620	14.129104	105009152	71970816	14871288	24992
621	14.745604	105009152	71970816	28081992	24992
622	15.477655	105009152	71970816	25488136	24992
623	16.473412	105009152	71970816	23555200	24992
624	17.01404	105009152	71970816	22276104	24992
625	17.935924	105009152	71970816	21657544	24992
626	18.776838	105009152	71970816	21699400	24992
627	19.71977	105009152	71970816	22405032	24992
628	20.387099	105009152	71970816	23768096	24992
629	20.705618	105009152	71970816	25792376	24992
630	21.348171	105009152	71970816	28475400	24992
631	22.417539	105009152	71970816	15348640	24992
632	23.06514	105009152	71970816	19347328	24992
633	23.616276	105009152	71970816	24015080	24992
634	24.268416	105009152	71970816	29347056	24992
635	25.015944	105009152	71970816	18859016	24992
636	25.771675	105009152	71970816	25514800	24992
637	26.801782	105009152	71970816	16364104	24992
638	27.55332	105009152	71970816	24332928	24992
639	28.184713	105009152	71970816	16509312	24992
640	30.055005	105009152	71970816	25807968	24992
641	29.602402	105009152	71970816	19332160	24992
642	30.325727	105009152	71970816	29956576	24992
643	31.287562	105009152	71970816	24783184	24992
644	31.8058	105009152	71970816	20319816	24992
645	32.368419	105009152	71970816	16487896	24992
646	33.042667	105009152	71970816	29755256	24992
647	33.722766	105009152	71970816	27267216	24992
648	34.589786	105009152	71970816	25421208	24992
649	35.901501	105009152	71970816	24236648	24992
650	35.831294	105009152	71970816	23712920	24992
651	36.831404	105009152	71970816	23849856	24992
652	0.793885	105009152	71970816	24457176	24992
653	1.480743	105009152	71970816	25794904	24992
654	2.21288	105009152	71970816	27792040	24992
655	2.922989	105009152	71970816	30448584	24992
656	4.022648	105009152	71970816	17303008	24992
657	4.399944	105009152	71970816	21278872	24992
658	5.076935	105009152	71970816	25914136	24992
659	6.19903	105009152	71970816	14772592	24992
660	6.71638	105009152	71970816	20727648	24992
661	7.368383	105009152	71970816	27342088	24992
662	8.34734	105009152	71970816	18190280	24992
663	8.808835	105009152	71970816	26123528	24992
664	10.014135	105009152	71970816	18292400	24992
665	10.040349	105009152	71970816	27544448	24992
666	11.582428	105009152	71970816	21028728	24992
667	12.203202	105009152	71970816	15161040	24992
668	12.519821	105009152	71970816	26393160	24992
669	13.537603	105009152	71970816	21852104	24992
670	14.409956	105009152	71970816	17974424	24992
671	14.589641	105009152	71970816	31185112	24992
672	16.104576	105009152	71970816	28605856	24992
673	16.292912	105009152	71970816	26715312	24992
674	17.494786	105009152	71970816	25486936	24992
675	17.899481	105009152	71970816	24896416	24992
676	18.92318	105009152	71970816	24967688	24992
677	19.133248	105009152	71970816	25700504	24992
678	20.127168	105009152	71970816	27094664	24992
679	20.932943	105009152	71970816	29150288	24992
680	21.758309	105009152	71970816	15408304	24992
681	22.163283	105009152	71970816	18758128	24992
682	23.332873	105009152	71970816	22799752	24992
683	23.924331	105009152	71970816	27504528	24992
684	24.906183	105009152	71970816	16415760	24992
685	25.537694	105009152	71970816	22417272	24992
686	26.346141	105009152	71970816	29109304	24992
687	27.276152	105009152	71970816	20007384	24992
688	27.453045	105009152	71970816	27990568	24992
689	28.563951	105009152	71970816	20217936	24992
690	28.96178	105009152	71970816	29522144	24992
691	30.60328	105009152	71970816	23075024	24992
692	30.731664	105009152	71970816	17260064	24992
693	31.562919	105009152	71970816	28545776	24992
694	32.328564	105009152	71970816	24081680	24992
695	33.280604	105009152	71970816	20251664	24992
696	34.211808	105009152	71970816	17080128	24992
697	33.900178	105009152	71970816	31007888	24992
698	35.431207	105009152	71970816	29193584	24992
699	36.611368	105009152	71970816	28008528	24992
700	37.506416	105009152	71970816	27487464	24992
701	37.534815	105009152	71970816	27626880	24992
702	0.794553	105009152	71970816	28236024	24992
703	1.518274	105009152	71970816	29573752	24992
704	2.198587	105009152	71970816	31570984	24992
705	3.662569	105009152	71970816	17758552	24992
706	3.66691	105009152	71970816	21075008	24992
707	4.360776	105009152	71970816	25050872	24992
708	5.069598	105009152	71970816	29686136	24992
709	6.567515	105009152	71970816	18544664	24992
710	6.503191	105009152	71970816	24499696	24992
711	7.161457	105009152	71970816	31114136	24992
712	8.751699	105009152	71970816	21969944	24992
713	8.603194	105009152	71970816	29903192	24992
714	10.234866	105009152	71970816	22071936	24992
715	10.196296	105009152	71970816	31323984	24992
716	11.75343	105009152	71970816	24808040	24992
717	12.542249	105009152	71970816	18940336	24992
718	12.662556	105009152	71970816	30172520	24992
719	13.867515	105009152	71970816	25631336	24992
720	14.634996	105009152	71970816	21753672	24992
721	15.414833	105009152	71970816	18518144	24992
722	15.274886	105009152	71970816	32388240	24992
723	16.792218	105009152	71970816	30497704	24992
724	17.531735	105009152	71970816	29269784	24992
725	18.314	105009152	71970816	28679040	24992
726	19.457033	105009152	71970816	28749832	24992
727	19.810629	105009152	71970816	29482216	24992
728	20.576007	105009152	71970816	30876072	24992
729	21.836065	105009152	71970816	32939592	24992
730	22.891157	105009152	71970816	19196728	24992
731	23.076492	105009152	71970816	22546712	24992
732	23.735771	105009152	71970816	26588400	24992
733	24.086542	105009152	71970816	31293208	24992
734	25.919748	105009152	71970816	20204408	24992
735	25.779728	105009152	71970816	26205808	24992
736	26.460217	105009152	71970816	32897904	24992
737	28.364152	105009152	71970816	23795920	24992
738	28.017321	105009152	71970816	31778224	24992
739	29.419966	105009152	71970816	24005384	24992
740	29.533154	105009152	71970816	33308792	24992
741	30.874533	105009152	71970816	26860272	24992
742	32.514952	105009152	71970816	21045504	24992
743	32.262506	105009152	71970816	32331248	24992
744	33.307299	105009152	71970816	27867104	24992
745	34.339832	105009152	71970816	24037344	24992
746	34.619099	105009152	71970816	20865472	24992
747	34.291364	105009152	71970816	34793328	24992
748	36.280302	105009152	71970816	32948744	24992
749	36.751945	105009152	71970816	31782400	24992
750	37.363539	105009152	71970816	31258560	24992
751	39.278077	105009152	71970816	31406384	24992
752	0.800974	105009152	71970816	32016000	24992
753	1.489706	105009152	71970816	33353728	24992
754	2.19108	105009152	71970816	35350864	24992
755	4.03489	105009152	71970816	21537808	24992
756	3.66385	105009152	71970816	24854360	24992
757	4.365674	105009152	71970816	28830224	24992
758	5.076283	105009152	71970816	33465568	24992
759	6.88339	105009152	71970816	22327664	24992
760	6.503123	105009152	71970816	28282696	24992
761	7.170269	105009152	71970816	34897200	24992
762	9.29211	105009152	71970816	25752144	24992
763	8.83013	105009152	71970816	33685456	24992
764	10.836853	105009152	71970816	25854088	24992
765	10.264959	105009152	71970816	35106200	24992
766	12.444343	105009152	71970816	28589600	24992
767	12.796731	105009152	71970816	22721896	24992
768	12.34269	105009152	71970816	33954096	24992
769	14.464497	105009152	71970816	29412752	24992
770	15.550388	105009152	71970816	25535088	24992
771	15.838286	105009152	71970816	22298648	24992
772	16.40882	105009152	71970816	19724744	24992
773	15.909991	105009152	71970816	34254288	24992
774	18.08203	105009152	71970816	33026288	24992
775	18.663145	105009152	71970816	32461000	24992
776	19.579114	105009152	71970816	32531824	24992
777	20.321604	105009152	71970816	33264048	24992
778	20.67548	105009152	71970816	34657760	24992
779	22.783658	105009152	71970816	20253016	24992
780	22.754174	105009152	71970816	22942408	24992
781	23.430067	105009152	71970816	26322464	24992
782	23.981731	105009152	71970816	30363008	24992
783	24.65873	105009152	71970816	35067816	24992
784	26.682866	105009152	71970816	23985504	24992
785	26.083588	105009152	71970816	29987208	24992
786	28.105205	105009152	71970816	20237032	24992
787	27.639549	105009152	71970816	27559592	24992
788	28.330333	105009152	71970816	35578504	24992
789	29.966184	105009152	71970816	27808936	24992
790	30.814055	105009152	71970816	20671224	24992
791	30.974937	105009152	71970816	30636008	24992
792	33.01456	105009152	71970816	24857544	24992
793	32.062114	105009152	71970816	36143592	24992
794	34.180403	105009152	71970816	31687736	24992
795	34.456599	105009152	71970816	27857984	24992
796	35.363891	105009152	71970816	24686200	24992
797	36.115276	105009152	71970816	22176728	24992
798	35.459019	105009152	71970816	36765368	24992
799	38.313799	105009152	71970816	35622768	24992
800	64.725735	105009152	71970816	35099496	24992
801	65.478442	105009152	71970816	35238536	24992
802	1.343658	105009152	71970816	35848072	24992
803	2.563768	105009152	71970816	37185848	24992
804	5.276089	105009152	71970816	22707480	24992
805	5.324868	105009152	71970816	25364024	24992
806	6.78064	105009152	71970816	28680480	24992
807	7.574893	105009152	71970816	32656344	24992
808	8.76049	105009152	71970816	37291608	24992
809	11.729243	105009152	71970816	26153040	24992
810	11.430105	105009152	71970816	32108072	24992
811	14.108648	105009152	71970816	22297368	24992
812	13.93106	105009152	71970816	29571208	24992
813	15.394981	105009152	71970816	37504456	24992
814	17.975178	105009152	71970816	29672440	24992
815	19.723487	105009152	71970816	22493624	24992
816	19.183605	105009152	71970816	32405096	24992
817	21.742341	105009152	71970816	26537208	24992
818	21.524955	105009152	71970816	37769328	24992
819	25.088418	105009152	71970816	33245496	24992
820	25.632173	105009152	71970816	29367320	24992
821	27.170269	105009152	71970816	26130848	24992
822	28.271068	105009152	71970816	23556824	24992
823	28.166822	105009152	71970816	38086328	24992
824	30.920566	105009152	71970816	36852008	24992
825	31.991555	105009152	71970816	36286608	24992
826	33.677658	105009152	71970816	36361704	24992
827	34.545104	105009152	71970816	37093832	24992
828	35.911886	105009152	71970816	38487464	24992
829	38.5695	105009152	71970816	24056384	24992
830	29.19787	105009152	71970816	26764816	24992
831	23.872608	105009152	71970816	30144968	24992
832	24.297613	105009152	71970816	34185448	24992
833	26.817511	105009152	71970816	22434664	24992
834	26.081092	105009152	71970816	27773840	24992
835	26.604619	105009152	71970816	33808648	24992
836	28.820811	105009152	71970816	24052944	24992
837	28.216988	105009152	71970816	31375800	24992
838	30.104231	105009152	71970816	22948832	24992
839	29.617697	105009152	71970816	31592480	24992
840	31.991439	105009152	71970816	24488912	24992
841	30.985907	105009152	71970816	34453808	24992
842	33.809077	105009152	71970816	28674600	24992
843	33.993973	105009152	71970816	23519776	24992
844	33.43514	105009152	71970816	35466160	24992
845	35.415714	105009152	71970816	31673768	24992
846	36.322535	105009152	71970816	28505824	24992
847	36.788441	105009152	71970816	25995824	24992
848	38.122814	105009152	71970816	24147984	24992
849	36.587438	105009152	71970816	39397040	24992
850	39.097944	105009152	71970816	38939432	24992
851	41.354465	105009152	71970816	39089224	24992
852	0.804026	105009152	71970816	39697944	24992
853	3.303646	105009152	71970816	24553192	24992
854	2.425095	105009152	71970816	26558832	24992
855	2.940431	105009152	71970816	29215376	24992
856	3.664143	105009152	71970816	32531832	24992
857	4.506704	105009152	71970816	36507696	24992
858	6.965531	105009152	71970816	24696640	24992
859	5.755252	105009152	71970816	29991312	24992
860	6.472181	105009152	71970816	35946360	24992
861	9.055026	105009152	71970816	26137200	24992
862	7.879879	105009152	71970816	33411040	24992
863	10.833315	105009152	71970816	24913296	24992
864	9.637844	105009152	71970816	33505968	24992
865	12.201239	105009152	71970816	26325152	24992
866	11.059737	105009152	71970816	36236608	24992
867	13.341812	105009152	71970816	30382640	24992
868	14.238872	105009152	71970816	25177960	24992
869	13.142728	105009152	71970816	37069488	24992
870	15.468964	105009152	71970816	33189896	24992
871	16.610188	105009152	71970816	29973472	24992
872	17.33257	105009152	71970816	27398048	24992
873	18.104036	105009152	71970816	25484712	24992
874	17.002116	105009152	71970816	40674600	24992
875	19.443771	105009152	71970816	40091680	24992
876	20.230906	105009152	71970816	40186768	24992
877	20.581349	105009152	71970816	40932344	24992
878	23.868393	105009152	71970816	25829368	24992
879	22.315957	105009152	71970816	27884880	24992
880	23.229622	105009152	71970816	30602696	24992
881	23.8965	105009152	71970816	33980736	24992
882	24.542412	105009152	71970816	38020328	24992
883	27.127988	105009152	71970816	26268040	24992
884	26.497736	105009152	71970816	31607136	24992
885	26.711392	105009152	71970816	37641480	24992
886	29.681605	105009152	71970816	27884288	24992
887	28.291458	105009152	71970816	35206976	24992
888	31.007511	105009152	71970816	26781248	24992
889	30.428399	105009152	71970816	35433000	24992
890	32.653255	105009152	71970816	28328632	24992
891	31.184861	105009152	71970816	38293224	24992
892	33.913204	105009152	71970816	32511816	24992
893	34.332848	105009152	71970816	27358440	24992
894	33.108796	105009152	71970816	39304600	24992
895	35.852136	105009152	71970816	35511200	24992
896	36.862133	105009152	71970816	32343064	24992
897	37.261074	105009152	71970816	29832344	24992
898	38.116866	105009152	71970816	27983864	24992
899	38.954607	105009152	71970816	26796864	24992
900	39.485496	105009152	71970816	26271512	24992
901	40.146946	105009152	71970816	26408184	24992
902	0.907021	105009152	71970816	27016472	24992
903	1.508733	105009152	71970816	28354200	24992
904	2.183207	105009152	71970816	30351336	24992
905	2.940771	105009152	71970816	33007944	24992
906	3.637687	105009152	71970816	36324400	24992
907	4.351587	105009152	71970816	40300264	24992
908	7.616421	105009152	71970816	28488264	24992
909	5.751283	105009152	71970816	33782936	24992
910	6.455438	105009152	71970816	39737968	24992
911	9.383347	105009152	71970816	29934584	24992
912	8.067615	105009152	71970816	37208424	24992
913	10.982011	105009152	71970816	28709592	24992
914	9.32664	105009152	71970816	37302232	24992
915	12.613938	105009152	71970816	30120504	24992
916	10.753437	105009152	71970816	40031960	24992
917	14.2302	105009152	71970816	34177192	24992
918	14.565487	105009152	71970816	28971984	24992
919	12.871785	105009152	71970816	40863560	24992
920	16.114625	105009152	71970816	36983248	24992
921	16.940395	105009152	71970816	33765960	24992
922	17.42788	105009152	71970816	31189816	24992
923	18.470089	105009152	71970816	29276032	24992
924	18.752826	105009152	71970816	28023784	24992
925	20.239685	105009152	71970816	27433288	24992
926	20.574333	105009152	71970816	27504248	24992
927	21.056552	105009152	71970816	28236640	24992
928	22.06949	105009152	71970816	29630664	24992
929	22.651204	105009152	71970816	31686280	24992
930	23.833149	105009152	71970816	34403288	24992
931	24.144239	105009152	71970816	37780928	24992
932	24.896605	105009152	71970816	41819928	24992
933	27.744201	105009152	71970816	30067000	24992
934	26.473054	105009152	71970816	35406208	24992
935	27.154605	105009152	71970816	41440424	24992
936	29.896934	105009152	71970816	31682672	24992
937	28.829891	105009152	71970816	39005152	24992
938	31.746607	105009152	71970816	30577856	24992
939	30.171865	105009152	71970816	39221336	24992
940	33.347913	105009152	71970816	32117408	24992
941	31.542248	105009152	71970816	42082040	24992
942	34.695743	105009152	71970816	36302384	24992
943	35.791584	105009152	71970816	31149008	24992
944	33.904327	105009152	71970816	43095184	24992
945	36.556871	105009152	71970816	39300952	24992
946	37.499594	105009152	71970816	36131424	24992
947	38.276244	105009152	71970816	33622576	24992
948	38.63327	105009152	71970816	31773680	24992
949	39.455396	105009152	71970816	30586712	24992
950	40.343166	105009152	71970816	30061360	24992
951	40.876216	105009152	71970816	30198192	24992
952	0.790664	105009152	71970816	30806016	24992
953	1.495539	105009152	71970816	32143744	24992
954	2.176919	105009152	71970816	34140880	24992
955	2.936298	105009152	71970816	36797424	24992
956	3.656097	105009152	71970816	40113912	24992
957	4.527862	105009152	71970816	44089776	24992
958	7.785609	105009152	71970816	32277456	24992
959	5.942554	105009152	71970816	37572128	24992
960	6.442512	105009152	71970816	43527160	24992
961	9.743656	105009152	71970816	33723392	24992
962	8.311125	105009152	71970816	40997232	24992
963	11.826641	105009152	71970816	32498224	24992
964	9.867865	105009152	71970816	41090864	24992
965	12.644833	105009152	71970816	33909024	24992
966	10.798175	105009152	71970816	43820512	24992
967	14.238281	105009152	71970816	37965616	24992
968	14.965778	105009152	71970816	32760440	24992
969	13.067266	105009152	71970816	44651968	24992
970	16.543249	105009152	71970816	40771016	24992
971	16.923058	105009152	71970816	37553552	24992
972	18.077312	105009152	71970816	34977376	24992
973	18.573263	105009152	71970816	33062728	24992
974	19.322249	105009152	71970816	31810512	24992
975	19.944145	105009152	71970816	31219840	24992
976	21.058103	105009152	71970816	31290672	24992
977	21.63263	105009152	71970816	32023048	24992
978	22.240743	105009152	71970816	33417152	24992
979	23.003171	105009152	71970816	35472592	24992
980	23.551601	105009152	71970816	38188720	24992
981	24.696621	105009152	71970816	41566408	24992
982	25.233779	105009152	71970816	45605072	24992
983	28.436548	105009152	71970816	33842792	24992
984	26.737343	105009152	71970816	39187816	24992
985	27.485008	105009152	71970816	45221872	24992
986	30.659021	105009152	71970816	35463400	24992
987	29.095391	105009152	71970816	42785080	24992
988	32.770661	105009152	71970816	34356840	24992
989	30.076706	105009152	71970816	43000392	24992
990	33.723703	105009152	71970816	35897384	24992
991	31.489475	105009152	71970816	45861224	24992
992	35.059777	105009152	71970816	40082872	24992
993	35.680865	105009152	71970816	34929624	24992
994	36.639038	105009152	71970816	30434760	24992
995	35.240959	105009152	71970816	43046048	24992
996	38.007723	105009152	71970816	39915584	24992
997	39.349668	105009152	71970816	37408752	24992
998	39.47138	105009152	71970816	35559600	24992
999	40.483356	105009152	71970816	34372312	24992
1000	41.070486	105009152	71970816	33847104	24992
