x	Duration	RSS	HeapTotal	HeapUsed	External
0	NA	104087552	74067968	10971656	24992
1	1.367747	104087552	74067968	11651768	24992
2	2.236035	104087552	74067968	12991112	24992
3	3.147082	104087552	74067968	14988928	24992
4	3.4512	104087552	74067968	17646232	24992
5	3.695924	104087552	74067968	20963672	24992
6	4.412435	104087552	74067968	24940616	24992
7	5.555291	104087552	74067968	13111000	24992
8	5.810689	104087552	74067968	18407072	24992
9	6.732643	104087552	74067968	24363680	24992
10	7.472974	104087552	74067968	14520640	24992
11	8.040536	104087552	74067968	21796456	24992
12	9.169227	104087552	74067968	13264264	24992
13	9.755207	104087552	74067968	21859120	24992
14	11.78601	104087552	74067968	14660048	24992
15	11.064227	104087552	74067968	24574024	24992
16	12.789454	104087552	74067968	18690944	24992
17	12.711695	104087552	74067968	13457712	24992
18	12.975337	104087552	74067968	25352304	24992
19	14.156202	104087552	74067968	21441224	24992
20	15.052956	104087552	74067968	18191248	24992
21	15.862028	104087552	74067968	15595056	24992
22	17.273656	104087552	74067968	13668768	24992
23	17.537395	104087552	74067968	12408712	24992
24	17.888581	104087552	74067968	11823064	24992
25	18.946725	104087552	74067968	11899192	24992
26	19.05303	104087552	74067968	12637096	24992
27	20.362129	104087552	74067968	14036888	24992
28	21.024208	104087552	74067968	16103560	24992
29	21.688768	104087552	74067968	18841744	24992
30	22.616486	104087552	74067968	22256208	24992
31	23.329728	104087552	74067968	26333296	24992
32	24.39109	104087552	74067968	14644104	24992
33	24.28745	104087552	74067968	20013048	24992
34	25.51099	104087552	74067968	26086632	24992
35	26.737093	104087552	74067968	16398472	24992
36	26.766085	104087552	74067968	23751784	24992
37	28.263109	104087552	74067968	15387880	24992
38	28.261493	104087552	74067968	24060472	24992
39	29.756503	104087552	74067968	17023184	24992
40	29.651067	104087552	74067968	27020776	24992
41	30.445386	104087552	74067968	21312184	24992
42	31.189155	104087552	74067968	16219992	24992
43	31.750739	104087552	74067968	28199344	24992
44	32.796345	104087552	74067968	24479728	24992
45	33.529714	104087552	74067968	21377072	24992
46	34.358998	104087552	74067968	18937456	24992
47	35.232346	104087552	74067968	17157208	24992
48	36.119793	104087552	74067968	16040768	24992
49	36.993866	104087552	74067968	15587328	24992
50	37.974378	104087552	74067968	15797696	24992
51	38.457566	104087552	74067968	16671528	24992
52	0.801192	104087552	74067968	17986664	24992
53	1.511097	104087552	74067968	19324672	24992
54	2.195225	104087552	74067968	21322152	24992
55	2.944093	104087552	74067968	23979120	24992
56	3.690514	104087552	74067968	27296096	24992
57	5.078576	104087552	74067968	14824784	24992
58	5.254663	104087552	74067968	19460712	24992
59	5.73787	104087552	74067968	24756144	24992
60	7.402745	104087552	74067968	14298968	24992
61	7.194572	104087552	74067968	20914320	24992
62	7.883717	104087552	74067968	28189160	24992
63	9.603726	104087552	74067968	19721824	24992
64	9.513615	104087552	74067968	28315624	24992
65	10.760198	104087552	74067968	21170584	24992
66	11.711013	104087552	74067968	14658488	24992
67	11.643307	104087552	74067968	25230736	24992
68	13.27895	104087552	74067968	20048048	24992
69	14.030467	104087552	74067968	15531024	24992
70	13.834334	104087552	74067968	28083032	24992
71	15.302255	104087552	74067968	24891808	24992
72	16.432108	104087552	74067968	22366136	24992
73	16.843717	104087552	74067968	20459240	24992
74	17.513891	104087552	74067968	19208536	24992
75	18.195229	104087552	74067968	18620240	24992
76	18.903753	104087552	74067968	18693512	24992
77	19.968179	104087552	74067968	19428360	24992
78	20.933568	104087552	74067968	20824808	24992
79	20.962383	104087552	74067968	22881952	24992
80	21.758554	104087552	74067968	25600856	24992
81	22.786107	104087552	74067968	28982432	24992
82	24.170392	104087552	74067968	16567416	24992
83	24.699209	104087552	74067968	21244296	24992
84	24.780565	104087552	74067968	26612440	24992
85	26.744727	104087552	74067968	16187328	24992
86	26.288696	104087552	74067968	22848952	24992
87	27.009584	104087552	74067968	30200024	24992
88	28.731947	104087552	74067968	21759744	24992
89	28.260553	104087552	74067968	30402432	24992
90	29.822441	104087552	74067968	23290656	24992
91	30.701177	104087552	74067968	16813720	24992
92	30.682842	104087552	74067968	27438680	24992
93	32.105643	104087552	74067968	22311408	24992
94	32.846859	104087552	74067968	17819168	24992
95	32.586706	104087552	74067968	30425744	24992
96	34.454463	104087552	74067968	27285776	24992
97	35.13635	104087552	74067968	24777728	24992
98	36.454072	104087552	74067968	22930368	24992
99	37.289397	104087552	74067968	21742616	24992
100	37.897947	104087552	74067968	21216304	24992
101	38.365483	104087552	74067968	21352768	24992
102	0.819133	104087552	74067968	21960088	24992
103	1.511989	104087552	74067968	23297832	24992
104	2.24003	104087552	74067968	25294984	24992
105	2.947966	104087552	74067968	27951544	24992
106	3.689666	104087552	74067968	31268032	24992
107	5.690559	104087552	74067968	18791416	24992
108	5.082693	104087552	74067968	23426696	24992
109	5.757797	104087552	74067968	28721384	24992
110	7.603939	104087552	74067968	18252400	24992
111	7.415302	104087552	74067968	24866968	24992
112	8.09981	104087552	74067968	32140872	24992
113	9.700645	104087552	74067968	23654424	24992
114	9.30454	104087552	74067968	32247080	24992
115	11.344998	104087552	74067968	25080088	24992
116	12.14736	104087552	74067968	18550040	24992
117	11.444628	104087552	74067968	29120920	24992
118	13.573445	104087552	74067968	23917496	24992
119	14.29141	104087552	74067968	19377032	24992
120	14.045317	104087552	74067968	31928360	24992
121	15.890103	104087552	74067968	28712792	24992
122	16.277055	104087552	74067968	26160120	24992
123	17.336326	104087552	74067968	24246888	24992
124	17.577595	104087552	74067968	22995208	24992
125	18.747737	104087552	74067968	22405040	24992
126	19.724531	104087552	74067968	22476872	24992
127	20.175133	104087552	74067968	23210248	24992
128	21.070035	104087552	74067968	24604744	24992
129	21.881479	104087552	74067968	26660736	24992
130	22.144733	104087552	74067968	29378264	24992
131	22.887347	104087552	74067968	32756952	24992
132	25.576141	104087552	74067968	20339576	24992
133	24.497897	104087552	74067968	25013416	24992
134	25.564561	104087552	74067968	30379336	24992
135	27.087128	104087552	74067968	19952760	24992
136	26.918118	104087552	74067968	26614472	24992
137	29.162702	104087552	74067968	17518208	24992
138	28.397807	104087552	74067968	25500864	24992
139	30.221336	104087552	74067968	17725768	24992
140	29.517077	104087552	74067968	27029528	24992
141	32.12576	104087552	74067968	20579456	24992
142	31.15146	104087552	74067968	31208064	24992
143	32.982145	104087552	74067968	26082464	24992
144	33.993924	104087552	74067968	21590400	24992
145	33.360328	104087552	74067968	34197024	24992
146	36.128407	104087552	74067968	31027432	24992
147	36.310492	104087552	74067968	28541400	24992
148	36.798759	104357888	74067968	26695920	24992
149	37.826278	104357888	74067968	25508400	24992
150	38.503584	104357888	74067968	24982352	24992
151	38.855874	104357888	74067968	25118744	24992
152	0.791708	104357888	74067968	25726176	24992
153	1.493808	104357888	74067968	27064032	24992
154	2.191147	104357888	74067968	29061184	24992
155	2.951883	104357888	74067968	31717744	24992
156	5.0326	104357888	74067968	18572112	24992
157	4.595304	104357888	74067968	22547984	24992
158	5.037204	104357888	74067968	27183328	24992
159	5.731175	104357888	74067968	32478032	24992
160	8.143441	104357888	74067968	22007016	24992
161	7.197359	104357888	74067968	28621472	24992
162	9.346832	104357888	74067968	19469072	24992
163	8.687488	104357888	74067968	27402384	24992
164	11.019948	104357888	74067968	19559208	24992
165	10.075983	104357888	74067968	28811384	24992
166	12.44541	104357888	74067968	22295456	24992
167	11.905937	104357888	74067968	32866416	24992
168	13.676744	104357888	74067968	27678928	24992
169	14.686085	104357888	74067968	23137744	24992
170	16.136505	104357888	74067968	19248616	24992
171	14.382715	104357888	74067968	32459368	24992
172	16.728811	104357888	74067968	29905760	24992
173	17.677872	104357888	74067968	28015096	24992
174	18.700131	104357888	74067968	26762952	24992
175	19.315702	104357888	74067968	26172320	24992
176	19.989795	104357888	74067968	26243272	24992
177	20.13115	104357888	74067968	26975704	24992
178	21.555738	104357888	74067968	28369832	24992
179	22.353912	104357888	74067968	30425376	24992
180	22.693644	104357888	74067968	33142056	24992
181	25.02577	104357888	74067968	20062032	24992
182	23.908238	104357888	74067968	24072352	24992
183	25.183243	104357888	74067968	28777936	24992
184	25.493102	104357888	74067968	34143336	24992
185	28.512806	104357888	74067968	23716520	24992
186	27.124731	104357888	74067968	30378480	24992
187	29.686589	104357888	74067968	21282264	24992
188	28.462455	104357888	74067968	29265048	24992
189	30.847662	104357888	74067968	21490352	24992
190	30.205878	104357888	74067968	30794256	24992
191	32.305848	104357888	74067968	24344040	24992
192	31.791254	104357888	74067968	34969192	24992
193	33.869447	104357888	74067968	29842080	24992
194	34.812419	104357888	74067968	25350440	24992
195	35.585991	104357888	74067968	21516600	24992
196	34.130124	104357888	74067968	34783736	24992
197	37.156602	104628224	74067968	32306560	24992
198	37.404531	104628224	74067968	30459192	24992
199	39.174473	104628224	74067968	29283408	24992
200	39.276675	104898560	74067968	28757992	24992
201	39.740205	104898560	74067968	28894952	24992
202	0.791152	104898560	74067968	29502760	24992
203	1.477869	104898560	74067968	30840504	24992
204	2.18055	104898560	74067968	32837656	24992
205	2.951134	104898560	74067968	35494216	24992
206	5.378329	104898560	74067968	22348528	24992
207	4.558413	104898560	74067968	26324440	24992
208	5.476109	104898560	74067968	30959720	24992
209	5.939352	104898560	74067968	36254408	24992
210	8.255122	104898560	74067968	25783472	24992
211	7.622625	104898560	74067968	32397928	24992
212	9.681804	104898560	74067968	23245080	24992
213	8.819533	104898560	74067968	31178344	24992
214	11.361795	104898560	74067968	23335104	24992
215	10.141143	104898560	74067968	32587168	24992
216	12.845162	104898560	74067968	26070760	24992
217	11.726391	104898560	74067968	36641672	24992
218	14.427836	104898560	74067968	31454184	24992
219	15.021398	104898560	74067968	26913016	24992
220	16.151382	104898560	74067968	23015112	24992
221	14.971161	104898560	74067968	36225816	24992
222	17.050576	105168896	74067968	33672096	24992
223	17.880778	105168896	74067968	31781192	24992
224	18.837209	105168896	74067968	30528776	24992
225	19.318128	105168896	74067968	29938416	24992
226	20.004857	105168896	74067968	30009416	24992
227	21.12142	105168896	74067968	30741896	24992
228	22.319926	105168896	74067968	32135880	24992
229	22.345329	105168896	74067968	34196976	24992
230	22.878607	105168896	74067968	36916456	24992
231	25.497174	105439232	74067968	23836400	24992
232	24.529864	105439232	74067968	27846624	24992
233	25.472744	105439232	74067968	32551632	24992
234	26.054551	105439232	74067968	37923208	24992
235	29.0043	105439232	74067968	27495928	24992
236	27.671605	105439232	74067968	34158976	24992
237	30.383437	105709568	74067968	25064760	24992
238	29.31028	105709568	74067968	33047880	24992
239	31.493563	105709568	74067968	25284560	24992
240	30.676197	105709568	74067968	34588928	24992
241	33.442297	105709568	74067968	28145432	24992
242	31.98057	105709568	74067968	38770056	24992
243	34.507554	105709568	74067968	33605752	24992
244	35.365445	105979904	74067968	29150688	24992
245	36.783019	105979904	74067968	25318920	24992
246	35.387785	105979904	74067968	38586264	24992
247	37.502936	105979904	74067968	36109648	24992
248	38.527025	106250240	74067968	34259120	24992
249	39.14869	106250240	74067968	33074904	24992
250	39.844966	106250240	74067968	32551440	24992
251	40.849812	106250240	74067968	32688464	24992
252	0.794244	106250240	74067968	33296384	24992
253	1.499215	106250240	74067968	34634128	24992
254	2.185112	106250240	74067968	36631280	24992
255	3.120545	106250240	74067968	39287872	24992
256	6.327438	106250240	74067968	26141608	24992
257	4.696699	106250240	74067968	30117488	24992
258	5.24493	106250240	74067968	34752768	24992
259	7.841865	106250240	74067968	23610008	24992
260	6.68506	106250240	74067968	29565064	24992
261	7.22454	106250240	74067968	36179520	24992
262	10.270773	106250240	74067968	27026672	24992
263	8.861958	106250240	74067968	34959936	24992
264	11.808131	106250240	74067968	27127928	24992
265	10.568807	106250240	74067968	36379992	24992
266	12.926662	106250240	74067968	29863584	24992
267	13.84322	106250240	74067968	23995368	24992
268	12.965195	106250240	74067968	35227664	24992
269	15.878268	106250240	74067968	30686048	24992
270	16.042453	106250240	74067968	26807856	24992
271	14.530939	106250240	74067968	40018560	24992
272	17.419492	106250240	74067968	37442248	24992
273	18.509331	106250240	74067968	35551136	24992
274	18.88371	106250240	74067968	34317920	24992
275	19.549985	106250240	74067968	33727384	24992
276	20.313147	106250240	74067968	33798368	24992
277	20.9687	106250240	74067968	34530864	24992
278	22.009201	106250240	74067968	35924640	24992
279	23.122459	106250240	74067968	37979736	24992
280	25.752253	106250240	74067968	24237096	24992
281	24.753867	106250240	74067968	27586760	24992
282	24.811128	106250240	74067968	31628048	24992
283	25.681012	106250240	74067968	36332904	24992
284	28.836338	106250240	74067968	25250640	24992
285	26.818655	106250240	74067968	31252072	24992
286	27.899027	106250240	74067968	37951152	24992
287	30.603257	106520576	74067968	28856496	24992
288	29.453449	106520576	74067968	36839728	24992
289	32.367272	106520576	74067968	29074680	24992
290	31.302107	106520576	74067968	38378920	24992
291	33.728196	106520576	74067968	31938912	24992
292	34.780276	106520576	74067968	26124136	24992
293	32.743844	106520576	74067968	37409864	24992
294	36.089583	106520576	74067968	32954312	24992
295	36.585685	106520576	74067968	29124368	24992
296	37.457061	106520576	74067968	25953096	24992
297	36.77883	106520576	74067968	39890216	24992
298	39.879151	106520576	74067968	38093408	24992
299	40.070101	106520576	74067968	36907816	24992
300	40.282028	106520576	74067968	36384672	24992
301	40.832879	106520576	74067968	36522992	24992
302	0.807063	106520576	74067968	37130304	24992
303	1.486754	106520576	74067968	38468048	24992
304	2.190364	106520576	74067968	40465200	24992
305	5.48092	106520576	74067968	26650352	24992
306	3.661644	106520576	74067968	29966856	24992
307	4.35668	106520576	74067968	33942736	24992
308	5.349687	106520576	74067968	38578016	24992
309	8.190767	106520576	74067968	27431536	24992
310	6.679642	106520576	74067968	33386584	24992
311	7.372891	106520576	74067968	40001056	24992
312	10.490252	106520576	74067968	30853184	24992
313	9.446233	106520576	74067968	38797080	24992
314	12.012519	106520576	74067968	30963080	24992
315	10.26296	106520576	74067968	40215160	24992
316	13.320071	106520576	74067968	33697088	24992
317	14.660475	106520576	74067968	27827464	24992
318	12.247404	106520576	74067968	39059632	24992
319	15.580678	106520576	74067968	34516520	24992
320	16.418438	106520576	74067968	30636936	24992
321	17.004079	106520576	74067968	27400072	24992
322	15.224951	106520576	74067968	41270184	24992
323	18.289232	106520576	74067968	39377704	24992
324	19.471754	106520576	74067968	38147896	24992
325	20.085337	106520576	74067968	37555944	24992
326	20.562143	106520576	74067968	37625448	24992
327	21.369134	106520576	74067968	38356496	24992
328	22.471344	106520576	74067968	39749096	24992
329	23.271616	106520576	74067968	41803112	24992
330	26.489373	106520576	74067968	28058328	24992
331	24.487906	106520576	74067968	31407640	24992
332	25.322053	106520576	74067968	35448056	24992
333	26.39491	106520576	74067968	40151816	24992
334	29.581262	106520576	74067968	29068536	24992
335	27.243887	106520576	74067968	35069888	24992
336	28.582691	106520576	74067968	41768824	24992
337	31.434989	106520576	74067968	32673720	24992
338	30.248844	106520576	74067968	40655976	24992
339	33.263595	106520576	74067968	32890320	24992
340	30.897233	106520576	74067968	42193584	24992
341	34.36984	106520576	74067968	35753304	24992
342	35.279987	106520576	74067968	29938336	24992
343	33.286267	106520576	74067968	41224048	24992
344	36.917952	106520576	74067968	36767952	24992
345	37.200681	106520576	74067968	32937928	24992
346	38.627148	106520576	74067968	29765888	24992
347	35.912458	106520576	74067968	43693648	24992
348	39.301583	106520576	74067968	41863016	24992
349	40.383602	106520576	74067968	40690760	24992
350	40.552132	106520576	74067968	40166864	24992
351	41.609674	106520576	74067968	40305344	24992
352	1.045254	106520576	74067968	40914808	24992
353	1.489251	106520576	74067968	42252560	24992
354	2.208833	106520576	74067968	44249712	24992
355	5.662941	106520576	74067968	30434256	24992
356	3.729475	106520576	74067968	33750728	24992
357	4.363936	106520576	74067968	37726608	24992
358	5.05515	106520576	74067968	42361984	24992
359	8.555423	106520576	74067968	31219024	24992
360	6.736126	106520576	74067968	37178520	24992
361	7.151053	106520576	74067968	43792976	24992
362	10.896876	106520576	74067968	34647856	24992
363	8.609905	106520576	74067968	42581136	24992
364	12.351075	106520576	74067968	34750992	24992
365	10.263843	106520576	74067968	44003088	24992
366	13.547264	106520576	74067968	37483912	24992
367	14.519394	106520576	74067968	31614336	24992
368	12.597112	106520576	74067968	42846536	24992
369	15.920284	106520576	74067968	38303264	24992
370	16.610661	106520576	74067968	34423632	24992
371	17.125997	106520576	74067968	31185920	24992
372	18.269372	106520576	74067968	28610672	24992
373	15.831601	106520576	74067968	43140336	24992
374	19.682923	106520576	74067968	41910392	24992
375	20.461348	106520576	74067968	41343152	24992
376	20.871499	106520576	74067968	41412656	24992
377	21.757182	106520576	74067968	42143720	24992
378	22.288589	106520576	74067968	43536016	24992
379	26.163042	106520576	74067968	29129304	24992
380	24.022553	106520576	74067968	31818024	24992
381	25.426714	106520576	74067968	35196792	24992
382	26.254106	106520576	74067968	39236080	24992
383	26.454061	106520576	74067968	43939696	24992
384	30.266936	106520576	74067968	32856432	24992
385	27.960633	106520576	74067968	38857944	24992
386	28.623572	106520576	74067968	45556864	24992
387	32.061168	106520576	74067968	36418640	24992
388	30.227033	106520576	74067968	44436144	24992
389	33.602673	106520576	74067968	36666536	24992
390	34.602142	106520576	74067968	29528216	24992
391	32.063618	106520576	74067968	39492648	24992
392	36.022079	106520576	74067968	33713496	24992
393	33.528081	106520576	74067968	44999336	24992
394	37.244589	106520576	74067968	40542520	24992
395	37.748589	106520576	74067968	36712208	24992
396	38.972301	106520576	74067968	33539800	24992
397	40.096931	106520576	74067968	31029656	24992
398	37.785215	106520576	74067968	45617944	24992
399	41.369623	106520576	74067968	44474336	24992
400	41.182446	106520576	74067968	43950408	24992
401	42.328549	106520576	74067968	44088792	24992
402	0.797268	106520576	74067968	44698040	24992
403	1.479889	106520576	74067968	46035784	24992
404	5.188109	106520576	74067968	31555656	24992
405	2.953012	106520576	74067968	34212216	24992
406	3.840464	106520576	74067968	37528688	24992
407	4.361556	106520576	74067968	41504568	24992
408	5.248938	106520576	74067968	46139864	24992
409	8.918909	106520576	74067968	34996312	24992
410	6.751112	106520576	74067968	40951392	24992
411	10.354725	106520576	74067968	31136392	24992
412	7.888556	106520576	74067968	38410248	24992
413	8.78368	106520576	74067968	46343512	24992
414	12.631359	106520576	74067968	38508232	24992
415	13.220103	106520576	74067968	31326736	24992
416	11.052369	106520576	74067968	41238208	24992
417	14.835566	106520576	74067968	35368360	24992
418	12.407383	106520576	74067968	46600496	24992
419	16.441592	106520576	74067968	42074104	24992
420	16.86155	106520576	74067968	38194008	24992
421	17.861526	106520576	74067968	34956312	24992
422	18.281559	106520576	74067968	32381000	24992
423	16.035234	106520576	74067968	46910520	24992
424	20.23442	106520576	74067968	45679888	24992
425	20.693803	106520576	74067968	45112632	24992
426	21.718712	106520576	74067968	45182040	24992
427	22.574461	106520576	74067968	45912864	24992
428	22.685371	106520576	74067968	47305256	24992
429	26.962209	106520576	74067968	32886248	24992
430	24.58201	106520576	74067968	35584400	24992
431	25.253835	106520576	74067968	38963344	24992
432	25.831243	106520576	74067968	43002520	24992
433	26.408814	106520576	74067968	47705800	24992
434	30.744885	106520576	74067968	36581600	24992
435	28.145532	106520576	74067968	42614240	24992
436	32.175542	106520576	74067968	32857840	24992
437	29.212656	106520576	74067968	40181880	24992
438	33.631025	106520576	74067968	31753952	24992
439	30.804987	106520576	74067968	40397312	24992
440	34.801207	106520576	74067968	33292880	24992
441	32.090809	106520576	74067968	43257440	24992
442	36.287881	106520576	74067968	37477120	24992
443	37.242171	106520576	74067968	32322208	24992
444	35.135381	106520576	74067968	44268256	24992
445	39.825799	106520576	74067968	40474776	24992
446	39.506326	106520576	74067968	37306208	24992
447	40.043161	106520576	74067968	34795776	24992
448	41.211244	106520576	74067968	32947320	24992
449	38.605868	106520576	74067968	48196064	24992
450	42.465469	106520576	74067968	47714992	24992
451	42.677831	106520576	74067968	47852784	24992
452	0.799252	106520576	74067968	48462224	24992
453	4.841182	106520576	74067968	33317824	24992
454	2.306747	106520576	74067968	35314976	24992
455	2.952356	106520576	74067968	37971536	24992
456	3.647082	106520576	74067968	41288008	24992
457	4.313542	106520576	74067968	45263888	24992
458	8.430915	106520576	74067968	33451696	24992
459	5.772605	106520576	74067968	38746384	24992
460	6.44798	106520576	74067968	44701432	24992
461	10.658463	106520576	74067968	34890880	24992
462	8.132476	106520576	74067968	42164752	24992
463	12.268538	106520576	74067968	33666144	24992
464	9.410204	106520576	74067968	42258800	24992
465	13.690761	106520576	74067968	35077296	24992
466	11.16923	106520576	74067968	44988768	24992
467	15.213733	106520576	74067968	39134112	24992
468	15.893607	106520576	74067968	33928968	24992
469	13.17461	106520576	74067968	45820576	24992
470	17.178818	106520576	74067968	41940488	24992
471	18.012578	106520576	74067968	38723424	24992
472	18.824323	106520576	74067968	36147664	24992
473	19.672823	106520576	74067968	34233904	24992
474	16.874743	106520576	74067968	49422824	24992
475	21.426074	106520576	74067968	48852712	24992
476	21.6037	106520576	74067968	48947256	24992
477	22.822093	106520576	74067968	49686920	24992
478	26.726141	106520576	74067968	34601984	24992
479	24.110071	106520576	74067968	36642520	24992
480	24.513436	106520576	74067968	39359856	24992
481	25.209262	106520576	74067968	42737544	24992
482	26.210022	106520576	74067968	46776736	24992
483	30.821923	106520576	74067968	35023936	24992
484	27.848085	106520576	74067968	40363032	24992
485	28.385541	106520576	74067968	46397024	24992
486	32.907094	106790912	74067968	36639432	24992
487	30.203627	106790912	74067968	43961880	24992
488	34.48285	106790912	74067968	35535880	24992
489	31.903003	106790912	74067968	44179384	24992
490	35.662452	106790912	74067968	37074760	24992
491	33.004888	106790912	74067968	47039352	24992
492	37.261879	106790912	74067968	41258008	24992
493	38.34507	106790912	74067968	36104504	24992
494	35.062527	106790912	74067968	48050616	24992
495	39.583609	106790912	74067968	44257008	24992
496	40.403777	106790912	74067968	41088648	24992
497	40.728119	106790912	74067968	38577976	24992
498	41.781519	106790912	74067968	36729400	24992
499	41.976082	106790912	74067968	35542544	24992
500	43.08345	106790912	74067968	35016936	24992
501	44.067576	106790912	74067968	35153624	24992
502	4.599164	106790912	74067968	35759936	24992
503	1.507017	106790912	74067968	37097680	24992
504	2.242653	106790912	74067968	39094832	24992
505	2.901021	106790912	74067968	41751392	24992
506	3.649271	106790912	74067968	45067960	24992
507	4.369735	106790912	74067968	49043840	24992
508	8.89974	106790912	74067968	37227064	24992
509	5.811279	106790912	74067968	42521752	24992
510	6.466794	106790912	74067968	48476800	24992
511	10.991907	106790912	74067968	38670064	24992
512	8.151621	106790912	74067968	45943984	24992
513	12.680218	106790912	74067968	37445168	24992
514	9.610935	106790912	74067968	46037824	24992
515	14.064245	106790912	74067968	38856112	24992
516	10.822094	106790912	74067968	48767584	24992
517	15.521276	106790912	74067968	42912832	24992
518	16.313069	106790912	74067968	37707720	24992
519	13.261309	106790912	74067968	49599264	24992
520	17.739737	106790912	74067968	45718952	24992
521	18.641773	106790912	74067968	42501936	24992
522	19.203707	106790912	74067968	39925744	24992
523	19.898581	106790912	74067968	38012008	24992
524	20.840994	106790912	74067968	36759824	24992
525	21.525067	106790912	74067968	36169136	24992
526	22.275835	106790912	74067968	36240096	24992
527	23.317767	106790912	74067968	36972488	24992
528	23.898508	106790912	74067968	38366496	24992
529	24.888623	106790912	74067968	40421952	24992
530	25.47825	106790912	74067968	43138992	24992
531	26.570519	106790912	74067968	46517528	24992
532	27.337825	106790912	74067968	50557912	24992
533	38.442767	106790912	74067968	21697176	24992
534	24.269804	106790912	74067968	27023264	24992
535	25.624255	106790912	74067968	16551456	24992
536	26.595232	106790912	74067968	23199808	24992
537	26.872973	106790912	74067968	14052208	24992
538	27.120371	106790912	74067968	22021040	24992
539	28.329442	106790912	74067968	14197680	24992
540	28.70621	106790912	74067968	23487024	24992
541	30.087379	106790912	74067968	16980576	24992
542	30.139125	106790912	74067968	27589872	24992
543	31.501417	106790912	74067968	22400072	24992
544	31.976127	106790912	74067968	17875384	24992
545	32.84417	106790912	74067968	14008248	24992
546	33.113351	106790912	74067968	27258744	24992
547	34.088273	106790912	74067968	24718232	24992
548	35.033524	106790912	74067968	22835744	24992
549	35.731323	106790912	74067968	21615968	24992
550	36.88276	106790912	74067968	21053744	24992
551	37.446298	106790912	74067968	21153000	24992
552	0.813092	106790912	74067968	21745136	24992
553	1.486312	106790912	74067968	23082880	24992
554	2.198496	106790912	74067968	25080032	24992
555	2.895625	106790912	74067968	27736592	24992
556	3.940176	106790912	74067968	14591416	24992
557	4.431721	106790912	74067968	18567296	24992
558	5.398537	106790912	74067968	23202576	24992
559	5.957105	106790912	74067968	28497264	24992
560	6.943543	106790912	74067968	17994528	24992
561	7.215165	106790912	74067968	24608984	24992
562	8.185005	106790912	74592256	15416504	24992
563	8.83369	106790912	74592256	23349768	24992
564	9.824263	106790912	75116544	15472912	24992
565	10.034839	106790912	75116544	24724976	24992
566	11.344098	106790912	75640832	18169784	24992
567	11.740088	106790912	75640832	28740664	24992
568	12.752843	106790912	76165120	23500264	24992
569	13.449875	106790912	76689408	18924248	24992
570	14.131991	106790912	77213696	15005568	24992
571	14.393496	106790912	77213696	28216272	24992
572	15.763	106790912	77737984	25621744	24992
573	16.163924	106790912	78262272	23688952	24992
574	17.005063	107061248	78786560	22409552	24992
575	17.803069	107061248	79310848	21790976	24992
576	18.878182	107061248	79835136	21832816	24992
577	19.189193	107061248	80359424	22535064	24992
578	20.259751	107061248	80883712	23897696	24992
579	20.423003	107061248	81408000	25920336	24992
580	21.577939	107061248	81932288	28603248	24992
581	22.843073	107061248	82980864	15476536	24992
582	23.585176	107061248	83505152	19475368	24992
583	23.828937	107061248	84029440	24143136	24992
584	24.72612	107061248	85078016	13009408	24992
585	25.167028	107331584	85602304	18997600	24992
586	25.954076	107331584	86126592	25652696	24992
587	27.286331	107331584	87175168	16500976	24992
588	27.329212	107331584	87699456	24469856	24992
589	28.351651	107331584	88748032	16645504	24992
590	28.978957	107331584	89272320	25934776	24992
591	29.925616	107331584	90320896	19429872	24992
592	31.080496	107601920	90320896	13585016	24992
593	30.675264	107601920	90320896	24854712	24992
594	32.233141	107601920	90320896	20332360	24992
595	33.031776	107601920	90320896	16467416	24992
596	33.089843	107601920	90320896	29717752	24992
597	34.446589	107601920	90320896	27144056	24992
598	35.695826	107601920	90320896	25271368	24992
599	36.226719	107601920	90320896	24087224	24992
600	36.537804	107872256	90320896	23565304	24992
601	37.090394	107872256	90320896	23702320	24992
602	0.794879	107872256	90320896	24309896	24992
603	1.491267	107872256	90320896	25647640	24992
604	2.250177	107872256	90320896	27644808	24992
605	2.952405	107872256	90320896	30301368	24992
606	4.218467	107872256	90320896	17152864	24992
607	4.540012	107872256	90320896	21128744	24992
608	5.237837	107872256	90320896	25764024	24992
609	6.211516	107872256	90320896	14622528	24992
610	6.760467	107872256	90320896	20577576	24992
611	7.157775	107872256	90320896	27192096	24992
612	8.343924	107872256	90320896	18043288	24992
613	8.813024	107872256	90320896	25976552	24992
614	9.937643	107872256	90320896	18145424	24992
615	10.025626	107872256	90320896	27397488	24992
616	11.237358	108142592	90320896	20881736	24992
617	12.093117	108142592	90320896	15014096	24992
618	12.717953	108142592	90320896	26246264	24992
619	13.504038	108142592	90320896	21705160	24992
620	14.298316	108142592	90320896	17827480	24992
621	14.777588	108142592	90320896	14591920	24992
622	15.253315	108142592	90320896	28462080	24992
623	16.439757	108142592	90320896	26571528	24992
624	17.112099	108142592	90320896	25343752	24992
625	18.123003	108142592	90320896	24753056	24992
626	19.387911	108142592	90320896	24827472	24992
627	19.601908	108412928	90320896	25560400	24992
628	20.378535	108412928	90320896	26954272	24992
629	20.796721	108412928	90320896	29009672	24992
630	22.452186	108412928	90320896	15267480	24992
631	22.630799	108412928	90320896	18617352	24992
632	23.629016	108412928	90320896	22658944	24992
633	24.292778	108412928	90320896	27363752	24992
634	25.97333	108683264	90320896	16275176	24992
635	25.350545	108683264	90320896	22276576	24992
636	26.293375	108683264	90320896	28968688	24992
637	27.467462	108683264	90320896	19866688	24992
638	27.654923	108683264	90320896	27849840	24992
639	29.166625	108683264	90320896	20077064	24992
640	29.186884	108683264	90320896	29381320	24992
641	30.833722	108953600	90320896	22933440	24992
642	31.070529	108953600	90320896	17118608	24992
643	31.29151	108953600	90320896	28404304	24992
644	32.865895	108953600	90320896	23940256	24992
645	33.384146	108953600	90320896	20110352	24992
646	34.446098	109223936	90320896	16938816	24992
647	34.337568	109223936	90320896	30866608	24992
648	35.665079	109223936	90320896	29051632	24992
649	36.680814	109223936	90320896	27866128	24992
650	37.453444	109223936	90320896	27342984	24992
651	37.871635	109494272	90320896	27482464	24992
652	0.792855	109494272	90320896	28090664	24992
653	1.542507	109494272	90320896	29428392	24992
654	2.191434	109494272	90320896	31425528	24992
655	3.612868	109494272	90320896	17613088	24992
656	3.703962	109494272	90320896	20929544	24992
657	4.535127	109494272	90320896	24905408	24992
658	5.152025	109494272	90320896	29540720	24992
659	6.492708	109494272	90320896	18401016	24992
660	6.688712	109494272	90320896	24356160	24992
661	7.159449	109494272	90320896	30970600	24992
662	9.016362	109494272	90320896	21826264	24992
663	8.667017	109494272	90320896	29759576	24992
664	10.331755	109494272	90320896	21928320	24992
665	10.252109	109494272	90320896	31180368	24992
666	11.527758	109494272	90320896	24664472	24992
667	12.666218	109494272	90320896	18796768	24992
668	12.854586	109494272	90320896	30028920	24992
669	14.194267	109764608	90320896	25487704	24992
670	14.674718	109764608	90320896	21610008	24992
671	15.439114	109764608	90320896	18374496	24992
672	15.26999	109764608	90320896	32244592	24992
673	16.709147	109764608	90320896	30353368	24992
674	17.952023	109764608	90320896	29125416	24992
675	18.75115	109764608	90320896	28537064	24992
676	18.995478	109764608	90320896	28607840	24992
677	19.935349	109764608	90320896	29340160	24992
678	20.514529	109764608	90320896	30734112	24992
679	21.446931	110034944	90320896	32789320	24992
680	23.255705	110034944	90320896	19046736	24992
681	22.975051	110034944	90320896	22396632	24992
682	23.86219	110034944	90320896	26437888	24992
683	24.326852	110034944	90320896	31142728	24992
684	25.801087	110034944	90320896	20053800	24992
685	25.652339	110034944	90320896	26055232	24992
686	26.6644	110034944	90320896	32747528	24992
687	28.257492	110305280	90320896	23644928	24992
688	27.900904	110305280	90320896	31627408	24992
689	29.890462	110305280	90320896	23854568	24992
690	29.842272	110305280	90320896	33166352	24992
691	31.596566	110305280	90320896	26717848	24992
692	31.71805	110575616	90320896	20903096	24992
693	31.917736	110575616	90320896	32188856	24992
694	33.365667	110575616	90320896	27724664	24992
695	33.997957	110575616	90320896	23894808	24992
696	34.559579	110575616	90320896	20722536	24992
697	35.157227	110845952	90320896	18212432	24992
698	35.179639	110845952	90320896	32800720	24992
699	37.711873	110845952	90320896	31648936	24992
700	38.803571	110845952	90320896	31125144	24992
701	38.581794	110845952	90320896	31263808	24992
702	0.791975	111116288	90320896	31872920	24992
703	1.546218	111116288	90320896	33210648	24992
704	3.214276	111116288	90320896	18732248	24992
705	2.896632	111116288	90320896	21388792	24992
706	3.649343	111116288	90320896	24705248	24992
707	4.528224	111116288	90320896	28681176	24992
708	5.460468	111116288	90320896	33316440	24992
709	7.027973	111116288	90320896	22178496	24992
710	6.455438	111116288	90320896	28133560	24992
711	7.420267	111116288	90320896	34748000	24992
712	9.040538	111116288	90320896	25609576	24992
713	8.847079	111116288	90320896	33542824	24992
714	10.551876	111116288	90320896	25711456	24992
715	10.589448	111116288	90320896	34963552	24992
716	11.891821	111116288	90320896	28444840	24992
717	12.940501	111116288	90320896	22577232	24992
718	12.425651	111116288	90320896	33809352	24992
719	14.365432	111116288	90320896	29268104	24992
720	14.984209	111116288	90320896	25390152	24992
721	15.523626	111386624	90320896	22153824	24992
722	17.067204	111386624	90320896	19579800	24992
723	16.162536	111386624	90320896	34109304	24992
724	18.751235	111386624	90320896	32890080	24992
725	18.714661	111386624	90320896	32324680	24992
726	21.238148	111386624	90320896	32395536	24992
727	21.545084	111386624	90320896	33127776	24992
728	21.273714	111386624	90320896	34521408	24992
729	22.82364	111386624	90320896	20116632	24992
730	22.406037	111386624	90320896	22806104	24992
731	23.580432	111656960	90320896	26186240	24992
732	24.241888	111656960	90320896	30226736	24992
733	24.634185	111656960	90320896	34931608	24992
734	26.820174	111656960	90320896	23848560	24992
735	26.393447	111656960	90320896	29850376	24992
736	28.272485	111656960	90320896	20099832	24992
737	27.510482	111656960	90320896	27422472	24992
738	28.758723	111927296	90320896	35441432	24992
739	30.478235	111927296	90320896	27671912	24992
740	31.21044	111927296	90320896	20534344	24992
741	30.530213	111927296	90320896	30499144	24992
742	32.788581	111927296	90320896	24720744	24992
743	31.949787	111927296	90320896	36006792	24992
744	33.935293	112197632	90320896	31547776	24992
745	35.021282	112197632	90320896	27709104	24992
746	35.165334	112197632	90320896	24539192	24992
747	36.258412	112197632	90320896	22029704	24992
748	36.255563	112197632	90320896	36618264	24992
749	38.175502	112467968	90320896	35454984	24992
750	38.846874	112467968	90320896	34941688	24992
751	38.974045	112467968	90320896	35080776	24992
752	0.819423	112738304	90320896	35690408	24992
753	1.50475	112738304	90320896	37028136	24992
754	3.593609	112738304	90320896	22549112	24992
755	3.177782	112738304	90320896	25205656	24992
756	3.655893	112738304	90320896	28522112	24992
757	4.353692	112738304	90320896	32497976	24992
758	5.087575	112738304	90320896	37133240	24992
759	7.500132	112738304	90320896	25994752	24992
760	6.738711	112738304	90320896	31949784	24992
761	8.839061	112738304	90320896	22139080	24992
762	7.950287	112738304	90320896	29412920	24992
763	8.634892	112738304	90320896	37346168	24992
764	11.082415	112738304	90320896	29513496	24992
765	11.731318	112738304	90320896	22334584	24992
766	10.728843	112738304	90320896	32246040	24992
767	13.148047	112738304	90320896	26378808	24992
768	12.371067	112738304	90320896	37610928	24992
769	14.571205	112738304	90320896	33065992	24992
770	15.297719	112738304	90320896	29187880	24992
771	16.255883	112738304	90320896	25969920	24992
772	16.784781	113008640	90320896	23395880	24992
773	17.675999	113008640	90320896	21483440	24992
774	16.606964	113008640	90320896	36672344	24992
775	19.353265	113008640	90320896	36106968	24992
776	19.818138	113008640	90320896	36204152	24992
777	20.805217	113008640	90320896	36936296	24992
778	22.783854	113008640	90320896	21868888	24992
779	22.545847	113008640	90320896	23897736	24992
780	22.677459	113008640	90320896	26616248	24992
781	23.276875	113008640	90320896	29996288	24992
782	24.430651	113278976	90320896	34036760	24992
783	27.043239	113278976	90320896	22286104	24992
784	25.799614	113278976	90320896	27625488	24992
785	26.769984	113278976	90320896	33659944	24992
786	28.783058	113278976	90320896	23904240	24992
787	28.086823	113278976	90320896	31226920	24992
788	30.702274	113549312	90320896	22799968	24992
789	29.393352	113549312	90320896	31443712	24992
790	31.737318	113549312	90320896	24340208	24992
791	31.049186	113549312	90320896	34305136	24992
792	33.171347	113549312	90320896	28524752	24992
793	33.59948	113819648	90320896	23371744	24992
794	33.22937	113819648	90320896	35318096	24992
795	35.377884	113819648	90320896	31525496	24992
796	36.797304	113819648	90320896	28357840	24992
797	37.499509	113819648	90320896	25847696	24992
798	38.215626	114089984	90320896	23999696	24992
799	37.039945	114089984	90320896	39248864	24992
800	39.074524	114089984	90320896	38735312	24992
801	39.997752	114089984	90320896	38894784	24992
802	0.794428	114089984	90320896	39504176	24992
803	3.444885	114089984	90320896	24360224	24992
804	2.23017	114089984	90320896	26357360	24992
805	2.890786	114089984	90320896	29013936	24992
806	3.603659	114089984	90320896	32330392	24992
807	4.558892	114089984	90320896	36306256	24992
808	6.822487	114089984	90320896	24498400	24992
809	5.803218	114089984	90320896	29793104	24992
810	6.441807	114089984	90320896	35748136	24992
811	9.268191	114360320	90320896	25942760	24992
812	8.180677	114360320	90320896	33216616	24992
813	10.670708	114360320	90320896	24721248	24992
814	9.694786	114360320	90320896	33313888	24992
815	11.897505	114360320	90320896	26134960	24992
816	11.184687	114360320	90320896	36046416	24992
817	13.584579	114360320	90320896	30194336	24992
818	14.13067	114360320	90320896	24991064	24992
819	13.14927	114360320	90320896	36882640	24992
820	15.698208	114360320	90320896	33004368	24992
821	16.486143	114360320	90320896	29789240	24992
822	17.155408	114360320	90320896	27214416	24992
823	18.211336	114630656	90320896	25301952	24992
824	18.559574	114630656	90320896	24051040	24992
825	17.622637	114630656	90320896	39899440	24992
826	20.958387	114630656	90320896	40005192	24992
827	23.789473	114630656	90320896	24307752	24992
828	21.901236	114630656	90320896	25674600	24992
829	22.836147	114630656	90320896	27730640	24992
830	23.726101	114900992	90320896	30448256	24992
831	23.665022	114900992	90320896	33826264	24992
832	24.564471	114900992	90320896	37865872	24992
833	27.021084	114900992	90320896	26113488	24992
834	26.215957	114900992	90320896	31452664	24992
835	27.025267	114900992	90320896	37486832	24992
836	29.276488	115171328	90320896	27729672	24992
837	28.490363	115171328	90320896	35053224	24992
838	30.789523	115171328	90320896	26627496	24992
839	30.499321	115171328	90320896	35271144	24992
840	32.272189	115171328	90320896	28167288	24992
841	31.810688	115171328	90320896	38132088	24992
842	33.955446	115441664	90320896	32351224	24992
843	34.736095	115441664	90320896	27198072	24992
844	33.769148	115441664	90320896	39144360	24992
845	36.316023	115441664	90320896	35351376	24992
846	36.987105	115441664	90320896	32183144	24992
847	37.368725	115712000	90320896	29672776	24992
848	39.148337	115712000	90320896	27832920	24992
849	38.876671	115712000	90320896	26645808	24992
850	40.214521	115712000	90320896	26151200	24992
851	40.493308	115982336	90320896	26287904	24992
852	0.805474	115982336	90320896	26895696	24992
853	1.519218	115982336	90320896	28233424	24992
854	2.224662	115982336	90320896	30230560	24992
855	3.373928	115982336	90320896	32887104	24992
856	3.658493	115982336	90320896	36203592	24992
857	4.363348	115982336	90320896	40179456	24992
858	7.604727	115982336	90320896	28367152	24992
859	5.750108	115982336	90320896	33661824	24992
860	6.667796	115982336	90320896	39616856	24992
861	9.468873	115982336	90320896	29812992	24992
862	7.894161	115982336	90320896	37086896	24992
863	10.971829	115982336	90320896	28587840	24992
864	9.525124	115982336	90320896	37180480	24992
865	12.24283	115982336	90320896	29998576	24992
866	11.039273	115982336	90320896	39910032	24992
867	13.882768	115982336	90320896	34055152	24992
868	14.569078	115982336	90320896	28850056	24992
869	13.109623	115982336	90320896	40741600	24992
870	16.210343	115982336	90320896	36861288	24992
871	16.62178	116252672	90320896	33644048	24992
872	17.849831	116252672	90320896	31067840	24992
873	17.980532	116252672	90320896	29154088	24992
874	19.167766	116252672	90320896	27901856	24992
875	19.386871	116252672	90320896	27311136	24992
876	20.845439	116252672	90320896	27381968	24992
877	21.736636	116252672	90320896	28114344	24992
878	21.804214	116252672	90320896	29508592	24992
879	22.481734	116252672	90320896	31564048	24992
880	23.510219	116523008	90320896	34280592	24992
881	24.472382	116523008	90320896	37658456	24992
882	25.106262	116523008	90320896	41697200	24992
883	27.876357	116523008	90320896	29944288	24992
884	26.398938	116523008	90320896	35283528	24992
885	27.541466	116523008	90320896	41317584	24992
886	30.295951	116793344	90320896	31559800	24992
887	28.609516	116793344	90320896	38882280	24992
888	31.718633	116793344	90320896	30454072	24992
889	29.868935	116793344	90320896	39097592	24992
890	33.534938	116793344	90320896	31994760	24992
891	31.473005	116793344	90320896	41959464	24992
892	34.586041	117063680	90320896	36181752	24992
893	35.643085	117063680	90320896	31028440	24992
894	33.857755	117063680	90320896	42974792	24992
895	37.10239	117063680	90320896	39180608	24992
896	37.132341	117063680	90320896	36010088	24992
897	38.528198	117334016	90320896	33503144	24992
898	39.300859	117334016	90320896	31653896	24992
899	39.461138	117334016	90320896	30467024	24992
900	40.99714	117334016	90320896	29941544	24992
901	41.191119	117334016	90320896	30078600	24992
902	1.151847	117604352	90320896	30687336	24992
903	1.51106	117604352	90320896	32025112	24992
904	2.209019	117604352	90320896	34022248	24992
905	2.932338	117604352	90320896	36678792	24992
906	3.898844	117604352	90320896	39995248	24992
907	4.57409	117604352	90320896	43971112	24992
908	7.69491	117604352	90320896	32158520	24992
909	5.969978	117604352	90320896	37453256	24992
910	6.673279	117604352	90320896	43408288	24992
911	9.860016	117604352	90320896	33604824	24992
912	8.097293	117604352	90320896	40878664	24992
913	11.102901	117604352	90320896	32379592	24992
914	9.428381	117604352	90320896	40972232	24992
915	12.933885	117604352	90320896	33790296	24992
916	10.774445	117604352	90320896	43701800	24992
917	14.158666	117604352	90320896	37846952	24992
918	14.9499	117604352	90320896	32642368	24992
919	12.875504	117604352	90320896	44533896	24992
920	16.289345	117604352	90320896	40652880	24992
921	17.356927	117874688	90320896	37435400	24992
922	17.757103	117874688	90320896	34859288	24992
923	18.80556	117874688	90320896	32944608	24992
924	19.019832	117874688	90320896	31692432	24992
925	20.157591	117874688	90320896	31101736	24992
926	20.715807	117874688	90320896	31172600	24992
927	21.842631	117874688	90320896	31905008	24992
928	21.904275	117874688	90320896	33298920	24992
929	23.013524	117874688	90320896	35354392	24992
930	24.143124	117874688	90320896	38070488	24992
931	24.334496	118145024	90320896	41448176	24992
932	28.416542	118145024	90320896	29029536	24992
933	25.754036	118145024	90320896	33702848	24992
934	26.67913	118145024	90320896	39075160	24992
935	27.932744	118145024	90320896	45108920	24992
936	30.729588	118145024	90320896	35347984	24992
937	28.843658	118145024	90320896	42665496	24992
938	32.282902	118415360	90320896	34233184	24992
939	30.19344	118415360	90320896	42876800	24992
940	33.587707	118415360	90320896	35773744	24992
941	32.113366	118415360	90320896	45737584	24992
942	35.485518	118415360	90320896	39936584	24992
943	35.769678	118685696	90320896	34796080	24992
944	36.860465	118685696	90320896	30300864	24992
945	34.700313	118685696	90320896	42907520	24992
946	38.046161	118685696	90320896	39776576	24992
947	39.115847	118685696	90320896	37270248	24992
948	39.605348	118956032	90320896	35421200	24992
949	40.70764	118956032	90320896	34233944	24992
950	41.253135	118956032	90320896	33708768	24992
951	41.927223	118956032	90320896	33845840	24992
952	0.789525	118956032	90320896	34453760	24992
953	1.477743	118956032	90320896	35791488	24992
954	2.195259	118956032	90320896	37788624	24992
955	3.108841	118956032	90320896	40445168	24992
956	3.671285	118956032	90320896	43761640	24992
957	7.099093	118956032	90320896	31280992	24992
958	5.102044	118956032	90320896	35916256	24992
959	5.730608	118956032	90320896	41210928	24992
960	9.50554	119226368	90320896	30735928	24992
961	7.607266	119226368	90320896	37350368	24992
962	7.890249	119226368	90320896	44624208	24992
963	11.408143	119226368	90320896	36134120	24992
964	9.585065	119226368	90320896	44726840	24992
965	13.077292	119226368	90320896	37556944	24992
966	13.660823	119226368	90320896	31024696	24992
967	11.677316	119226368	90320896	41595600	24992
968	15.224861	119226368	90320896	36390168	24992
969	15.959913	119226368	90320896	31848040	24992
970	13.777199	119226368	90320896	44399320	24992
971	17.564268	119226368	90320896	41181584	24992
972	18.135678	119226368	90320896	38627104	24992
973	19.047866	119496704	90320896	36712424	24992
974	19.756681	119496704	90320896	35459728	24992
975	20.373497	119496704	90320896	34869120	24992
976	21.288453	119496704	90320896	34939952	24992
977	22.456163	119496704	90320896	35672344	24992
978	22.190884	119496704	90320896	37066288	24992
979	23.253536	119496704	90320896	39121104	24992
980	24.445119	119496704	90320896	41837216	24992
981	24.90731	119496704	90320896	45214872	24992
982	28.47842	119767040	90320896	32795992	24992
983	26.283474	119767040	90320896	37469208	24992
984	27.203222	119767040	90320896	42840688	24992
985	30.734117	119767040	90320896	32421720	24992
986	28.910634	119767040	90320896	39083552	24992
987	29.557544	119767040	90320896	46442208	24992
988	33.194449	120037376	90320896	38009688	24992
989	30.402612	120037376	90320896	46652520	24992
990	34.903137	120037376	90320896	39549512	24992
991	35.646902	120037376	90320896	33072800	24992
992	32.940289	120037376	90320896	43697808	24992
993	37.109589	120307712	90320896	38581744	24992
994	37.354742	120307712	90320896	34089776	24992
995	34.940263	120307712	90320896	46696560	24992
996	38.335348	120307712	90320896	43565616	24992
997	40.201114	120307712	90320896	41057872	24992
998	40.065016	120578048	90320896	39210976	24992
999	41.267343	120578048	90320896	38023512	24992
1000	41.522673	120578048	90320896	37497840	24992
