x	Duration	RSS	HeapTotal	HeapUsed	External
0	NA	95969280	63057920	10971312	24992
1	1.90328	95969280	63057920	11651384	24992
2	3.380885	95969280	63057920	12989776	24992
3	3.55717	95969280	63057920	14987544	24992
4	3.047769	95969280	63057920	17644848	24992
5	3.719401	95969280	63057920	20962272	24992
6	4.576808	95969280	63057920	24939216	24992
7	5.37621	95969280	63057920	13109592	24992
8	6.128905	95969280	63057920	18405664	24992
9	6.783	95969280	63057920	24362272	24992
10	7.840126	95969280	63057920	14519208	24992
11	8.260649	95969280	63057920	21794944	24992
12	9.209055	95969280	63057920	13262752	24992
13	9.436358	95969280	63057920	21857608	24992
14	10.571624	95969280	63057920	14643936	24992
15	11.070203	95969280	63057920	24557928	24992
16	11.948159	95969280	63057920	18666096	24992
17	13.885072	95969280	63057920	13445392	24992
18	13.399357	95969280	63057920	25339936	24992
19	14.916558	95969280	63057920	21437248	24992
20	15.032366	95969280	63057920	18187032	24992
21	17.029795	95969280	63057920	15604832	24992
22	16.368575	95969280	63057920	13670120	24992
23	17.317164	95969280	63057920	12396048	24992
24	17.969173	95969280	63057920	11782448	24992
25	18.474835	95969280	63057920	11829416	24992
26	19.720492	95969280	63057920	12537384	24992
27	19.741951	95969280	63057920	13905488	24992
28	21.48451	95969280	63057920	15939464	24992
29	21.328916	95969280	63057920	18628712	24992
30	22.319516	95969280	63057920	21977712	24992
31	22.913647	95969280	63057920	25988912	24992
32	24.320684	95969280	63057920	14196696	24992
33	24.625753	95969280	63057920	19528936	24992
34	25.234965	95969280	63057920	25528336	24992
35	26.986275	95969280	63057920	15724712	24992
36	26.796562	95969280	63057920	23038072	24992
37	27.642368	95969280	63057920	14555600	24992
38	28.308827	95969280	63057920	23187728	24992
39	28.767702	95969280	63057920	16025856	24992
40	30.303549	95969280	63057920	25980864	24992
41	31.188084	95969280	63057920	20148864	24992
42	31.248228	95969280	63057920	14967256	24992
43	31.887732	95969280	63057920	26900768	24992
44	32.690333	95969280	63057920	23042296	24992
45	33.390948	95969280	63057920	19845384	24992
46	34.203464	95969280	63057920	17303936	24992
47	35.180703	95969280	63057920	15423688	24992
48	35.946396	95969280	63057920	14204744	24992
49	35.936639	95969280	63057920	13646568	24992
50	36.790061	95969280	63057920	13750256	24992
51	37.58184	95969280	63057920	14515160	24992
52	0.816367	95969280	63057920	15769112	24992
53	1.495675	95969280	63057920	17107136	24992
54	2.204722	95969280	63057920	19104616	24992
55	2.904644	95969280	63057920	21761584	24992
56	3.672717	95969280	63057920	25078560	24992
57	4.722738	95969280	63057920	29055008	24992
58	5.370115	95969280	63057920	17222408	24992
59	5.947057	95969280	63057920	22517888	24992
60	6.465729	95969280	63057920	28473760	24992
61	7.461662	95969280	63057920	18629328	24992
62	8.078426	95969280	63057920	25904152	24992
63	8.914522	95969280	63057920	17371000	24992
64	9.632533	95969280	63057920	25964800	24992
65	10.507081	95969280	63057920	18750104	24992
66	10.855707	95969280	63057920	28662880	24992
67	12.026098	95969280	63057920	22769368	24992
68	12.686782	95969280	63057920	17534744	24992
69	13.577932	95969280	63057920	12957184	24992
70	14.214524	95969280	63057920	25509184	24992
71	15.145299	95969280	63057920	22257568	24992
72	15.60159	95969280	63057920	19665288	24992
73	16.293466	95969280	63057920	17726864	24992
74	17.098402	95969280	63057920	16449736	24992
75	17.758782	95969280	63057920	15833160	24992
76	18.71167	95969280	63057920	15876920	24992
77	19.136198	95969280	63057920	16581168	24992
78	20.324435	95969280	63057920	17945784	24992
79	21.084087	95969280	63057920	19970904	24992
80	21.616921	95969280	63057920	22655720	24992
81	21.986459	95969280	63057920	26001912	24992
82	23.037278	95969280	63057920	13538232	24992
83	24.83266	95969280	63057920	18211248	24992
84	24.570905	95969280	63057920	23560048	24992
85	25.173843	95969280	63057920	29588344	24992
86	26.03897	95969280	63057920	19800584	24992
87	26.680035	95969280	63057920	27138648	24992
88	27.405414	95969280	63057920	18698392	24992
89	28.011855	95969280	63057920	27341368	24992
90	29.020667	95969280	63057920	20230088	24992
91	30.006082	95969280	63057920	13752904	24992
92	30.164494	95969280	63057920	24377704	24992
93	31.374042	95969280	63057920	19252224	24992
94	32.009558	95969280	63057920	14756552	24992
95	32.387727	95969280	63057920	27362936	24992
96	33.658929	95969280	63057920	24222840	24992
97	34.618022	95969280	63057920	21715472	24992
98	34.868036	95969280	63057920	19866056	24992
99	35.566737	95969280	63057920	18678040	24992
100	36.807206	95969280	63057920	18152424	24992
101	36.789923	95969280	63057920	18289024	24992
102	0.793864	95969280	63057920	18896376	24992
103	1.495529	95969280	63057920	20234120	24992
104	2.182533	95969280	63057920	22231352	24992
105	2.95523	95969280	63057920	24887912	24992
106	3.656228	95969280	63057920	28204384	24992
107	4.849671	95969280	63057920	15723784	24992
108	5.278316	95969280	63057920	20359064	24992
109	5.939236	95969280	63057920	25653752	24992
110	7.142854	95969280	63057920	15178768	24992
111	7.308926	95969280	63057920	21793256	24992
112	8.061028	95969280	63057920	29067128	24992
113	9.202417	95969280	63057920	20577040	24992
114	9.508841	95969280	63057920	29169696	24992
115	10.821363	95969280	63057920	21999800	24992
116	11.282165	95969280	63057920	15467576	24992
117	11.856305	95969280	63057920	26038632	24992
118	13.117313	95969280	63057920	20833056	24992
119	13.456191	95969280	63057920	16290544	24992
120	13.958015	95969280	63057920	28841856	24992
121	15.347342	95969280	63057920	25624136	24992
122	16.161471	95969280	63057920	23069448	24992
123	16.453242	95969280	63057920	21154800	24992
124	17.408698	95969280	63057920	19901704	24992
125	18.204202	95969280	63057920	19311192	24992
126	19.03666	95969280	63057920	19382040	24992
127	19.497699	95969280	63057920	20114432	24992
128	20.81684	95969280	63057920	21508360	24992
129	21.058019	95969280	63057920	23562936	24992
130	21.772434	95969280	63057920	26279048	24992
131	22.546964	95969280	63057920	29656336	24992
132	23.778105	95969280	63057920	17237456	24992
133	24.080262	95969280	63057920	21910528	24992
134	24.562706	95969280	63057920	27275608	24992
135	26.523981	95969280	63057920	16849896	24992
136	26.119319	95969280	63057920	23511536	24992
137	26.870226	95969280	63057920	30862472	24992
138	28.444342	95969280	63057920	22422064	24992
139	28.087672	95969280	63057920	31064784	24992
140	29.545384	95969280	63057920	23953728	24992
141	30.417161	95969280	63057920	17476608	24992
142	30.475468	95969280	63057920	28105184	24992
143	31.898008	95969280	63057920	22979616	24992
144	32.83012	95969280	63057920	18487304	24992
145	32.597261	95969280	63057920	31093784	24992
146	34.722288	95969280	63057920	27957648	24992
147	34.767559	95969280	63057920	25449336	24992
148	35.331585	95969280	63057920	23601936	24992
149	36.418117	95969280	63057920	22414032	24992
150	37.197205	95969280	63057920	21887536	24992
151	37.844059	95969280	63057920	22023992	24992
152	0.792969	95969280	63057920	22631280	24992
153	1.51172	95969280	63057920	23969024	24992
154	2.187862	95969280	63057920	25966176	24992
155	2.938329	95969280	63057920	28622736	24992
156	3.808151	95969280	63057920	31939208	24992
157	5.191873	95969280	63057920	19458560	24992
158	5.485294	95969280	63057920	24093856	24992
159	5.74477	95969280	63057920	29388544	24992
160	7.88613	95969280	63057920	18913400	24992
161	7.397382	95969280	63057920	25528000	24992
162	8.255857	95969280	63057920	32801856	24992
163	9.582051	95969280	63057920	24311064	24992
164	9.507836	95969280	63057920	32903800	24992
165	11.279791	95969280	63057920	25733392	24992
166	11.799095	95969280	63057920	19201432	24992
167	11.507	95969280	63057920	29772304	24992
168	13.286063	95969280	63057920	24566712	24992
169	14.545489	95969280	63057920	20032448	24992
170	14.061511	95969280	63057920	32584016	24992
171	15.440477	95969280	63057920	29366312	24992
172	16.360379	95969280	63057920	26811400	24992
173	16.7628	95969280	63057920	24896752	24992
174	17.887816	95969280	63057920	23643752	24992
175	18.446224	95969280	63057920	23052168	24992
176	19.295261	95969280	63057920	23122568	24992
177	20.158095	95969280	63057920	23854544	24992
178	20.541881	95969280	63057920	25247592	24992
179	21.706901	95969280	63057920	27302200	24992
180	22.230191	95969280	63057920	30018344	24992
181	22.867616	95969280	63057920	33395600	24992
182	24.255892	95969280	63057920	20976048	24992
183	24.338361	95969280	63057920	25649200	24992
184	25.204791	95969280	63057920	31014328	24992
185	26.392992	95969280	63057920	20586896	24992
186	26.354163	95969280	63057920	27248560	24992
187	28.496207	95969280	63057920	18154728	24992
188	27.91685	95969280	63057920	26137336	24992
189	29.593316	95969280	63057920	18362528	24992
190	29.220821	95969280	63057920	27666176	24992
191	31.313095	95969280	63057920	21215912	24992
192	30.850054	95969280	63057920	31840776	24992
193	32.711807	95969280	63057920	26713232	24992
194	33.132079	95969280	63057920	22221000	24992
195	33.323584	95969280	63057920	34827560	24992
196	35.000927	95969280	63057920	31658496	24992
197	35.286198	95969280	63057920	29165488	24992
198	36.493598	95969280	63057920	27319768	24992
199	38.031792	95969280	63057920	26139856	24992
200	37.81414	95969280	63057920	25613960	24992
201	38.506754	95969280	63057920	25750392	24992
202	0.793488	95969280	63057920	26357752	24992
203	1.481355	95969280	63057920	27695496	24992
204	2.245904	95969280	63057920	29692696	24992
205	2.890796	95969280	63057920	32349256	24992
206	3.605513	95969280	63057920	35665728	24992
207	5.575998	95969280	63057920	23183576	24992
208	5.042585	95969280	63057920	27818856	24992
209	5.738028	95969280	63057920	33113544	24992
210	7.878109	95969280	63057920	22638272	24992
211	7.486244	95969280	63057920	29252728	24992
212	9.149815	95969280	63057920	20089792	24992
213	8.769618	95969280	63057920	28023056	24992
214	10.710974	95969280	63057920	20178120	24992
215	10.230891	95969280	63057920	29430184	24992
216	12.308836	95969280	63057920	22912336	24992
217	11.768266	95969280	63057920	33483232	24992
218	13.849971	95969280	63057920	28293856	24992
219	14.183546	95969280	63057920	23751264	24992
220	15.209609	95969280	63057920	19852864	24992
221	14.562217	95969280	63057920	33063912	24992
222	16.490167	95969280	63057920	30508888	24992
223	17.322379	95969280	63057920	28616800	24992
224	17.967713	95969280	63057920	27363800	24992
225	18.752294	95969280	63057920	26772312	24992
226	19.815286	95969280	63057920	26842264	24992
227	20.616696	95969280	63057920	27573808	24992
228	21.404241	95969280	63057920	28966856	24992
229	21.762014	95969280	63057920	31027224	24992
230	22.269307	95969280	63057920	33745848	24992
231	24.546098	95969280	63057920	20664368	24992
232	24.121032	95969280	63057920	24674112	24992
233	25.052786	95969280	63057920	29378968	24992
234	25.440669	95969280	63057920	34750136	24992
235	27.355344	95969280	63057920	24330128	24992
236	27.328933	95969280	63057920	30992080	24992
237	29.057671	95969280	63057920	21903288	24992
238	28.324377	95969280	63057920	29886184	24992
239	30.685449	95969280	63057920	22119200	24992
240	29.725813	95969280	63057920	31423216	24992
241	31.9392	95969280	63057920	24981064	24992
242	31.354836	95969280	63057920	35606248	24992
243	33.289673	95969280	63057920	30487472	24992
244	34.97719	95969280	63057920	25995808	24992
245	35.199693	95969280	63057920	22162232	24992
246	34.203697	95969280	63057920	35429416	24992
247	36.292634	95969280	63057920	32961168	24992
248	37.067297	95969280	63057920	31114000	24992
249	37.921162	95969280	63057920	29930456	24992
250	38.383129	95969280	63057920	29404720	24992
251	39.833901	95969280	63057920	29541408	24992
252	0.795357	95969280	63057920	30148896	24992
253	1.48268	95969280	63057920	31486640	24992
254	2.20337	95969280	63057920	33483792	24992
255	3.072225	95969280	63057920	36140352	24992
256	5.635406	95969280	63057920	22992312	24992
257	4.459372	95969280	63057920	26968192	24992
258	5.24582	95969280	63057920	31603472	24992
259	6.1085	95969280	63057920	36898160	24992
260	8.119731	95969280	63057920	26422944	24992
261	7.287429	95969280	63057920	33037400	24992
262	9.702932	95969280	63057920	23881720	24992
263	8.606401	95969280	63057920	31814984	24992
264	11.133085	95969280	63057920	23969840	24992
265	10.393822	95969280	63057920	33221904	24992
266	12.677412	95969280	63057920	26703608	24992
267	11.687021	95969280	63057920	37274488	24992
268	14.327196	95969280	63057920	32085112	24992
269	14.712785	95969280	63057920	27542648	24992
270	15.64989	95969280	63057920	23643840	24992
271	14.804474	95969280	63057920	36854544	24992
272	16.892064	95969280	63057920	34299408	24992
273	17.78577	95969280	63057920	32407144	24992
274	18.506433	95969280	63057920	31154336	24992
275	19.221903	95969280	63057920	30562768	24992
276	20.27016	95969280	63057920	30632800	24992
277	21.083145	95969280	63057920	31364328	24992
278	21.422472	95969280	63057920	32757376	24992
279	22.100313	95969280	63057920	34811728	24992
280	22.77331	95969280	63057920	37527392	24992
281	25.566302	95969280	63057920	24445992	24992
282	24.671124	95969280	63057920	28455864	24992
283	25.014814	95969280	63057920	33159952	24992
284	25.95884	95969280	63057920	38530912	24992
285	27.977497	95969280	63057920	28110232	24992
286	27.515764	95969280	63057920	34771784	24992
287	29.722711	95969280	63057920	25681008	24992
288	28.681506	95969280	63057920	33663984	24992
289	31.622138	95969280	63057920	25900328	24992
290	29.898069	95969280	63057920	35204440	24992
291	32.678644	95969280	63057920	28760480	24992
292	31.714183	95969280	63057920	39384880	24992
293	34.377207	95969280	63057920	34239976	24992
294	35.188212	95969280	63057920	29765384	24992
295	35.740182	95969280	63057920	25931360	24992
296	35.070837	95969280	63057920	39198608	24992
297	37.130832	95969280	63057920	36729688	24992
298	37.692569	95969280	63057920	34882472	24992
299	38.394353	95969280	63057920	33697728	24992
300	39.280353	95969280	63057920	33173720	24992
301	39.954226	95969280	63057920	33310440	24992
302	0.795216	95969280	63057920	33918184	24992
303	1.495319	95969280	63057920	35255928	24992
304	2.187371	95969280	63057920	37253080	24992
305	2.953283	95969280	63057920	39909640	24992
306	5.784006	95969280	63057920	26761008	24992
307	4.348198	95969280	63057920	30736888	24992
308	5.03461	95969280	63057920	35372168	24992
309	7.789012	95969280	63057920	24225632	24992
310	6.591167	95969280	63057920	30180680	24992
311	7.317019	95969280	63057920	36795136	24992
312	10.26549	95969280	63057920	27639544	24992
313	9.343385	95969280	63057920	35583752	24992
314	11.607137	95969280	63057920	27749752	24992
315	10.231278	95969280	63057920	37001864	24992
316	12.919751	95969280	63057920	30483968	24992
317	13.762144	95969280	63057920	24614336	24992
318	12.556391	95969280	63057920	35846480	24992
319	15.184585	95969280	63057920	31303480	24992
320	15.927258	95969280	63057920	27423976	24992
321	14.770556	95969280	63057920	40634744	24992
322	17.851307	95969280	63057920	38071816	24992
323	18.074967	95969280	63057920	36179336	24992
324	18.855937	95969280	63057920	34933016	24992
325	19.476249	95969280	63057920	34341240	24992
326	20.394402	95969280	63057920	34411192	24992
327	21.063897	95969280	63057920	35142688	24992
328	21.975109	95969280	63057920	36535512	24992
329	22.519952	95969280	63057920	38589624	24992
330	25.37296	95969280	63057920	24845560	24992
331	23.875041	95969280	63057920	28194808	24992
332	24.830461	95969280	63057920	32235336	24992
333	25.602968	95969280	63057920	36939160	24992
334	28.210653	95969280	63057920	25856104	24992
335	27.071692	95969280	63057920	31857376	24992
336	27.746011	95969280	63057920	38556168	24992
337	30.376005	95969280	63057920	29461000	24992
338	29.448557	95969280	63057920	37444056	24992
339	32.101786	95969280	63057920	29678496	24992
340	30.902972	95969280	63057920	38982608	24992
341	33.666	95969280	63057920	32542152	24992
342	34.542129	95969280	63057920	26727008	24992
343	32.705437	95969280	63057920	38012608	24992
344	35.729846	95969280	63057920	33556624	24992
345	36.19562	95969280	63057920	29726440	24992
346	37.304287	95969280	63057920	26554672	24992
347	35.947169	95969280	63057920	40482336	24992
348	38.584899	95969280	63057920	38676736	24992
349	39.255044	95969280	63057920	37491096	24992
350	39.787328	95969280	63057920	36968000	24992
351	40.876797	95969280	63057920	37106336	24992
352	0.801582	95969280	63057920	37713760	24992
353	1.484255	95969280	63057920	39051504	24992
354	2.244126	95969280	63057920	41048656	24992
355	5.229228	95969280	63057920	27233808	24992
356	3.650665	95969280	63057920	30550280	24992
357	4.32674	95969280	63057920	34526160	24992
358	5.015453	95969280	63057920	39161472	24992
359	8.385849	95969280	63057920	28014992	24992
360	6.517443	95969280	63057920	33974488	24992
361	7.152382	95969280	63057920	40588944	24992
362	10.756927	95969280	63057920	31444512	24992
363	8.87448	95969280	63057920	39377808	24992
364	11.986549	95969280	63057920	31547888	24992
365	10.107543	95969280	63057920	40800000	24992
366	13.51509	95969280	63057920	34281560	24992
367	14.074836	95969280	63057920	28411936	24992
368	12.301683	95969280	63057920	39644104	24992
369	15.422219	95969280	63057920	35100960	24992
370	16.50393	95969280	63057920	31221312	24992
371	17.333719	95969280	63057920	27984496	24992
372	15.335921	95969280	63057920	41854672	24992
373	18.640857	95969280	63057920	39962128	24992
374	19.384409	95969280	63057920	38732288	24992
375	19.986783	95969280	63057920	38140384	24992
376	20.958158	95969280	63057920	38209904	24992
377	21.815265	95969280	63057920	38941032	24992
378	22.555221	95969280	63057920	40333664	24992
379	22.901575	95969280	63057920	42387696	24992
380	26.031048	95969280	63057920	28643600	24992
381	24.442553	95969280	63057920	31992880	24992
382	25.079305	95969280	63057920	36033424	24992
383	25.964853	95969280	63057920	40737216	24992
384	29.497258	95969280	63057920	29654000	24992
385	27.507347	95969280	63057920	35655400	24992
386	28.216749	95969280	63582208	42354288	24992
387	31.884654	96239616	64106496	33259120	24992
388	29.481259	96239616	64106496	41241360	24992
389	32.984128	96239616	64106496	33475672	24992
390	30.664518	96509952	64106496	42779000	24992
391	34.714601	96509952	64106496	36338640	24992
392	34.838427	96509952	64106496	30523656	24992
393	33.158858	96509952	64106496	41809304	24992
394	36.462738	96780288	64106496	37353160	24992
395	37.512917	96780288	64106496	33523136	24992
396	37.985163	96780288	64630784	30351048	24992
397	36.284617	97050624	64630784	44278776	24992
398	39.981502	97050624	64630784	42457672	24992
399	40.048492	97050624	64630784	41276496	24992
400	41.0394	97320960	64630784	40752488	24992
401	41.702976	97320960	64630784	40891160	24992
402	0.804742	97320960	64630784	41500552	24992
403	1.480275	97320960	64630784	42838296	24992
404	2.201952	97320960	64630784	44835448	24992
405	5.786965	97320960	64630784	31019992	24992
406	3.841513	97320960	64630784	34336464	24992
407	4.384368	97320960	64630784	38312344	24992
408	5.211749	97320960	64630784	42947624	24992
409	8.757159	97320960	64630784	31804664	24992
410	6.473331	97320960	64630784	37759792	24992
411	7.226922	97591296	64630784	44374248	24992
412	10.987913	97591296	64630784	35225368	24992
413	8.868468	97591296	64630784	43158680	24992
414	12.297231	97591296	64630784	35324120	24992
415	10.026725	97591296	64630784	44576184	24992
416	13.992767	97591296	64630784	38056976	24992
417	14.565965	97591296	65155072	32187384	24992
418	12.442783	97591296	65155072	43419520	24992
419	15.964471	97591296	65679360	38876280	24992
420	16.887288	97861632	65679360	34996616	24992
421	17.210253	97861632	65679360	31758920	24992
422	18.370981	97861632	65679360	29183608	24992
423	15.822683	97861632	65679360	43713128	24992
424	19.551056	97861632	65679360	42483168	24992
425	20.470592	97861632	65679360	41915944	24992
426	21.509503	97861632	65679360	41985528	24992
427	22.074541	98131968	65679360	42716608	24992
428	22.506276	98131968	65679360	44109112	24992
429	25.971511	98131968	65679360	29702384	24992
430	24.020711	98131968	65679360	32391120	24992
431	24.661388	98131968	65679360	35769888	24992
432	25.601004	98402304	65679360	39809112	24992
433	26.29628	98402304	65679360	44512632	24992
434	30.248807	98402304	65679360	33429352	24992
435	27.902437	98402304	65679360	39430816	24992
436	28.450453	98402304	66203648	46129720	24992
437	32.467341	98672640	66203648	37009312	24992
438	30.107948	98672640	66203648	45009544	24992
439	33.755872	98672640	66203648	37239904	24992
440	31.292475	98672640	66203648	46543264	24992
441	35.343884	98942976	66203648	40054944	24992
442	35.834566	98942976	66203648	34275432	24992
443	33.538879	98942976	66203648	45561272	24992
444	37.122485	99213312	66203648	41104440	24992
445	37.920248	99213312	66203648	37273856	24992
446	38.83176	99213312	67252224	34101528	24992
447	39.326961	99483648	67252224	31591464	24992
448	37.151639	99483648	67252224	46179704	24992
449	41.831685	99483648	67252224	45036032	24992
450	41.799293	99753984	67252224	44512056	24992
451	42.499268	99753984	67252224	44650392	24992
452	0.797395	99753984	67252224	45259672	24992
453	1.493532	99753984	67252224	46597416	24992
454	5.290478	99753984	67252224	32117288	24992
455	2.91832	99753984	67252224	34773848	24992
456	3.65813	99753984	67252224	38090320	24992
457	4.355184	99753984	67252224	42066200	24992
458	5.031284	99753984	67252224	46701480	24992
459	8.853763	99753984	67252224	35558584	24992
460	6.54337	99753984	67252224	41513632	24992
461	10.321256	100024320	67252224	31698624	24992
462	7.929031	100024320	67252224	38972536	24992
463	8.804577	100024320	67252224	46905800	24992
464	12.796605	100024320	67252224	39070520	24992
465	13.51137	100024320	67776512	31889024	24992
466	10.952833	100024320	67776512	41800496	24992
467	14.681699	100024320	67776512	35930648	24992
468	12.381689	100024320	67776512	47162800	24992
469	16.405673	100024320	67776512	42636392	24992
470	16.966349	100024320	67776512	38756312	24992
471	17.653328	100294656	67776512	35518552	24992
472	18.562818	100294656	67776512	32943256	24992
473	15.975199	100294656	67776512	47472824	24992
474	20.106173	100294656	67776512	46242240	24992
475	20.665869	100294656	67776512	45675064	24992
476	21.591712	100294656	67776512	45744392	24992
477	22.081013	100294656	67776512	46475216	24992
478	23.036862	100564992	67776512	47867656	24992
479	26.972311	100564992	67776512	33457160	24992
480	24.650402	100564992	67776512	36145552	24992
481	25.406495	100564992	67776512	39524352	24992
482	25.910039	100564992	67776512	43563592	24992
483	26.685539	100835328	67776512	48266904	24992
484	30.933064	100835328	68300800	37164896	24992
485	28.283652	100835328	68825088	43178928	24992
486	32.129382	100835328	68825088	33423600	24992
487	30.057466	101105664	68825088	40745936	24992
488	30.277166	101105664	68825088	48764224	24992
489	33.920155	101105664	68825088	40948312	24992
490	35.264568	101105664	68825088	33843296	24992
491	32.723101	101376000	68825088	43807808	24992
492	36.483216	101376000	68825088	38027360	24992
493	37.645388	101376000	68825088	32872304	24992
494	34.619642	101376000	68825088	44818384	24992
495	38.887236	101646336	69349376	41024952	24992
496	39.40362	101646336	69349376	37856528	24992
497	40.414568	101646336	69349376	35346112	24992
498	41.131634	101916672	69349376	33497456	24992
499	38.25177	101916672	69349376	48746304	24992
500	42.342649	101916672	69349376	48265248	24992
501	42.917829	102187008	69349376	48403760	24992
502	0.798925	102187008	69349376	49013152	24992
503	4.946045	102187008	69349376	33868744	24992
504	2.210789	102187008	69349376	35865888	24992
505	2.949212	102187008	69349376	38522448	24992
506	3.665696	102187008	69349376	41838920	24992
507	4.369898	102187008	69349376	45814800	24992
508	8.526387	102187008	69349376	34002696	24992
509	5.77736	102187008	69349376	39297376	24992
510	6.454762	102187008	69349376	45252424	24992
511	10.876642	102187008	69349376	35441920	24992
512	7.95049	102187008	69349376	42715824	24992
513	12.118097	102187008	69349376	34217264	24992
514	9.595795	102457344	69349376	42809920	24992
515	13.837802	102457344	69873664	35628432	24992
516	10.818289	102457344	69873664	45539952	24992
517	15.293563	102457344	70397952	39685296	24992
518	16.171687	102457344	70397952	34480104	24992
519	13.175977	102457344	70397952	46371856	24992
520	17.658754	102457344	70397952	42491784	24992
521	18.173389	102457344	70397952	39274752	24992
522	19.011637	102727680	70397952	36699008	24992
523	19.341818	102727680	70397952	34785256	24992
524	16.827255	102727680	70397952	49974200	24992
525	20.827795	102727680	70397952	49406160	24992
526	21.91192	102727680	70397952	49501456	24992
527	23.100331	102727680	70397952	50231592	24992
528	26.59739	102998016	70397952	35156584	24992
529	24.13397	102998016	70397952	37187288	24992
530	24.805317	102998016	70397952	39904512	24992
531	25.709917	102998016	70397952	43282616	24992
532	26.299246	102998016	70397952	47321952	24992
533	30.626492	103268352	70397952	35569264	24992
534	27.561761	103268352	70397952	40908472	24992
535	28.745754	103268352	70922240	46942496	24992
536	32.720517	103268352	70922240	37184920	24992
537	30.11921	103268352	70922240	44507336	24992
538	34.047659	103538688	70922240	36081304	24992
539	31.40464	103538688	70922240	44724792	24992
540	35.852655	103538688	70922240	37620376	24992
541	33.152418	103538688	70922240	47584952	24992
542	37.104957	103809024	70922240	41803528	24992
543	38.237436	103809024	70922240	36650056	24992
544	34.793602	103809024	70922240	48596136	24992
545	39.20129	104079360	71446528	44802528	24992
546	39.704073	104079360	71446528	41634376	24992
547	40.806393	104079360	71970816	39123592	24992
548	41.230483	104349696	71970816	37275160	24992
549	42.204127	104349696	71970816	36088048	24992
550	39.442633	104349696	71970816	51997376	24992
551	43.552319	104349696	71970816	52121568	24992
552	4.784208	104620032	71970816	36283968	24992
553	1.523128	104620032	71970816	37621784	24992
554	2.246429	104620032	71970816	39618936	24992
555	2.930298	104620032	71970816	42275496	24992
556	3.61472	104620032	71970816	45598768	24992
557	4.393622	104620032	71970816	49574696	24992
558	8.904288	104620032	71970816	37764784	24992
559	5.830933	104620032	71970816	43059536	24992
560	6.552211	104620032	71970816	49014584	24992
561	11.53334	104620032	71970816	39214600	24992
562	8.422033	104620032	71970816	46488456	24992
563	13.242014	104620032	71970816	37990552	24992
564	9.732801	104620032	71970816	46583272	24992
565	14.318611	104890368	71970816	39403304	24992
566	11.12986	104890368	71970816	49314776	24992
567	21.421259	104890368	71970816	43461752	24992
568	17.225399	104890368	71970816	21037920	24992
569	13.467482	104890368	71970816	16453944	24992
570	13.934611	104890368	71970816	12535096	24992
571	14.468416	104890368	71970816	25747496	24992
572	15.679212	104890368	71970816	23155016	24992
573	16.611483	104890368	71970816	21223520	24992
574	16.865164	104890368	71970816	19946200	24992
575	18.149415	104890368	71970816	19329256	24992
576	18.649148	104890368	71970816	19374072	24992
577	19.338687	104890368	71970816	20078536	24992
578	19.992113	104890368	71970816	21442656	24992
579	20.551079	104890368	71970816	23467216	24992
580	21.281489	104890368	71970816	26151776	24992
581	22.912441	104890368	71970816	13026984	24992
582	24.191679	104890368	71970816	17041600	24992
583	23.883277	104890368	71970816	21711992	24992
584	24.353002	104890368	71970816	27046448	24992
585	25.376832	104890368	71970816	16573968	24992
586	25.908645	104890368	71970816	23224864	24992
587	26.995953	104890368	71970816	14080544	24992
588	27.317523	104890368	71970816	22051800	24992
589	28.157915	104890368	71970816	14229120	24992
590	29.42969	104890368	71970816	23524488	24992
591	29.954795	104890368	71970816	17018696	24992
592	30.307219	104890368	71970816	27627952	24992
593	31.048842	104890368	71970816	22444648	24992
594	31.971225	104890368	71970816	17920400	24992
595	32.628622	104890368	71970816	14054912	24992
596	33.009105	104890368	71970816	27305280	24992
597	33.886979	104890368	71970816	24764720	24992
598	34.629631	104890368	71970816	22882376	24992
599	35.899905	104890368	71970816	21662680	24992
600	36.59648	104890368	71970816	21100280	24992
601	36.793414	104890368	71970816	21199536	24992
602	0.812018	104890368	71970816	21791688	24992
603	1.487979	104890368	71970816	23129432	24992
604	2.452807	104890368	71970816	25126584	24992
605	2.906697	104890368	71970816	27783144	24992
606	4.057968	104890368	71970816	14624336	24992
607	4.404819	104890368	71970816	18600248	24992
608	5.309919	104890368	71970816	23235528	24992
609	6.206896	104890368	71970816	28530216	24992
610	7.071202	104890368	71970816	18020712	24992
611	7.704447	104890368	71970816	24635168	24992
612	8.546514	104890368	71970816	15442672	24992
613	8.633992	104890368	71970816	23375936	24992
614	9.637217	104890368	71970816	15499272	24992
615	10.236229	104890368	71970816	24751336	24992
616	11.233792	104890368	71970816	18196144	24992
617	11.648994	104890368	71970816	28767056	24992
618	12.881414	104890368	71970816	23534688	24992
619	13.442395	104890368	71970816	18958896	24992
620	14.159073	104890368	71970816	15038312	24992
621	14.425323	104890368	71970816	28249016	24992
622	15.638483	104890368	71970816	25655144	24992
623	16.178292	104890368	71970816	23722192	24992
624	16.905998	104890368	71970816	22443000	24992
625	17.697311	104890368	71970816	21824456	24992
626	18.950027	104890368	71970816	21866552	24992
627	19.225172	104890368	71970816	22572304	24992
628	19.982006	104890368	71970816	23935352	24992
629	21.046982	104890368	71970816	25959440	24992
630	21.452245	104890368	71970816	28642336	24992
631	22.184587	104890368	71970816	15515624	24992
632	23.153072	104890368	71970816	19514344	24992
633	23.492644	104890368	71970816	24182208	24992
634	24.644905	104890368	71970816	29514216	24992
635	25.168921	104890368	71970816	19014680	24992
636	25.759966	104890368	71970816	25666216	24992
637	26.979632	104890368	71970816	16514712	24992
638	27.334599	104890368	71970816	24483656	24992
639	28.765203	104890368	71970816	16659176	24992
640	29.756035	104890368	71970816	25957760	24992
641	29.90916	104890368	71970816	19484088	24992
642	30.277361	104890368	71970816	13669048	24992
643	31.004633	104890368	71970816	24954824	24992
644	31.468895	104890368	71970816	20491624	24992
645	33.289117	104890368	71970816	16659704	24992
646	33.215828	104890368	71970816	29927032	24992
647	34.116425	104890368	71970816	27428248	24992
648	35.182002	104890368	71970816	25593928	24992
649	35.495412	104890368	71970816	24408456	24992
650	38.2404	104890368	71970816	23886488	24992
651	38.417228	104890368	71970816	24023488	24992
652	0.792855	104890368	71970816	24630776	24992
653	1.501913	104890368	71970816	25968632	24992
654	2.186388	104890368	71970816	27965768	24992
655	3.109785	104890368	71970816	30622312	24992
656	4.198058	104890368	71970816	17476736	24992
657	4.517064	104890368	71970816	21452600	24992
658	5.224842	104890368	71970816	26087992	24992
659	6.751932	104890368	71970816	14946552	24992
660	6.66914	104890368	71970816	20901584	24992
661	7.444084	104890368	71970816	27516024	24992
662	8.46434	104890368	71970816	18364104	24992
663	8.693803	104890368	71970816	26297352	24992
664	9.9844	104890368	71970816	18466288	24992
665	10.211432	104890368	71970816	27718368	24992
666	11.256411	104890368	71970816	21202664	24992
667	12.144338	104890368	71970816	15334976	24992
668	12.686964	104890368	71970816	26567096	24992
669	13.456768	104890368	71970816	22025976	24992
670	14.300879	104890368	71970816	18148248	24992
671	15.205438	104890368	71970816	14912672	24992
672	15.205213	104890368	71970816	28782912	24992
673	16.273793	104890368	71970816	26892312	24992
674	17.488137	104890368	71970816	25664504	24992
675	17.783997	104890368	71970816	25073968	24992
676	19.130637	104890368	71970816	25145224	24992
677	19.532567	104890368	71970816	25878024	24992
678	20.147875	104890368	71970816	27272104	24992
679	21.106924	104890368	71970816	29327536	24992
680	21.993812	104890368	71970816	15585392	24992
681	22.259959	104890368	71970816	18935296	24992
682	23.292429	104890368	71970816	22977096	24992
683	24.107087	104890368	71970816	27682000	24992
684	25.050754	104890368	71970816	16593248	24992
685	25.239565	104890368	71970816	22594728	24992
686	26.129907	104890368	71970816	29286744	24992
687	27.287797	104890368	71970816	20184760	24992
688	28.337501	104890368	71970816	28167928	24992
689	29.09516	104890368	71970816	20395280	24992
690	29.006495	104890368	71970816	29699456	24992
691	30.535776	104890368	71970816	23252176	24992
692	31.050348	104890368	71970816	17437248	24992
693	31.430614	104890368	71970816	28722896	24992
694	32.484556	104890368	71970816	24258864	24992
695	33.786748	104890368	71970816	20428912	24992
696	34.132501	104890368	71970816	17257360	24992
697	34.246648	104890368	71970816	31185152	24992
698	35.287712	104890368	71970816	29370976	24992
699	36.18574	104890368	71970816	28185680	24992
700	36.772335	104890368	71970816	27661952	24992
701	38.076052	104890368	71970816	27803808	24992
702	0.79819	104890368	71970816	28411912	24992
703	1.483371	104890368	71970816	29749640	24992
704	2.199713	104890368	71970816	31746776	24992
705	3.825623	104890368	71970816	17934336	24992
706	3.803466	104890368	71970816	21250792	24992
707	4.410699	104890368	71970816	25226656	24992
708	5.253686	104890368	71970816	29861920	24992
709	6.644675	104890368	71970816	18722200	24992
710	6.674808	104890368	71970816	24677264	24992
711	7.319212	104890368	71970816	31291704	24992
712	8.71526	104890368	71970816	22147336	24992
713	8.78918	104890368	71970816	30080584	24992
714	10.146841	104890368	71970816	22249344	24992
715	10.229674	104890368	71970816	31501392	24992
716	11.827002	104890368	71970816	24985448	24992
717	12.310589	104890368	71970816	19117744	24992
718	12.718644	104890368	71970816	30349968	24992
719	13.909002	104890368	71970816	25808744	24992
720	14.464179	104890368	71970816	21931016	24992
721	15.416074	104890368	71970816	18695504	24992
722	15.391425	104890368	71970816	32565600	24992
723	16.605704	104890368	71970816	30675000	24992
724	17.677702	104890368	71970816	29447288	24992
725	18.035469	104890368	71970816	28856672	24992
726	19.25035	104890368	71970816	28927448	24992
727	19.641226	104890368	71970816	29659784	24992
728	20.91867	104890368	71970816	31053672	24992
729	21.724388	104890368	71970816	33118216	24992
730	22.86411	104890368	71970816	19375368	24992
731	22.535427	104890368	71970816	22725320	24992
732	23.658682	104890368	71970816	26766576	24992
733	24.149705	104890368	71970816	31471368	24992
734	26.175263	104890368	71970816	20382456	24992
735	25.475407	104890368	71970816	26383888	24992
736	26.5574	104890368	71970816	33076032	24992
737	28.236424	104890368	71970816	23974064	24992
738	28.538674	104890368	71970816	31957376	24992
739	29.984999	104890368	71970816	24184520	24992
740	29.768803	104890368	71970816	33488040	24992
741	31.027576	104890368	71970816	27039760	24992
742	31.815592	104890368	71970816	21225008	24992
743	31.137164	104890368	71970816	32510800	24992
744	33.224197	104890368	71970816	28046784	24992
745	34.060799	104890368	71970816	24217072	24992
746	34.554318	104890368	71970816	21044752	24992
747	34.184512	104890368	71970816	34972640	24992
748	36.348898	104890368	71970816	33102944	24992
749	36.751467	104890368	71970816	31950704	24992
750	37.536882	104890368	71970816	31426864	24992
751	39.017816	104890368	71970816	31573728	24992
752	0.838927	104890368	71970816	32183344	24992
753	1.585627	104890368	71970816	33521072	24992
754	2.307932	104890368	71970816	35518208	24992
755	4.269825	104890368	71970816	21698144	24992
756	3.926638	104890368	71970816	25014600	24992
757	4.367512	104890368	71970816	28990464	24992
758	5.21578	104890368	71970816	33625728	24992
759	6.884004	104890368	71970816	22487776	24992
760	6.474595	104890368	71970816	28442808	24992
761	7.367598	104890368	71970816	35057248	24992
762	9.091701	104890368	71970816	25918240	24992
763	8.805385	104890368	71970816	33851488	24992
764	10.4758	104890368	71970816	26020120	24992
765	10.231147	104890368	71970816	35272168	24992
766	12.27453	104890368	71970816	28755536	24992
767	12.6625	104890368	71970816	22888192	24992
768	12.351309	104890368	71970816	34120320	24992
769	14.25512	104890368	71970816	29579008	24992
770	15.024231	104890368	71970816	25701328	24992
771	15.742903	104890368	71970816	22464856	24992
772	16.452422	104890368	71970816	19890824	24992
773	16.034168	104890368	71970816	34420368	24992
774	18.05429	104890368	71970816	33192336	24992
775	18.734336	104890368	71970816	32626968	24992
776	19.068599	104890368	71970816	32697648	24992
777	20.460641	104890368	71970816	33429936	24992
778	20.56903	104890368	71970816	34823600	24992
779	22.773213	104890368	71970816	20418952	24992
780	22.469228	104890368	71970816	23108296	24992
781	23.062453	104890368	71970816	26488336	24992
782	23.638771	104890368	71970816	30528864	24992
783	24.879491	104890368	71970816	35233976	24992
784	26.492349	104890368	71970816	24151632	24992
785	26.121385	104890368	71970816	30153560	24992
786	28.062439	104890368	71970816	20403224	24992
787	28.831294	104890368	71970816	27725912	24992
788	29.050417	104890368	71970816	35744792	24992
789	30.262502	104890368	71970816	27975368	24992
790	31.060593	104890368	71970816	20837752	24992
791	30.316023	104890368	71970816	30802568	24992
792	32.469842	104890368	71970816	25024104	24992
793	31.914522	104890368	71970816	36310120	24992
794	34.291698	104890368	71970816	31854280	24992
795	34.410336	104890368	71970816	28023680	24992
796	36.099022	104890368	71970816	24853912	24992
797	36.303284	104890368	71970816	22344568	24992
798	35.775197	104890368	71970816	36933192	24992
799	37.930082	104890368	71970816	35781480	24992
800	38.915278	104890368	71970816	35256648	24992
801	39.44242	104890368	71970816	35395976	24992
802	0.80304	104890368	71970816	36005576	24992
803	1.48615	104890368	71970816	37343304	24992
804	3.601578	104890368	71970816	22864392	24992
805	2.976929	104890368	71970816	25520936	24992
806	3.788991	104890368	71970816	28837424	24992
807	4.380577	104890368	71970816	32813288	24992
808	5.216714	104890368	71970816	37448552	24992
809	7.243496	104890368	71970816	26309984	24992
810	6.667106	104890368	71970816	32265016	24992
811	8.868965	104890368	71970816	22454376	24992
812	8.076505	104890368	71970816	29728248	24992
813	8.813453	104890368	71970816	37661512	24992
814	10.888732	104890368	71970816	29829464	24992
815	11.759121	104890368	71970816	22650640	24992
816	10.970167	104890368	71970816	32562088	24992
817	13.211221	104890368	71970816	26694168	24992
818	12.362911	104890368	71970816	37926320	24992
819	14.627784	104890368	71970816	33399224	24992
820	15.295406	104890368	71970816	29521264	24992
821	16.126009	104890368	71970816	26287776	24992
822	16.996718	104890368	71970816	23713800	24992
823	16.120682	104890368	71970816	38243368	24992
824	18.0762	104890368	71970816	36995256	24992
825	19.101064	104890368	71970816	36430000	24992
826	19.914605	104890368	71970816	36516712	24992
827	20.529696	104890368	71970816	37248984	24992
828	23.085483	104890368	71970816	22181656	24992
829	22.000983	104890368	71970816	24210472	24992
830	22.550003	104890368	71970816	26928968	24992
831	23.320105	104890368	71970816	30308840	24992
832	24.086958	104890368	71970816	34349304	24992
833	26.730881	104890368	71970816	22598568	24992
834	25.566179	104890368	71970816	27937984	24992
835	26.581237	104890368	71970816	33972968	24992
836	29.014767	104890368	71970816	24217232	24992
837	27.933039	104890368	71970816	31539928	24992
838	30.719202	104890368	71970816	23113040	24992
839	29.668309	104890368	71970816	31756752	24992
840	32.873887	104890368	71970816	24654272	24992
841	30.747778	104890368	71970816	34619136	24992
842	33.512567	104890368	71970816	28838800	24992
843	34.093013	104890368	71970816	23685776	24992
844	33.129869	104890368	71970816	35632176	24992
845	35.279761	104890368	71970816	31839640	24992
846	36.271112	104890368	71970816	28671808	24992
847	36.889182	104890368	71970816	26162016	24992
848	37.501817	104890368	71970816	24314400	24992
849	36.594388	104890368	71970816	39563488	24992
850	39.544858	104890368	71970816	39092296	24992
851	41.096117	104890368	71970816	39253656	24992
852	0.803782	104890368	71970816	39862376	24992
853	3.49037	104890368	71970816	24717624	24992
854	2.249144	104890368	71970816	26723264	24992
855	3.095171	104890368	71970816	29379808	24992
856	3.655373	104890368	71970816	32696264	24992
857	4.51431	104890368	71970816	36672128	24992
858	6.922748	104890368	71970816	24861024	24992
859	5.992451	104890368	71970816	30155744	24992
860	6.507645	104890368	71970816	36110776	24992
861	9.256874	104890368	71970816	26301664	24992
862	7.909143	104890368	71970816	33575504	24992
863	10.668682	104890368	71970816	25077776	24992
864	9.320535	104890368	71970816	33670416	24992
865	12.133065	104890368	71970816	26489616	24992
866	10.938305	104890368	71970816	36401088	24992
867	13.826969	104890368	71970816	30547456	24992
868	14.260365	104890368	71970816	25342904	24992
869	13.076321	104890368	71970816	37234432	24992
870	15.689955	104890368	71970816	33354776	24992
871	16.463731	104890368	71970816	30138336	24992
872	17.132199	104890368	71970816	27562480	24992
873	18.239602	104890368	71970816	25650072	24992
874	18.619797	104890368	71970816	24398184	24992
875	17.506877	104890368	71970816	40246496	24992
876	20.056985	104890368	71970816	40341568	24992
877	22.818111	104890368	71970816	24636680	24992
878	21.886833	104890368	71970816	26004680	24992
879	22.241676	104890368	71970816	28060784	24992
880	22.951166	104890368	71970816	30778144	24992
881	23.806894	104890368	71970816	34156264	24992
882	24.80724	104890368	71970816	38195872	24992
883	27.468149	104890368	71970816	26443552	24992
884	26.952842	104890368	71970816	31782728	24992
885	27.319001	104890368	71970816	37816880	24992
886	29.454643	104890368	71970816	28059704	24992
887	28.516243	104890368	71970816	35382312	24992
888	31.672595	104890368	71970816	26965392	24992
889	29.87711	104890368	71970816	35609088	24992
890	32.54594	104890368	71970816	28504464	24992
891	31.254422	104890368	71970816	38469232	24992
892	34.015285	104890368	71970816	32687920	24992
893	34.684792	104890368	71970816	27534416	24992
894	33.042336	104890368	71970816	39480576	24992
895	35.868954	104890368	71970816	35687368	24992
896	36.606182	104890368	71970816	32518752	24992
897	37.538143	104890368	71970816	30007968	24992
898	38.337063	104890368	71970816	28159520	24992
899	38.935107	104890368	71970816	26972504	24992
900	39.942191	104890368	71970816	26446912	24992
901	40.432497	104890368	71970816	26583648	24992
902	0.906181	104890368	71970816	27192016	24992
903	1.491774	104890368	71970816	28529744	24992
904	2.204409	104890368	71970816	30526880	24992
905	2.89118	104890368	71970816	33183424	24992
906	3.647344	104890368	71970816	36499880	24992
907	4.521088	104890368	71970816	40475920	24992
908	7.369776	104890368	71970816	28663920	24992
909	5.983762	104890368	71970816	33958592	24992
910	6.646828	104890368	71970816	39913656	24992
911	9.572591	104890368	71970816	30110256	24992
912	7.903197	104890368	71970816	37384096	24992
913	11.073806	104890368	71970816	28885264	24992
914	9.332343	104890368	71970816	37477920	24992
915	12.46111	104890368	71970816	30296192	24992
916	10.953528	104890368	71970816	40207728	24992
917	13.754138	104890368	71970816	34352944	24992
918	14.846568	104890368	71970816	29147736	24992
919	13.059065	104890368	71970816	41039264	24992
920	15.919967	104890368	71970816	37158920	24992
921	16.976443	104890368	71970816	33941728	24992
922	17.460603	104890368	71970816	31365504	24992
923	18.421044	104890368	71970816	29451720	24992
924	18.810316	104890368	71970816	28199472	24992
925	19.740739	104890368	71970816	27608768	24992
926	20.645526	104890368	71970816	27679696	24992
927	21.707616	104890368	71970816	28412216	24992
928	22.28178	104890368	71970816	29806112	24992
929	23.371911	104890368	71970816	31861696	24992
930	23.464442	104890368	71970816	34578768	24992
931	24.296148	104890368	71970816	37956456	24992
932	24.902832	104890368	71970816	41995216	24992
933	28.206576	104890368	71970816	30242304	24992
934	26.176162	104890368	71970816	35581528	24992
935	27.260582	104890368	71970816	41615600	24992
936	30.11145	104890368	71970816	31857784	24992
937	28.657633	104890368	71970816	39180264	24992
938	31.331736	104890368	71970816	30752264	24992
939	30.023745	104890368	71970816	39395752	24992
940	32.849708	104890368	71970816	32292808	24992
941	31.628105	104890368	71970816	42257480	24992
942	34.593321	104890368	71970816	36479864	24992
943	35.742499	104890368	71970816	31326552	24992
944	33.590341	104890368	71970816	43272744	24992
945	37.185495	104890368	71970816	39478784	24992
946	37.7672	104890368	71970816	36309160	24992
947	38.504228	104890368	71970816	33800488	24992
948	39.535643	104890368	71970816	31951272	24992
949	39.81071	104890368	71970816	30764304	24992
950	40.824708	104890368	71970816	30238872	24992
951	41.354698	104890368	71970816	30375720	24992
952	0.792805	104890368	71970816	30983448	24992
953	1.484718	104890368	71970816	32321176	24992
954	2.199407	104890368	71970816	34318312	24992
955	2.943837	104890368	71970816	36974856	24992
956	3.624595	104890368	71970816	40291312	24992
957	4.377906	104890368	71970816	44267176	24992
958	7.953883	104890368	71970816	32454904	24992
959	5.800869	104890368	71970816	37749576	24992
960	6.638536	104890368	71970816	43704608	24992
961	9.811189	104890368	71970816	33900776	24992
962	8.059462	104890368	71970816	41174616	24992
963	11.615488	104890368	71970816	32675544	24992
964	9.351862	104890368	71970816	41268184	24992
965	12.691913	104890368	71970816	34086216	24992
966	10.946978	104890368	71970816	43997672	24992
967	14.239595	104890368	71970816	38142872	24992
968	14.990875	104890368	71970816	32937664	24992
969	13.021011	104890368	71970816	44829192	24992
970	16.541939	104890368	71970816	40948192	24992
971	17.14916	104890368	71970816	37730744	24992
972	17.994121	104890368	71970816	35154520	24992
973	18.58743	104890368	71970816	33239856	24992
974	19.894185	104890368	71970816	31987592	24992
975	20.426	104890368	71970816	31396904	24992
976	20.81277	104890368	71970816	31467736	24992
977	21.941439	104890368	71970816	32200224	24992
978	22.783976	104890368	71970816	33594136	24992
979	23.379822	104890368	71970816	35649608	24992
980	24.004519	104890368	71970816	38365816	24992
981	24.452084	104890368	71970816	41743472	24992
982	25.258896	104890368	71970816	45782184	24992
983	28.878299	104890368	71970816	34006520	24992
984	27.246419	104890368	71970816	39364096	24992
985	27.255248	104890368	71970816	45398008	24992
986	31.322812	104890368	71970816	35639504	24992
987	29.009764	104890368	71970816	42961200	24992
988	32.221314	104890368	71970816	34533248	24992
989	30.682687	104890368	71970816	43176864	24992
990	33.670871	104890368	71970816	36073952	24992
991	32.223326	104890368	71970816	46037776	24992
992	35.408742	104890368	71970816	40249216	24992
993	36.377502	104890368	71970816	35096320	24992
994	36.77145	104890368	71970816	30601856	24992
995	35.914749	104890368	71970816	43213352	24992
996	38.095162	104890368	71970816	40082840	24992
997	39.024487	104890368	71970816	37576008	24992
998	39.590794	104890368	71970816	35726920	24992
999	40.27543	104890368	71970816	34539664	24992
1000	41.109768	104890368	71970816	34014296	24992
