x	Duration	RSS	HeapTotal	HeapUsed	External
0	NA	89772032	61485056	10979264	24992
1	1.105359	89772032	61485056	11659304	24992
2	1.888054	89772032	61485056	12997648	24992
3	2.852326	89772032	61485056	14995336	24992
4	3.662214	89772032	61485056	17653464	24992
5	4.686611	89772032	61485056	20970824	24992
6	4.905389	89772032	61485056	24947656	24992
7	5.573141	89772032	61485056	13118152	24992
8	6.159617	89772032	61485056	18414080	24992
9	6.562204	89772032	61485056	24370528	24992
10	7.772242	89772032	61485056	14527336	24992
11	8.050027	89772032	61485056	21802880	24992
12	9.012044	89772032	61485056	13270544	24992
13	9.462205	89772032	61485056	21865176	24992
14	10.844114	89772032	61485056	14651280	24992
15	11.058507	89772032	61485056	24565080	24992
16	12.400749	89772032	61485056	18672976	24992
17	12.799619	89772032	61485056	13439104	24992
18	13.302617	89772032	61485056	25333472	24992
19	14.244205	89772032	61485056	21421608	24992
20	16.576479	89772032	61485056	18185440	24992
21	15.884058	89772032	61485056	15588912	24992
22	16.411703	89772032	61485056	13653816	24992
23	17.582093	89772032	61485056	12379280	24992
24	17.817979	89772032	61485056	11765280	24992
25	18.537474	89772032	61485056	11811864	24992
26	19.58712	89772032	61485056	12519080	24992
27	20.259117	89772032	61485056	13886832	24992
28	21.736078	89772032	61485056	15920280	24992
29	22.237683	90042368	61485056	18609016	24992
30	22.806295	90042368	61485056	21957408	24992
31	23.228653	90042368	61485056	25966120	24992
32	24.017848	90042368	61485056	14170960	24992
33	24.275587	90042368	61485056	19502752	24992
34	25.804569	90042368	61485056	25501448	24992
35	26.604953	90042368	61485056	15697376	24992
36	27.097573	90042368	61485056	23010672	24992
37	27.651297	90042368	61485056	14528312	24992
38	28.233073	90042368	61485056	23160456	24992
39	29.8988	90042368	61485056	16000680	24992
40	29.587744	90042368	61485056	25955688	24992
41	30.95958	90042368	61485056	20115272	24992
42	31.26102	90312704	61485056	14933584	24992
43	32.397788	90312704	61485056	26867112	24992
44	32.571718	90312704	61485056	23008592	24992
45	33.667569	90312704	61485056	19811744	24992
46	33.968032	90312704	61485056	17270488	24992
47	35.231997	90312704	61485056	15390192	24992
48	35.370894	90312704	61485056	14171168	24992
49	36.115507	90583040	61485056	13613104	24992
50	37.4289	90583040	61485056	13716632	24992
51	37.506943	90583040	61485056	14481488	24992
52	0.799057	90583040	61485056	15735408	24992
53	1.489486	90583040	61485056	17073448	24992
54	2.426581	90583040	61485056	19070928	24992
55	2.975787	90583040	61485056	21727896	24992
56	3.669219	90583040	61485056	25044872	24992
57	4.378571	90583040	61485056	29021320	24992
58	5.356276	90583040	61485056	17188720	24992
59	5.77188	90583040	61485056	22484232	24992
60	6.549265	90583040	61485056	28440104	24992
61	7.753363	90583040	61485056	18595672	24992
62	8.323062	90583040	61485056	25870560	24992
63	9.024129	90583040	61485056	17337408	24992
64	9.485781	90583040	61485056	25931208	24992
65	10.361431	90583040	61485056	18716464	24992
66	10.800279	90583040	61485056	28629352	24992
67	11.786591	90583040	61485056	22735856	24992
68	12.538394	90583040	61485056	17501232	24992
69	13.885468	90583040	61485056	12922424	24992
70	13.889859	90583040	61485056	25475480	24992
71	14.767076	90583040	61485056	22224472	24992
72	15.815762	90583040	61485056	19633200	24992
73	16.298521	90583040	61485056	17695784	24992
74	16.994192	90583040	61485056	16419760	24992
75	17.760489	90583040	61485056	15804320	24992
76	18.445594	90583040	61485056	15849264	24992
77	19.282881	90583040	61485056	16554696	24992
78	20.994315	90583040	61485056	17929144	24992
79	21.063425	90583040	61485056	19955624	24992
80	21.641271	90853376	61485056	22641864	24992
81	22.407277	90853376	61485056	25989976	24992
82	22.918302	90853376	61485056	13528112	24992
83	23.636812	90853376	61485056	18193416	24992
84	25.678469	90853376	61485056	23538664	24992
85	25.065836	90853376	61485056	29545960	24992
86	26.308736	90853376	61485056	19758224	24992
87	27.088482	90853376	61485056	27096896	24992
88	27.389378	91123712	61485056	18657616	24992
89	28.475613	91123712	61485056	27300928	24992
90	28.906214	91123712	61485056	20190624	24992
91	30.064497	91123712	61485056	13714048	24992
92	29.904724	91123712	61485056	24339136	24992
93	31.702938	91123712	61485056	19214616	24992
94	31.641408	91123712	61485056	14719616	24992
95	32.055604	91123712	61485056	27326336	24992
96	34.587154	91123712	61485056	24195424	24992
97	34.145524	91123712	61485056	21688456	24992
98	35.162514	91123712	61485056	19839344	24992
99	35.543534	91123712	61485056	18651584	24992
100	36.5258	91123712	61485056	18126208	24992
101	36.939018	91123712	61485056	18263208	24992
102	0.800692	91123712	61485056	18870816	24992
103	1.485833	91123712	61485056	20208560	24992
104	2.198282	91123712	61485056	22205728	24992
105	2.961874	91123712	61485056	24862288	24992
106	3.649227	91123712	61485056	28179032	24992
107	4.852842	91123712	61485056	15701264	24992
108	5.088127	91123712	61485056	20336544	24992
109	5.84394	91123712	61485056	25631232	24992
110	6.982835	91123712	61485056	15160496	24992
111	7.453555	91123712	61485056	21775040	24992
112	8.346522	91123712	61485056	29048912	24992
113	9.562846	91123712	61485056	20561648	24992
114	9.33872	91123712	61485056	29154304	24992
115	10.875994	91123712	61485056	21986768	24992
116	11.297975	91123712	61485056	15455952	24992
117	11.697509	91123712	61485056	26026832	24992
118	13.121192	91123712	61485056	20822624	24992
119	13.69028	91123712	61485056	16281472	24992
120	14.10295	91123712	61485056	28832784	24992
121	15.157799	91123712	61485056	25616480	24992
122	15.998556	91123712	61485056	23063216	24992
123	16.439558	91123712	61485056	21149488	24992
124	17.037697	91123712	61485056	19897328	24992
125	17.855317	91123712	61485056	19307896	24992
126	18.827742	91123712	61485056	19379680	24992
127	19.533239	91123712	61485056	20113008	24992
128	20.05644	91123712	61485056	21507936	24992
129	21.415256	91123712	61485056	23563448	24992
130	22.040526	91123712	61485056	26280512	24992
131	22.457772	91123712	61485056	29658672	24992
132	23.983082	91123712	61485056	17241232	24992
133	23.822275	91123712	61485056	21914736	24992
134	25.105967	91123712	61485056	27280512	24992
135	25.957949	91123712	61485056	16855216	24992
136	26.234996	91123712	61485056	23517016	24992
137	27.045545	91123712	61485056	30868256	24992
138	28.293265	91123712	61485056	22428232	24992
139	28.635063	91123712	61485056	31070968	24992
140	29.514753	91394048	61485056	23960248	24992
141	30.452998	91394048	61485056	17483448	24992
142	31.114076	91394048	61485056	28112088	24992
143	33.016838	91394048	61485056	22986920	24992
144	32.542768	91394048	61485056	18494912	24992
145	32.81855	91664384	61485056	31101568	24992
146	34.653292	91664384	61485056	27965816	24992
147	35.099274	91664384	61485056	25457744	24992
148	35.334476	91664384	61485056	23610488	24992
149	36.524674	91934720	61485056	22422888	24992
150	37.158549	91934720	61485056	21896696	24992
151	37.589963	91934720	61485056	22033456	24992
152	0.80844	91934720	61485056	22641048	24992
153	1.490683	91934720	61485056	23978792	24992
154	2.186712	91934720	61485056	25975944	24992
155	2.907175	91934720	61485056	28632504	24992
156	3.660542	91934720	61485056	31948976	24992
157	5.175662	91934720	61485056	19471160	24992
158	5.131822	91934720	61485056	24106552	24992
159	5.75511	91934720	61485056	29401336	24992
160	7.357706	91934720	61485056	18930448	24992
161	7.530526	91934720	61485056	25544920	24992
162	7.909485	91934720	61485056	32818776	24992
163	9.630255	91934720	61485056	24330856	24992
164	9.559376	91934720	61485056	32923512	24992
165	11.395677	91934720	61485056	25755304	24992
166	12.023367	92205056	61485056	19224584	24992
167	11.729926	92205056	61485056	29795464	24992
168	13.343375	92205056	61485056	24591240	24992
169	15.024336	92205056	61485056	20058384	24992
170	13.841363	92205056	61485056	32609696	24992
171	15.457251	92205056	61485056	29393392	24992
172	16.271754	92205056	61485056	26840224	24992
173	17.074482	92205056	61485056	24926496	24992
174	17.390328	92205056	61485056	23674384	24992
175	18.971693	92475392	61485056	23083736	24992
176	19.580883	92475392	61485056	23155088	24992
177	20.006418	92475392	61485056	23888112	24992
178	20.885059	92475392	61485056	25282208	24992
179	21.662298	92475392	61485056	27337752	24992
180	21.898238	92475392	61485056	30054960	24992
181	22.750103	92475392	61485056	33433136	24992
182	24.594345	92745728	61485056	21015008	24992
183	24.231628	92745728	61485056	25688544	24992
184	25.541279	92745728	61485056	31054272	24992
185	26.947721	92745728	61485056	20627272	24992
186	26.627865	92745728	61485056	27289096	24992
187	28.74174	92745728	61485056	18193072	24992
188	28.782817	92745728	61485056	26176000	24992
189	29.568852	93016064	61485056	18401192	24992
190	29.556582	93016064	61485056	27705000	24992
191	31.535955	93016064	61485056	21255136	24992
192	32.095278	93016064	61485056	31880224	24992
193	32.626383	93016064	61485056	26753112	24992
194	33.230675	93286400	61485056	22261392	24992
195	33.469364	93286400	61485056	34868240	24992
196	34.905552	93286400	61485056	31698896	24992
197	35.739096	93286400	61485056	29208488	24992
198	36.70268	93286400	61485056	27363008	24992
199	38.117444	93556736	62009344	26183464	24992
200	38.208513	93556736	62009344	25657936	24992
201	38.442565	93556736	62009344	25794784	24992
202	1.406356	93827072	62009344	26402448	24992
203	1.484497	93827072	62009344	27740192	24992
204	2.286907	93827072	62009344	29737344	24992
205	3.177699	93827072	62009344	32393904	24992
206	4.042378	93827072	62009344	35710376	24992
207	5.545647	93827072	62009344	23227456	24992
208	5.175924	93827072	62009344	27862736	24992
209	6.036087	93827072	62009344	33157424	24992
210	7.993152	93827072	62009344	22686400	24992
211	7.237678	93827072	62009344	29300856	24992
212	9.108703	93827072	62009344	20142272	24992
213	8.833331	93827072	62009344	28075536	24992
214	10.715849	93827072	62009344	20232328	24992
215	10.100093	93827072	62009344	29484456	24992
216	12.042139	93827072	62009344	22968496	24992
217	11.727319	93827072	62009344	33539408	24992
218	13.798567	93827072	62009344	28351920	24992
219	14.753796	93827072	62009344	23810736	24992
220	15.201456	94097408	62009344	19913280	24992
221	14.949674	94097408	62009344	33124064	24992
222	16.466791	94097408	62009344	30570456	24992
223	17.228055	94097408	62009344	28679792	24992
224	18.042227	94097408	62009344	27427664	24992
225	18.882439	94097408	62009344	26837032	24992
226	20.020081	94097408	62009344	26907936	24992
227	20.28476	94097408	62009344	27640640	24992
228	20.786755	94097408	62009344	29034608	24992
229	21.757888	94097408	62009344	31095928	24992
230	22.704169	94097408	62009344	33815600	24992
231	24.489098	94367744	62533632	20735576	24992
232	24.390178	94367744	62533632	24745768	24992
233	24.769499	94367744	62533632	29451544	24992
234	25.422993	94367744	62533632	34823328	24992
235	27.597775	94367744	62533632	24403848	24992
236	27.00826	94367744	62533632	31065992	24992
237	29.538342	94638080	62533632	21977600	24992
238	28.728166	94638080	62533632	29960592	24992
239	30.961901	94638080	62533632	22193960	24992
240	30.738407	94638080	62533632	31498040	24992
241	32.348213	94638080	62533632	25056256	24992
242	31.349828	94638080	62533632	35681616	24992
243	33.620933	94908416	62533632	30563496	24992
244	34.220511	94908416	62533632	26072136	24992
245	34.982997	94908416	62533632	22238720	24992
246	34.289269	94908416	62533632	35506016	24992
247	36.3055	94908416	62533632	33038184	24992
248	37.422458	94908416	62533632	31191208	24992
249	37.442688	94908416	62533632	30007936	24992
250	39.033915	94908416	62533632	29482632	24992
251	39.342116	94908416	62533632	29619544	24992
252	0.797639	94908416	62533632	30227400	24992
253	1.482064	94908416	62533632	31565144	24992
254	2.198328	94908416	62533632	33562296	24992
255	2.951781	94908416	62533632	36218856	24992
256	5.536655	94908416	62533632	23073168	24992
257	4.42287	94908416	62533632	27049048	24992
258	5.258044	94908416	62533632	31684328	24992
259	5.756246	94908416	62533632	36979016	24992
260	8.254046	94908416	62533632	26508048	24992
261	7.476818	94908416	62533632	33122504	24992
262	9.554279	94908416	62533632	23969656	24992
263	8.859078	94908416	62533632	31902920	24992
264	10.875321	94908416	62533632	24059712	24992
265	10.499326	94908416	62533632	33311776	24992
266	12.804331	94908416	62533632	26795368	24992
267	11.960911	94908416	62533632	37366248	24992
268	13.964905	94908416	62533632	32178760	24992
269	14.639895	94908416	62533632	27637656	24992
270	15.374958	94908416	62533632	23739752	24992
271	14.742423	94908416	62533632	36950456	24992
272	16.857727	94908416	62533632	34396736	24992
273	17.845086	94908416	62533632	32505864	24992
274	18.390799	94908416	62533632	31253448	24992
275	19.28998	94908416	62533632	30662848	24992
276	19.769818	94908416	62533632	30733880	24992
277	20.486172	94908416	62533632	31466344	24992
278	21.657165	94908416	62533632	32860360	24992
279	22.448677	94908416	62533632	34915680	24992
280	23.324598	94908416	62533632	37632312	24992
281	25.149389	94908416	62533632	24552320	24992
282	24.104391	94908416	62533632	28562544	24992
283	24.893093	94908416	62533632	33267712	24992
284	25.925826	94908416	62533632	38639288	24992
285	28.385885	94908416	62533632	28216472	24992
286	27.274966	94908416	62533632	34875408	24992
287	29.464301	94908416	62533632	25781128	24992
288	28.676595	94908416	62533632	33764264	24992
289	31.55265	94908416	62533632	26000960	24992
290	30.595561	94908416	62533632	35305232	24992
291	32.984759	94908416	62533632	28861720	24992
292	31.842168	94908416	62533632	39486200	24992
293	34.265257	94908416	62533632	34334592	24992
294	34.844631	94908416	62533632	29865376	24992
295	35.849623	94908416	62533632	26033528	24992
296	34.660551	94908416	62533632	39301016	24992
297	38.319745	94908416	62533632	36843200	24992
298	37.856546	94908416	62533632	34988632	24992
299	38.892196	94908416	62533632	33804064	24992
300	39.560496	94908416	62533632	33280040	24992
301	40.420825	94908416	62533632	33416760	24992
302	0.797391	94908416	62533632	34024408	24992
303	1.483592	94908416	62533632	35362152	24992
304	2.202242	94908416	62533632	37359352	24992
305	2.896552	94908416	62533632	40015912	24992
306	5.509201	94908416	62533632	26867312	24992
307	4.573562	94908416	62533632	30843192	24992
308	5.282416	94908416	62533632	35478472	24992
309	7.729399	94908416	62533632	24331936	24992
310	6.74949	94908416	62533632	30286984	24992
311	7.278151	94908416	62533632	36901440	24992
312	9.877402	94908416	62533632	27745848	24992
313	9.589645	94908416	62533632	35689616	24992
314	11.421503	94908416	62533632	27855616	24992
315	10.260551	94908416	62533632	37107680	24992
316	12.649462	94908416	62533632	30589752	24992
317	13.619793	94908416	62533632	24720120	24992
318	12.423078	94908416	62533632	35952280	24992
319	15.037554	94908416	62533632	31409264	24992
320	15.941272	94908416	62533632	27529680	24992
321	14.340143	94908416	62533632	40740384	24992
322	17.446272	94908416	62533632	38173024	24992
323	17.718054	94908416	62533632	36280528	24992
324	19.068588	94908416	62533632	35037904	24992
325	19.32095	95178752	62533632	34446112	24992
326	20.331028	95178752	62533632	34516064	24992
327	21.288145	95178752	62533632	35247560	24992
328	21.505611	95178752	62533632	36640384	24992
329	22.324035	95178752	62533632	38694624	24992
330	25.274122	95178752	62533632	24950512	24992
331	23.762364	95178752	62533632	28299744	24992
332	25.075222	95178752	62533632	32340032	24992
333	25.443324	95178752	62533632	37043984	24992
334	27.899105	95178752	62533632	25960992	24992
335	27.172574	95178752	62533632	31962232	24992
336	27.631672	95178752	62533632	38661088	24992
337	30.65366	95178752	62533632	29565920	24992
338	29.535483	95178752	62533632	37549072	24992
339	31.710282	95178752	62533632	29783608	24992
340	30.676127	95178752	62533632	39087736	24992
341	33.355896	95178752	62533632	32647312	24992
342	34.17688	95178752	62533632	26832280	24992
343	32.418175	95178752	62533632	38117880	24992
344	35.829353	95178752	62533632	33661832	24992
345	35.99493	95178752	62533632	29831824	24992
346	37.139989	95178752	62533632	26660216	24992
347	35.66727	95178752	62533632	40587912	24992
348	38.686983	95178752	62533632	38782360	24992
349	39.650738	95178752	62533632	37596800	24992
350	39.686111	95178752	62533632	37073608	24992
351	41.155314	95178752	62533632	37211912	24992
352	0.797558	95178752	62533632	37819208	24992
353	1.499358	95178752	62533632	39156952	24992
354	2.190613	95178752	62533632	41154104	24992
355	5.062445	95178752	62533632	27339256	24992
356	3.847912	95178752	62533632	30655728	24992
357	4.542281	95178752	62533632	34631608	24992
358	5.084025	95178752	62533632	39266888	24992
359	8.020845	95178752	62533632	28120472	24992
360	6.520439	95178752	62533632	34079968	24992
361	7.64838	95178752	62533632	40694456	24992
362	10.463089	95178752	62533632	31550024	24992
363	8.861962	95178752	62533632	39483320	24992
364	11.564897	95178752	62533632	31653400	24992
365	10.278318	95178752	62533632	40905480	24992
366	13.170216	95178752	62533632	34386976	24992
367	13.702398	95178752	62533632	28517352	24992
368	12.44842	95178752	62533632	39749520	24992
369	15.379569	95178752	62533632	35206376	24992
370	16.276331	95178752	62533632	31326728	24992
371	16.861715	95178752	62533632	28089944	24992
372	15.550026	95178752	62533632	41960072	24992
373	18.19656	95178752	62533632	40067592	24992
374	19.083761	95178752	62533632	38837768	24992
375	19.746793	95178752	62533632	38245720	24992
376	20.384121	95178752	63057920	38315272	24992
377	21.57035	95178752	63057920	39046368	24992
378	22.382717	95178752	63582208	40438936	24992
379	23.135704	95178752	63582208	42492984	24992
380	25.73346	95178752	63582208	28748984	24992
381	24.225423	95449088	63582208	32098232	24992
382	25.128367	95449088	63582208	36138648	24992
383	26.028622	95449088	63582208	40842408	24992
384	28.897737	95449088	63582208	29759304	24992
385	27.048463	95449088	63582208	35760800	24992
386	28.254931	95719424	63582208	42459768	24992
387	30.965164	95719424	63582208	33364664	24992
388	29.8796	95719424	63582208	41346920	24992
389	32.242727	95719424	63582208	33581296	24992
390	30.842612	95989760	63582208	42884576	24992
391	34.001809	95989760	64106496	36444232	24992
392	34.790042	95989760	64106496	30629264	24992
393	32.844865	95989760	64106496	41914880	24992
394	36.506797	96260096	64106496	37458688	24992
395	37.009499	96260096	64106496	33628632	24992
396	37.769483	96260096	64106496	30456608	24992
397	36.518134	96530432	64106496	44384384	24992
398	39.391116	96530432	64106496	42559128	24992
399	39.84443	96530432	64630784	41382072	24992
400	40.484306	96800768	64630784	40858080	24992
401	41.505078	96800768	64630784	40996560	24992
402	0.796833	96800768	65155072	41605920	24992
403	1.486268	96800768	65155072	42943664	24992
404	2.195868	96800768	65155072	44940816	24992
405	5.643918	96800768	65155072	31125360	24992
406	3.976109	96800768	65155072	34441832	24992
407	4.739718	96800768	65155072	38417728	24992
408	5.237547	96800768	65155072	43053008	24992
409	8.230428	97071104	65155072	31910048	24992
410	6.731629	97071104	65155072	37865192	24992
411	7.284617	97071104	65155072	44479648	24992
412	10.450474	97071104	65155072	35330768	24992
413	8.832173	97071104	65155072	43264032	24992
414	12.047894	97071104	65155072	35429488	24992
415	10.586646	97071104	65155072	44681552	24992
416	13.27195	97071104	65155072	38162344	24992
417	14.223765	97071104	65155072	32292736	24992
418	12.49463	97071104	65155072	43524872	24992
419	15.661038	97071104	65155072	38981600	24992
420	16.435167	97341440	65155072	35101936	24992
421	16.85817	97341440	65155072	31864240	24992
422	18.031192	97341440	65155072	29288928	24992
423	16.362163	97341440	65155072	43818448	24992
424	19.469858	97341440	65155072	42588488	24992
425	20.10189	97341440	65155072	42021264	24992
426	20.647065	97341440	65155072	42090800	24992
427	21.978022	97611776	65155072	42821864	24992
428	22.462212	97611776	65155072	44214336	24992
429	26.059087	97611776	65679360	29807640	24992
430	23.716684	97611776	65679360	32496360	24992
431	24.856939	97611776	65679360	35875128	24992
432	25.521636	97882112	66203648	39914336	24992
433	26.058978	97882112	66203648	44617856	24992
434	29.778782	97882112	66203648	33535504	24992
435	27.301127	97882112	66203648	39536920	24992
436	28.63893	97882112	66203648	46235872	24992
437	31.392844	98152448	66203648	37107096	24992
438	30.195272	98152448	66203648	45114384	24992
439	33.165026	98152448	66203648	37344824	24992
440	33.789488	98422784	66203648	30206488	24992
441	31.914534	98422784	66203648	40171000	24992
442	35.469409	98422784	66203648	34391880	24992
443	33.608541	98422784	66203648	45677608	24992
444	36.826255	98693120	66727936	41220760	24992
445	37.809834	98693120	66727936	37390592	24992
446	38.286237	98693120	66727936	34218264	24992
447	38.891503	98963456	66727936	31708136	24992
448	36.933454	98963456	66727936	46296392	24992
449	40.588435	98963456	66727936	45152704	24992
450	40.830586	99233792	66727936	44628776	24992
451	41.401584	99233792	66727936	44767112	24992
452	0.809092	99233792	67776512	45376360	24992
453	1.523586	99233792	67776512	46714104	24992
454	4.994715	99233792	67776512	32233976	24992
455	2.948929	99233792	67776512	34890536	24992
456	3.65984	99233792	67776512	38207008	24992
457	4.373176	99233792	67776512	42182888	24992
458	5.095775	99233792	67776512	46818168	24992
459	8.610479	99233792	67776512	35675272	24992
460	6.557994	99233792	67776512	41630320	24992
461	10.19903	99504128	67776512	31815320	24992
462	7.915374	99504128	67776512	39089176	24992
463	8.822368	99504128	67776512	47022440	24992
464	12.136837	99504128	67776512	39187160	24992
465	13.079177	99504128	67776512	32005664	24992
466	11.213336	99504128	67776512	41917136	24992
467	14.584488	99504128	67776512	36047288	24992
468	12.422581	99504128	67776512	47279424	24992
469	16.029784	99504128	67776512	42753016	24992
470	16.659762	99774464	67776512	38872952	24992
471	17.614272	99774464	67776512	35635192	24992
472	17.957224	99774464	67776512	33059896	24992
473	16.045868	99774464	67776512	47589464	24992
474	19.787962	99774464	67776512	46358832	24992
475	21.107706	99774464	67776512	45794192	24992
476	21.200135	99774464	67776512	45863504	24992
477	21.701236	100044800	67776512	46594344	24992
478	22.693972	100044800	67776512	47986720	24992
479	26.723154	100044800	68300800	33572432	24992
480	24.157355	100044800	68300800	36265176	24992
481	25.228155	100044800	68300800	39643976	24992
482	25.814711	100044800	68300800	43683216	24992
483	26.156868	100315136	68300800	48386480	24992
484	29.909683	100315136	68300800	37279808	24992
485	27.958495	100315136	68300800	43298040	24992
486	31.417647	100315136	68300800	33542472	24992
487	29.067433	100585472	68300800	40864808	24992
488	33.321692	100585472	68300800	32435048	24992
489	30.909635	100585472	68300800	41078584	24992
490	34.617712	100585472	68300800	33976120	24992
491	32.051378	100855808	68300800	43940600	24992
492	36.139715	100855808	68825088	38160200	24992
493	36.25466	100855808	68825088	33005224	24992
494	34.577574	100855808	69349376	44951352	24992
495	38.150345	101126144	69349376	41157888	24992
496	38.372527	101126144	69349376	37989352	24992
497	39.233699	101396480	69349376	35478968	24992
498	40.207481	101396480	69349376	33630552	24992
499	37.856133	101396480	69349376	48879304	24992
500	42.099578	101666816	69349376	48398216	24992
501	42.516176	101666816	69349376	48536760	24992
502	0.807608	101666816	69349376	49146408	24992
503	4.535111	101666816	69349376	34002000	24992
504	2.268613	101666816	69349376	35999144	24992
505	3.003931	101666816	69349376	38655704	24992
506	3.646185	101666816	69349376	41972208	24992
507	4.388726	101666816	69349376	45948088	24992
508	8.233527	101666816	69873664	34135896	24992
509	5.879227	101666816	69873664	39430584	24992
510	6.79132	101666816	69873664	45385632	24992
511	10.520897	101666816	69873664	35574712	24992
512	8.121556	101666816	69873664	42848568	24992
513	11.813294	101937152	69873664	34349992	24992
514	9.409232	101937152	69873664	42942648	24992
515	13.633966	101937152	69873664	35761144	24992
516	11.0006	101937152	69873664	45672616	24992
517	15.119319	101937152	69873664	39817960	24992
518	15.555822	101937152	69873664	34612832	24992
519	12.919849	101937152	69873664	46504376	24992
520	17.017232	101937152	69873664	42624272	24992
521	17.799965	102207488	69873664	39407208	24992
522	18.460001	102207488	69873664	36831608	24992
523	19.283817	102207488	70397952	34917856	24992
524	16.884656	102207488	70397952	50106864	24992
525	20.390163	102207488	70397952	49538872	24992
526	21.863092	102207488	70397952	49633424	24992
527	22.615731	102207488	70397952	50364208	24992
528	26.283929	102477824	70397952	35284752	24992
529	24.176676	102477824	70397952	37320256	24992
530	24.702311	102477824	70397952	40037480	24992
531	25.238868	102477824	70397952	43415152	24992
532	26.027363	102477824	70397952	47454392	24992
533	30.178111	102748160	70397952	35701624	24992
534	27.709381	102748160	70397952	41040704	24992
535	28.444567	102748160	70397952	47074648	24992
536	32.193436	102748160	70397952	37317072	24992
537	30.019667	102748160	70397952	44639616	24992
538	33.881793	103018496	70922240	36213744	24992
539	31.21986	103018496	70922240	44858640	24992
540	35.319336	103018496	71446528	37754464	24992
541	32.486474	103288832	71446528	47719056	24992
542	37.575432	103288832	71446528	41937904	24992
543	37.128411	103288832	71446528	36784352	24992
544	34.502004	103288832	71446528	48730528	24992
545	38.505419	103559168	71446528	44937032	24992
546	39.277328	103559168	71446528	41768688	24992
547	39.812777	103559168	71446528	39257952	24992
548	41.192183	103829504	71970816	37409376	24992
549	41.592914	103829504	71970816	36222264	24992
550	38.856449	103829504	71970816	52131512	24992
551	43.470168	104099840	71970816	52257312	24992
552	4.277064	104099840	71970816	36417496	24992
553	1.563953	104099840	71970816	37755240	24992
554	2.213838	104099840	71970816	39752392	24992
555	3.195546	104099840	71970816	42408952	24992
556	3.897253	104099840	71970816	45732224	24992
557	4.423851	104099840	71970816	49708104	24992
558	9.074857	104099840	71970816	37899152	24992
559	5.822608	104099840	71970816	43193840	24992
560	6.832874	104099840	71970816	49148888	24992
561	10.897969	104099840	71970816	39351000	24992
562	7.999766	104099840	71970816	46624856	24992
563	13.275937	104370176	71970816	38127776	24992
564	18.751034	104370176	71970816	11944064	24992
565	10.635614	104370176	71970816	21197888	24992
566	11.403058	104370176	71970816	14635536	24992
567	11.963852	104370176	71970816	25207520	24992
568	12.736772	104370176	71970816	19976680	24992
569	13.69871	104370176	71970816	15401960	24992
570	14.347923	104370176	71970816	11483176	24992
571	14.953441	104370176	71970816	24695296	24992
572	15.979976	104370176	71970816	22103336	24992
573	16.288033	104370176	71970816	20171688	24992
574	17.33725	104370176	71970816	18893872	24992
575	17.683687	104370176	71970816	18276544	24992
576	19.073507	104370176	71970816	18319680	24992
577	19.315609	104370176	71970816	19023368	24992
578	19.951883	104370176	71970816	20387472	24992
579	20.982557	104370176	71970816	22412032	24992
580	22.93686	104370176	71970816	25111184	24992
581	22.610144	104370176	71970816	11987128	24992
582	23.109068	104370176	71970816	15987752	24992
583	23.75886	104370176	71970816	20658432	24992
584	25.006738	104370176	71970816	25993064	24992
585	25.655554	104370176	71970816	15521320	24992
586	26.255069	104370176	71970816	22172152	24992
587	26.557701	104370176	71970816	13028840	24992
588	28.032613	104370176	71970816	21003664	24992
589	28.6649	104370176	71970816	13176928	24992
590	28.910142	104370176	71970816	22466064	24992
591	29.608282	104370176	71970816	15961344	24992
592	30.508555	104370176	71970816	26570992	24992
593	31.281262	104370176	71970816	21386496	24992
594	32.102521	104370176	71970816	16862488	24992
595	32.577027	104370176	71970816	12996040	24992
596	33.296492	104370176	71970816	26246248	24992
597	34.101528	104370176	71970816	23706280	24992
598	35.001789	104370176	71970816	21824704	24992
599	35.569659	104370176	71970816	20603264	24992
600	36.632822	104370176	71970816	20040848	24992
601	36.886276	104370176	71970816	20140072	24992
602	0.810485	104370176	71970816	20732144	24992
603	1.564165	104370176	71970816	22069888	24992
604	2.220205	104370176	71970816	24067040	24992
605	3.139964	104370176	71970816	26723600	24992
606	4.082332	104370176	71970816	13564744	24992
607	4.399704	104370176	71970816	17540624	24992
608	5.259147	104370176	71970816	22175904	24992
609	6.003758	104370176	71970816	27470592	24992
610	6.818021	104370176	71970816	16961696	24992
611	7.628811	104370176	71970816	23576152	24992
612	8.939064	104370176	71970816	14383880	24992
613	8.631709	104370176	71970816	22317144	24992
614	9.83465	104370176	71970816	14440544	24992
615	10.088215	104370176	71970816	23692624	24992
616	11.277831	104370176	71970816	17137720	24992
617	11.698566	104370176	71970816	27708600	24992
618	12.55826	104370176	71970816	22476920	24992
619	13.513292	104370176	71970816	17901384	24992
620	14.284171	104370176	71970816	13981728	24992
621	14.673332	104370176	71970816	27192432	24992
622	15.840382	104370176	71970816	24598592	24992
623	16.343302	104370176	71970816	22665704	24992
624	17.006887	104370176	71970816	21386752	24992
625	18.012195	104370176	71970816	20768352	24992
626	18.720888	104370176	71970816	20814328	24992
627	19.353071	104370176	71970816	21518360	24992
628	20.314248	104370176	71970816	22881024	24992
629	21.305905	104370176	71970816	24904080	24992
630	21.686624	104370176	71970816	27587072	24992
631	22.955797	104370176	71970816	14461000	24992
632	22.834759	104370176	71970816	18459656	24992
633	23.918606	104370176	71970816	23127856	24992
634	24.445777	104370176	71970816	28460312	24992
635	25.614314	104370176	71970816	17986216	24992
636	25.7292	104370176	71970816	24634744	24992
637	26.894509	104370176	71970816	15488008	24992
638	28.535554	104370176	71970816	23466176	24992
639	28.781499	104370176	71970816	15670664	24992
640	28.762779	104370176	71970816	24974760	24992
641	29.926169	104370176	71970816	18524144	24992
642	30.549996	104370176	71970816	29149000	24992
643	31.452041	104370176	71970816	24023560	24992
644	31.670905	104370176	71970816	19532064	24992
645	33.142157	104370176	71970816	15698272	24992
646	33.340621	104370176	71970816	28965568	24992
647	34.569756	104370176	71970816	26488856	24992
648	35.352824	104370176	71970816	24641888	24992
649	36.25768	104370176	71970816	23458320	24992
650	36.798538	104370176	71970816	22932816	24992
651	37.953909	104370176	71970816	23069656	24992
652	0.794545	104370176	71970816	23676784	24992
653	1.499344	104370176	71970816	25014512	24992
654	2.187664	104370176	71970816	27011648	24992
655	3.198675	104370176	71970816	29668192	24992
656	4.064881	104370176	71970816	16523224	24992
657	4.391112	104370176	71970816	20499104	24992
658	5.272223	104370176	71970816	25134368	24992
659	6.171078	104370176	71970816	30429040	24992
660	6.943993	104370176	71970816	19958856	24992
661	7.412266	104370176	71970816	26573296	24992
662	8.882811	104370176	71970816	17421616	24992
663	8.612123	104370176	71970816	25354864	24992
664	9.813171	104370176	71970816	17512120	24992
665	10.263649	104370176	71970816	26764200	24992
666	11.473493	104370176	71970816	20248480	24992
667	11.478537	104370176	71970816	30819376	24992
668	13.039767	104370176	71970816	25631904	24992
669	13.696948	104370176	71970816	21091024	24992
670	14.382742	104370176	71970816	17193008	24992
671	14.958752	104370176	71970816	30403744	24992
672	15.632315	104370176	71970816	27849848	24992
673	17.148028	104370176	71970816	25959360	24992
674	17.551948	104370176	71970816	24707136	24992
675	18.233389	104370176	71970816	24116840	24992
676	18.769796	104370176	71970816	24188064	24992
677	19.839224	104370176	71970816	24920848	24992
678	19.965981	104370176	71970816	26315152	24992
679	21.583152	104370176	71970816	28370616	24992
680	21.88331	104370176	71970816	31087488	24992
681	23.101901	104370176	71970816	18007384	24992
682	23.44662	104370176	71970816	22017896	24992
683	24.972537	104370176	71970816	26723064	24992
684	25.507591	104370176	71970816	15635256	24992
685	25.263049	104370176	71970816	21636552	24992
686	26.037319	104370176	71970816	28326752	24992
687	27.750884	104370176	71970816	19224880	24992
688	27.633847	104370176	71970816	27208016	24992
689	29.4551	104370176	71970816	19436168	24992
690	29.750098	104370176	71970816	28741112	24992
691	30.294968	104370176	71970816	22291496	24992
692	31.619122	104370176	71970816	16476456	24992
693	31.457064	104370176	71970816	27762488	24992
694	32.740821	104370176	71970816	23298424	24992
695	33.530022	104370176	71970816	19468376	24992
696	33.53184	104370176	71970816	32735736	24992
697	35.206676	104370176	71970816	30205992	24992
698	35.832992	104370176	71970816	28391360	24992
699	36.971623	104370176	71970816	27208392	24992
700	37.232879	104370176	71970816	26686344	24992
701	37.993688	104370176	71970816	26823136	24992
702	0.799918	104370176	71970816	27430712	24992
703	1.485491	104370176	71970816	28768440	24992
704	2.203193	104370176	71970816	30765576	24992
705	3.670701	104370176	71970816	16953072	24992
706	3.855763	104370176	71970816	20269536	24992
707	4.375103	104370176	71970816	24245400	24992
708	5.250057	104370176	71970816	28880664	24992
709	6.790315	104370176	71970816	17739144	24992
710	6.48232	104370176	71970816	23694224	24992
711	7.681371	104370176	71970816	30308664	24992
712	8.811316	104370176	71970816	21164408	24992
713	8.838231	104370176	71970816	29097656	24992
714	10.154898	104370176	71970816	21266560	24992
715	10.271731	104370176	71970816	30518608	24992
716	11.660991	104370176	71970816	24002824	24992
717	12.694903	104370176	71970816	18135344	24992
718	12.414643	104370176	71970816	29367464	24992
719	14.124461	104370176	71970816	24826416	24992
720	14.925636	104370176	71970816	20948696	24992
721	15.468862	104370176	71970816	17713120	24992
722	15.562288	104370176	71970816	31583216	24992
723	17.074035	104370176	71970816	29692616	24992
724	17.587062	104370176	71970816	28464808	24992
725	18.521306	104370176	71970816	27874176	24992
726	20.142389	104370176	71970816	27954192	24992
727	19.767372	104370176	71970816	28686752	24992
728	20.835109	104370176	71970816	30080640	24992
729	21.179163	104370176	71970816	32136056	24992
730	22.847846	104370176	71970816	18393944	24992
731	22.738192	104370176	71970816	21743976	24992
732	23.931279	104370176	71970816	25785584	24992
733	24.410948	104370176	71970816	30490824	24992
734	26.478612	104370176	71970816	19402184	24992
735	25.833387	104370176	71970816	25403600	24992
736	26.823672	104370176	71970816	32095648	24992
737	28.412508	104370176	71970816	22993696	24992
738	28.111365	104370176	71970816	30976416	24992
739	29.842538	104370176	71970816	23203624	24992
740	29.397648	104370176	71970816	32507528	24992
741	30.966823	104370176	71970816	26059632	24992
742	32.021604	104370176	71970816	20244752	24992
743	31.37005	104370176	71970816	31530512	24992
744	33.076854	104370176	71970816	27066432	24992
745	33.951773	104370176	71970816	23236496	24992
746	34.917836	104370176	71970816	20065056	24992
747	34.202328	104370176	71970816	33993088	24992
748	36.879186	104370176	71970816	32178224	24992
749	37.751997	104370176	71970816	30992736	24992
750	38.525042	104370176	71970816	30469040	24992
751	39.545399	104370176	71970816	30616368	24992
752	0.801119	104370176	71970816	31224976	24992
753	1.491065	104370176	71970816	32562736	24992
754	2.255463	104370176	71970816	34559872	24992
755	4.059866	104370176	71970816	20747464	24992
756	3.741758	104370176	71970816	24063920	24992
757	4.83209	104370176	71970816	28039784	24992
758	5.092167	104370176	71970816	32675048	24992
759	7.347151	104370176	71970816	21535328	24992
760	6.470669	104370176	71970816	27490360	24992
761	7.376674	104370176	71970816	34104800	24992
762	9.093184	104370176	71970816	24960448	24992
763	8.622257	104370176	71970816	32893696	24992
764	10.811243	104370176	71970816	25062440	24992
765	10.393414	104370176	71970816	34314488	24992
766	12.106378	104370176	71970816	27798544	24992
767	13.024407	104370176	71970816	21930840	24992
768	12.607916	104370176	71970816	33162976	24992
769	14.274526	104370176	71970816	28621696	24992
770	15.579697	104370176	71970816	24744080	24992
771	15.610117	104370176	71970816	21508056	24992
772	15.357412	104370176	71970816	35378168	24992
773	17.209918	104370176	71970816	33486912	24992
774	18.088538	104370176	71970816	32258928	24992
775	18.849566	104370176	71970816	31668200	24992
776	19.672475	104370176	71970816	31738976	24992
777	20.245219	104370176	71970816	32471360	24992
778	21.34633	104370176	71970816	33865392	24992
779	21.94717	104370176	71970816	35920568	24992
780	23.751198	104370176	71970816	22177880	24992
781	23.292279	104370176	71970816	25527832	24992
782	23.782172	104370176	71970816	29569184	24992
783	24.624623	104370176	71970816	34274232	24992
784	26.902699	104370176	71970816	23191888	24992
785	26.247597	104370176	71970816	29193592	24992
786	26.830495	104370176	71970816	35893088	24992
787	29.413721	104370176	71970816	26798240	24992
788	28.145406	104370176	71970816	34780784	24992
789	30.596864	104370176	71970816	27016120	24992
790	29.608577	104370176	71970816	36319720	24992
791	32.323347	104370176	71970816	29879696	24992
792	32.241479	104370176	71970816	24065448	24992
793	31.986108	104370176	71970816	35351464	24992
794	34.15617	104370176	71970816	30896296	24992
795	35.067589	104370176	71970816	27066944	24992
796	35.704399	104370176	71970816	23895128	24992
797	36.987745	104370176	71970816	21385496	24992
798	36.540209	104370176	71970816	35973976	24992
799	38.011786	104370176	71970816	34832080	24992
800	38.544728	104370176	71970816	34308664	24992
801	39.386593	104370176	71970816	34447736	24992
802	0.797852	104370176	71970816	35057288	24992
803	1.500894	104370176	71970816	36395016	24992
804	3.620507	104370176	71970816	21916616	24992
805	2.958749	104370176	71970816	24573160	24992
806	3.655174	104370176	71970816	27889712	24992
807	4.559998	104370176	71970816	31865576	24992
808	5.476182	104370176	71970816	36500872	24992
809	7.547359	104370176	71970816	25362944	24992
810	6.477179	104370176	71970816	31317976	24992
811	7.412946	104370176	71970816	37932416	24992
812	9.57476	104370176	71970816	28794248	24992
813	8.975793	104370176	71970816	36727512	24992
814	10.988833	104370176	71970816	28896144	24992
815	10.335144	104370176	71970816	38148208	24992
816	12.557735	104370176	71970816	31619592	24992
817	13.459198	104370176	71970816	25751888	24992
818	12.235669	104370176	71970816	36984040	24992
819	14.680229	104370176	71970816	32452888	24992
820	15.42194	104370176	71970816	28574952	24992
821	16.036947	104370176	71970816	25338544	24992
822	17.133099	104370176	71970816	22764616	24992
823	15.798138	104370176	71970816	37294232	24992
824	18.697285	104370176	71970816	36066216	24992
825	19.091043	104370176	71970816	35500784	24992
826	20.353925	104370176	71970816	35571464	24992
827	21.060341	104370176	71970816	36303688	24992
828	21.531008	104370176	71970816	37697400	24992
829	23.556847	104370176	71970816	23291904	24992
830	23.200056	104370176	71970816	25981376	24992
831	23.844752	104370176	71970816	29361464	24992
832	24.518019	104370176	71970816	33401960	24992
833	25.214139	104370176	71970816	38106560	24992
834	27.496635	104370176	71970816	27023608	24992
835	27.214055	104370176	71970816	33025360	24992
836	29.061384	104370176	71970816	23274864	24992
837	28.04412	104370176	71970816	30597680	24992
838	29.236322	104370176	71970816	38616576	24992
839	31.334425	104370176	71970816	30846992	24992
840	32.067096	104370176	71970816	23709328	24992
841	30.932275	104370176	71970816	33674080	24992
842	33.344141	104370176	71970816	27895760	24992
843	32.444011	104370176	71970816	39181872	24992
844	34.32473	104370176	71970816	34713272	24992
845	35.684293	104370176	71970816	30885192	24992
846	36.498989	104370176	71970816	27715584	24992
847	37.646313	104370176	71970816	25206432	24992
848	36.929423	104370176	71970816	39795216	24992
849	38.231732	104370176	71970816	38620632	24992
850	40.48497	104370176	71970816	38162216	24992
851	40.549122	104370176	71970816	38309664	24992
852	0.808818	104370176	71970816	38919056	24992
853	1.51651	104370176	71970816	40256816	24992
854	4.146718	104370176	71970816	25776384	24992
855	2.935855	104370176	71970816	28432928	24992
856	3.653814	104370176	71970816	31749384	24992
857	4.37307	104370176	71970816	35725248	24992
858	5.036612	104370176	71970816	40360576	24992
859	7.939344	104370176	71970816	29218672	24992
860	6.566274	104370176	71970816	35173704	24992
861	9.232757	104370176	71970816	25359688	24992
862	8.119219	104370176	71970816	32633528	24992
863	8.863976	104370176	71970816	40566776	24992
864	11.238073	104370176	71970816	32716128	24992
865	12.165603	104370176	71970816	25535368	24992
866	10.797761	104370176	71970816	35446856	24992
867	13.721544	104370176	71970816	29592336	24992
868	14.331435	104370176	71970816	24388104	24992
869	13.283267	104370176	71970816	36279632	24992
870	16.116033	104370176	71970816	32401016	24992
871	16.823267	104370176	71970816	29184512	24992
872	17.434173	104370176	71970816	26609584	24992
873	18.099037	104370176	71970816	24696152	24992
874	17.081589	104370176	71970816	39885064	24992
875	20.535525	104370176	71970816	39318256	24992
876	21.160488	104370176	71970816	39414032	24992
877	21.454855	104370176	71970816	40145224	24992
878	24.15765	104370176	71970816	25075720	24992
879	22.61192	104370176	71970816	27104168	24992
880	23.794926	104370176	71970816	29821760	24992
881	24.095651	104370176	71970816	33200216	24992
882	24.971771	104370176	71970816	37239824	24992
883	27.378455	104370176	71970816	25487680	24992
884	26.157293	104370176	71970816	30826744	24992
885	27.12142	104370176	71970816	36860912	24992
886	29.706797	104370176	71970816	27103864	24992
887	29.500616	104370176	71970816	34434560	24992
888	32.307747	104370176	71970816	26008704	24992
889	30.530686	104370176	71970816	34652144	24992
890	32.550274	104370176	71970816	27547680	24992
891	31.57921	104370176	71970816	37512160	24992
892	34.455938	104370176	71970816	31730912	24992
893	34.452598	104370176	71970816	26577360	24992
894	34.103172	104370176	71970816	38523536	24992
895	36.373975	104370176	71970816	34730040	24992
896	37.123356	104370176	71970816	31561488	24992
897	37.871981	104370176	71970816	29051464	24992
898	38.77987	104370176	71970816	27202792	24992
899	37.115641	104370176	71970816	42451720	24992
900	40.302997	104370176	71970816	41914472	24992
901	40.997393	104370176	71970816	42094216	24992
902	0.804607	104370176	71970816	42695800	24992
903	3.665724	104370176	71970816	27550728	24992
904	2.25748	104370176	71970816	29547864	24992
905	2.982739	104370176	71970816	32204408	24992
906	3.70713	104370176	71970816	35520864	24992
907	4.423833	104370176	71970816	39496728	24992
908	7.528113	104370176	71970816	27684552	24992
909	5.760553	104370176	71970816	32979224	24992
910	6.471153	104370176	71970816	38934272	24992
911	9.666379	104370176	71970816	29123704	24992
912	8.127187	104370176	71970816	36397544	24992
913	11.08391	104370176	71970816	27898920	24992
914	9.52594	104370176	71970816	36491656	24992
915	12.530365	104370176	71970816	29310136	24992
916	10.752611	104370176	71970816	39221592	24992
917	14.063081	104370176	71970816	33366984	24992
918	15.020725	104370176	71970816	28161872	24992
919	12.997611	104370176	71970816	40053400	24992
920	16.011444	104370176	71970816	36173168	24992
921	16.723409	104370176	71970816	32956312	24992
922	17.781495	104370176	71970816	30380168	24992
923	18.280033	104370176	71970816	28466384	24992
924	18.855311	104370176	71970816	27214128	24992
925	17.464128	104370176	71970816	43062456	24992
926	20.763261	104370176	71970816	43149768	24992
927	23.616131	104370176	71970816	27439536	24992
928	22.706408	104370176	71970816	28815552	24992
929	23.312509	104370176	71970816	30871288	24992
930	23.59098	104370176	71970816	33588296	24992
931	24.564716	104370176	71970816	36965952	24992
932	25.020134	104370176	71970816	41005112	24992
933	28.382259	104370176	71970816	29252264	24992
934	26.685887	104370176	71970816	34591360	24992
935	27.251128	104370176	71970816	40625336	24992
936	30.542038	104370176	71970816	30867648	24992
937	28.621698	104370176	71970816	38191696	24992
938	32.028209	104370176	71970816	29765472	24992
939	30.008151	104370176	71970816	38408928	24992
940	34.365762	104370176	71970816	31304080	24992
941	32.151115	104370176	71970816	41268896	24992
942	34.960029	104370176	71970816	35487616	24992
943	35.454954	104370176	71970816	30334192	24992
944	33.833049	104370176	71970816	42280528	24992
945	37.474331	104370176	71970816	38487080	24992
946	37.734159	104370176	71970816	35318528	24992
947	38.733062	104370176	71970816	32807488	24992
948	39.715278	104370176	71970816	30959184	24992
949	39.938933	104370176	71970816	29772072	24992
950	41.097349	104370176	71970816	29246528	24992
951	41.870284	104370176	71970816	29383248	24992
952	0.796789	104370176	71970816	29990976	24992
953	1.538936	104370176	71970816	31328704	24992
954	2.20085	104370176	71970816	33325840	24992
955	2.940123	104370176	71970816	35982384	24992
956	3.687172	104370176	71970816	39298840	24992
957	4.541936	104370176	71970816	43274704	24992
958	7.860996	104370176	71970816	31462352	24992
959	6.02038	104370176	71970816	36757024	24992
960	6.573302	104370176	71970816	42712056	24992
961	10.123442	104370176	71970816	32908176	24992
962	8.194582	104370176	71970816	40182016	24992
963	11.277593	104370176	71970816	31682960	24992
964	9.549002	104370176	71970816	40275600	24992
965	13.045445	104370176	71970816	33093648	24992
966	10.801942	104370176	71970816	43005104	24992
967	14.345642	104370176	71970816	37150224	24992
968	15.134244	104370176	71970816	31945016	24992
969	13.220197	104370176	71970816	43836544	24992
970	16.724712	104370176	71970816	39956344	24992
971	17.196513	104370176	71970816	36739056	24992
972	18.219974	104370176	71970816	34162880	24992
973	18.734014	104370176	71970816	32249504	24992
974	19.538436	104370176	71970816	30997248	24992
975	19.843691	104370176	71970816	30406592	24992
976	21.340132	104370176	71970816	30477440	24992
977	21.671682	104370176	71970816	31209832	24992
978	23.02188	104370176	71970816	32603760	24992
979	23.347782	104370176	71970816	34659248	24992
980	24.002478	104370176	71970816	37375840	24992
981	24.513624	104370176	71970816	40753512	24992
982	25.321035	104370176	71970816	44792256	24992
983	28.550268	104370176	71970816	33039440	24992
984	27.272723	104370176	71970816	38378840	24992
985	27.663443	104370176	71970816	44412912	24992
986	31.762501	104370176	71970816	34655096	24992
987	29.411292	104370176	71970816	41977688	24992
988	33.082556	104370176	71970816	33549560	24992
989	30.499256	104370176	71970816	42193176	24992
990	34.109533	104370176	71970816	35090264	24992
991	32.077692	104370176	71970816	45054488	24992
992	35.706079	104370176	71970816	39276808	24992
993	36.601592	104370176	71970816	34123720	24992
994	33.905901	104370176	71970816	46069928	24992
995	38.904915	104370176	71970816	42280568	24992
996	38.081295	104370176	71970816	39110064	24992
997	39.50152	104370176	71970816	36603104	24992
998	40.51503	104370176	71970816	34754080	24992
999	40.757897	104370176	71970816	33567160	24992
1000	41.743212	104370176	71970816	33041712	24992
