x	Duration	RSS	HeapTotal	HeapUsed	External
0	NA	104284160	74592256	10976336	24992
1	1.379065	104284160	74592256	11656448	24992
2	2.241378	104284160	74592256	12994848	24992
3	3.297033	104284160	74592256	14992664	24992
4	4.534372	104284160	74592256	17649968	24992
5	4.231139	104284160	74592256	20967408	24992
6	4.412639	104284160	74592256	24944352	24992
7	5.70285	104284160	74592256	13114736	24992
8	6.028612	104284160	74592256	18410808	24992
9	6.948735	104284160	74592256	24368392	24992
10	7.744026	104284160	74592256	14525432	24992
11	7.955131	104284160	74592256	21801168	24992
12	9.423757	104284160	74592256	13269040	24992
13	10.202335	104284160	74592256	21863896	24992
14	11.669116	104284160	74592256	14650288	24992
15	11.492527	104284160	74592256	24578272	24992
16	11.950289	104284160	74592256	18686808	24992
17	13.004605	104284160	74592256	13453560	24992
18	13.225648	104284160	74592256	25348168	24992
19	13.881699	104284160	74592256	21437008	24992
20	15.426504	104284160	74592256	18187208	24992
21	15.346335	104284160	74592256	15591016	24992
22	16.30593	104284160	74592256	13656272	24992
23	17.756391	104284160	74592256	12387328	24992
24	17.489229	104284160	74592256	11773728	24992
25	18.52591	104284160	74592256	11820744	24992
26	19.552963	104284160	74592256	12528424	24992
27	20.482469	104284160	74592256	13900376	24992
28	20.929395	104284160	74592256	15926728	24992
29	21.264071	104284160	74592256	18613544	24992
30	22.016596	104284160	74592256	21959920	24992
31	22.777056	104284160	74592256	25966552	24992
32	24.998768	104284160	74592256	14179696	24992
33	24.559913	104284160	74592256	19509264	24992
34	25.315773	104284160	74592256	25505688	24992
35	25.777984	104284160	74592256	15695576	24992
36	26.811383	104284160	74592256	23008872	24992
37	27.744867	104284160	74592256	14526384	24992
38	28.059836	104284160	74592256	23158528	24992
39	28.684825	104284160	74592256	15996784	24992
40	29.918444	104284160	74592256	25949536	24992
41	30.183861	104284160	74592256	20111376	24992
42	32.174498	104284160	74592256	14941104	24992
43	31.600449	104284160	74592256	26874568	24992
44	32.324692	104284160	74592256	23016048	24992
45	33.475491	104284160	74592256	19819120	24992
46	33.82054	104284160	74592256	17277656	24992
47	35.066161	104284160	74592256	15397424	24992
48	35.355422	104284160	74592256	14178384	24992
49	35.932036	104284160	74592256	13620256	24992
50	36.742311	104284160	74592256	13723832	24992
51	37.197653	104284160	74592256	14488720	24992
52	0.797877	104284160	74592256	15742608	24992
53	1.504114	104284160	74592256	17080632	24992
54	2.19529	104284160	74592256	19078112	24992
55	2.962305	104284160	74592256	21735080	24992
56	3.658122	104284160	74592256	25052056	24992
57	4.374302	104284160	74592256	29028568	24992
58	5.52798	104284160	74592256	17195968	24992
59	6.021747	104284160	74592256	22491384	24992
60	6.74439	104284160	74592256	28447304	24992
61	7.657145	104284160	74592256	18602872	24992
62	7.911711	104284160	74592256	25877696	24992
63	8.899477	104284160	74592256	17344544	24992
64	9.7328	104284160	74592256	25938360	24992
65	10.585418	104284160	74592256	18723568	24992
66	10.785455	104284160	74592256	28636328	24992
67	11.991698	104284160	74592256	22742784	24992
68	12.664995	104284160	74592256	17508160	24992
69	13.582468	104284160	74592256	12930600	24992
70	13.828964	104284160	74592256	25482600	24992
71	14.866385	104284160	74592256	22229552	24992
72	15.538178	104284160	74592256	19638704	24992
73	16.473151	104284160	74592256	17700312	24992
74	16.737461	104284160	74592256	16423184	24992
75	17.913515	104284160	74592256	15806512	24992
76	18.175349	104284160	74592256	15850288	24992
77	19.664252	104284160	74592256	16554520	24992
78	20.448409	104284160	74592256	17919168	24992
79	20.481477	104284160	74592256	19944288	24992
80	21.432904	104284160	74592256	22629184	24992
81	22.591079	104284160	74592256	25975424	24992
82	23.349655	104284160	74592256	13511792	24992
83	24.742884	104284160	74592256	18184840	24992
84	24.476415	104284160	74592256	23533816	24992
85	25.98778	104284160	74592256	29562304	24992
86	26.231443	104284160	74592256	19775640	24992
87	26.746136	104284160	74592256	27112576	24992
88	27.614386	104284160	74592256	18672544	24992
89	27.989912	104284160	74592256	27315648	24992
90	29.141273	104284160	74592256	20204784	24992
91	30.018585	104284160	74592256	13727472	24992
92	30.957926	104284160	74592256	24352368	24992
93	31.056909	104284160	74592256	19227352	24992
94	32.31395	104284160	74592256	14731920	24992
95	32.507197	104284160	74592256	27338512	24992
96	33.70992	104284160	74592256	24198736	24992
97	34.402276	104284160	74592256	21691608	24992
98	55.337851	104284160	74592256	19842368	24992
99	61.396144	104284160	74592256	18654608	24992
100	63.027562	104284160	74592256	18129168	24992
101	65.420179	104284160	74592256	18266104	24992
102	1.361431	104284160	74592256	18873696	24992
103	2.60041	104284160	74592256	20211440	24992
104	3.81745	104284160	74592256	22208608	24992
105	5.116526	104284160	74592256	24865168	24992
106	6.33229	104284160	74592256	28181688	24992
107	8.085993	104284160	74592256	15703920	24992
108	8.754214	104284160	74592256	20339200	24992
109	10.038254	104284160	74592256	25633888	24992
110	12.017491	104284160	74592256	15163152	24992
111	12.678947	104284160	74592256	21777632	24992
112	12.998836	104284160	74592256	29051536	24992
113	9.327045	104284160	74592256	20564656	24992
114	9.62173	104284160	74592256	29157312	24992
115	10.718551	104284160	74592256	21989776	24992
116	11.74332	104284160	74592256	15459008	24992
117	11.660188	104284160	74592256	26029888	24992
118	13.154489	104284160	74592256	20825712	24992
119	13.745234	104284160	74592256	16284576	24992
120	14.065781	104284160	74592256	28835952	24992
121	15.062172	104284160	74592256	25619664	24992
122	15.830135	104284160	74592256	23066464	24992
123	16.258387	104284160	74592256	21152736	24992
124	17.426593	104284160	74592256	19900592	24992
125	18.278572	104284160	74592256	19310840	24992
126	18.661161	104284160	74592256	19382624	24992
127	19.342891	104284160	74592256	20116000	24992
128	20.252902	104284160	74592256	21510944	24992
129	21.113848	104284160	74592256	23566456	24992
130	21.568836	104284160	74592256	26283520	24992
131	22.441413	104284160	74592256	29661776	24992
132	23.893706	104284160	74592256	17244320	24992
133	24.32029	104284160	74592256	21917872	24992
134	24.639855	104284160	74592256	27283552	24992
135	26.128903	104284160	74592256	16858208	24992
136	26.282848	104284160	74592256	23519944	24992
137	26.97555	104284160	74592256	30871184	24992
138	28.078859	104284160	74592256	22431160	24992
139	28.486855	104284160	74592256	31073848	24992
140	29.960674	104554496	74592256	23963240	24992
141	30.347008	104554496	74592256	17486424	24992
142	30.663	104554496	74592256	28115192	24992
143	32.3665	104554496	74592256	22989992	24992
144	33.39074	104554496	74592256	18497968	24992
145	32.552512	104554496	74592256	31104576	24992
146	34.695107	104554496	74592256	27968872	24992
147	34.90964	104554496	74592256	25460880	24992
148	36.538995	104554496	74592256	23613736	24992
149	37.207069	104554496	74592256	22426088	24992
150	37.79597	104554496	74592256	21899928	24992
151	38.545409	104554496	74592256	22036528	24992
152	0.822947	104554496	74592256	22644072	24992
153	1.520452	104554496	74592256	23981816	24992
154	2.187787	104554496	74592256	25978968	24992
155	3.115426	104554496	74592256	28635528	24992
156	3.647557	104554496	74592256	31952000	24992
157	5.182922	104554496	74592256	19474184	24992
158	5.452925	104554496	74592256	24109528	24992
159	5.938743	104554496	74592256	29404216	24992
160	7.304444	104554496	74592256	18933328	24992
161	7.392328	104554496	74592256	25547848	24992
162	7.905228	104554496	74592256	32821704	24992
163	9.426617	104554496	74592256	24333736	24992
164	9.567052	104554496	74592256	32926392	24992
165	11.316138	104554496	74592256	25758264	24992
166	11.64245	104554496	74592256	19227544	24992
167	11.659126	104554496	74592256	29798440	24992
168	13.342348	104554496	74592256	24594296	24992
169	13.797756	104554496	74592256	20053112	24992
170	14.546513	104554496	74592256	32612768	24992
171	15.270711	104554496	74592256	29396544	24992
172	16.192853	104554496	74592256	26843072	24992
173	17.071174	104554496	74592256	24929440	24992
174	17.848186	104554496	74592256	23677264	24992
175	18.317545	104554496	74592256	23086616	24992
176	19.048828	104554496	74592256	23158048	24992
177	20.246287	104554496	74592256	23890944	24992
178	21.078184	104554496	74592256	25284928	24992
179	21.195798	104554496	74592256	27340456	24992
180	22.252034	104554496	74592256	30057536	24992
181	23.018749	104554496	74592256	33435760	24992
182	24.848304	104554496	74592256	21017648	24992
183	24.271703	104554496	74592256	25691232	24992
184	25.853029	104554496	74592256	31057008	24992
185	26.583524	104554496	74592256	20630072	24992
186	26.49204	104554496	74592256	27291864	24992
187	28.218573	104554496	74592256	18195840	24992
188	28.220633	104554496	74592256	26178576	24992
189	29.705757	104554496	74592256	18403720	24992
190	29.748031	104554496	74592256	27707544	24992
191	31.321569	104554496	74592256	21257696	24992
192	30.70813	104554496	74592256	31882688	24992
193	32.484949	104554496	74592256	26755496	24992
194	33.501054	104554496	74592256	22263536	24992
195	34.628997	104554496	74592256	34870224	24992
196	36.323263	104554496	74592256	31702032	24992
197	35.699339	104554496	74592256	29210712	24992
198	36.508434	104554496	74592256	27365200	24992
199	37.767828	104554496	74592256	26185608	24992
200	37.46047	104554496	74592256	25660032	24992
201	38.893716	104554496	74592256	25796800	24992
202	0.798842	104554496	74592256	26404464	24992
203	1.4812	104554496	74592256	27742208	24992
204	2.197529	104554496	74592256	29739360	24992
205	2.895859	104554496	74592256	32395920	24992
206	3.656328	104554496	74592256	35712392	24992
207	5.729245	104554496	74592256	23232336	24992
208	5.06617	104554496	74592256	27867616	24992
209	5.941564	104554496	74592256	33162304	24992
210	7.961351	104554496	74592256	22691280	24992
211	7.485814	104554496	74592256	29305736	24992
212	9.387386	104554496	74592256	20146352	24992
213	8.826982	104554496	74592256	28079616	24992
214	10.83713	104554496	74592256	20236376	24992
215	10.398495	104554496	74592256	29488440	24992
216	12.286717	104554496	74592256	22972480	24992
217	11.773667	104554496	74592256	33543680	24992
218	13.73242	104554496	74592256	28356192	24992
219	14.609183	104554496	74592256	23815008	24992
220	15.225363	104554496	74592256	19917552	24992
221	14.576648	104554496	74592256	33128256	24992
222	16.752473	104554496	74592256	30574648	24992
223	17.17876	104554496	74592256	28683984	24992
224	17.855708	104554496	74592256	27431808	24992
225	18.708975	104554496	74592256	26841240	24992
226	19.571583	104554496	74592256	26912176	24992
227	19.903568	104554496	74592256	27644640	24992
228	21.259206	104554496	74592256	29038608	24992
229	22.000318	104554496	74592256	31099976	24992
230	22.341253	104554496	74592256	33819536	24992
231	24.371336	104554496	74592256	20739512	24992
232	24.05127	104554496	74592256	24749688	24992
233	25.072673	104824832	74592256	29455480	24992
234	25.852372	104824832	74592256	34827344	24992
235	27.365763	104824832	74592256	24407768	24992
236	26.70489	104824832	74592256	31069848	24992
237	28.945085	104824832	74592256	21981424	24992
238	28.611908	104824832	74592256	29964704	24992
239	30.857213	105095168	74592256	22198088	24992
240	29.727958	105095168	74592256	31502216	24992
241	32.072742	105095168	74592256	25060432	24992
242	31.008259	105095168	74592256	35685760	24992
243	33.339584	105095168	74592256	30567448	24992
244	34.244413	105365504	74592256	26076072	24992
245	34.849421	105365504	74592256	22242768	24992
246	34.669289	105365504	74592256	35510080	24992
247	36.302444	105365504	74592256	33042232	24992
248	37.029959	105365504	74592256	31195288	24992
249	38.113019	105365504	74592256	30012000	24992
250	38.64543	105635840	74592256	29486600	24992
251	39.232366	105635840	74592256	29623480	24992
252	0.79438	105635840	74592256	30231240	24992
253	1.485832	105635840	74592256	31568984	24992
254	2.202417	105635840	74592256	33566136	24992
255	3.155222	105635840	74592256	36222696	24992
256	5.543921	105635840	74592256	23077008	24992
257	4.378136	105635840	74592256	27052888	24992
258	5.247315	105635840	74592256	31688168	24992
259	5.952965	105635840	74592256	36982856	24992
260	8.029465	105635840	74592256	26511888	24992
261	7.166004	105635840	74592256	33126344	24992
262	9.643526	105635840	74592256	23973496	24992
263	8.581533	105635840	74592256	31906760	24992
264	11.086761	105635840	74592256	24063520	24992
265	10.025012	105635840	74592256	33315584	24992
266	12.587456	105635840	74592256	26799176	24992
267	11.660067	105635840	74592256	37370120	24992
268	13.729115	105906176	74592256	32182632	24992
269	15.167779	105906176	74592256	27641480	24992
270	15.207974	105906176	74592256	23743608	24992
271	14.492156	105906176	74592256	36954312	24992
272	16.84815	105906176	74592256	34400640	24992
273	17.602817	105906176	74592256	32509736	24992
274	18.251076	105906176	74592256	31257320	24992
275	18.95652	105906176	74592256	30666704	24992
276	20.014644	105906176	74592256	30737672	24992
277	20.623082	105906176	74592256	31470136	24992
278	21.741005	105906176	74592256	32864136	24992
279	22.168152	106176512	74592256	34919456	24992
280	23.182304	106176512	74592256	37636120	24992
281	25.428688	106176512	74592256	24556064	24992
282	24.685366	106176512	74592256	28566320	24992
283	25.108485	106176512	74592256	33271376	24992
284	25.552563	106176512	74592256	38642984	24992
285	27.969942	106446848	74592256	28221640	24992
286	27.432536	106446848	74592256	34879600	24992
287	29.941087	106446848	74592256	25785352	24992
288	28.661516	106446848	74592256	33768552	24992
289	31.509548	106446848	74592256	26005280	24992
290	30.131447	106446848	74592256	35309472	24992
291	33.036706	106446848	74592256	28865944	24992
292	31.760479	106446848	74592256	39490456	24992
293	34.674668	106717184	74592256	34343512	24992
294	34.972824	106717184	74592256	29871904	24992
295	35.377295	106717184	74592256	26040320	24992
296	34.540675	106717184	74592256	39307704	24992
297	38.396398	106717184	74592256	36850312	24992
298	38.994912	106717184	74592256	35003696	24992
299	38.440112	106717184	74592256	33819000	24992
300	39.583901	106717184	74592256	33295248	24992
301	39.990873	106717184	74592256	33431984	24992
302	0.79487	106717184	74592256	34039744	24992
303	1.536845	106717184	74592256	35377488	24992
304	2.182262	106717184	74592256	37374656	24992
305	2.946539	106717184	74592256	40031216	24992
306	5.441942	106717184	74592256	26882584	24992
307	4.354081	106717184	74592256	30858464	24992
308	5.025462	106717184	74592256	35493744	24992
309	7.866505	106717184	74592256	24347208	24992
310	6.43696	106717184	74592256	30302256	24992
311	7.368763	106717184	74592256	36916792	24992
312	9.793616	106717184	74592256	27761120	24992
313	8.6185	106717184	74592256	35694384	24992
314	11.664524	106717184	74592256	27860128	24992
315	10.229498	106717184	74592256	37112344	24992
316	12.628866	106987520	74592256	30594040	24992
317	13.561914	106987520	74592256	24724408	24992
318	12.351462	106987520	74592256	35956680	24992
319	15.136356	106987520	74592256	31413648	24992
320	15.746643	106987520	74592256	27534032	24992
321	14.493025	106987520	74592256	40744736	24992
322	17.166209	106987520	74592256	38178608	24992
323	18.072661	106987520	74592256	36286104	24992
324	18.630426	106987520	74592256	35042736	24992
325	19.580717	106987520	74592256	34450976	24992
326	20.248315	106987520	74592256	34520928	24992
327	21.030912	106987520	74592256	35252424	24992
328	21.570705	106987520	74592256	36645344	24992
329	22.61655	106987520	74592256	38699456	24992
330	25.495765	106987520	74592256	24955344	24992
331	23.731646	106987520	74592256	28304512	24992
332	24.653351	106987520	74592256	32344896	24992
333	25.678111	106987520	74592256	37048784	24992
334	28.601802	106987520	74592256	25965744	24992
335	26.777634	106987520	74592256	31967144	24992
336	27.856086	106987520	74592256	38665936	24992
337	30.024012	106987520	74592256	29570864	24992
338	29.252409	106987520	74592256	37553920	24992
339	31.790648	106987520	74592256	29788392	24992
340	30.588439	106987520	74592256	39092552	24992
341	33.231053	106987520	74592256	32652096	24992
342	34.437613	106987520	74592256	26837000	24992
343	32.670934	106987520	74592256	38122552	24992
344	35.891099	106987520	74592256	33666520	24992
345	35.859792	106987520	74592256	29836368	24992
346	37.105946	106987520	74592256	26664664	24992
347	35.816929	106987520	74592256	40592376	24992
348	38.330086	106987520	74592256	38786680	24992
349	39.382358	106987520	74592256	37601104	24992
350	39.784452	106987520	74592256	37078024	24992
351	40.695577	106987520	74592256	37216392	24992
352	0.809492	106987520	74592256	37823704	24992
353	1.521995	106987520	74592256	39161448	24992
354	2.221246	106987520	74592256	41158600	24992
355	5.144465	106987520	74592256	27343752	24992
356	3.841558	106987520	74592256	30660224	24992
357	4.535675	106987520	74592256	34636104	24992
358	5.01537	106987520	74592256	39271480	24992
359	8.178182	106987520	74592256	28125000	24992
360	6.447632	106987520	74592256	34084496	24992
361	7.346015	106987520	74592256	40698984	24992
362	10.176121	106987520	74592256	31554552	24992
363	8.629245	106987520	74592256	39487832	24992
364	11.759234	106987520	74592256	31657912	24992
365	10.303251	106987520	74592256	40910072	24992
366	13.001263	106987520	74592256	34391584	24992
367	14.121858	106987520	74592256	28521960	24992
368	12.333318	106987520	74592256	39754128	24992
369	15.331791	106987520	74592256	35210984	24992
370	16.137612	106987520	74592256	31331352	24992
371	16.883101	106987520	74592256	28094520	24992
372	15.741311	106987520	74592256	41964632	24992
373	18.391148	106987520	74592256	40072168	24992
374	19.149432	106987520	74592256	38842360	24992
375	20.149877	106987520	74592256	38250312	24992
376	20.168774	106987520	74592256	38319832	24992
377	21.395471	106987520	74592256	39050896	24992
378	22.073106	106987520	74592256	40443512	24992
379	23.115809	106987520	74592256	42497544	24992
380	25.958937	106987520	74592256	28753464	24992
381	24.292678	106987520	74592256	32102696	24992
382	24.843676	106987520	74592256	36143128	24992
383	25.998678	106987520	74592256	40846920	24992
384	28.715778	106987520	74592256	29765536	24992
385	27.381041	106987520	74592256	35766904	24992
386	27.909301	106987520	74592256	42465824	24992
387	30.924974	106987520	74592256	33370784	24992
388	29.312828	106987520	74592256	41352976	24992
389	32.72147	106987520	74592256	33587272	24992
390	30.995528	106987520	74592256	42890536	24992
391	34.012814	106987520	74592256	36450208	24992
392	35.031347	106987520	74592256	30635176	24992
393	33.188062	106987520	74592256	41920888	24992
394	36.409303	106987520	74592256	37464664	24992
395	36.53844	106987520	74592256	33634576	24992
396	37.533047	106987520	74592256	30462520	24992
397	36.244091	106987520	74592256	44390248	24992
398	39.305856	106987520	74592256	42566320	24992
399	39.626084	106987520	74592256	41388448	24992
400	40.723122	106987520	74592256	40864504	24992
401	41.14652	106987520	74592256	41003128	24992
402	0.808602	106987520	74592256	41612488	24992
403	1.478467	106987520	74592256	42950232	24992
404	2.188738	106987520	74592256	44947384	24992
405	5.398079	106987520	74592256	31131928	24992
406	3.872078	106987520	74592256	34448400	24992
407	4.541247	106987520	74592256	38424280	24992
408	5.046892	106987520	74592256	43059560	24992
409	8.480582	106987520	74592256	31916600	24992
410	6.655217	106987520	74592256	37871680	24992
411	7.277236	106987520	74592256	44486136	24992
412	10.88889	106987520	74592256	35337256	24992
413	8.819907	106987520	74592256	43270520	24992
414	11.818246	106987520	74592256	35436088	24992
415	10.279793	106987520	74592256	44688200	24992
416	13.472536	106987520	74592256	38168992	24992
417	14.009475	106987520	74592256	32299368	24992
418	12.374197	106987520	74592256	43531504	24992
419	15.866324	106987520	74592256	38988232	24992
420	16.464783	106987520	74592256	35108568	24992
421	17.250761	106987520	74592256	31870872	24992
422	17.901364	106987520	74592256	29295560	24992
423	15.900213	106987520	74592256	43825080	24992
424	19.211421	106987520	74592256	42595120	24992
425	19.891438	106987520	74592256	42027896	24992
426	20.992346	106987520	74592256	42097432	24992
427	21.895715	106987520	74592256	42828496	24992
428	22.125672	106987520	74592256	44220968	24992
429	25.653102	106987520	74592256	29814272	24992
430	23.865012	106987520	74592256	32502992	24992
431	24.722946	106987520	74592256	35881760	24992
432	25.0863	106987520	74592256	39920968	24992
433	26.028335	106987520	74592256	44624472	24992
434	29.267822	106987520	74592256	33541192	24992
435	27.669069	106987520	74592256	39542656	24992
436	28.116914	106987520	74592256	46241560	24992
437	32.078044	106987520	74592256	37115256	24992
438	29.580536	106987520	74592256	45120104	24992
439	33.052173	106987520	74592256	37350680	24992
440	33.914882	106987520	74592256	30205072	24992
441	31.980046	106987520	74592256	40165040	24992
442	35.078393	106987520	74592256	34385936	24992
443	33.264932	106987520	74592256	45671648	24992
444	36.966454	106987520	74592256	41214800	24992
445	36.907031	106987520	74592256	37384504	24992
446	38.44307	106987520	74592256	34212240	24992
447	39.177221	106987520	74592256	31702128	24992
448	36.760344	106987520	74592256	46290480	24992
449	40.032075	106987520	74592256	45146824	24992
450	40.979477	106987520	74592256	44622928	24992
451	41.424465	106987520	74592256	44761520	24992
452	0.797882	106987520	74592256	45370752	24992
453	1.541418	106987520	74592256	46708496	24992
454	5.016937	106987520	74592256	32228368	24992
455	2.954238	106987520	74592256	34884928	24992
456	3.599491	106987520	74592256	38201400	24992
457	4.316774	106987520	74592256	42177280	24992
458	5.023104	106987520	74592256	46812560	24992
459	8.800814	106987520	74592256	35669664	24992
460	6.511867	106987520	74592256	41624712	24992
461	10.316226	106987520	74592256	31809712	24992
462	8.107489	106987520	74592256	39083568	24992
463	8.613254	106987520	74592256	47016832	24992
464	12.358579	106987520	74592256	39181552	24992
465	13.064526	106987520	74592256	32000056	24992
466	10.740718	106987520	74592256	41911528	24992
467	14.50594	106987520	74592256	36041680	24992
468	12.373222	106987520	74592256	47273816	24992
469	15.758605	106987520	74592256	42747472	24992
470	17.088201	106987520	74592256	38867392	24992
471	17.243793	106987520	74592256	35629632	24992
472	18.327395	106987520	74592256	33054352	24992
473	15.751854	106987520	74592256	47584048	24992
474	19.734775	106987520	74592256	46353416	24992
475	20.167049	106987520	74592256	45786080	24992
476	21.506609	106987520	74592256	45858152	24992
477	22.455718	106987520	74592256	46589152	24992
478	22.575635	106987520	74592256	47981512	24992
479	25.794513	106987520	74592256	33568184	24992
480	23.945558	106987520	74592256	36260032	24992
481	24.786901	106987520	74592256	39638832	24992
482	25.761554	106987520	75116544	43678008	24992
483	26.922205	106987520	75116544	48381352	24992
484	30.172257	106987520	75116544	37275912	24992
485	27.795547	106987520	75116544	43292912	24992
486	31.926649	107257856	75116544	33537344	24992
487	29.01437	107257856	75116544	40859680	24992
488	33.280936	107257856	75116544	32422864	24992
489	30.446934	107257856	75116544	41061760	24992
490	34.848766	107257856	75116544	33957248	24992
491	32.339611	107257856	75640832	43921760	24992
492	36.005279	107528192	75640832	38141280	24992
493	36.390557	107528192	75640832	32986208	24992
494	34.496546	107528192	75640832	44932272	24992
495	38.309202	107798528	75640832	41138840	24992
496	38.875042	107798528	75640832	37970320	24992
497	39.419606	107798528	75640832	35459808	24992
498	40.33488	107798528	75640832	33611168	24992
499	37.789069	108068864	76165120	48859984	24992
500	41.525362	108068864	76165120	48378928	24992
501	42.851073	108068864	76165120	48517520	24992
502	0.804271	108339200	76165120	49126944	24992
503	4.581049	108339200	76165120	33982536	24992
504	2.195405	108339200	76165120	35979680	24992
505	3.113308	108339200	76165120	38636240	24992
506	3.638565	108339200	76165120	41952744	24992
507	4.405478	108339200	76165120	45928624	24992
508	8.833623	108339200	76165120	34116432	24992
509	5.80529	108339200	76165120	39411120	24992
510	6.42303	108339200	76165120	45366168	24992
511	10.470683	108339200	76165120	35555712	24992
512	7.991276	108339200	76165120	42829600	24992
513	11.840045	108339200	76165120	34331152	24992
514	9.338638	108339200	76165120	42923808	24992
515	13.262506	108339200	76165120	35742384	24992
516	10.724051	108339200	76165120	45653888	24992
517	14.745345	108339200	76165120	39799232	24992
518	15.438745	108339200	76165120	34594136	24992
519	12.906643	108339200	76165120	46485680	24992
520	17.153505	108339200	76689408	42605856	24992
521	17.574811	108609536	76689408	39388800	24992
522	18.355905	108609536	76689408	36813088	24992
523	19.169391	108609536	76689408	34899528	24992
524	16.389448	108609536	76689408	50088568	24992
525	21.001069	108609536	76689408	49520528	24992
526	21.558503	108609536	76689408	49615072	24992
527	22.145692	108609536	76689408	50345208	24992
528	26.686274	108879872	76689408	35266240	24992
529	23.990581	108879872	76689408	37299816	24992
530	24.827207	108879872	76689408	40017104	24992
531	25.27026	108879872	76689408	43394792	24992
532	26.274384	108879872	76689408	47434048	24992
533	29.76099	108879872	76689408	35681312	24992
534	27.744182	108879872	76689408	41020392	24992
535	28.415544	109150208	76689408	47055952	24992
536	32.302556	109150208	77213696	37298376	24992
537	29.773223	109150208	77213696	44620792	24992
538	33.756652	109150208	77213696	36194760	24992
539	31.324097	109150208	77213696	44838184	24992
540	35.199298	109420544	77213696	37733816	24992
541	32.602883	109420544	77213696	47698408	24992
542	36.578415	109420544	77213696	41917016	24992
543	37.333154	109420544	77213696	36763704	24992
544	34.876446	109420544	77737984	48709912	24992
545	39.111058	109690880	77737984	44916320	24992
546	39.532982	109690880	77737984	41747832	24992
547	40.888602	109690880	77737984	39237000	24992
548	40.97513	109961216	77737984	37388440	24992
549	41.850773	109961216	77737984	36201312	24992
550	39.252709	109961216	77737984	52110592	24992
551	42.814779	109961216	78262272	52235200	24992
552	4.631907	110231552	78262272	36396712	24992
553	1.549942	110231552	78262272	37734456	24992
554	2.231179	110231552	78262272	39731608	24992
555	2.926919	110231552	78262272	42388168	24992
556	3.692092	110231552	78262272	45711440	24992
557	4.405	110231552	78262272	49687368	24992
558	8.800179	110231552	78262272	37878544	24992
559	5.840622	110231552	78262272	43173232	24992
560	6.676771	110231552	78262272	49128280	24992
561	11.177503	110231552	78262272	39330264	24992
562	8.203029	110231552	78262272	46604120	24992
563	12.643303	110231552	78262272	38107072	24992
564	19.098565	110231552	78262272	11672360	24992
565	10.689657	110231552	78262272	20925304	24992
566	11.35558	110231552	78262272	14362360	24992
567	11.889611	110231552	78262272	24933240	24992
568	12.561414	110231552	78262272	19701728	24992
569	13.755175	110231552	78262272	15126192	24992
570	13.931651	110231552	78262272	27677520	24992
571	14.99144	110231552	78262272	24407192	24992
572	15.530395	110231552	78262272	21813472	24992
573	16.282518	110231552	78262272	19879216	24992
574	16.914781	110231552	78262272	18600264	24992
575	17.692966	110231552	78262272	17981688	24992
576	18.541667	110231552	78262272	18023528	24992
577	19.107878	110231552	78262272	18725776	24992
578	19.815099	110231552	78262272	20088424	24992
579	20.615443	110231552	78262272	22111496	24992
580	21.82498	110231552	78262272	24794744	24992
581	22.245009	110231552	78262272	11668816	24992
582	22.992786	110231552	78262272	15667376	24992
583	23.702992	110231552	78262272	20335928	24992
584	24.518064	110231552	78262272	25668400	24992
585	25.139174	110231552	78262272	15194384	24992
586	26.023926	110231552	78262272	21842880	24992
587	26.795316	110231552	78262272	12697248	24992
588	27.829366	110231552	78262272	20666000	24992
589	28.38919	110231552	78262272	12839104	24992
590	28.849525	110231552	78262272	22128320	24992
591	30.197375	110231552	78262272	15623632	24992
592	30.17153	110231552	78262272	26233232	24992
593	31.424464	110231552	78262272	21048688	24992
594	31.85596	110231552	78262272	16524728	24992
595	33.241546	110231552	78262272	12658232	24992
596	33.395474	110231552	78262272	25908472	24992
597	34.093337	110231552	78262272	23368680	24992
598	34.887382	110231552	78262272	21486992	24992
599	36.100278	110231552	78262272	20265600	24992
600	36.048011	110231552	78262272	19703088	24992
601	37.883414	110231552	79310848	19802264	24992
602	0.804241	110501888	80359424	20394208	24992
603	1.514493	110501888	80359424	21731952	24992
604	2.185897	110501888	80359424	23729104	24992
605	2.944209	110501888	80359424	26385664	24992
606	3.931739	110501888	80883712	13226904	24992
607	4.380383	110501888	80883712	17202784	24992
608	5.297453	110501888	80883712	21838144	24992
609	6.179703	110501888	80883712	27132832	24992
610	6.775464	110501888	81408000	16623872	24992
611	7.168372	110501888	81408000	23238328	24992
612	8.312437	110501888	81932288	14046056	24992
613	8.803133	110501888	81932288	21979320	24992
614	9.879755	110501888	82456576	14102688	24992
615	10.160692	110501888	82456576	23354768	24992
616	11.611621	110501888	82980864	16799800	24992
617	11.724233	110501888	82980864	27370696	24992
618	13.02608	110501888	83505152	22139016	24992
619	13.643368	110501888	84029440	17563448	24992
620	14.213915	110501888	84553728	13643744	24992
621	15.516079	110501888	84553728	26854496	24992
622	15.601014	110501888	85078016	24260624	24992
623	16.026512	110501888	85602304	22327656	24992
624	17.181932	110501888	86126592	21048672	24992
625	17.715973	110501888	86650880	20430176	24992
626	18.918954	110772224	86650880	20475448	24992
627	19.763363	110772224	86650880	21179544	24992
628	20.187893	110772224	86650880	22542272	24992
629	20.923301	110772224	86650880	24565328	24992
630	21.3788	110772224	86650880	27248736	24992
631	21.937912	110772224	86650880	14122680	24992
632	23.194663	110772224	86650880	18121272	24992
633	23.528955	110772224	86650880	22789920	24992
634	24.520618	110772224	86650880	28122344	24992
635	25.719197	110772224	86650880	17648344	24992
636	25.550077	110772224	86650880	24296904	24992
637	27.023567	110772224	86650880	15151112	24992
638	28.35175	110772224	86650880	23129320	24992
639	28.183632	110772224	86650880	15332040	24992
640	28.996926	110772224	86650880	24636120	24992
641	30.037161	111042560	86650880	18185488	24992
642	30.030153	111042560	86650880	28810824	24992
643	31.279225	111042560	86650880	23686152	24992
644	32.06788	111042560	86650880	19194816	24992
645	32.679357	111042560	86650880	15361360	24992
646	32.727301	111312896	86650880	28628656	24992
647	33.934334	111312896	86650880	26152136	24992
648	34.537256	111312896	86650880	24305472	24992
649	35.554676	111312896	86650880	23121904	24992
650	36.078528	111583232	86650880	22596352	24992
651	36.66794	111583232	86650880	22733192	24992
652	0.801222	111583232	86650880	23340368	24992
653	1.480103	111583232	86650880	24678096	24992
654	2.188401	111583232	86650880	26675232	24992
655	2.892659	111583232	86650880	29331776	24992
656	4.076809	111583232	86650880	16186856	24992
657	4.363475	111583232	86650880	20162720	24992
658	5.123661	111583232	86650880	24798000	24992
659	5.733327	111583232	86650880	30092672	24992
660	7.210622	111583232	86650880	19623112	24992
661	7.153929	111583232	86650880	26237600	24992
662	8.576951	111583232	86650880	17085888	24992
663	8.592892	111583232	86650880	25019136	24992
664	9.999935	111583232	86650880	17176568	24992
665	10.125682	111583232	86650880	26428648	24992
666	11.473294	111583232	86650880	19912960	24992
667	11.640367	111583232	86650880	30483824	24992
668	12.898273	111853568	86650880	25296496	24992
669	13.81715	111853568	86650880	20755632	24992
670	14.319869	111853568	86650880	16857696	24992
671	14.581188	111853568	86650880	30068432	24992
672	16.117361	111853568	86650880	27515256	24992
673	16.458935	111853568	86650880	25624896	24992
674	17.052658	111853568	86650880	24372880	24992
675	18.141486	111853568	86650880	23782568	24992
676	18.728935	111853568	86650880	23853792	24992
677	20.111799	111853568	86650880	24586560	24992
678	20.672407	112123904	86650880	25980912	24992
679	20.78699	112123904	86650880	28036536	24992
680	21.636911	112123904	86650880	30753408	24992
681	23.222722	112123904	86650880	17673272	24992
682	23.532786	112123904	86650880	21683832	24992
683	24.015697	112123904	86650880	26388968	24992
684	24.903707	112123904	86650880	31754160	24992
685	26.461277	112123904	86650880	21303864	24992
686	26.368114	112394240	86650880	27982504	24992
687	27.737161	112394240	86650880	18880480	24992
688	27.666139	112394240	86650880	26863584	24992
689	28.995851	112394240	86650880	19091720	24992
690	28.978656	112394240	86650880	28396584	24992
691	30.671582	112394240	86650880	21947000	24992
692	31.234503	112664576	86650880	16131976	24992
693	31.955686	112664576	86650880	27417560	24992
694	32.66037	112664576	86650880	22954344	24992
695	33.969665	112664576	86650880	19122360	24992
696	33.285086	112664576	86650880	32389736	24992
697	34.976402	112934912	86650880	29889688	24992
698	35.338897	112934912	86650880	28055768	24992
699	36.862655	112934912	86650880	26872720	24992
700	36.98272	112934912	86650880	26350816	24992
701	38.066909	113205248	86650880	26487848	24992
702	0.796054	113205248	86650880	27095648	24992
703	1.499517	113205248	86650880	28433376	24992
704	2.178537	113205248	86650880	30430512	24992
705	3.125726	113205248	86650880	33087056	24992
706	4.603288	113205248	86650880	19941480	24992
707	4.5344	113205248	86650880	23917344	24992
708	5.485376	113205248	86650880	28552672	24992
709	6.618094	113205248	86650880	17411168	24992
710	6.671304	113205248	86650880	23366200	24992
711	7.138352	113205248	86650880	29980640	24992
712	8.772063	113205248	86650880	20828720	24992
713	8.812005	113205248	86650880	28762048	24992
714	10.428048	113205248	86650880	20930920	24992
715	9.993735	113205248	86650880	30183192	24992
716	11.724829	113205248	86650880	23667440	24992
717	12.736681	113205248	86650880	17799752	24992
718	12.37817	113205248	86650880	29031872	24992
719	13.951729	113205248	86650880	24490752	24992
720	14.760556	113475584	86650880	20613024	24992
721	15.613083	113475584	86650880	17377496	24992
722	15.322662	113475584	86650880	31247640	24992
723	16.851959	113475584	86650880	29357040	24992
724	17.574464	113475584	86650880	28129248	24992
725	18.265447	113475584	86650880	27538824	24992
726	19.97532	113475584	86650880	27618424	24992
727	19.605164	113475584	86650880	28351240	24992
728	20.913808	113475584	86650880	29745464	24992
729	21.712491	113475584	86650880	31800896	24992
730	22.777432	113745920	86650880	18058752	24992
731	22.615549	113745920	86650880	21408592	24992
732	23.912685	113745920	86650880	25450216	24992
733	24.389206	113745920	86650880	30155040	24992
734	26.330316	113745920	86650880	19066320	24992
735	25.685857	113745920	86650880	25067688	24992
736	26.565733	113745920	86650880	31759688	24992
737	28.380621	114016256	86650880	22657720	24992
738	27.903382	114016256	86650880	30640840	24992
739	29.677268	114016256	86650880	22868144	24992
740	29.763303	114016256	86650880	32172512	24992
741	31.172936	114016256	86650880	25724616	24992
742	32.085858	114016256	86650880	19909752	24992
743	31.590817	114016256	86650880	31195400	24992
744	33.516354	114286592	86650880	26731504	24992
745	34.301941	114286592	86650880	22901496	24992
746	34.590222	114286592	86650880	19730168	24992
747	34.46259	114286592	86650880	33657944	24992
748	36.54181	114556928	86650880	31843672	24992
749	36.856524	114556928	86650880	30658264	24992
750	38.363654	114556928	86650880	30142848	24992
751	38.503947	114556928	86650880	30282704	24992
752	0.819502	114827264	86650880	30891232	24992
753	1.486143	114827264	86650880	32228960	24992
754	2.187733	114827264	86650880	34226096	24992
755	4.064033	114827264	86650880	20413656	24992
756	3.663406	114827264	86650880	23730112	24992
757	4.362414	114827264	86650880	27706040	24992
758	5.248554	114827264	86650880	32341304	24992
759	7.146278	114827264	86650880	21201584	24992
760	6.459118	114827264	86650880	27156664	24992
761	7.165033	114827264	86650880	33771104	24992
762	9.128819	114827264	86650880	24626736	24992
763	8.951893	114827264	86650880	32559984	24992
764	10.813474	114827264	86650880	24728760	24992
765	10.351349	114827264	86650880	33980808	24992
766	12.186471	114827264	86650880	27464864	24992
767	12.884861	114827264	86650880	21597192	24992
768	12.376992	114827264	86650880	32829312	24992
769	14.451293	114827264	86650880	28288096	24992
770	15.340011	115097600	86650880	24410368	24992
771	15.553195	115097600	86650880	21174808	24992
772	15.279728	115097600	86650880	35044904	24992
773	17.161509	115097600	86650880	33154304	24992
774	18.114066	115097600	86650880	31926288	24992
775	18.596413	115097600	86650880	31335592	24992
776	19.294219	115097600	86650880	31406400	24992
777	20.364811	115097600	86650880	32138736	24992
778	21.3528	115097600	86650880	33532640	24992
779	21.458248	115097600	86650880	35587832	24992
780	23.827465	115367936	86650880	21844984	24992
781	23.523366	115367936	86650880	25194952	24992
782	24.431311	115367936	86650880	29236192	24992
783	24.641343	115367936	86650880	33941208	24992
784	26.841088	115367936	86650880	22858864	24992
785	26.399445	115367936	86650880	28860504	24992
786	26.724435	115367936	86650880	35560048	24992
787	29.018015	115638272	86650880	26465680	24992
788	28.462415	115638272	86650880	34448304	24992
789	30.405652	115638272	86650880	26683640	24992
790	29.946071	115638272	86650880	35987512	24992
791	32.712674	115638272	86650880	29547504	24992
792	33.017517	115908608	86650880	23733224	24992
793	31.671197	115908608	86650880	35019208	24992
794	34.153208	115908608	86650880	30563928	24992
795	34.792787	115908608	86650880	26734688	24992
796	35.294621	115908608	86650880	23563080	24992
797	35.109312	115908608	86650880	37491240	24992
798	36.819402	116178944	86650880	35631232	24992
799	37.410495	116178944	86650880	34488816	24992
800	38.076511	116178944	86650880	33965384	24992
801	39.11141	116449280	86650880	34105048	24992
802	0.795798	116449280	86650880	34714728	24992
803	1.4819	116449280	86650880	36052456	24992
804	3.711563	116449280	86650880	21573400	24992
805	2.962275	116449280	86650880	24229944	24992
806	3.651788	116449280	86650880	27546400	24992
807	4.346972	116449280	86650880	31522264	24992
808	5.215634	116449280	86650880	36157528	24992
809	7.597345	116449280	86650880	25019584	24992
810	6.814874	116449280	86650880	30974616	24992
811	7.538444	116449280	86650880	37589056	24992
812	10.095998	116449280	86650880	28450616	24992
813	9.072898	116449280	86650880	36383864	24992
814	11.379846	116449280	86650880	28552496	24992
815	10.548577	116449280	86650880	37804544	24992
816	12.778879	116449280	86650880	31287976	24992
817	13.247166	116449280	86650880	25420272	24992
818	12.398975	116449280	86650880	36652392	24992
819	14.639065	116449280	86650880	32111208	24992
820	15.399077	116719616	86650880	28233656	24992
821	16.149515	116719616	86650880	24997184	24992
822	17.058905	116719616	86650880	22423232	24992
823	15.937478	116719616	86650880	36952760	24992
824	18.164013	116719616	86650880	35724728	24992
825	19.191414	116719616	86650880	35159376	24992
826	19.666433	116719616	86650880	35230104	24992
827	20.407148	116719616	86650880	35962376	24992
828	21.412636	116719616	86650880	37356088	24992
829	23.423867	116989952	86650880	22951312	24992
830	23.039481	116989952	86650880	25640720	24992
831	23.965788	116989952	86650880	29020792	24992
832	24.240255	116989952	86650880	33061320	24992
833	25.310616	116989952	86650880	37766128	24992
834	27.495817	116989952	86650880	26683848	24992
835	26.595646	116989952	86650880	32685696	24992
836	29.43038	117260288	86650880	22935440	24992
837	27.93499	117260288	86650880	30258016	24992
838	28.837906	117260288	86650880	38276944	24992
839	31.284834	117260288	86650880	30507376	24992
840	31.753317	117260288	86650880	23369712	24992
841	31.002398	117260288	86650880	33334512	24992
842	33.820397	117260288	86650880	27556032	24992
843	32.278474	117260288	86650880	38842128	24992
844	34.918703	117530624	86650880	34386256	24992
845	35.604177	117530624	86650880	30555672	24992
846	36.703434	117530624	86650880	27385824	24992
847	36.95003	117530624	86650880	24876448	24992
848	35.945089	117530624	86650880	39464992	24992
849	38.85989	117800960	86650880	38312520	24992
850	41.321099	117800960	87175168	37840992	24992
851	40.132352	117800960	87175168	37979712	24992
852	0.817275	117800960	87175168	38589008	24992
853	1.518657	117800960	87175168	39926736	24992
854	4.036588	117800960	87175168	25446320	24992
855	2.987096	117800960	87175168	28103080	24992
856	3.696605	117800960	87175168	31419544	24992
857	4.533663	117800960	87175168	35395408	24992
858	5.475383	117800960	87175168	40030672	24992
859	7.866272	118071296	87175168	28888336	24992
860	6.647988	118071296	87175168	34843400	24992
861	9.303322	118071296	87175168	25029392	24992
862	7.891233	118071296	87175168	32303328	24992
863	8.832187	118071296	87175168	40236576	24992
864	11.481839	118071296	87175168	32402176	24992
865	12.225643	118071296	87175168	25221368	24992
866	10.920052	118071296	87175168	35132824	24992
867	13.768659	118071296	87175168	29263504	24992
868	12.252899	118071296	87175168	40495768	24992
869	15.432831	118071296	87175168	35965856	24992
870	15.578272	118071296	87175168	32086296	24992
871	16.386015	118071296	87175168	28854304	24992
872	17.405776	118071296	87175168	26279344	24992
873	15.769344	118071296	87175168	40808848	24992
874	18.841248	118341632	87175168	39554152	24992
875	19.365493	118341632	87175168	38987368	24992
876	20.357188	118341632	87175168	39078608	24992
877	21.332804	118341632	87175168	39809768	24992
878	23.432962	118341632	87175168	24740952	24992
879	22.347549	118341632	87175168	26769480	24992
880	23.424024	118341632	87175168	29487040	24992
881	24.173214	118341632	87175168	32865928	24992
882	24.781052	118611968	87175168	36905488	24992
883	27.045831	118611968	87175168	25153360	24992
884	26.149249	118611968	87175168	30492376	24992
885	26.76415	118611968	87175168	36526896	24992
886	29.691617	118611968	87175168	26770776	24992
887	29.23043	118611968	87175168	34101664	24992
888	30.757009	118882304	87699456	25673928	24992
889	30.257275	118882304	87699456	34317288	24992
890	32.501006	118882304	87699456	27212776	24992
891	31.215943	118882304	87699456	37177288	24992
892	34.065039	118882304	87699456	31395896	24992
893	34.699358	119152640	87699456	26242376	24992
894	33.450032	119152640	87699456	38188616	24992
895	36.006507	119152640	87699456	34395184	24992
896	36.604591	119152640	87699456	31226632	24992
897	37.691968	119152640	87699456	28716200	24992
898	38.344392	119422976	87699456	26867528	24992
899	36.94795	119422976	87699456	42116296	24992
900	40.005201	119422976	87699456	41612336	24992
901	40.64213	119422976	87699456	41760328	24992
902	0.801158	119422976	87699456	42369080	24992
903	3.820469	119422976	87699456	27224728	24992
904	2.195648	119422976	87699456	29221864	24992
905	2.952171	119422976	87699456	31878408	24992
906	3.648082	119422976	87699456	35194864	24992
907	4.349401	119422976	87699456	39170728	24992
908	7.465727	119422976	87699456	27358872	24992
909	5.959087	119422976	87699456	32653592	24992
910	6.635032	119422976	87699456	38608624	24992
911	9.444349	119422976	87699456	28798072	24992
912	7.864838	119422976	87699456	36071912	24992
913	11.171828	119693312	87699456	27573368	24992
914	9.743326	119693312	87699456	36166008	24992
915	12.431929	119693312	87699456	28984536	24992
916	11.0662	119693312	87699456	38895992	24992
917	14.068809	119693312	87699456	33041368	24992
918	14.769026	119693312	87699456	27836192	24992
919	13.057864	119693312	87699456	39727720	24992
920	16.163871	119693312	87699456	35847488	24992
921	16.820163	119693312	87699456	32630408	24992
922	17.544913	119693312	87699456	30054232	24992
923	18.226636	119693312	87699456	28140464	24992
924	18.960324	119963648	87699456	26888208	24992
925	17.531993	119963648	87699456	42736520	24992
926	20.369759	119963648	87699456	42831048	24992
927	23.987599	119963648	87699456	27125392	24992
928	21.819742	119963648	87699456	28493088	24992
929	22.80794	119963648	87699456	30548744	24992
930	23.134438	119963648	87699456	33265768	24992
931	23.949461	119963648	87699456	36643408	24992
932	24.728254	119963648	87699456	40682776	24992
933	27.525444	119963648	87699456	28929848	24992
934	26.347974	119963648	87699456	34269024	24992
935	27.060708	119963648	87699456	40303480	24992
936	30.298474	119963648	87699456	30545792	24992
937	28.644841	119963648	87699456	37868256	24992
938	31.734774	119963648	87699456	29442080	24992
939	29.655868	119963648	87699456	38085536	24992
940	33.12843	119963648	87699456	30980880	24992
941	31.742866	119963648	87699456	40945440	24992
942	34.256672	119963648	87699456	35164032	24992
943	35.000657	119963648	87699456	30010528	24992
944	33.551486	119963648	87699456	41956672	24992
945	36.503115	119963648	87699456	38163080	24992
946	37.141323	119963648	87699456	34994544	24992
947	38.294428	119963648	87699456	32483760	24992
948	39.139089	119963648	87699456	30634704	24992
949	40.234479	119963648	87699456	29447576	24992
950	40.503992	119963648	87699456	28921968	24992
951	41.46369	119963648	87699456	29058720	24992
952	0.801165	119963648	87699456	29666480	24992
953	1.477855	119963648	87699456	31004208	24992
954	2.18353	119963648	87699456	33001344	24992
955	2.896638	119963648	87699456	35657888	24992
956	3.799969	119963648	87699456	38974344	24992
957	4.351627	119963648	87699456	42950224	24992
958	7.878075	119963648	87699456	31137856	24992
959	6.009084	119963648	87699456	36432528	24992
960	6.415819	119963648	87699456	42387720	24992
961	9.958433	119963648	87699456	32583952	24992
962	7.922943	119963648	87699456	39857792	24992
963	11.626895	119963648	87699456	31358960	24992
964	9.338408	119963648	87699456	39951632	24992
965	12.843678	119963648	87699456	32769904	24992
966	10.719994	119963648	87699456	42681360	24992
967	14.59362	119963648	87699456	36826480	24992
968	15.078824	119963648	87699456	31621272	24992
969	13.119289	119963648	87699456	43512800	24992
970	16.245892	119963648	87699456	39632456	24992
971	17.392368	119963648	87699456	36415216	24992
972	17.954054	119963648	87699456	33838992	24992
973	18.768652	119963648	87699456	31925208	24992
974	19.063818	119963648	87699456	30672992	24992
975	20.203934	119963648	87699456	30082288	24992
976	21.380091	119963648	87699456	30153120	24992
977	21.552058	119963648	87699456	30885512	24992
978	22.420692	119963648	87699456	32279408	24992
979	23.481529	119963648	87699456	34334944	24992
980	24.546903	119963648	87699456	37051952	24992
981	24.756731	119963648	87699456	40429624	24992
982	25.078106	119963648	87699456	44468416	24992
983	28.965851	119963648	87699456	32715488	24992
984	26.565144	119963648	87699456	38054696	24992
985	27.499936	119963648	87699456	44088784	24992
986	31.007484	119963648	87699456	34331016	24992
987	29.130907	119963648	87699456	41653480	24992
988	32.429421	119963648	87699456	33225272	24992
989	30.47799	119963648	87699456	41868776	24992
990	33.592897	119963648	87699456	34765944	24992
991	32.003089	119963648	87699456	44730664	24992
992	35.322618	119963648	87699456	38952888	24992
993	36.022828	119963648	87699456	33799608	24992
994	34.180646	119963648	87699456	45745800	24992
995	37.916251	119963648	87699456	41956392	24992
996	38.448259	119963648	87699456	38786736	24992
997	38.68123	119963648	87699456	36278016	24992
998	39.793675	119963648	87699456	34428784	24992
999	40.493886	119963648	87699456	33241816	24992
1000	41.104187	119963648	87699456	32716368	24992
