x	Duration	RSS	HeapTotal	HeapUsed	External
0	NA	96526336	65155072	10982008	24992
1	1.111752	96526336	65155072	11662120	24992
2	1.90838	96526336	65155072	13000520	24992
3	2.800393	96526336	65155072	14998336	24992
4	3.674094	96526336	65155072	17655640	24992
5	4.173028	96526336	65155072	20973080	24992
6	4.451561	96526336	65155072	24950024	24992
7	6.035666	96526336	65155072	13120656	24992
8	5.854999	96526336	65155072	18416728	24992
9	6.794998	96526336	65155072	24373336	24992
10	7.591926	96526336	65155072	14530296	24992
11	8.190817	96526336	65155072	21806112	24992
12	9.389328	96526336	65155072	13273920	24992
13	9.766976	96526336	65155072	21868776	24992
14	11.605076	96526336	65155072	14669680	24992
15	10.9947	96526336	65155072	24583656	24992
16	12.197407	96526336	65155072	18692192	24992
17	12.576837	96526336	65155072	13458976	24992
18	13.245665	96526336	65155072	25353520	24992
19	14.401233	96526336	65155072	21442360	24992
20	14.713545	96526336	65155072	18192464	24992
21	15.655193	96526336	65155072	15596272	24992
22	16.454961	96526336	65155072	13661672	24992
23	17.33759	96526336	65155072	12392808	24992
24	18.540128	96526336	65155072	11779208	24992
25	18.750117	96526336	65155072	11826192	24992
26	19.484601	96526336	65155072	12534336	24992
27	20.970434	96526336	65155072	13902472	24992
28	20.877692	96526336	65155072	15931288	24992
29	21.607884	96526336	65155072	18620552	24992
30	22.933194	96526336	65155072	21969472	24992
31	23.288372	96526336	65155072	25978760	24992
32	24.30598	96526336	65155072	14184080	24992
33	24.781135	96526336	65155072	19516304	24992
34	26.076573	96526336	65155072	25520592	24992
35	26.113812	96526336	65155072	15711040	24992
36	26.930024	96526336	65155072	23022696	24992
37	27.997518	96526336	65155072	14541848	24992
38	28.466265	96526336	65155072	23174072	24992
39	29.176894	96526336	65155072	16014296	24992
40	31.709177	96526336	65155072	25990640	24992
41	30.481078	96526336	65155072	20150256	24992
42	31.749146	96526336	65155072	14968584	24992
43	31.767824	96526336	65155072	26902032	24992
44	32.76625	96526336	65155072	23043512	24992
45	33.901304	96526336	65155072	19846584	24992
46	33.841693	96526336	65155072	17305136	24992
47	35.142593	96526336	65155072	15425800	24992
48	35.30347	96526336	65155072	14206840	24992
49	37.491171	96526336	65155072	13648648	24992
50	36.882444	96526336	65155072	13752352	24992
51	37.760064	96526336	65155072	14517224	24992
52	0.800304	96526336	65155072	15771080	24992
53	1.711248	96526336	65155072	17109120	24992
54	2.194601	96526336	65155072	19106600	24992
55	2.908052	96526336	65155072	21763568	24992
56	3.615136	96526336	65155072	25080544	24992
57	4.556593	96526336	65155072	29056992	24992
58	5.368678	96526336	65155072	17224392	24992
59	5.78263	96526336	65155072	22519888	24992
60	6.491304	96526336	65155072	28475760	24992
61	7.716009	96526336	65155072	18631328	24992
62	8.15219	96526336	65155072	25906152	24992
63	8.90934	96526336	65155072	17373000	24992
64	9.357734	96526336	65155072	25966816	24992
65	10.558691	96526336	65155072	18752024	24992
66	11.019659	96526336	65155072	28664800	24992
67	11.832157	96526336	65155072	22771240	24992
68	13.123503	96526336	65155072	17536616	24992
69	13.66996	96526336	65155072	12959152	24992
70	14.804467	96526336	65155072	25519152	24992
71	15.150732	96526336	65155072	22266184	24992
72	15.54595	96526336	65155072	19675336	24992
73	16.974099	96526336	65155072	17736960	24992
74	17.856488	96526336	65155072	16459832	24992
75	18.336451	96526336	65155072	15843176	24992
76	18.645071	96526336	65155072	15886952	24992
77	19.417492	96526336	65155072	16591120	24992
78	19.833168	96526336	65155072	17955880	24992
79	21.071497	96526336	65155072	19980936	24992
80	21.461556	96526336	65155072	22665752	24992
81	22.238246	96526336	65155072	26012264	24992
82	22.925179	96526336	65155072	13548912	24992
83	23.842568	96526336	65155072	18213648	24992
84	25.149077	96526336	65155072	23557912	24992
85	25.137994	96526336	65155072	29565760	24992
86	26.385857	96526336	65155072	19778568	24992
87	26.815359	96526336	65155072	27115840	24992
88	29.055066	96526336	65155072	18675616	24992
89	28.046406	96526336	65155072	27318704	24992
90	28.939552	96796672	65155072	20207552	24992
91	30.393976	96796672	65155072	13730320	24992
92	30.331627	96796672	65155072	24355232	24992
93	31.454615	96796672	65155072	19229720	24992
94	32.413138	96796672	65155072	14733984	24992
95	32.750226	96796672	65155072	27340400	24992
96	34.422746	97067008	65155072	24200272	24992
97	34.086944	97067008	65155072	21692840	24992
98	35.42519	97067008	65155072	19843344	24992
99	35.838837	97067008	65155072	18655360	24992
100	36.717899	97067008	65155072	18129616	24992
101	37.455801	97067008	65155072	18266424	24992
102	0.797959	97067008	65155072	18873792	24992
103	1.483282	97067008	65155072	20211536	24992
104	2.206002	97067008	65155072	22208688	24992
105	3.142698	97067008	65155072	24865248	24992
106	3.842809	97067008	65155072	28181832	24992
107	4.835557	97067008	65155072	15701232	24992
108	5.327064	97067008	65155072	20336512	24992
109	5.963114	97067008	65155072	25631200	24992
110	7.155139	97067008	65155072	15156216	24992
111	7.237131	97067008	65155072	21770688	24992
112	7.903995	97067008	65155072	29044816	24992
113	9.390633	97067008	65155072	20554088	24992
114	9.326324	97067008	65155072	29146744	24992
115	10.785298	97067008	65155072	21976880	24992
116	11.280546	97067008	65155072	15444736	24992
117	11.71696	97067008	65155072	26015616	24992
118	13.195515	97067008	65155072	20809992	24992
119	13.491936	97067008	65155072	16267432	24992
120	14.08052	97067008	65155072	28818776	24992
121	15.01988	97067008	65155072	25601120	24992
122	15.878818	97067008	65155072	23046528	24992
123	17.182938	97067008	65155072	21132040	24992
124	17.348873	97067008	65155072	19878976	24992
125	18.264578	97067008	65155072	19288432	24992
126	19.194452	97067008	65155072	19359280	24992
127	19.996391	97067008	65155072	20091672	24992
128	20.673167	97067008	65155072	21485600	24992
129	20.918513	97067008	65155072	23540280	24992
130	21.745053	97067008	65155072	26256384	24992
131	22.582502	97067008	65155072	29633688	24992
132	24.062744	97067008	65155072	17214824	24992
133	23.957768	97067008	65155072	21887896	24992
134	24.592496	97067008	65155072	27252960	24992
135	26.102592	97067008	65155072	16827248	24992
136	26.379461	97067008	65155072	23488840	24992
137	27.112917	97067008	65155072	30839856	24992
138	28.109988	97067008	65155072	22399704	24992
139	28.313441	97067008	65155072	31042328	24992
140	29.357587	97067008	65155072	23931048	24992
141	30.982115	97067008	65155072	17455736	24992
142	30.758281	97067008	65155072	28084184	24992
143	32.412327	97337344	65155072	22958808	24992
144	33.188929	97337344	65155072	18466512	24992
145	32.830775	97337344	65155072	31072992	24992
146	34.67143	97337344	65155072	27932800	24992
147	35.368357	97337344	65155072	25426800	24992
148	35.790979	97337344	65155072	23579496	24992
149	36.038315	97337344	65155072	22391784	24992
150	36.985271	97337344	65155072	21865288	24992
151	38.003168	97337344	65155072	22001760	24992
152	0.794981	97337344	65155072	22609096	24992
153	1.49984	97337344	65155072	23946840	24992
154	2.196555	97337344	65155072	25943992	24992
155	2.944972	97337344	65155072	28600552	24992
156	3.902882	97337344	65155072	31917024	24992
157	5.140317	97337344	65155072	19436376	24992
158	5.095101	97337344	65155072	24071752	24992
159	6.03099	97337344	65155072	29366440	24992
160	7.553627	97337344	65155072	18891296	24992
161	7.198931	97337344	65155072	25505800	24992
162	7.954923	97337344	65155072	32779656	24992
163	9.63522	97337344	65155072	24288816	24992
164	9.330897	97337344	65155072	32881472	24992
165	11.06297	97337344	65155072	25711016	24992
166	11.579349	97337344	65155072	19178808	24992
167	11.957943	97337344	65155072	29749736	24992
168	13.781372	97337344	65155072	24553224	24992
169	13.993112	97337344	65155072	20010632	24992
170	13.860246	97337344	65155072	32561928	24992
171	15.277041	97337344	65155072	29344224	24992
172	16.839448	97337344	65155072	26789328	24992
173	17.145677	97337344	65155072	24874664	24992
174	17.570212	97337344	65155072	23621600	24992
175	18.829435	97337344	65155072	23030016	24992
176	19.103845	97337344	65155072	23100480	24992
177	19.668093	97337344	65155072	23832424	24992
178	20.627101	97337344	65155072	25225536	24992
179	21.102116	97337344	65155072	27280144	24992
180	21.697283	97337344	65155072	29996304	24992
181	22.958734	97337344	65155072	33373624	24992
182	24.983692	97337344	65155072	20954088	24992
183	24.738224	97337344	65155072	25627192	24992
184	25.218889	97337344	65155072	30992432	24992
185	26.728519	97337344	65155072	20565000	24992
186	26.998636	97337344	65155072	27226712	24992
187	27.916311	97337344	65155072	18130272	24992
188	27.877432	97337344	65155072	26113088	24992
189	29.980038	97337344	65155072	18337816	24992
190	29.805103	97337344	65155072	27641496	24992
191	31.250546	97337344	65155072	21191408	24992
192	31.384279	97337344	65155072	31816256	24992
193	33.087697	97337344	65155072	26688616	24992
194	33.543598	97337344	65155072	22196368	24992
195	33.590282	97337344	65155072	34802912	24992
196	34.801486	97337344	65155072	31636368	24992
197	35.92082	97337344	65155072	29142664	24992
198	36.661059	97337344	65155072	27296912	24992
199	37.643458	97337344	65155072	26117048	24992
200	37.687259	97337344	65155072	25591184	24992
201	39.329276	97607680	65155072	25727680	24992
202	0.803383	97607680	65155072	26337632	24992
203	1.559436	97607680	65155072	27675376	24992
204	2.194677	97607680	65155072	29672528	24992
205	2.958496	97607680	65155072	32329088	24992
206	3.841239	97607680	65155072	35645560	24992
207	5.672026	97607680	65155072	23162480	24992
208	5.487177	97607680	65155072	27797760	24992
209	6.024376	97607680	65155072	33092448	24992
210	7.594176	97607680	65155072	22617160	24992
211	7.43611	97607680	65155072	29231616	24992
212	9.04111	97607680	65155072	20068312	24992
213	8.812516	97607680	65155072	28001576	24992
214	10.744276	97607680	65155072	20156464	24992
215	10.296024	97607680	65155072	29408528	24992
216	12.231782	97607680	65155072	22890680	24992
217	11.67768	97607680	65155072	33461624	24992
218	13.582641	97607680	65155072	28272248	24992
219	14.961113	97607680	65155072	23729656	24992
220	15.379665	97607680	65155072	19831256	24992
221	14.911022	97607680	65155072	33042080	24992
222	16.549948	97607680	65155072	30487056	24992
223	17.408699	97607680	65155072	28594968	24992
224	17.902966	97607680	65155072	27341840	24992
225	18.764033	97607680	65155072	26750304	24992
226	19.448198	97607680	65155072	26820320	24992
227	20.143634	97607680	65155072	27551816	24992
228	21.126927	97607680	65155072	28945104	24992
229	22.039729	97607680	65155072	31005456	24992
230	22.69031	97607680	65155072	33724016	24992
231	24.47274	97607680	65155072	20642600	24992
232	23.786915	97607680	65155072	24652344	24992
233	24.452466	97607680	65155072	29357232	24992
234	25.407767	97607680	65155072	34728400	24992
235	27.638651	97607680	65155072	24308408	24992
236	27.096014	97607680	65155072	30970328	24992
237	29.033239	97607680	65155072	21881552	24992
238	28.716281	97607680	65155072	29864480	24992
239	30.961847	97607680	65155072	22097384	24992
240	30.919247	97607680	65155072	31401432	24992
241	31.962653	97607680	65155072	24959264	24992
242	31.524317	97607680	65155072	35584496	24992
243	33.61505	97607680	65155072	30465752	24992
244	34.414017	97607680	65155072	25974376	24992
245	34.984051	97607680	65155072	22140720	24992
246	33.801781	97607680	65155072	35407888	24992
247	37.125781	97607680	65155072	32939576	24992
248	37.008264	97607680	65155072	31092360	24992
249	38.022123	97607680	65155072	29908768	24992
250	38.893392	97607680	65155072	29383064	24992
251	39.436761	97607680	65155072	29519656	24992
252	0.800285	97607680	65155072	30127176	24992
253	1.502506	97607680	65155072	31464920	24992
254	2.196995	97607680	65155072	33462072	24992
255	2.949144	97607680	65155072	36118680	24992
256	5.56616	97607680	65155072	22970640	24992
257	4.442852	97607680	65155072	26946520	24992
258	5.35139	97607680	65155072	31581800	24992
259	5.760366	97607680	65155072	36876488	24992
260	8.064281	97607680	65155072	26401272	24992
261	7.28869	97607680	65155072	33015728	24992
262	9.495186	97607680	65155072	23860096	24992
263	8.78393	97607680	65155072	31793360	24992
264	11.016854	97607680	65155072	23948216	24992
265	10.151157	97607680	65155072	33200280	24992
266	12.478365	97607680	65155072	26681984	24992
267	12.269637	97607680	65155072	37252864	24992
268	14.624284	97607680	65155072	32063520	24992
269	15.243708	97607680	65155072	27520960	24992
270	16.03802	97607680	65155072	23622120	24992
271	14.599685	97607680	65155072	36832824	24992
272	16.905461	97607680	65155072	34277736	24992
273	17.790228	97607680	65155072	32385424	24992
274	18.754599	97607680	65155072	31132296	24992
275	19.440811	97607680	65155072	30540824	24992
276	20.010781	97607680	65155072	30610840	24992
277	20.81247	97607680	65155072	31342368	24992
278	21.330436	97607680	65155072	32735480	24992
279	22.382691	97607680	65155072	34789864	24992
280	22.632277	97607680	65155072	37505560	24992
281	25.15466	97607680	65155072	24424192	24992
282	24.377057	97607680	65155072	28434192	24992
283	24.996229	97607680	65155072	33138232	24992
284	25.903901	97607680	65155072	38509192	24992
285	28.171967	97607680	65155072	28088704	24992
286	27.498739	97607680	65155072	34750256	24992
287	29.992707	97607680	65155072	25659560	24992
288	29.111094	97607680	65155072	33642584	24992
289	31.127569	97607680	65155072	25878832	24992
290	30.379111	97607680	65155072	35182864	24992
291	32.456367	97607680	65155072	28738920	24992
292	31.478534	97607680	65155072	39363432	24992
293	33.959235	97607680	65155072	34220536	24992
294	34.860135	97607680	65155072	29745024	24992
295	35.696609	97607680	65155072	25910984	24992
296	34.366335	97607680	65155072	39178248	24992
297	36.701877	97607680	65155072	36709312	24992
298	37.670763	97607680	65155072	34862064	24992
299	38.287285	97607680	65155072	33677304	24992
300	39.410956	97607680	65155072	33153552	24992
301	40.117469	97607680	65155072	33290368	24992
302	0.796801	97607680	65155072	33898064	24992
303	1.497988	97607680	65155072	35235808	24992
304	2.191586	97607680	65155072	37232960	24992
305	2.985372	97607680	65155072	39889520	24992
306	5.533666	97607680	65155072	26740888	24992
307	4.429933	97607680	65155072	30716768	24992
308	5.497897	97607680	65155072	35352048	24992
309	7.974564	97607680	65155072	24205512	24992
310	6.83817	97607680	65155072	30160560	24992
311	7.43039	97607680	65155072	36775032	24992
312	10.337735	97607680	65155072	27619424	24992
313	9.750549	97607680	65155072	35563760	24992
314	11.600893	97607680	65155072	27729760	24992
315	10.362248	97607680	65155072	36981904	24992
316	13.003262	97607680	65155072	30463992	24992
317	13.740683	97607680	65155072	24594360	24992
318	12.548002	97607680	65155072	35826552	24992
319	15.113074	97607680	65155072	31283616	24992
320	15.849248	97607680	65155072	27404112	24992
321	14.613741	97607680	65155072	40614864	24992
322	17.090519	97607680	65155072	38052704	24992
323	18.387688	97607680	65155072	36160200	24992
324	18.542962	97607680	65155072	34913312	24992
325	19.907562	97607680	65155072	34321504	24992
326	20.704034	97607680	65155072	34391456	24992
327	20.896317	97607680	65155072	35122952	24992
328	21.724773	97607680	65155072	36515760	24992
329	23.026866	97607680	65155072	38569872	24992
330	25.137388	97607680	65155072	24825824	24992
331	24.25506	97607680	65155072	28175056	24992
332	24.876076	97607680	65155072	32215424	24992
333	25.811211	97607680	65155072	36919264	24992
334	28.386594	97607680	65155072	25836288	24992
335	27.315904	97607680	65155072	31837592	24992
336	27.445849	97607680	65155072	38536400	24992
337	31.014896	97607680	65155072	29441520	24992
338	29.121271	97607680	65155072	37424544	24992
339	32.65752	97607680	65155072	29659016	24992
340	31.01072	97607680	65155072	38963288	24992
341	33.276992	97607680	65155072	32522912	24992
342	34.663083	97607680	65155072	26707944	24992
343	32.806405	97607680	65155072	37993832	24992
344	35.549838	97607680	65155072	33537800	24992
345	36.742649	97607680	65155072	29707552	24992
346	37.309322	97607680	65155072	26535784	24992
347	36.163279	97607680	65155072	40463496	24992
348	38.50168	97607680	65155072	38658056	24992
349	39.584177	97607680	65155072	37472416	24992
350	40.641878	97607680	65155072	36949304	24992
351	41.370102	97607680	65155072	37087656	24992
352	0.806574	97607680	65155072	37695240	24992
353	1.504691	97607680	65155072	39033000	24992
354	2.188485	97607680	65155072	41030152	24992
355	5.231862	97607680	65155072	27215304	24992
356	3.713202	97607680	65155072	30531776	24992
357	4.571178	97607680	65155072	34507656	24992
358	5.077866	97607680	65155072	39142936	24992
359	8.426128	97607680	65155072	27996488	24992
360	6.609535	97607680	65155072	33955984	24992
361	7.189295	97607680	65155072	40570440	24992
362	10.938105	97607680	65155072	31426008	24992
363	8.892069	97607680	65155072	39359512	24992
364	11.760203	97607680	65155072	31529592	24992
365	10.282034	97607680	65155072	40781720	24992
366	13.406602	97607680	65155072	34263520	24992
367	13.891043	97607680	65155072	28393912	24992
368	12.675854	97607680	65155072	39626048	24992
369	15.500816	97607680	65155072	35082904	24992
370	16.28197	97607680	65155072	31203256	24992
371	16.967144	97607680	65155072	27966424	24992
372	15.112641	97607680	65155072	41836552	24992
373	18.595335	97607680	65155072	39944008	24992
374	19.050818	97607680	65155072	38714312	24992
375	20.259013	97607680	65155072	38122264	24992
376	21.16667	97607680	65155072	38191768	24992
377	21.897727	97607680	65155072	38922816	24992
378	22.036886	97607680	65155072	40315384	24992
379	22.943982	97607680	65155072	42369400	24992
380	26.733396	97607680	65155072	28625288	24992
381	24.430387	97607680	65155072	31974744	24992
382	25.031103	97607680	65155072	36015096	24992
383	26.069513	97607680	65155072	40718872	24992
384	29.684902	97607680	65155072	29635656	24992
385	27.651484	97607680	65155072	35636992	24992
386	28.418038	97607680	65155072	42336040	24992
387	31.511739	97607680	65155072	33240904	24992
388	29.774053	97607680	65155072	41223144	24992
389	33.177582	97607680	65155072	33457504	24992
390	31.25458	97607680	65155072	42760784	24992
391	34.276467	97607680	65155072	36320392	24992
392	35.418221	97607680	65155072	30505296	24992
393	33.697709	97607680	65155072	41790960	24992
394	36.522042	97607680	65155072	37334864	24992
395	37.644331	97607680	65155072	33504792	24992
396	38.047233	97607680	65155072	30332704	24992
397	36.345706	97607680	65155072	44260448	24992
398	39.451231	97607680	65155072	42438856	24992
399	40.124688	97878016	65155072	41256920	24992
400	41.07699	97878016	65155072	40732912	24992
401	42.074825	97878016	65155072	40871360	24992
402	0.803348	97878016	65155072	41480656	24992
403	1.493906	97878016	65155072	42818400	24992
404	2.419	97878016	65155072	44815552	24992
405	5.799397	97878016	65155072	31000096	24992
406	3.680046	97878016	65155072	34316568	24992
407	4.421638	97878016	65155072	38292512	24992
408	5.274531	97878016	65155072	42927792	24992
409	8.568207	97878016	65155072	31784896	24992
410	6.501377	97878016	65155072	37739960	24992
411	7.405717	97878016	65155072	44354416	24992
412	10.876824	97878016	65155072	35205536	24992
413	8.669905	97878016	65155072	43138800	24992
414	12.11039	97878016	65155072	35304240	24992
415	10.299046	97878016	65155072	44556304	24992
416	13.736005	97878016	65155072	38037096	24992
417	14.563934	97878016	65155072	32167504	24992
418	12.688117	97878016	65155072	43399640	24992
419	15.677066	97878016	65155072	38856416	24992
420	16.753422	97878016	65155072	34976752	24992
421	17.353702	97878016	65155072	31739040	24992
422	15.344795	97878016	65155072	45609200	24992
423	18.952968	97878016	65155072	43689792	24992
424	19.579277	97878016	65155072	42459824	24992
425	20.785294	97878016	65155072	41892112	24992
426	21.706947	97878016	65155072	41961616	24992
427	22.264536	97878016	65155072	42692664	24992
428	22.605463	97878016	65155072	44085200	24992
429	25.837972	97878016	65155072	29678504	24992
430	24.28898	97878016	65155072	32367352	24992
431	24.827985	97878016	65679360	35746120	24992
432	25.648992	97878016	66203648	39785312	24992
433	26.312482	98148352	66203648	44489040	24992
434	30.176732	98148352	66203648	33405760	24992
435	28.014082	98148352	66203648	39407192	24992
436	28.909277	98148352	66203648	46106144	24992
437	32.139124	98418688	66203648	36987704	24992
438	30.143784	98418688	66203648	44987200	24992
439	33.831446	98418688	66203648	37217592	24992
440	31.545954	98418688	66203648	46521032	24992
441	35.466774	98689024	66203648	40032864	24992
442	35.920966	98689024	66203648	34253096	24992
443	34.232978	98689024	66203648	45538776	24992
444	37.082618	98959360	66727936	41082088	24992
445	38.473833	98959360	66727936	37251952	24992
446	39.236793	98959360	66727936	34079672	24992
447	39.624974	99229696	66727936	31569544	24992
448	37.521445	99229696	66727936	46157784	24992
449	40.968945	99229696	66727936	45014176	24992
450	42.255324	99500032	66727936	44490184	24992
451	42.336902	99500032	66727936	44628520	24992
452	0.80012	99500032	67252224	45237800	24992
453	1.489891	99500032	67252224	46575544	24992
454	5.297716	99500032	67252224	32095416	24992
455	2.923273	99500032	67252224	34751976	24992
456	3.660513	99500032	67252224	38068512	24992
457	4.379942	99500032	67252224	42044392	24992
458	5.133692	99500032	67252224	46679672	24992
459	9.139935	99500032	67252224	35536776	24992
460	6.742005	99500032	67252224	41491824	24992
461	10.385689	99500032	67776512	31676816	24992
462	7.989007	99770368	67776512	38950696	24992
463	8.834144	99770368	67776512	46883960	24992
464	12.747785	99770368	67776512	39048680	24992
465	13.265669	99770368	67776512	31867184	24992
466	11.017085	99770368	67776512	41778656	24992
467	14.819701	99770368	67776512	35908808	24992
468	12.444883	99770368	67776512	47140960	24992
469	16.709807	99770368	67776512	42614632	24992
470	16.957469	99770368	67776512	38734552	24992
471	17.995082	100040704	67776512	35496792	24992
472	18.385698	100040704	67776512	32921544	24992
473	15.970717	100040704	67776512	47451064	24992
474	20.214655	100040704	67776512	46220416	24992
475	20.826128	100040704	67776512	45653112	24992
476	21.330633	100040704	67776512	45722392	24992
477	22.021377	100040704	67776512	46453328	24992
478	22.898688	100311040	67776512	47845752	24992
479	27.371505	100311040	67776512	33436688	24992
480	24.60496	100311040	67776512	36124368	24992
481	25.6536	100311040	67776512	39503152	24992
482	25.78	100311040	68300800	43542648	24992
483	26.522959	100581376	68300800	48245928	24992
484	31.041239	100581376	68300800	37144296	24992
485	28.436519	100581376	68300800	43157632	24992
486	32.277492	100581376	68300800	33402080	24992
487	29.612399	100581376	68300800	40724512	24992
488	30.472095	100851712	68300800	48742832	24992
489	34.310645	100851712	68300800	40927752	24992
490	35.226512	100851712	68300800	33822736	24992
491	33.037675	100851712	68300800	43787232	24992
492	37.420547	101122048	68825088	38006848	24992
493	37.150621	101122048	68825088	32851760	24992
494	35.232045	101122048	68825088	44797824	24992
495	38.833301	101392384	68825088	41004376	24992
496	39.91198	101392384	68825088	37835904	24992
497	40.265257	101392384	69349376	35325488	24992
498	40.96674	101662720	69349376	33476848	24992
499	38.513713	101662720	69349376	48725632	24992
500	42.545594	101662720	69349376	48244664	24992
501	43.100417	101933056	69349376	48383120	24992
502	0.806156	101933056	69349376	48992592	24992
503	4.908164	101933056	69349376	33848184	24992
504	2.213832	101933056	69349376	35845328	24992
505	2.944022	101933056	69349376	38501888	24992
506	3.653011	101933056	69349376	41818360	24992
507	4.378219	101933056	69349376	45794240	24992
508	8.573136	101933056	69349376	33982040	24992
509	5.804654	101933056	69349376	39276784	24992
510	6.51159	101933056	69349376	45231832	24992
511	10.805025	101933056	69349376	35421296	24992
512	8.20682	101933056	69349376	42695168	24992
513	12.454775	101933056	69873664	34196608	24992
514	9.410325	101933056	69873664	42789264	24992
515	13.775885	102203392	69873664	35607824	24992
516	11.290519	102203392	69873664	45519312	24992
517	15.001287	102203392	69873664	39664656	24992
518	16.159454	102203392	69873664	34459496	24992
519	13.023479	102203392	69873664	46351040	24992
520	17.356938	102203392	69873664	42470984	24992
521	18.109203	102203392	69873664	39253968	24992
522	18.807623	102203392	69873664	36678256	24992
523	19.847604	102473728	69873664	34764568	24992
524	16.886943	102473728	69873664	49953512	24992
525	20.98975	102473728	70397952	49385472	24992
526	21.889893	102473728	70397952	49480872	24992
527	22.611179	102473728	70397952	50211000	24992
528	26.37883	102744064	70397952	35136832	24992
529	24.230531	102744064	70397952	37166760	24992
530	24.811605	102744064	70397952	39884048	24992
531	25.375312	102744064	70397952	43262152	24992
532	25.955424	102744064	70397952	47301344	24992
533	30.558374	103014400	70397952	35548608	24992
534	27.595228	103014400	70397952	40887736	24992
535	28.457465	103014400	70397952	46921664	24992
536	33.02856	103014400	70397952	37164056	24992
537	30.060401	103014400	70397952	44486520	24992
538	34.59795	103284736	70922240	36060584	24992
539	31.623539	103284736	70922240	44704136	24992
540	35.690966	103284736	71446528	37599784	24992
541	32.832834	103284736	71446528	47564344	24992
542	37.658265	103555072	71446528	41782920	24992
543	37.954903	103555072	71446528	36629368	24992
544	35.381673	103555072	71446528	48575480	24992
545	39.589126	103825408	71446528	44781936	24992
546	39.787327	103825408	71446528	41613560	24992
547	40.988499	103825408	71446528	39102792	24992
548	42.420086	104095744	71970816	37254232	24992
549	42.359343	104095744	71970816	36067200	24992
550	39.147148	104095744	71970816	51976496	24992
551	43.977345	104095744	71970816	52100832	24992
552	4.539487	104366080	71970816	36259792	24992
553	1.534123	104366080	71970816	37597544	24992
554	2.195339	104366080	71970816	39594696	24992
555	2.95594	104366080	71970816	42251256	24992
556	3.661215	104366080	71970816	45574528	24992
557	4.384901	104366080	71970816	49550472	24992
558	9.341661	104366080	71970816	37740560	24992
559	5.793328	104366080	71970816	43035248	24992
560	6.682129	104366080	71970816	48990296	24992
561	11.079308	104366080	71970816	39190312	24992
562	8.378472	104366080	71970816	46464248	24992
563	13.150472	104366080	71970816	37966344	24992
564	9.793938	104366080	71970816	46559016	24992
565	14.426345	104366080	71970816	39378936	24992
566	11.205711	104636416	71970816	49290440	24992
567	21.105301	104636416	71970816	43437448	24992
568	16.96364	104636416	71970816	20658632	24992
569	13.716649	104636416	71970816	16073504	24992
570	13.964691	104636416	71970816	12153888	24992
571	14.876101	104636416	71970816	25364688	24992
572	15.570765	104636416	71970816	22770880	24992
573	16.410043	104636416	71970816	20837928	24992
574	17.008812	104636416	71970816	19559008	24992
575	17.898655	104636416	71970816	18940448	24992
576	18.480339	104636416	71970816	18982336	24992
577	19.061702	104636416	71970816	19684600	24992
578	20.333886	104636416	71970816	21047280	24992
579	20.900235	104636416	71970816	23070432	24992
580	21.403863	104636416	71970816	25753440	24992
581	22.783257	104636416	71970816	12627448	24992
582	23.00423	104636416	71970816	16626040	24992
583	23.852048	104636416	71970816	21294240	24992
584	24.648253	104636416	71970816	26626648	24992
585	25.524603	104636416	71970816	16152552	24992
586	25.686329	104636416	71970816	22801096	24992
587	27.187517	104636416	71970816	13654360	24992
588	27.814231	104636416	71970816	21623136	24992
589	28.486983	104636416	71970816	13798136	24992
590	29.386812	104636416	71970816	23087272	24992
591	29.684386	104636416	71970816	16581432	24992
592	30.589086	104636416	71970816	27191056	24992
593	31.665167	104636416	71970816	22007720	24992
594	32.37778	104636416	71970816	17483664	24992
595	32.549858	104636416	71970816	13616816	24992
596	33.759264	104636416	72495104	26867104	24992
597	34.001667	104636416	73543680	24327168	24992
598	34.930139	104636416	74592256	22444648	24992
599	35.725362	104906752	75640832	21224952	24992
600	36.387637	104906752	76689408	20662616	24992
601	37.658602	104906752	77737984	20761808	24992
602	0.813592	104906752	78786560	21353928	24992
603	1.497065	104906752	78786560	22691672	24992
604	2.210684	104906752	78786560	24688824	24992
605	3.133675	104906752	78786560	27345384	24992
606	4.122272	104906752	79310848	14186576	24992
607	4.394464	104906752	79310848	18162456	24992
608	5.272808	104906752	79310848	22797768	24992
609	5.987654	104906752	79310848	28092472	24992
610	7.002145	104906752	79835136	17583576	24992
611	7.429832	104906752	79835136	24198032	24992
612	8.246426	105177088	80359424	15005536	24992
613	8.903979	105177088	80359424	22938800	24992
614	9.660992	105177088	80883712	15062312	24992
615	10.297671	105177088	80883712	24314440	24992
616	11.109384	105177088	81408000	17759312	24992
617	11.746536	105177088	81408000	28330224	24992
618	12.761324	105177088	81932288	23097856	24992
619	13.240143	105177088	82456576	18522288	24992
620	14.1937	105177088	82980864	14602152	24992
621	14.649569	105177088	82980864	27812872	24992
622	15.658201	105177088	83505152	25219000	24992
623	16.318057	105177088	84029440	23286032	24992
624	17.099982	105177088	84553728	22006888	24992
625	17.785129	105177088	85078016	21388312	24992
626	18.515079	105177088	85602304	21430184	24992
627	19.50266	105177088	86126592	22132544	24992
628	20.159085	105177088	86126592	23498672	24992
629	21.302046	105177088	86126592	25523368	24992
630	21.551478	105177088	86126592	28206568	24992
631	22.290803	105447424	86126592	15080512	24992
632	22.94107	105447424	86126592	19079136	24992
633	23.873178	105447424	86126592	23746936	24992
634	24.695005	105447424	86126592	29079152	24992
635	25.657763	105447424	86126592	18604560	24992
636	26.086037	105447424	86126592	25252800	24992
637	26.728643	105447424	86126592	16105248	24992
638	27.708526	105447424	86126592	24074032	24992
639	29.788455	105447424	86126592	16258856	24992
640	28.94343	105447424	86126592	25563952	24992
641	30.018272	105447424	86126592	19112384	24992
642	30.190948	105447424	86126592	29736864	24992
643	31.6224	105717760	86126592	24591320	24992
644	32.344868	105717760	86126592	20112416	24992
645	33.307067	105717760	86126592	16278736	24992
646	35.484428	105717760	86126592	29546144	24992
647	34.859129	105988096	86126592	27068888	24992
648	34.800857	105988096	86126592	25221856	24992
649	36.721067	105988096	86126592	24037280	24992
650	36.497008	105988096	86126592	23513856	24992
651	37.615786	105988096	86126592	23650792	24992
652	0.800918	106258432	86126592	24257984	24992
653	1.488664	106258432	86126592	25595712	24992
654	2.194075	106258432	86126592	27592848	24992
655	3.128933	106258432	86126592	30249392	24992
656	4.246473	106258432	86126592	17103784	24992
657	4.55383	106258432	86126592	21079648	24992
658	5.458344	106258432	86126592	25714912	24992
659	6.230326	106258432	86126592	14573416	24992
660	6.916706	106258432	86126592	20528456	24992
661	7.196396	106258432	86126592	27142960	24992
662	8.398372	106258432	86126592	17991152	24992
663	8.875103	106258432	86126592	25924448	24992
664	10.078099	106258432	86126592	18093304	24992
665	10.064979	106258432	86126592	27345400	24992
666	11.288943	106258432	86126592	20829696	24992
667	12.22617	106258432	86126592	14961992	24992
668	12.443574	106258432	86126592	26194192	24992
669	13.647139	106258432	86126592	21653088	24992
670	14.387203	106258432	86126592	17775408	24992
671	14.633016	106258432	86126592	30986192	24992
672	15.858998	106528768	86126592	28428504	24992
673	16.542188	106528768	86126592	26537936	24992
674	17.582476	106528768	86126592	25289408	24992
675	18.082554	106528768	86126592	24698872	24992
676	19.088814	106528768	86126592	24770128	24992
677	19.425299	106528768	86126592	25502896	24992
678	20.449994	106528768	86126592	26897088	24992
679	20.705751	106528768	86126592	28952504	24992
680	22.208309	106799104	86126592	15210328	24992
681	22.510216	106799104	86126592	18560136	24992
682	23.864323	106799104	86126592	22601728	24992
683	23.974232	106799104	86126592	27306568	24992
684	25.679509	106799104	86126592	16217864	24992
685	25.584909	106799104	86126592	22219264	24992
686	26.322095	106799104	86126592	28911248	24992
687	27.62171	107069440	86126592	19809248	24992
688	27.466787	107069440	86126592	27792368	24992
689	29.313225	107069440	86126592	20019720	24992
690	28.96988	107069440	86126592	29323368	24992
691	30.786889	107069440	86126592	22876088	24992
692	31.590446	107069440	86126592	17061128	24992
693	31.401904	107069440	86126592	28346856	24992
694	33.211621	107339776	86126592	23882792	24992
695	33.367232	107339776	86126592	20052760	24992
696	34.728827	107339776	86126592	16881208	24992
697	35.779857	107339776	86126592	30808952	24992
698	36.146762	107610112	86126592	28994616	24992
699	36.285999	107610112	86126592	27809192	24992
700	37.729916	107610112	86126592	27288656	24992
701	37.964717	107610112	86126592	27427160	24992
702	0.796308	107610112	86126592	28035136	24992
703	1.50467	107610112	86126592	29372960	24992
704	2.190832	107610112	86126592	31370096	24992
705	3.708871	107610112	86126592	17557616	24992
706	3.686546	107610112	86126592	20874072	24992
707	4.554587	107610112	86126592	24849968	24992
708	5.242862	107610112	86126592	29485232	24992
709	6.815285	107610112	86126592	18343744	24992
710	6.690198	107610112	86126592	24298776	24992
711	7.25414	107610112	86126592	30913216	24992
712	8.810939	107880448	86126592	21768848	24992
713	8.83731	107880448	86126592	29702096	24992
714	10.390471	107880448	86126592	21870952	24992
715	10.076197	107880448	86126592	31123032	24992
716	11.843592	107880448	86126592	24607136	24992
717	12.569732	107880448	86126592	18739448	24992
718	12.268686	107880448	86126592	29971568	24992
719	14.005366	107880448	86126592	25430464	24992
720	14.722889	107880448	86126592	21552736	24992
721	15.706487	107880448	86126592	18317240	24992
722	15.291164	107880448	86126592	32187336	24992
723	16.736482	107880448	86126592	30296720	24992
724	17.866909	108150784	86126592	29068816	24992
725	18.102926	108150784	86126592	28478120	24992
726	19.294587	108150784	86126592	28548928	24992
727	19.777354	108150784	86126592	29281296	24992
728	20.728561	108150784	86126592	30675632	24992
729	21.955859	108150784	86126592	32740288	24992
730	22.805154	108150784	86126592	18998144	24992
731	23.201776	108150784	86126592	22348048	24992
732	23.884787	108421120	86126592	26389688	24992
733	24.97084	108421120	86126592	31094464	24992
734	26.052777	108421120	86126592	20005520	24992
735	25.960476	108421120	86126592	26007080	24992
736	26.455501	108421120	86126592	32699128	24992
737	28.234409	108421120	86126592	23597112	24992
738	28.50349	108421120	86126592	31579528	24992
739	29.619884	108691456	86126592	23806672	24992
740	29.708696	108691456	86126592	33110096	24992
741	31.351826	108691456	86126592	26662184	24992
742	32.388977	108691456	86126592	20847400	24992
743	31.682477	108691456	86126592	32133176	24992
744	33.727929	108961792	86126592	27669032	24992
745	34.2293	108961792	86126592	23839160	24992
746	35.527666	108961792	86126592	20667272	24992
747	34.607996	108961792	86126592	34595112	24992
748	36.345078	108961792	86126592	32765560	24992
749	37.311909	109232128	86126592	31582680	24992
750	38.165028	109232128	86126592	31058888	24992
751	39.456412	109232128	86126592	31205896	24992
752	0.806082	109232128	86126592	31815464	24992
753	1.495888	109232128	86126592	33153192	24992
754	2.193078	109232128	86126592	35150328	24992
755	4.201263	109232128	86126592	21337272	24992
756	3.85557	109232128	86126592	24653728	24992
757	4.571081	109232128	86126592	28629592	24992
758	5.328187	109232128	86126592	33264856	24992
759	6.935389	109232128	86126592	22126888	24992
760	6.698405	109232128	86126592	28081984	24992
761	7.200895	109232128	86126592	34696424	24992
762	9.092216	109502464	86126592	25552056	24992
763	8.85765	109502464	86126592	33485304	24992
764	10.759821	109502464	86126592	25654032	24992
765	10.075791	109502464	86126592	34906080	24992
766	12.165481	109502464	86126592	28389448	24992
767	12.920251	109502464	86126592	22521744	24992
768	12.476187	109502464	86126592	33753864	24992
769	14.350043	109502464	86126592	29212616	24992
770	15.082379	109502464	86126592	25334888	24992
771	15.886791	109772800	86126592	22098448	24992
772	15.318646	109772800	86126592	35968544	24992
773	17.011084	109772800	86126592	34050632	24992
774	18.170811	109772800	86126592	32822592	24992
775	18.508436	109772800	86126592	32256976	24992
776	19.932752	109772800	86126592	32327784	24992
777	20.409943	109772800	86126592	33060184	24992
778	20.809346	109772800	86126592	34454056	24992
779	23.147794	109772800	86126592	20049488	24992
780	22.858726	109772800	86126592	22738864	24992
781	23.371469	110043136	86126592	26118936	24992
782	24.47234	110043136	86126592	30159400	24992
783	25.148489	110043136	86126592	34864432	24992
784	26.858238	110043136	86126592	23782072	24992
785	26.366245	110043136	86126592	29783792	24992
786	27.179967	110043136	86126592	36483432	24992
787	28.887025	110043136	86126592	27365632	24992
788	28.569154	110313472	86126592	35365416	24992
789	30.526634	110313472	86126592	27596800	24992
790	30.094462	110313472	86126592	36900528	24992
791	32.184302	110313472	86126592	30413288	24992
792	33.042014	110313472	86126592	24634864	24992
793	32.277247	110313472	86126592	35920864	24992
794	34.3253	110583808	86126592	31465040	24992
795	35.28364	110583808	86126592	27635528	24992
796	35.729181	110583808	86126592	24463744	24992
797	36.796982	110583808	86126592	21954208	24992
798	35.74495	110583808	86126592	36542752	24992
799	38.347801	110854144	86126592	35400184	24992
800	38.607832	110854144	86126592	34876816	24992
801	39.433731	110854144	86126592	35015824	24992
802	0.803447	111124480	86126592	35625344	24992
803	1.498935	111124480	86126592	36963072	24992
804	3.672017	111124480	86126592	22484704	24992
805	2.918641	111124480	86126592	25141312	24992
806	3.851893	111124480	86126592	28457768	24992
807	4.376341	111124480	86126592	32433632	24992
808	5.038484	111124480	86126592	37068896	24992
809	7.311351	111124480	86126592	25930984	24992
810	6.490785	111124480	86126592	31886016	24992
811	8.734172	111124480	86126592	22075528	24992
812	7.994067	111124480	86126592	29349392	24992
813	8.819835	111124480	86126592	37282640	24992
814	11.356258	111124480	86126592	29450592	24992
815	11.704038	111124480	86126592	22271680	24992
816	10.999108	111124480	86126592	32183136	24992
817	13.378715	111124480	86126592	26315216	24992
818	12.217704	111124480	86126592	37547352	24992
819	14.765036	111124480	86126592	33023584	24992
820	15.409588	111124480	86126592	29145424	24992
821	16.151661	111124480	86126592	25908952	24992
822	16.948915	111394816	86126592	23334944	24992
823	16.213057	111394816	86126592	37864512	24992
824	18.325202	111394816	86126592	36636048	24992
825	18.999628	111394816	86126592	36070664	24992
826	19.792441	111394816	86126592	36141248	24992
827	20.725017	111394816	86126592	36873440	24992
828	21.787455	111394816	86126592	38267088	24992
829	24.055791	111394816	86126592	23858008	24992
830	23.114816	111394816	86126592	26547800	24992
831	23.777065	111394816	86126592	29927968	24992
832	24.564628	111665152	86126592	33968448	24992
833	25.121221	111665152	86126592	38673032	24992
834	27.711269	111665152	86126592	27570944	24992
835	26.623551	111665152	86126592	33586008	24992
836	29.152561	111665152	86126592	23831384	24992
837	27.924332	111665152	86126592	31154200	24992
838	28.780238	111935488	86126592	39173144	24992
839	31.31952	111935488	86126592	31359368	24992
840	32.092034	111935488	86126592	24255488	24992
841	30.697107	111935488	86126592	34220304	24992
842	33.02397	111935488	86126592	28440816	24992
843	34.194111	112205824	86126592	23286416	24992
844	32.929982	112205824	86126592	35232736	24992
845	35.86413	112205824	86126592	31440232	24992
846	36.609879	112205824	86126592	28272352	24992
847	37.260287	112205824	86126592	25762672	24992
848	37.775854	112476160	86126592	23916016	24992
849	36.899805	112476160	86126592	39165120	24992
850	39.544243	112476160	86126592	38716008	24992
851	40.178519	112476160	86126592	38855112	24992
852	0.804817	112746496	86126592	39477784	24992
853	3.334778	112746496	86126592	24333688	24992
854	2.692941	112746496	86126592	26339328	24992
855	2.962433	112746496	86126592	28995872	24992
856	3.708876	112746496	86126592	32312344	24992
857	4.549219	112746496	86126592	36288208	24992
858	7.126026	112746496	86126592	24477072	24992
859	5.779931	112746496	86126592	29771744	24992
860	6.69691	112746496	86126592	35726776	24992
861	9.12809	112746496	86126592	25917712	24992
862	7.92335	112746496	86126592	33191552	24992
863	10.727937	112746496	86126592	24693840	24992
864	9.622379	112746496	86126592	33286480	24992
865	11.936324	112746496	86126592	26105696	24992
866	10.984059	112746496	86126592	36017168	24992
867	13.64993	112746496	86126592	30163200	24992
868	14.130003	113016832	86126592	24958536	24992
869	13.595974	113016832	86126592	36850064	24992
870	15.558234	113016832	86126592	32970736	24992
871	16.560189	113016832	86126592	29754192	24992
872	17.313092	113016832	86126592	27178768	24992
873	18.213681	113016832	86126592	25266664	24992
874	17.040081	113016832	86126592	40455640	24992
875	19.189008	113016832	86126592	39888112	24992
876	20.618132	113016832	86126592	39983168	24992
877	21.074195	113016832	86126592	40713640	24992
878	23.483482	113287168	86126592	25635456	24992
879	22.433973	113287168	86126592	27669192	24992
880	23.631706	113287168	86126592	30386800	24992
881	24.077143	113287168	86126592	33764888	24992
882	24.797992	113287168	86126592	37804448	24992
883	27.617551	113287168	86126592	26052176	24992
884	26.385051	113287168	86126592	31391288	24992
885	26.94558	113287168	86126592	37426752	24992
886	29.661158	113557504	86126592	27669704	24992
887	28.368556	113557504	86126592	34992264	24992
888	31.485253	113557504	86126592	26566744	24992
889	30.745237	113557504	86126592	35218680	24992
890	33.180557	113557504	86126592	28114424	24992
891	31.591015	113557504	86126592	38079032	24992
892	34.363284	113827840	86126592	32297592	24992
893	35.671526	113827840	86126592	27144024	24992
894	33.537917	113827840	86126592	39090440	24992
895	36.461535	113827840	86126592	35296800	24992
896	37.085893	114098176	86126592	32128376	24992
897	37.971125	114098176	86126592	29617544	24992
898	38.675134	114098176	86126592	27768936	24992
899	39.089072	114098176	86126592	26581840	24992
900	37.952775	114098176	86126592	42491072	24992
901	41.252924	114098176	86126592	42615264	24992
902	3.089724	114368512	86126592	26777400	24992
903	1.512147	114368512	86126592	28115128	24992
904	2.206151	114368512	86126592	30112264	24992
905	2.90262	114368512	86126592	32768808	24992
906	3.733018	114368512	86126592	36085264	24992
907	4.763553	114368512	86126592	40061128	24992
908	7.461098	114368512	86126592	28244768	24992
909	5.810491	114368512	86126592	33539488	24992
910	6.70105	114368512	86126592	39494520	24992
911	9.633297	114368512	86126592	29687720	24992
912	7.953141	114368512	86126592	36961560	24992
913	11.042388	114368512	86126592	28462728	24992
914	9.595224	114368512	86126592	37055368	24992
915	12.289553	114368512	86126592	29873688	24992
916	10.992906	114368512	86126592	39785192	24992
917	13.943814	114368512	86126592	33930456	24992
918	15.145751	114368512	86126592	28725248	24992
919	13.310542	114368512	86126592	40616776	24992
920	16.40455	114638848	86126592	36736432	24992
921	17.092538	114638848	86126592	33519368	24992
922	17.661969	114638848	86126592	30943336	24992
923	18.318528	114638848	86126592	29029552	24992
924	19.197268	114638848	86126592	27777304	24992
925	19.761233	114638848	86126592	27186592	24992
926	20.712557	114638848	86126592	27257448	24992
927	21.170549	114638848	86126592	27989872	24992
928	22.403647	114638848	86126592	29383896	24992
929	22.465013	114638848	86126592	31439416	24992
930	23.501194	114909184	86126592	34156440	24992
931	24.673102	114909184	86126592	37534096	24992
932	24.873418	114909184	86126592	41573096	24992
933	28.465515	114909184	86126592	29820184	24992
934	26.497697	114909184	86126592	35159328	24992
935	27.451171	114909184	86126592	41193352	24992
936	30.272922	115179520	86126592	31435600	24992
937	28.91942	115179520	86126592	38758048	24992
938	31.680999	115179520	86126592	30330752	24992
939	30.300998	115179520	86126592	38974200	24992
940	33.186504	115179520	86126592	31870320	24992
941	32.026283	115179520	86126592	41835080	24992
942	34.828431	115449856	86126592	36055488	24992
943	35.302575	115449856	86126592	30902128	24992
944	33.766027	115449856	86126592	42848400	24992
945	36.894254	115449856	86126592	39054920	24992
946	37.394142	115449856	86126592	35885280	24992
947	38.108769	115720192	86126592	33376464	24992
948	39.283797	115720192	86126592	31527600	24992
949	39.647183	115720192	86126592	30340664	24992
950	40.745568	115720192	86126592	29815184	24992
951	41.504982	115990528	86126592	29952048	24992
952	0.802278	115990528	86126592	30559792	24992
953	1.489745	115990528	86126592	31897520	24992
954	2.206068	115990528	86126592	33894656	24992
955	2.902523	115990528	86126592	36551200	24992
956	3.642664	115990528	86126592	39867656	24992
957	4.358434	115990528	86126592	43843520	24992
958	7.883973	115990528	86126592	32031200	24992
959	6.325238	115990528	86126592	37325872	24992
960	6.473505	115990528	86126592	43280952	24992
961	9.959293	115990528	86126592	33477296	24992
962	7.907306	115990528	86126592	40751136	24992
963	11.426668	115990528	86126592	32252064	24992
964	9.602894	115990528	86126592	40844736	24992
965	12.892816	115990528	86126592	33662768	24992
966	10.756558	115990528	86126592	43574224	24992
967	14.517789	115990528	86126592	37719344	24992
968	14.907846	115990528	86126592	32514136	24992
969	13.142419	115990528	86126592	44405664	24992
970	16.434994	115990528	86126592	40525320	24992
971	17.323042	115990528	86126592	37307952	24992
972	18.217572	115990528	86126592	34731728	24992
973	18.60766	115990528	86126592	32817496	24992
974	19.397191	115990528	86126592	31565248	24992
975	20.278153	115990528	86126592	30974544	24992
976	21.473884	115990528	86126592	31045392	24992
977	22.164242	115990528	86126592	31777784	24992
978	22.429126	115990528	86126592	33171776	24992
979	22.954682	115990528	86126592	35227248	24992
980	24.184011	116260864	86126592	37943392	24992
981	25.056234	116260864	86126592	41321096	24992
982	25.390244	116260864	86126592	45359904	24992
983	28.958422	116260864	86126592	33606304	24992
984	27.112627	116260864	86126592	38945560	24992
985	27.393595	116260864	86126592	44979712	24992
986	31.403601	116260864	86126592	35221256	24992
987	28.831873	116260864	86126592	42543368	24992
988	32.531549	116531200	86126592	34115112	24992
989	30.510464	116531200	86126592	42758696	24992
990	33.920765	116531200	86126592	35655704	24992
991	31.885899	116531200	86126592	45619656	24992
992	35.667021	116531200	86126592	39841224	24992
993	36.109137	116801536	86126592	34687992	24992
994	34.061607	116801536	86126592	46634264	24992
995	38.787418	116801536	86126592	42798360	24992
996	38.121026	116801536	86126592	39661664	24992
997	39.318905	116801536	86126592	37154912	24992
998	39.79605	117071872	86126592	35305872	24992
999	40.790621	117071872	86126592	34119128	24992
1000	41.662166	117071872	86126592	33593888	24992
