x	Duration	RSS	HeapTotal	HeapUsed	External
0	NA	108437504	79835136	10971408	24992
1	0.941732	108437504	79835136	11651480	24992
2	1.578684	108437504	79835136	12989872	24992
3	2.321596	108437504	79835136	14987640	24992
4	3.13429	108437504	79835136	17644944	24992
5	4.469611	108437504	79835136	20962368	24992
6	5.564487	108437504	79835136	24939312	24992
7	6.275006	108437504	79835136	13109688	24992
8	5.914066	108437504	79835136	18405760	24992
9	7.026187	108437504	79835136	24362368	24992
10	7.722807	108437504	79835136	14519304	24992
11	8.29634	108437504	79835136	21795040	24992
12	9.399155	108437504	79835136	13262848	24992
13	11.131864	108437504	79835136	21871664	24992
14	10.715415	108437504	79835136	14658344	24992
15	11.026588	108437504	79835136	24572368	24992
16	12.192284	108437504	79835136	18680904	24992
17	13.081443	108437504	79835136	13447656	24992
18	13.468585	108437504	79835136	25342264	24992
19	14.865632	108437504	79835136	21431104	24992
20	15.627687	108437504	79835136	18182600	24992
21	15.939664	108437504	79835136	15586776	24992
22	16.691452	108437504	79835136	13652144	24992
23	17.295207	108437504	79835136	12378072	24992
24	17.979577	108437504	79835136	11764472	24992
25	18.671221	108437504	79835136	11811456	24992
26	19.84025	108437504	79835136	12519600	24992
27	20.897747	108437504	79835136	13887736	24992
28	21.601908	108437504	79835136	15921760	24992
29	21.750087	108437504	79835136	18611024	24992
30	22.873899	108437504	79835136	21959944	24992
31	23.127141	108437504	79835136	25969232	24992
32	24.734009	108437504	79835136	14174552	24992
33	24.80989	108437504	79835136	19506776	24992
34	25.269574	108437504	79835136	25506048	24992
35	27.243816	108437504	79835136	15702512	24992
36	27.821247	108437504	79835136	23015776	24992
37	27.900986	108437504	79835136	14533288	24992
38	28.504071	108437504	79835136	23165448	24992
39	29.802743	108437504	79835136	16005736	24992
40	30.000745	108437504	79835136	25958472	24992
41	31.25775	108437504	79835136	20120440	24992
42	31.389194	108437504	79835136	14938784	24992
43	32.302883	108437504	79835136	26872456	24992
44	32.750185	108437504	79835136	23013968	24992
45	34.1816	108437504	79835136	19817040	24992
46	34.244907	108437504	79835136	17275608	24992
47	35.303936	108437504	79835136	15397408	24992
48	36.216191	108437504	79835136	14178696	24992
49	37.347586	108437504	79835136	13620488	24992
50	37.691142	108437504	79835136	13726024	24992
51	38.502756	108437504	79835136	14486912	24992
52	0.807394	108437504	79835136	15736672	24992
53	1.509717	108437504	79835136	17074520	24992
54	2.244896	108437504	79835136	19071744	24992
55	2.991536	108437504	79835136	21728376	24992
56	3.702624	108437504	79835136	25044936	24992
57	4.614897	108437504	79835136	29020888	24992
58	5.565945	108437504	79835136	17187728	24992
59	6.211048	108437504	79835136	22482552	24992
60	6.542244	108437504	79835136	28437688	24992
61	7.783568	108437504	79835136	18592440	24992
62	7.993696	108437504	79835136	25866576	24992
63	9.426502	108437504	79835136	17332448	24992
64	9.758242	108437504	79835136	25925208	24992
65	10.461178	108437504	79835136	18709280	24992
66	11.264876	108437504	79835136	28620888	24992
67	12.208738	108437504	79835136	22726096	24992
68	12.893608	108437504	79835136	17490096	24992
69	13.723301	108437504	79835136	12909832	24992
70	14.011297	108437504	79835136	25461208	24992
71	15.439458	108437504	79835136	22208664	24992
72	15.520773	108437504	79835136	19615696	24992
73	16.431304	108437504	79835136	17676520	24992
74	17.352174	108437504	79835136	16398640	24992
75	17.938291	108437504	79835136	15781184	24992
76	18.982425	108437504	79835136	15824144	24992
77	19.543618	108437504	79835136	16527512	24992
78	20.226612	108437504	79835136	17891280	24992
79	21.204281	108437504	79835136	19915456	24992
80	22.335492	108437504	79835136	22599296	24992
81	22.319377	108437504	79835136	25945056	24992
82	23.424783	108437504	79835136	13481000	24992
83	24.896379	108437504	79835136	18150864	24992
84	24.95331	108437504	79835136	23499840	24992
85	25.097751	108437504	79835136	29527520	24992
86	26.259553	108437504	79835136	19743056	24992
87	26.987778	108437504	79835136	27079344	24992
88	28.379646	108437504	79835136	18640224	24992
89	28.368449	108437504	79835136	27283600	24992
90	29.277259	108437504	79835136	20173216	24992
91	29.817283	108437504	79835136	30137216	24992
92	30.586383	108437504	79835136	24303312	24992
93	31.816865	108437504	79835136	19178448	24992
94	32.226797	108437504	79835136	14684264	24992
95	32.996849	108437504	79835136	27291016	24992
96	34.141952	108437504	79835136	24151816	24992
97	34.582991	108437504	79835136	21645072	24992
98	35.245784	108437504	79835136	19796264	24992
99	36.347819	108437504	79835136	18608936	24992
100	36.617491	108437504	79835136	18083880	24992
101	37.844912	108437504	79835136	18221152	24992
102	0.808642	108437504	79835136	18828808	24992
103	1.506289	108437504	79835136	20166552	24992
104	2.222404	108437504	79835136	22163704	24992
105	2.934323	108437504	79835136	24820264	24992
106	3.712749	108437504	79835136	28136752	24992
107	5.10811	108437504	79835136	15659864	24992
108	5.533647	108437504	79835136	20295144	24992
109	6.12762	108437504	79835136	25589832	24992
110	7.567423	108437504	79835136	15120504	24992
111	7.464518	108437504	79835136	21734984	24992
112	8.048139	108437504	79835136	29008952	24992
113	9.447504	108437504	79835136	20522696	24992
114	9.672917	108437504	79835136	29115352	24992
115	10.898109	108437504	79835136	21948696	24992
116	11.602339	108437504	79835136	15418424	24992
117	11.836429	108437504	79835136	25989304	24992
118	13.060754	108437504	79835136	20785704	24992
119	13.93829	108437504	79835136	16245080	24992
120	14.051189	108437504	79835136	28796376	24992
121	15.254717	108437504	79835136	25580632	24992
122	15.947149	108437504	79835136	23027992	24992
123	16.676336	108437504	79835136	21114696	24992
124	17.513115	108437504	79835136	19862888	24992
125	18.434165	108437504	79835136	19273520	24992
126	19.123809	108437504	79835136	19345656	24992
127	19.694345	108437504	79835136	20079336	24992
128	20.807141	108437504	79835136	21474584	24992
129	21.227257	108437504	79835136	23530496	24992
130	21.792114	108437504	79835136	26247912	24992
131	22.551304	108437504	79835136	29626504	24992
132	24.056078	108437504	79835136	17209576	24992
133	24.505186	108437504	79835136	21883320	24992
134	24.920541	108437504	79835136	27249160	24992
135	26.77856	108437504	79835136	16824184	24992
136	27.029718	108437504	79835136	23488688	24992
137	28.152731	108437504	79835136	30840344	24992
138	29.380655	108437504	79835136	22400912	24992
139	28.417552	108437504	79835136	31043904	24992
140	30.054043	108437504	79835136	23933696	24992
141	31.772021	108437504	79835136	17457280	24992
142	31.142827	108437504	79835136	28086128	24992
143	32.131716	108437504	79835136	22961536	24992
144	33.300192	108437504	79835136	18469992	24992
145	32.911902	108437504	79835136	31076744	24992
146	34.681018	108437504	79835136	27941600	24992
147	35.060498	108437504	79835136	25433816	24992
148	36.295688	108437504	79835136	23586928	24992
149	36.626354	108437504	79835136	22399616	24992
150	37.883429	108437504	79835136	21873776	24992
151	38.505362	108437504	79835136	22010888	24992
152	0.80171	108437504	79835136	22618432	24992
153	1.504311	108437504	79835136	23956176	24992
154	2.26518	108437504	79835136	25953328	24992
155	2.922323	108437504	79835136	28609888	24992
156	3.827728	108437504	79835136	31926360	24992
157	5.490291	108437504	79835136	19449424	24992
158	5.145982	108437504	79835136	24084784	24992
159	5.816404	108437504	79835136	29379744	24992
160	7.488792	108437504	79835136	18910264	24992
161	7.472692	108437504	79835136	25524816	24992
162	8.332806	108437504	79835136	32798672	24992
163	9.92711	108437504	79835136	24311728	24992
164	9.531112	108437504	79835136	32904384	24992
165	11.255053	108437504	79835136	25737104	24992
166	12.164175	108437504	79835136	19206848	24992
167	11.878811	108437504	79835136	29777744	24992
168	13.313294	108437504	79835136	24574144	24992
169	14.976017	108437504	79835136	20041816	24992
170	14.062993	108437504	79835136	32593128	24992
171	15.64666	108437504	79835136	29377432	24992
172	16.337027	108437504	79835136	26824504	24992
173	17.069495	108437504	79835136	24911256	24992
174	17.999721	108437504	79835136	23659432	24992
175	18.624079	108437504	79835136	23069136	24992
176	19.314912	108437504	79835136	23140888	24992
177	20.046986	108437504	79835136	23874136	24992
178	28.471022	108437504	79835136	25268456	24992
179	36.399641	108437504	79835136	27324352	24992
180	37.614184	108437504	79835136	30041752	24992
181	38.914941	108437504	79835136	33420248	24992
182	27.306544	108437504	79835136	21002696	24992
183	24.740565	108437504	79835136	25676504	24992
184	25.362096	108437504	79835136	31042424	24992
185	26.92061	108437504	79835136	20615776	24992
186	26.789417	108437504	79835136	27277728	24992
187	28.685698	108437504	79835136	18182248	24992
188	28.657498	108437504	79835136	26165224	24992
189	30.406829	108437504	79835136	18390976	24992
190	29.534086	108437504	79835136	27694944	24992
191	31.753809	108437504	79835136	21245640	24992
192	31.289977	108437504	79835136	31870840	24992
193	33.025473	108437504	79835136	26744288	24992
194	33.601518	108437504	79835136	22252744	24992
195	33.398776	108437504	79835136	34859656	24992
196	35.319754	108437504	79835136	31691504	24992
197	35.826767	108437504	79835136	29200640	24992
198	36.814857	108437504	79835136	27355528	24992
199	38.498784	108437504	79835136	26176272	24992
200	38.330594	108437504	79835136	25651096	24992
201	39.309144	108707840	79835136	25788248	24992
202	0.800112	108707840	79835136	26395880	24992
203	1.516967	108707840	79835136	27733624	24992
204	2.21153	108707840	79835136	29730776	24992
205	3.000519	108707840	79835136	32387336	24992
206	3.714928	108707840	79835136	35703808	24992
207	5.700435	108707840	79835136	23221752	24992
208	5.295627	108707840	79835136	27857032	24992
209	5.808441	108707840	79835136	33151720	24992
210	8.173212	108707840	79835136	22682088	24992
211	7.456069	108707840	79835136	29296544	24992
212	9.313247	108707840	79835136	20138632	24992
213	8.899921	108707840	79835136	28071896	24992
214	10.827049	108707840	79835136	20229440	24992
215	10.34233	108707840	79835136	29481664	24992
216	12.464163	108707840	79835136	22966408	24992
217	11.787008	108707840	79835136	33537304	24992
218	14.130857	108978176	79835136	28350520	24992
219	15.355224	108978176	79835136	23809864	24992
220	15.927774	108978176	79835136	19912760	24992
221	14.643153	108978176	79835136	33123512	24992
222	16.834946	108978176	79835136	30570432	24992
223	17.466579	108978176	79835136	28680296	24992
224	18.247173	108978176	79835136	27428520	24992
225	19.393159	108978176	79835136	26838240	24992
226	19.905807	108978176	79835136	26909672	24992
227	20.507227	108978176	79835136	27642520	24992
228	21.511782	108978176	79835136	29036840	24992
229	22.300015	109248512	79835136	31098688	24992
230	23.248026	109248512	79835136	33818744	24992
231	24.944878	109248512	79835136	20739520	24992
232	24.774333	109248512	79835136	24749952	24992
233	25.721349	109248512	79835136	29456128	24992
234	26.018304	109248512	79835136	34828072	24992
235	28.015629	109248512	79835136	24408880	24992
236	27.603419	109248512	79835136	31071248	24992
237	29.582432	109518848	79835136	21983400	24992
238	28.792969	109518848	79835136	29966600	24992
239	31.030292	109518848	79835136	22200544	24992
240	30.696923	109518848	79835136	31504816	24992
241	32.430271	109518848	79835136	25063528	24992
242	31.972736	109518848	79835136	35689064	24992
243	33.809829	109789184	79835136	30571328	24992
244	35.242769	109789184	79835136	26080304	24992
245	35.351808	109789184	79835136	22247304	24992
246	35.079459	109789184	79835136	35514808	24992
247	37.267826	110059520	79835136	33047472	24992
248	37.971718	110059520	79835136	31200944	24992
249	38.451243	110059520	79835136	30017992	24992
250	39.437829	110059520	79835136	29492944	24992
251	40.432835	110329856	79835136	29630240	24992
252	0.804819	110329856	79835136	30238080	24992
253	1.561846	110329856	79835136	31575824	24992
254	2.219206	110329856	79835136	33572976	24992
255	2.981004	110329856	79835136	36229536	24992
256	5.909692	110329856	79835136	23084552	24992
257	4.458412	110329856	79835136	27060432	24992
258	5.142692	110329856	79835136	31695712	24992
259	5.806387	110329856	79835136	36990400	24992
260	8.306679	110329856	79835136	26520840	24992
261	7.249439	110329856	79835136	33135296	24992
262	9.987361	110329856	79835136	23983504	24992
263	8.803115	110329856	79835136	31916768	24992
264	11.482465	110329856	79835136	24074376	24992
265	10.356195	110329856	79835136	33326440	24992
266	12.700588	110329856	79835136	26810736	24992
267	11.792069	110329856	79835136	37381648	24992
268	14.257723	110329856	79835136	32194864	24992
269	14.899347	110329856	79835136	27654320	24992
270	15.966249	110329856	79835136	23756768	24992
271	14.905787	110329856	79835136	36967472	24992
272	17.334137	110329856	79835136	34414296	24992
273	18.210109	110600192	80359424	32523984	24992
274	19.607842	110600192	80359424	31271920	24992
275	20.437427	110600192	80359424	30681656	24992
276	21.0384	110600192	80359424	30752944	24992
277	21.543824	110600192	80359424	31485760	24992
278	21.720986	110600192	80359424	32880112	24992
279	22.309978	110600192	80359424	34935784	24992
280	23.194141	110600192	80359424	37652768	24992
281	26.155496	110870528	80359424	24573240	24992
282	24.695926	110870528	80359424	28583656	24992
283	25.309447	110870528	80359424	33289128	24992
284	26.051599	110870528	80359424	38660848	24992
285	28.818731	110870528	80359424	28238112	24992
286	27.955152	110870528	80359424	34897672	24992
287	30.410692	110870528	80359424	25803904	24992
288	29.407001	110870528	80359424	33787184	24992
289	31.814054	110870528	80359424	26024344	24992
290	30.513436	110870528	80359424	35329176	24992
291	33.55236	111140864	80359424	28886368	24992
292	32.28329	111140864	80359424	39511056	24992
293	34.70443	111140864	80359424	34358688	24992
294	35.315033	111140864	80359424	29891304	24992
295	36.424055	111411200	80359424	26059792	24992
296	35.404445	111411200	80359424	39327344	24992
297	39.599215	111411200	80359424	36870008	24992
298	39.390793	111411200	80359424	35025080	24992
299	39.436606	111681536	80359424	33840672	24992
300	40.041544	111681536	80359424	33317160	24992
301	40.656152	111681536	80359424	33454280	24992
302	0.807074	111681536	80359424	34061976	24992
303	1.560828	111681536	80359424	35399720	24992
304	2.215922	111681536	80359424	37396952	24992
305	2.977759	111681536	80359424	40053632	24992
306	5.767043	111681536	80359424	26905680	24992
307	4.477967	111681536	80359424	30881560	24992
308	5.134671	111681536	80359424	35516840	24992
309	7.952181	111681536	80359424	24371536	24992
310	6.69165	111681536	80359424	30326584	24992
311	7.391386	111681536	80359424	36941040	24992
312	10.421606	111681536	80359424	27787432	24992
313	9.818124	111681536	80359424	35730808	24992
314	11.62087	111951872	80359424	27897688	24992
315	10.413783	111951872	80359424	37149752	24992
316	13.278784	111951872	80359424	30632528	24992
317	13.966795	111951872	80359424	24763424	24992
318	12.666228	111951872	80359424	35995584	24992
319	15.405526	111951872	80359424	31453176	24992
320	16.411718	111951872	80359424	27574104	24992
321	14.545034	111951872	80359424	40784808	24992
322	17.990876	111951872	80359424	38217000	24992
323	18.824889	111951872	80359424	36324992	24992
324	19.495001	111951872	80359424	35083432	24992
325	19.858042	111951872	80359424	34491992	24992
326	20.931011	111951872	80359424	34562296	24992
327	21.811513	112222208	80359424	35294144	24992
328	21.983566	112222208	80359424	36687592	24992
329	22.859824	112222208	80359424	38742072	24992
330	25.710167	112222208	80359424	24998632	24992
331	24.725927	112222208	80359424	28348056	24992
332	25.029346	112222208	80359424	32388712	24992
333	25.770155	112222208	80359424	37092792	24992
334	29.813172	112222208	80359424	26018936	24992
335	27.450532	112222208	80359424	32020176	24992
336	28.242743	112222208	80359424	38719032	24992
337	31.054839	112222208	80359424	29623864	24992
338	29.957765	112222208	80359424	37606920	24992
339	32.613905	112222208	80359424	29841376	24992
340	31.195969	112222208	80359424	39145488	24992
341	34.151963	112222208	80359424	32705032	24992
342	35.146223	112222208	80359424	26890000	24992
343	33.119138	112222208	80359424	38175696	24992
344	36.70584	112222208	80359424	33719600	24992
345	37.62924	112222208	80359424	29889400	24992
346	38.257611	112222208	80359424	26717648	24992
347	36.220708	112222208	80359424	40645328	24992
348	39.51778	112222208	80359424	38839648	24992
349	39.93694	112492544	80359424	37653992	24992
350	41.306201	112492544	80359424	37131280	24992
351	41.61028	112492544	80359424	37269584	24992
352	0.807765	112492544	80359424	37876976	24992
353	1.516113	112492544	80359424	39214720	24992
354	2.214613	112492544	80359424	41211872	24992
355	5.76245	112492544	80359424	27397024	24992
356	3.730434	112492544	80359424	30713496	24992
357	4.607126	112492544	80359424	34689376	24992
358	5.270916	112492544	80359424	39324704	24992
359	8.376314	112492544	80359424	28178304	24992
360	6.803313	112492544	80359424	34137800	24992
361	7.453544	112492544	80359424	40752288	24992
362	10.67328	112492544	80359424	31607856	24992
363	8.711148	112492544	80359424	39541136	24992
364	12.331168	112492544	80359424	31711216	24992
365	10.468596	112492544	80359424	40963296	24992
366	13.644251	112492544	80359424	34444776	24992
367	14.519779	112492544	80359424	28575152	24992
368	12.502808	112492544	80359424	39807304	24992
369	15.886289	112492544	80359424	35264160	24992
370	16.51694	112492544	80359424	31384544	24992
371	17.392964	112492544	80359424	28147792	24992
372	15.412982	112492544	80359424	42017952	24992
373	18.980917	112492544	80359424	40125424	24992
374	19.68748	112492544	80359424	38895664	24992
375	20.412739	112492544	80359424	38303616	24992
376	21.502544	112492544	80359424	38373928	24992
377	21.387774	112492544	80359424	39104968	24992
378	22.467056	112492544	80359424	40497552	24992
379	23.14357	112492544	80359424	42551584	24992
380	26.48469	112492544	80359424	28807472	24992
381	24.858586	112492544	80359424	32156704	24992
382	25.676525	112492544	80359424	36197184	24992
383	26.304277	112492544	80359424	40900896	24992
384	29.389105	112492544	80359424	29817616	24992
385	27.792858	112492544	80359424	35818984	24992
386	28.56114	112492544	80359424	42517856	24992
387	31.82354	112492544	80359424	33422704	24992
388	30.152848	112492544	80359424	41404960	24992
389	33.541722	112492544	80359424	33639368	24992
390	31.300062	112492544	80359424	42942696	24992
391	34.87631	112492544	80359424	36502416	24992
392	35.5625	112492544	80359424	30687384	24992
393	33.28008	112492544	80359424	41973032	24992
394	36.767035	112492544	80359424	37516888	24992
395	37.490642	112492544	80359424	33686896	24992
396	38.825316	112492544	80359424	30514840	24992
397	36.400546	112762880	80359424	44442680	24992
398	39.777887	112762880	80359424	42616888	24992
399	40.729072	112762880	80359424	41440528	24992
400	41.161427	112762880	80359424	40916760	24992
401	42.121134	112762880	80359424	41055224	24992
402	0.811453	112762880	80359424	41664744	24992
403	1.574794	112762880	80359424	43002488	24992
404	2.23185	112762880	80359424	44999640	24992
405	5.808684	112762880	80359424	31184184	24992
406	3.701961	112762880	80359424	34500656	24992
407	4.677512	112762880	80359424	38476584	24992
408	5.489778	112762880	80359424	43111864	24992
409	9.062828	112762880	80359424	31968904	24992
410	6.866716	112762880	80359424	37924000	24992
411	7.253154	112762880	80359424	44538456	24992
412	10.923915	112762880	80359424	35389576	24992
413	8.718241	112762880	80359424	43322840	24992
414	12.597194	112762880	80359424	35488280	24992
415	10.337344	112762880	80359424	44740360	24992
416	14.046853	112762880	80359424	38221168	24992
417	14.899413	112762880	80359424	32351608	24992
418	12.534181	112762880	80359424	43583744	24992
419	16.198164	112762880	80359424	39040664	24992
420	16.970473	112762880	80359424	35161000	24992
421	17.609116	112762880	80359424	31923288	24992
422	18.3638	112762880	80359424	29347976	24992
423	16.10741	112762880	80359424	43877496	24992
424	20.127511	112762880	80359424	42647536	24992
425	20.835841	112762880	80359424	42080312	24992
426	21.25109	112762880	80359424	42149832	24992
427	21.941068	112762880	80359424	42880880	24992
428	23.345999	112762880	80359424	44273352	24992
429	26.613643	112762880	80359424	29866672	24992
430	24.704036	112762880	80359424	32555392	24992
431	25.265244	112762880	80359424	35934176	24992
432	26.043479	112762880	80359424	39973384	24992
433	26.453603	112762880	80359424	44676920	24992
434	30.520586	112762880	80359424	33593656	24992
435	28.267881	112762880	80359424	39595088	24992
436	29.02999	112762880	80359424	46294232	24992
437	32.859349	112762880	80359424	37161800	24992
438	30.133454	112762880	80359424	45172616	24992
439	34.494462	112762880	80359424	37403056	24992
440	34.629403	112762880	80359424	30264736	24992
441	32.3697	112762880	80359424	40229344	24992
442	36.278886	112762880	80359424	34450160	24992
443	33.865275	112762880	80359424	45736000	24992
444	37.619965	112762880	80359424	41279184	24992
445	38.334304	112762880	80359424	37448920	24992
446	39.272362	112762880	80359424	34276528	24992
447	40.049825	112762880	80359424	31766384	24992
448	37.645142	112762880	80359424	46354688	24992
449	41.994838	112762880	80359424	45211016	24992
450	42.652232	112762880	80359424	44687056	24992
451	43.714662	112762880	80359424	44825408	24992
452	0.80781	112762880	80359424	45434736	24992
453	1.498213	112762880	80359424	46772480	24992
454	5.479839	112762880	80359424	32292352	24992
455	2.983516	112762880	80359424	34948912	24992
456	3.739916	112762880	80359424	38265384	24992
457	4.404846	112762880	80359424	42241264	24992
458	5.301491	112762880	80359424	46876544	24992
459	9.151081	112762880	80359424	35733648	24992
460	6.787969	112762880	80359424	41688712	24992
461	10.760575	112762880	80359424	31873712	24992
462	7.98815	112762880	80359424	39147568	24992
463	8.722978	112762880	80359424	47080832	24992
464	12.969433	112762880	80359424	39245600	24992
465	13.835563	112762880	80359424	32064104	24992
466	10.872714	112762880	80359424	41975576	24992
467	15.397175	112762880	80359424	36105904	24992
468	12.529108	112762880	80359424	47338040	24992
469	16.388297	112762880	80359424	42811712	24992
470	17.536237	112762880	80359424	38931680	24992
471	18.015487	112762880	80359424	35694200	24992
472	18.940951	112762880	80359424	33118880	24992
473	16.385255	112762880	80359424	47648432	24992
474	20.230121	112762880	80359424	46417800	24992
475	20.854373	112762880	80359424	45850464	24992
476	21.941781	112762880	80359424	45919888	24992
477	22.457996	112762880	80359424	46650712	24992
478	23.50411	112762880	80359424	48043072	24992
479	27.501197	112762880	80359424	33627760	24992
480	24.891456	112762880	80359424	36321640	24992
481	25.638068	112762880	80359424	39700424	24992
482	26.526121	112762880	80359424	43739648	24992
483	27.240389	112762880	80359424	48442992	24992
484	31.390947	112762880	80359424	37337184	24992
485	28.764426	112762880	80359424	43356232	24992
486	33.027252	112762880	80359424	33600648	24992
487	29.984729	112762880	80359424	40923000	24992
488	34.673777	112762880	80359424	32493208	24992
489	31.170465	112762880	80359424	41136584	24992
490	35.513298	112762880	80359424	34032120	24992
491	32.874858	112762880	80359424	43996632	24992
492	36.846399	112762880	80359424	38216136	24992
493	37.597337	112762880	80359424	33061112	24992
494	35.212735	112762880	80359424	45007192	24992
495	39.195444	112762880	80359424	41213776	24992
496	40.36649	112762880	80359424	38045240	24992
497	40.707716	112762880	80359424	35534776	24992
498	41.676504	112762880	80359424	33686088	24992
499	38.842751	112762880	80359424	48934936	24992
500	42.98214	112762880	80359424	48453928	24992
501	43.782866	112762880	80359424	48592440	24992
502	0.819832	112762880	80359424	49201832	24992
503	5.172208	112762880	80359424	34057424	24992
504	2.325231	112762880	80359424	36054680	24992
505	2.926484	112762880	80359424	38711240	24992
506	3.705022	112762880	80359424	42027728	24992
507	4.401506	112762880	80359424	46003608	24992
508	8.853305	112762880	80359424	34191416	24992
509	5.838076	112762880	80359424	39486104	24992
510	6.536364	112762880	80359424	45441152	24992
511	11.264506	112762880	80359424	35630632	24992
512	7.997634	112762880	80359424	42904536	24992
513	12.420833	112762880	80359424	34405960	24992
514	9.421943	112762880	80359424	42998616	24992
515	13.888696	112762880	80359424	35817112	24992
516	10.856717	112762880	80359424	45728632	24992
517	15.35167	112762880	80359424	39873976	24992
518	16.084429	112762880	80359424	34668800	24992
519	13.13267	112762880	80359424	46560568	24992
520	17.465924	112762880	80359424	42680496	24992
521	18.434644	112762880	80359424	39463432	24992
522	19.085438	112762880	80359424	36887672	24992
523	20.176933	112762880	80359424	34973904	24992
524	16.999413	112762880	80359424	50162832	24992
525	21.629904	112762880	80359424	49594104	24992
526	22.052395	112762880	80359424	49688656	24992
527	23.181593	112762880	80359424	50419728	24992
528	27.841861	112762880	80359424	35339008	24992
529	24.597154	112762880	80359424	37375344	24992
530	25.275356	112762880	80359424	40092568	24992
531	25.709507	112762880	80359424	43470336	24992
532	26.853819	112762880	80359424	47509576	24992
533	31.418059	112762880	80359424	35756760	24992
534	27.845163	112762880	80359424	41095856	24992
535	29.097073	112762880	80359424	47129800	24992
536	33.660151	112762880	80359424	37372224	24992
537	30.462199	112762880	80359424	44694624	24992
538	35.380698	112762880	80359424	36268624	24992
539	31.790507	112762880	80359424	44912048	24992
540	36.59262	112762880	80359424	37807776	24992
541	33.493367	112762880	80359424	47772400	24992
542	37.664979	112762880	80359424	41991104	24992
543	39.031271	112762880	80359424	36837584	24992
544	35.608121	112762880	80359424	48783696	24992
545	40.080019	112762880	80359424	44990120	24992
546	41.100418	112762880	80359424	41821744	24992
547	41.749339	112762880	80359424	39310944	24992
548	42.602784	112762880	80359424	37462432	24992
549	43.301353	112762880	80359424	36275336	24992
550	40.256108	112762880	80359424	52184600	24992
551	49.010092	112762880	80359424	35874528	24992
552	5.075258	112762880	80359424	36483560	24992
553	1.582162	112762880	80359424	37821304	24992
554	2.248186	112762880	80359424	39818456	24992
555	3.01723	112762880	80359424	42475016	24992
556	3.743875	112762880	80359424	45798288	24992
557	4.698179	112762880	80359424	49774168	24992
558	10.636862	112762880	80359424	37965312	24992
559	11.182405	112762880	80359424	43260000	24992
560	11.981627	109703168	77213696	15636584	24992
561	7.343395	109703168	77213696	22251840	24992
562	8.495768	109703168	77213696	13047808	24992
563	8.796063	109703168	77213696	20981072	24992
564	9.90637	109703168	77213696	13104496	24992
565	10.439615	109703168	77213696	22356560	24992
566	11.292752	109703168	77213696	15801592	24992
567	12.015197	109703168	77213696	26372632	24992
568	12.838733	109703168	77213696	21140952	24992
569	13.571418	109703168	77213696	16565384	24992
570	14.111848	109703168	77213696	12645696	24992
571	14.766757	109703168	77213696	25856400	24992
572	15.690129	109703168	77213696	23262528	24992
573	16.438498	109703168	77213696	21329560	24992
574	17.127924	109703168	77213696	20050576	24992
575	18.081401	109703168	77213696	19432048	24992
576	18.670182	109703168	77213696	19474000	24992
577	19.407235	109703168	77213696	20176280	24992
578	20.249994	109703168	77213696	21538944	24992
579	20.71393	109703168	77213696	23562128	24992
580	21.919907	109703168	77213696	26245216	24992
581	22.945919	109703168	77213696	13119176	24992
582	23.426879	109703168	77213696	17117752	24992
583	24.037754	109703168	77213696	21785984	24992
584	24.823265	109703168	77213696	27118472	24992
585	26.097364	109703168	77213696	16643704	24992
586	26.314316	109703168	77213696	23292312	24992
587	27.262622	109703168	77213696	14145624	24992
588	27.667221	109703168	77213696	22114464	24992
589	28.773557	109703168	77213696	14289224	24992
590	29.067556	109703168	77213696	23578472	24992
591	30.295638	109703168	77213696	17072744	24992
592	30.936588	109703168	77213696	27682016	24992
593	31.686887	109703168	77213696	22498728	24992
594	32.38302	109973504	78262272	17974448	24992
595	33.06309	109973504	79310848	14107184	24992
596	33.590858	109973504	79835136	27357440	24992
597	34.330224	109973504	80883712	24817520	24992
598	35.360827	110243840	81932288	22935144	24992
599	35.737403	110243840	82980864	21715528	24992
600	36.425894	110243840	84029440	21153160	24992
601	37.037729	110243840	85078016	21252480	24992
602	0.829069	110243840	86126592	21844600	24992
603	1.512952	110243840	86126592	23182344	24992
604	2.271342	110243840	86126592	25179496	24992
605	3.102149	110243840	86126592	27836056	24992
606	4.282882	110514176	86650880	14677248	24992
607	4.488376	110514176	86650880	18653128	24992
608	5.137504	110514176	86650880	23288408	24992
609	5.863088	110514176	86650880	28583096	24992
610	6.864512	110514176	87175168	18073560	24992
611	7.291871	110514176	87175168	24688016	24992
612	8.406327	110514176	87699456	15495520	24992
613	9.131859	110514176	87699456	23428784	24992
614	9.777295	110514176	88223744	15552104	24992
615	10.367111	110514176	88223744	24804168	24992
616	11.404421	110514176	88748032	18248976	24992
617	12.159221	110514176	88748032	28819856	24992
618	12.985854	110514176	89272320	23587552	24992
619	13.621693	110514176	89796608	19011840	24992
620	14.352932	110514176	90320896	15091272	24992
621	14.77728	110514176	90320896	28301976	24992
622	15.884196	110514176	90845184	25708120	24992
623	16.665248	110514176	91369472	23775184	24992
624	17.509871	110514176	91893760	22496008	24992
625	18.456042	110514176	91893760	21878912	24992
626	19.148345	110514176	91893760	21920768	24992
627	19.431106	110514176	91893760	22626400	24992
628	20.283996	110514176	91893760	23989400	24992
629	20.768132	110514176	91893760	26012264	24992
630	21.638989	110784512	91893760	28695144	24992
631	22.713109	110784512	91893760	15568464	24992
632	23.122842	110784512	91893760	19567152	24992
633	24.303988	110784512	91893760	24235112	24992
634	24.713707	110784512	91893760	29567120	24992
635	25.46653	110784512	91893760	19076432	24992
636	26.596563	110784512	91893760	25735600	24992
637	28.194652	110784512	91893760	16593488	24992
638	27.644309	110784512	91893760	24577008	24992
639	29.012992	110784512	91893760	16805144	24992
640	29.091572	110784512	91893760	26109264	24992
641	30.179414	111054848	91893760	19659696	24992
642	31.13232	111054848	91893760	13844672	24992
643	31.369286	111054848	91893760	25130288	24992
644	32.766436	111054848	91893760	20667184	24992
645	33.400337	111054848	91893760	16835248	24992
646	33.558718	111054848	91893760	30102624	24992
647	34.721525	111325184	91893760	27607384	24992
648	36.035222	111325184	91893760	25768240	24992
649	36.125991	111325184	91893760	24583648	24992
650	37.068124	111325184	91893760	24059888	24992
651	38.001714	111595520	91893760	24196856	24992
652	0.805952	111595520	91893760	24804208	24992
653	1.506277	111595520	91893760	26141936	24992
654	2.274107	111595520	91893760	28139072	24992
655	3.128586	111595520	91893760	30795616	24992
656	4.303324	111595520	91893760	17650040	24992
657	4.577248	111595520	91893760	21625936	24992
658	5.289686	111595520	91893760	26261200	24992
659	6.325761	111595520	91893760	15119656	24992
660	6.877898	111595520	91893760	21074728	24992
661	7.548085	111595520	91893760	27689168	24992
662	8.561181	111595520	91893760	18537360	24992
663	8.893526	111595520	91893760	26470608	24992
664	10.011655	111595520	91893760	18638856	24992
665	10.345032	111595520	91893760	27891160	24992
666	11.761871	111595520	91893760	21375328	24992
667	12.344307	111595520	91893760	15507640	24992
668	12.347086	111595520	91893760	26739760	24992
669	13.835846	111865856	91893760	22198640	24992
670	14.530628	111865856	91893760	18320912	24992
671	15.156582	111865856	91893760	15085352	24992
672	15.604526	111865856	91893760	28955448	24992
673	16.711547	111865856	91893760	27064848	24992
674	18.052882	111865856	91893760	25837088	24992
675	18.532349	111865856	91893760	25246616	24992
676	19.595418	111865856	91893760	25317872	24992
677	19.598165	111865856	91893760	26050688	24992
678	20.304384	111865856	91893760	27444768	24992
679	21.371457	112136192	91893760	29500456	24992
680	22.800029	112136192	91893760	15758280	24992
681	22.921353	112136192	91893760	19108120	24992
682	23.352913	112136192	91893760	23149808	24992
683	24.29677	112136192	91893760	27854600	24992
684	25.629359	112136192	91893760	16765864	24992
685	25.585578	112136192	91893760	22767296	24992
686	27.250088	112136192	91893760	29459888	24992
687	28.04012	112406528	91893760	20357920	24992
688	28.195362	112406528	91893760	28341944	24992
689	29.348847	112406528	91893760	20569264	24992
690	29.618984	112406528	91893760	29873440	24992
691	30.776223	112406528	91893760	23425704	24992
692	32.147911	112676864	91893760	17610824	24992
693	31.595049	112676864	91893760	28896536	24992
694	33.270725	112676864	91893760	24432424	24992
695	34.157789	112676864	91893760	20602504	24992
696	34.402738	112676864	91893760	17431000	24992
697	34.491042	112676864	91893760	31358856	24992
698	36.446127	112947200	91893760	29548544	24992
699	36.806202	112947200	91893760	28363184	24992
700	37.555282	112947200	91893760	27839408	24992
701	38.216542	112947200	91893760	27978872	24992
702	0.819074	113217536	91893760	28587872	24992
703	1.528107	113217536	91893760	29925600	24992
704	2.297017	113217536	91893760	31922736	24992
705	3.906393	113217536	91893760	18110304	24992
706	3.705735	113217536	91893760	21426760	24992
707	4.419604	113217536	91893760	25402624	24992
708	5.318763	113217536	91893760	30037888	24992
709	6.74506	113217536	91893760	18896416	24992
710	6.786287	113217536	91893760	24851496	24992
711	7.232127	113217536	91893760	31465936	24992
712	9.21537	113217536	91893760	22321568	24992
713	8.949828	113217536	91893760	30254816	24992
714	10.793078	113217536	91893760	22423576	24992
715	10.151844	113217536	91893760	31675624	24992
716	12.016373	113217536	91893760	25159680	24992
717	12.694214	113217536	91893760	19291976	24992
718	12.365896	113217536	91893760	30524096	24992
719	14.261306	113217536	91893760	25982968	24992
720	14.870148	113217536	91893760	22105248	24992
721	15.605249	113487872	91893760	18869672	24992
722	15.396894	113487872	91893760	32739768	24992
723	17.054235	113487872	91893760	30849200	24992
724	18.587324	113487872	91893760	29630632	24992
725	18.560247	113487872	91893760	29039936	24992
726	19.210951	113487872	91893760	29110840	24992
727	19.920343	113487872	91893760	29843256	24992
728	20.713662	113487872	91893760	31237160	24992
729	21.556731	113487872	91893760	33292384	24992
730	23.318196	113758208	91893760	19549568	24992
731	23.336192	113758208	91893760	22899552	24992
732	23.99008	113758208	91893760	26940776	24992
733	24.712763	113758208	91893760	31645664	24992
734	26.689789	113758208	91893760	20556768	24992
735	26.111032	113758208	91893760	26558264	24992
736	27.115784	113758208	91893760	33250344	24992
737	28.363807	114028544	91893760	24148360	24992
738	28.581265	114028544	91893760	32130712	24992
739	30.231897	114028544	91893760	24357856	24992
740	29.74291	114028544	91893760	33661440	24992
741	31.828636	114028544	91893760	27213032	24992
742	32.354078	114028544	91893760	21398264	24992
743	32.745751	114028544	91893760	32684040	24992
744	33.511777	114298880	91893760	28219848	24992
745	34.504709	114298880	91893760	24389992	24992
746	35.299698	114298880	91893760	21217704	24992
747	35.03295	114298880	91893760	35145720	24992
748	36.451977	114298880	91893760	33284760	24992
749	37.409847	114569216	91893760	32123784	24992
750	38.974409	114569216	91893760	31609408	24992
751	38.854626	114569216	91893760	31748480	24992
752	0.806684	114839552	91893760	32358256	24992
753	1.524013	114839552	91893760	33695984	24992
754	2.222006	114839552	91893760	35693136	24992
755	4.127689	114839552	91893760	21878288	24992
756	3.709222	114839552	91893760	25194744	24992
757	4.417348	114839552	91893760	29170608	24992
758	5.445452	114839552	91893760	33805872	24992
759	7.2092	114839552	91893760	22667920	24992
760	6.742995	114839552	91893760	28622952	24992
761	7.453013	114839552	91893760	35237392	24992
762	9.221676	114839552	91893760	26092448	24992
763	8.911117	114839552	91893760	34025696	24992
764	10.660931	114839552	91893760	26194328	24992
765	10.396695	114839552	91893760	35446376	24992
766	12.295561	114839552	91893760	28929744	24992
767	13.088594	114839552	91893760	23062040	24992
768	12.535937	114839552	91893760	34294176	24992
769	14.680286	114839552	91893760	29752928	24992
770	15.311528	115109888	91893760	25875344	24992
771	16.142651	115109888	91893760	22639032	24992
772	16.886257	115109888	91893760	20065016	24992
773	16.104734	115109888	91893760	34594576	24992
774	18.383655	115109888	91893760	33366576	24992
775	18.663771	115109888	91893760	32801160	24992
776	19.867557	115109888	91893760	32871840	24992
777	20.829	115109888	91893760	33604176	24992
778	21.18671	115109888	91893760	34997920	24992
779	23.500532	115380224	91893760	20593208	24992
780	23.016443	115380224	91893760	23282552	24992
781	23.93492	115380224	91893760	26662784	24992
782	24.907285	115380224	91893760	30703392	24992
783	24.825678	115380224	91893760	35408264	24992
784	27.15654	115380224	91893760	24325920	24992
785	26.755441	115380224	91893760	30327672	24992
786	28.885591	115650560	91893760	20577384	24992
787	27.917569	115650560	91893760	27899960	24992
788	28.854206	115650560	91893760	35918824	24992
789	31.04297	115650560	91893760	28149336	24992
790	31.571591	115650560	91893760	21011656	24992
791	31.245181	115650560	91893760	30976424	24992
792	32.834302	115920896	91893760	25198056	24992
793	32.496309	115920896	91893760	36484104	24992
794	34.404863	115920896	91893760	32028216	24992
795	35.41889	115920896	91893760	28197616	24992
796	36.425721	115920896	91893760	25028104	24992
797	36.904723	116191232	91893760	22518552	24992
798	36.364096	116191232	91893760	37107080	24992
799	38.766492	116191232	91893760	35959912	24992
800	39.13043	116191232	91893760	35430808	24992
801	40.254184	116461568	91893760	35569864	24992
802	0.804959	116461568	91893760	36179464	24992
803	1.504138	116461568	91893760	37517192	24992
804	3.887991	116461568	91893760	23038136	24992
805	3.138002	116461568	91893760	25694680	24992
806	3.717065	116461568	91893760	29011136	24992
807	4.45407	116461568	91893760	32987000	24992
808	5.444839	116461568	91893760	37622280	24992
809	7.467165	116461568	91893760	26483712	24992
810	6.708611	116461568	91893760	32438744	24992
811	8.855294	116461568	91893760	22628088	24992
812	8.181629	116461568	91893760	29901976	24992
813	8.878383	116461568	91893760	37835240	24992
814	11.023156	116461568	91893760	30003192	24992
815	11.966445	116461568	91893760	22824280	24992
816	11.070462	116461568	91893760	32735768	24992
817	13.588052	116461568	91893760	26867848	24992
818	12.355701	116461568	91893760	38099984	24992
819	14.883149	116461568	91893760	33576152	24992
820	15.555395	116731904	91893760	29698008	24992
821	16.387765	116731904	91893760	26461568	24992
822	17.08638	116731904	91893760	23887544	24992
823	16.289218	116731904	91893760	38417048	24992
824	18.628031	116731904	91893760	37174120	24992
825	19.867278	116731904	91893760	36608688	24992
826	20.469127	116731904	91893760	36690872	24992
827	20.59513	116731904	91893760	37422968	24992
828	21.654968	116731904	91893760	38816744	24992
829	24.308447	116731904	91893760	24378184	24992
830	23.450106	117002240	91893760	27096296	24992
831	23.611759	117002240	91893760	30476336	24992
832	25.150247	117002240	91893760	34516992	24992
833	27.012148	117002240	91893760	22766240	24992
834	26.496476	117002240	91893760	28105400	24992
835	27.050849	117002240	91893760	34140256	24992
836	29.446961	117272576	91893760	24384536	24992
837	28.504168	117272576	91893760	31707264	24992
838	30.46145	117272576	91893760	23280296	24992
839	29.606015	117272576	91893760	31924024	24992
840	31.965053	117272576	91893760	24820440	24992
841	31.114053	117272576	91893760	34785272	24992
842	33.461815	117542912	91893760	29005816	24992
843	34.45796	117542912	91893760	23850952	24992
844	33.505081	117542912	91893760	35797304	24992
845	36.116429	117542912	91893760	32004800	24992
846	36.46063	117542912	91893760	28836952	24992
847	37.508942	117813248	91893760	26327096	24992
848	38.668649	117813248	91893760	24479112	24992
849	38.085332	117813248	91893760	39741672	24992
850	40.581028	117813248	91893760	39287784	24992
851	39.996185	118083584	91893760	39431736	24992
852	0.806462	118083584	91893760	40040504	24992
853	3.34869	118083584	91893760	24895624	24992
854	2.259545	118083584	91893760	26892760	24992
855	2.986137	118083584	91893760	29549304	24992
856	3.699552	118083584	91893760	32865760	24992
857	4.41404	118083584	91893760	36841624	24992
858	7.277191	118083584	91893760	25030456	24992
859	5.874497	118083584	91893760	30325144	24992
860	6.523003	118083584	91893760	36280176	24992
861	9.277653	118083584	91893760	26471016	24992
862	8.188826	118083584	91893760	33744856	24992
863	10.884895	118083584	91893760	25247112	24992
864	9.613201	118083584	91893760	33839752	24992
865	12.322546	118083584	91893760	26659080	24992
866	10.860494	118083584	91893760	36570552	24992
867	13.790955	118353920	91893760	30716616	24992
868	14.488615	118353920	91893760	25511984	24992
869	13.476622	118353920	91893760	37404488	24992
870	16.084698	118353920	91893760	33524784	24992
871	16.750451	118353920	91893760	30308296	24992
872	17.428826	118353920	91893760	27733000	24992
873	18.099278	118353920	91893760	25819568	24992
874	16.842338	118353920	91893760	41008496	24992
875	19.619119	118353920	91893760	40412936	24992
876	20.637455	118353920	91893760	40508000	24992
877	23.272394	118624256	91893760	24802464	24992
878	21.783416	118624256	91893760	26170320	24992
879	22.698509	118624256	91893760	28226360	24992
880	23.460741	118624256	91893760	30943736	24992
881	24.428347	118624256	91893760	34321808	24992
882	24.904504	118624256	91893760	38361352	24992
883	27.917666	118624256	91893760	26609176	24992
884	26.286003	118624256	91893760	31948272	24992
885	28.139573	118894592	91893760	37990728	24992
886	29.872327	118894592	91893760	28233184	24992
887	28.910591	118894592	91893760	35555648	24992
888	31.416667	118894592	91893760	27129472	24992
889	29.87603	118894592	91893760	35772960	24992
890	32.962586	118894592	91893760	28668272	24992
891	31.833367	119164928	91893760	38632848	24992
892	34.569696	119164928	91893760	32851896	24992
893	34.92211	119164928	91893760	27698512	24992
894	33.895518	119164928	91893760	39644720	24992
895	36.516056	119164928	91893760	35851224	24992
896	37.329209	119435264	91893760	32682832	24992
897	38.525782	119435264	91893760	30172032	24992
898	39.189239	119435264	91893760	28323632	24992
899	39.710464	119435264	91893760	27136488	24992
900	40.35156	119705600	91893760	26610928	24992
901	41.1854	119705600	91893760	26747664	24992
902	0.804812	119705600	91893760	27355360	24992
903	1.512907	119705600	91893760	28693088	24992
904	2.20957	119705600	91893760	30690224	24992
905	2.991012	119705600	91893760	33346768	24992
906	3.704804	119705600	91893760	36663224	24992
907	4.414522	119705600	91893760	40639088	24992
908	7.432032	119705600	91893760	28826720	24992
909	5.847091	119705600	91893760	34121392	24992
910	6.528446	119705600	91893760	40076456	24992
911	9.554199	119705600	91893760	30272688	24992
912	8.000401	119705600	91893760	37546528	24992
913	11.156466	119705600	91893760	29047696	24992
914	9.476363	119705600	91893760	37640368	24992
915	12.424049	119705600	91893760	30458640	24992
916	11.09796	119705600	91893760	40370096	24992
917	14.059712	119705600	91893760	34515216	24992
918	14.645457	119975936	91893760	29310008	24992
919	13.228047	119975936	91893760	41201552	24992
920	16.402135	119975936	91893760	37321208	24992
921	17.454035	119975936	91893760	34103968	24992
922	17.987105	119975936	91893760	31527744	24992
923	18.610062	119975936	91893760	29613960	24992
924	20.116746	119975936	91893760	28361696	24992
925	20.70661	119975936	91893760	27771072	24992
926	21.345368	119975936	91893760	27841936	24992
927	21.636983	119975936	91893760	28574328	24992
928	22.444328	119975936	91893760	29968224	24992
929	22.998258	120246272	91893760	32023744	24992
930	23.498526	120246272	91893760	34740752	24992
931	24.515736	120246272	91893760	38118600	24992
932	25.401837	120246272	91893760	42157552	24992
933	28.222978	120246272	91893760	30404640	24992
934	26.742624	120246272	91893760	35743816	24992
935	27.385718	120246272	91893760	41777856	24992
936	30.448701	120516608	91893760	32020024	24992
937	29.289503	120516608	91893760	39342584	24992
938	31.910341	120516608	91893760	30915256	24992
939	30.550585	120516608	91893760	39558800	24992
940	33.46071	120516608	91893760	32454024	24992
941	31.928294	120516608	91893760	42418840	24992
942	35.221319	120786944	91893760	36641224	24992
943	35.749602	120786944	91893760	31488008	24992
944	34.25435	120786944	91893760	43434168	24992
945	37.372681	120786944	91893760	39639936	24992
946	38.246417	121057280	91893760	36470376	24992
947	38.551718	121057280	91893760	33961656	24992
948	39.876766	121057280	91893760	32112632	24992
949	40.283128	121057280	91893760	30925680	24992
950	40.73372	121057280	91893760	30400216	24992
951	41.741963	121327616	91893760	30537080	24992
952	0.801304	121327616	91893760	31144888	24992
953	1.501136	121327616	91893760	32482616	24992
954	2.232458	121327616	91893760	34479752	24992
955	2.939534	121327616	91893760	37136312	24992
956	3.700183	121327616	91893760	40452768	24992
957	4.449281	121327616	91893760	44428632	24992
958	7.850017	121327616	91893760	32616328	24992
959	5.828994	121327616	91893760	37911000	24992
960	6.71722	121327616	91893760	43866032	24992
961	10.090387	121327616	91893760	34062216	24992
962	7.981377	121327616	91893760	41336056	24992
963	11.521821	121327616	91893760	32837000	24992
964	9.811634	121327616	91893760	41429640	24992
965	12.91563	121327616	91893760	34247672	24992
966	10.876868	121327616	91893760	44159128	24992
967	14.557259	121327616	91893760	38304232	24992
968	15.386602	121327616	91893760	33099040	24992
969	13.158508	121327616	91893760	44990584	24992
970	16.683351	121597952	91893760	41109552	24992
971	17.469168	121597952	91893760	37892024	24992
972	18.157919	121597952	91893760	35315832	24992
973	18.652401	121597952	91893760	33401280	24992
974	19.857569	121597952	91893760	32149064	24992
975	20.400329	121597952	91893760	31558360	24992
976	21.415941	121597952	91893760	31629224	24992
977	21.663242	121597952	91893760	32361616	24992
978	22.615651	121597952	91893760	33755528	24992
979	23.223818	121597952	91893760	35811000	24992
980	24.331746	121868288	91893760	38527112	24992
981	24.781426	121868288	91893760	41904912	24992
982	25.375675	121868288	91893760	45943640	24992
983	29.176154	121868288	91893760	34173176	24992
984	27.088024	121868288	91893760	39526336	24992
985	27.629042	121868288	91893760	45560280	24992
986	31.558646	122138624	91893760	35801824	24992
987	29.230984	122138624	91893760	43123632	24992
988	32.85168	122138624	91893760	34695392	24992
989	30.769638	122138624	91893760	43338992	24992
990	34.415439	122138624	91893760	36236096	24992
991	32.202332	122138624	91893760	46199888	24992
992	35.647959	122408960	91893760	40416208	24992
993	36.628118	122408960	91893760	35258992	24992
994	37.09016	122408960	91893760	30764080	24992
995	35.94865	122408960	91893760	43375416	24992
996	38.977417	122408960	91893760	40244904	24992
997	39.211893	122679296	91893760	37738216	24992
998	40.682567	122679296	91893760	35889160	24992
999	40.656238	122679296	91893760	34701936	24992
1000	41.877525	122679296	91893760	34176568	24992
