x	Duration	RSS	HeapTotal	HeapUsed	External
0	NA	95354880	65155072	10993088	24992
1	0.956788	95354880	65155072	11673200	24992
2	1.610813	95354880	65155072	13011600	24992
3	2.31282	95354880	65155072	15009416	24992
4	3.068404	95354880	65155072	17666720	24992
5	3.814767	95354880	65155072	20984160	24992
6	4.476734	95354880	65155072	24961104	24992
7	5.948542	95354880	65155072	13131488	24992
8	5.848176	95354880	65155072	18427560	24992
9	6.806131	95354880	65155072	24384168	24992
10	7.845551	95354880	65155072	14541128	24992
11	8.132667	95354880	65155072	21816944	24992
12	9.015686	95354880	65155072	13284752	24992
13	10.453359	95354880	65155072	21893544	24992
14	10.752896	95354880	65155072	14680240	24992
15	11.409445	95354880	65155072	24594232	24992
16	12.283841	95354880	65155072	18702768	24992
17	13.115783	95354880	65155072	13469536	24992
18	13.087921	95354880	65155072	25364144	24992
19	14.231842	95354880	65155072	21453000	24992
20	15.061593	95354880	65155072	18204296	24992
21	15.48643	95354880	65155072	15608472	24992
22	16.819432	95354880	65155072	13673760	24992
23	17.187649	95354880	65155072	12404896	24992
24	17.990912	95354880	65155072	11791296	24992
25	18.398064	95354880	65155072	11838280	24992
26	19.536944	95354880	65155072	12546424	24992
27	20.455748	95354880	65155072	13914560	24992
28	21.031754	95354880	65155072	15944496	24992
29	22.081137	95354880	65155072	18633600	24992
30	22.185673	95354880	65155072	21981992	24992
31	22.95302	95354880	65155072	25990768	24992
32	24.080108	95354880	65155072	14195592	24992
33	24.668159	95354880	65155072	19527064	24992
34	25.271315	95354880	65155072	25525264	24992
35	26.80192	95354880	65155072	15721208	24992
36	26.935827	95354880	65155072	23034528	24992
37	27.740074	95354880	65155072	14552064	24992
38	28.26953	95354880	65155072	23184160	24992
39	29.783464	95354880	65155072	16024432	24992
40	29.86804	95354880	65155072	25977168	24992
41	30.86535	95354880	65155072	20138976	24992
42	31.161443	95354880	65155072	14957288	24992
43	32.393032	95354880	65155072	26890768	24992
44	32.585702	95354880	65155072	23032520	24992
45	33.725879	95354880	65155072	19835624	24992
46	34.31539	95354880	65155072	17294288	24992
47	35.758146	95354880	65155072	15426904	24992
48	35.979416	95354880	65155072	14216400	24992
49	36.558229	95354880	65155072	13658176	24992
50	37.006678	95354880	65155072	13761928	24992
51	37.870153	95354880	65155072	14526784	24992
52	0.825921	95354880	65155072	15780704	24992
53	1.501274	95354880	65155072	17118728	24992
54	2.23128	95354880	65155072	19116208	24992
55	2.912463	95354880	65155072	21773176	24992
56	3.676731	95354880	65155072	25090152	24992
57	4.393536	95354880	65155072	29066600	24992
58	5.405169	95354880	65155072	17234000	24992
59	5.985017	95354880	65155072	22529496	24992
60	6.536177	95354880	65155072	28485368	24992
61	7.788946	95354880	65155072	18641624	24992
62	7.931791	95354880	65155072	25916448	24992
63	8.93243	95354880	65155072	17383296	24992
64	9.62941	95354880	65155072	25977096	24992
65	10.551428	95354880	65155072	18762384	24992
66	11.002489	95354880	65155072	28675160	24992
67	11.928013	95354880	65155072	22781856	24992
68	12.67512	95354880	65155072	17547232	24992
69	13.566892	95354880	65155072	12969672	24992
70	13.686904	95354880	65155072	25521672	24992
71	15.172037	95354880	65155072	22270072	24992
72	15.625238	95354880	65155072	19677792	24992
73	16.319363	95354880	65155072	17739352	24992
74	16.970976	95354880	65155072	16462224	24992
75	17.755989	95354880	65155072	15845584	24992
76	18.474612	95354880	65155072	15889344	24992
77	19.440061	95354880	65155072	16593560	24992
78	20.282398	95354880	65155072	17958176	24992
79	20.565116	95354880	65155072	19983232	24992
80	21.308818	95354880	65155072	22668064	24992
81	22.802471	95354880	65155072	26014256	24992
82	23.999147	95354880	65155072	13550608	24992
83	25.578936	95354880	65155072	18231688	24992
84	24.895915	95354880	65155072	23580472	24992
85	25.710059	95354880	65155072	29608672	24992
86	25.669614	95354880	65155072	19820592	24992
87	26.749341	95354880	65155072	27158576	24992
88	27.566412	95354880	65155072	18718400	24992
89	28.254083	95354880	65155072	27361376	24992
90	28.937663	95354880	65155072	20250160	24992
91	29.676496	95625216	65155072	13772976	24992
92	30.119706	95625216	65155072	24397808	24992
93	31.215589	95625216	65155072	19272328	24992
94	32.19828	95625216	65155072	14776768	24992
95	32.148009	95625216	65155072	27383184	24992
96	33.855121	95625216	65155072	24243200	24992
97	34.28994	95895552	65155072	21735784	24992
98	35.231273	95895552	65155072	19886496	24992
99	35.797965	95895552	65155072	18698448	24992
100	36.586322	95895552	65155072	18172752	24992
101	38.158037	95895552	65155072	18309352	24992
102	0.812225	95895552	65155072	18916864	24992
103	1.526139	95895552	65155072	20254608	24992
104	2.242778	95895552	65155072	22251760	24992
105	3.000634	95895552	65155072	24908320	24992
106	3.806895	95895552	65155072	28224856	24992
107	4.830741	95895552	65155072	15744256	24992
108	5.283074	95895552	65155072	20379536	24992
109	5.778877	95895552	65155072	25674224	24992
110	7.319193	95895552	65155072	15199240	24992
111	7.185109	95895552	65155072	21813712	24992
112	8.155171	95895552	65155072	29087600	24992
113	9.336963	95895552	65155072	20597464	24992
114	9.541323	95895552	65155072	29190120	24992
115	10.805754	95895552	65155072	22020232	24992
116	11.346415	95895552	65155072	15488000	24992
117	11.681123	95895552	65155072	26058880	24992
118	12.994665	95895552	65155072	20853240	24992
119	13.490132	95895552	65155072	16310712	24992
120	13.839378	95895552	65155072	28862088	24992
121	15.398952	95895552	65155072	25644368	24992
122	16.069963	95895552	65155072	23089744	24992
123	16.633045	95895552	65155072	21175128	24992
124	17.239835	95895552	65155072	19922064	24992
125	17.978157	95895552	65155072	19331376	24992
126	18.7752	95895552	65155072	19402224	24992
127	19.483763	95895552	65155072	20134616	24992
128	20.565934	95895552	65155072	21528544	24992
129	21.161261	95895552	65155072	23583120	24992
130	21.618944	95895552	65155072	26299232	24992
131	22.446943	95895552	65155072	29676488	24992
132	23.912531	95895552	65155072	17257944	24992
133	24.232143	95895552	65155072	21930984	24992
134	24.877139	95895552	65155072	27296048	24992
135	26.326497	95895552	65155072	16869688	24992
136	26.334885	95895552	65155072	23531992	24992
137	27.234293	95895552	65155072	30883040	24992
138	28.317251	95895552	65155072	22442744	24992
139	28.211367	95895552	65155072	31087112	24992
140	30.012211	95895552	65155072	23976040	24992
141	30.563043	96165888	65155072	17498984	24992
142	30.813963	96165888	65155072	28127592	24992
143	32.0873	96165888	65155072	23002184	24992
144	32.787765	96165888	65155072	18509824	24992
145	32.66894	96165888	65155072	31116304	24992
146	34.923918	96165888	65155072	27980168	24992
147	34.874346	96436224	65155072	25471776	24992
148	35.73001	96436224	65155072	23624248	24992
149	36.666871	96436224	65679360	22436344	24992
150	37.352297	96436224	65679360	21909896	24992
151	38.280498	96706560	65679360	22046272	24992
152	0.794748	96706560	65679360	22653592	24992
153	1.507142	96706560	65679360	23991336	24992
154	2.246821	96706560	65679360	25988488	24992
155	2.917771	96706560	65679360	28645048	24992
156	3.664744	96706560	65679360	31961520	24992
157	5.309845	96706560	65679360	19480872	24992
158	5.535542	96706560	65679360	24116168	24992
159	6.020191	96706560	65679360	29410872	24992
160	7.520237	96706560	65679360	18935728	24992
161	7.526899	96706560	65679360	25550264	24992
162	7.908665	96706560	65679360	32824120	24992
163	9.54443	96706560	65679360	24333296	24992
164	9.380545	96706560	65679360	32925968	24992
165	10.972285	96706560	65679360	25755528	24992
166	11.669534	96706560	65679360	19223600	24992
167	11.510071	96706560	65679360	29794472	24992
168	13.093993	96706560	65679360	24588864	24992
169	13.830794	96976896	65679360	20046272	24992
170	14.282291	96976896	65679360	32606760	24992
171	15.464385	96976896	65679360	29389056	24992
172	16.004212	96976896	65679360	26834144	24992
173	16.754023	96976896	65679360	24919496	24992
174	17.437313	96976896	65679360	23666496	24992
175	18.148048	96976896	65679360	23074912	24992
176	18.903605	96976896	65679360	23145312	24992
177	19.632759	96976896	65679360	23877288	24992
178	20.563447	96976896	65679360	25270336	24992
179	21.270192	96976896	65679360	27324944	24992
180	22.295553	97247232	65679360	30041088	24992
181	22.572071	97247232	65679360	33418344	24992
182	24.386664	97247232	65679360	20998792	24992
183	24.357516	97247232	65679360	25671944	24992
184	25.066997	97247232	65679360	31037072	24992
185	26.667827	97247232	65679360	20609640	24992
186	26.600948	97247232	65679360	27271304	24992
187	28.187896	97247232	65679360	18174896	24992
188	28.026867	97247232	65679360	26157504	24992
189	29.529031	97247232	65679360	18382696	24992
190	29.386716	97247232	65679360	27686344	24992
191	31.350327	97247232	65679360	21236080	24992
192	31.156717	97247232	65679360	31860944	24992
193	32.825148	97247232	65679360	26733400	24992
194	33.129697	97247232	65679360	22241168	24992
195	33.228013	97247232	65679360	34847728	24992
196	35.354585	97247232	65679360	31678664	24992
197	35.646871	97247232	65679360	29185656	24992
198	36.860157	97247232	65679360	27339936	24992
199	37.640477	97247232	65679360	26160024	24992
200	37.935913	97247232	65679360	25634128	24992
201	38.78987	97247232	65679360	25770560	24992
202	0.795942	97247232	65679360	26377920	24992
203	1.485882	97247232	65679360	27715664	24992
204	2.204519	97247232	65679360	29712864	24992
205	2.964481	97247232	65679360	32369424	24992
206	3.654554	97247232	65679360	35685896	24992
207	5.527889	97247232	65679360	23203744	24992
208	5.236273	97247232	65679360	27839024	24992
209	5.859663	97247232	65679360	33133712	24992
210	7.683834	97247232	65679360	22658440	24992
211	7.342857	97247232	65679360	29272896	24992
212	9.083357	97247232	65679360	20109960	24992
213	8.776778	97247232	65679360	28043224	24992
214	10.711865	97247232	65679360	20198288	24992
215	10.253166	97247232	65679360	29450352	24992
216	12.211586	97247232	65679360	22932504	24992
217	11.760077	97247232	65679360	33503400	24992
218	13.444241	97517568	65679360	28314024	24992
219	14.566819	97517568	65679360	23771432	24992
220	15.058904	97517568	65679360	19873032	24992
221	14.727967	97517568	65679360	33084080	24992
222	16.500988	97517568	65679360	30529056	24992
223	17.30307	97517568	65679360	28636968	24992
224	17.929719	97517568	65679360	27383968	24992
225	18.670961	97517568	65679360	26792480	24992
226	19.96292	97517568	65679360	26865120	24992
227	20.234676	97517568	65679360	27596648	24992
228	21.102579	97517568	65679360	28989664	24992
229	21.597155	97517568	65679360	31050016	24992
230	22.051085	97517568	65679360	33768592	24992
231	24.22491	97517568	65679360	20687112	24992
232	24.434233	97517568	65679360	24696856	24992
233	24.888605	97517568	65679360	29401712	24992
234	25.690116	97517568	65679360	34772880	24992
235	27.344845	97517568	65679360	24352872	24992
236	26.85368	97517568	65679360	31014824	24992
237	29.173954	97517568	65679360	21926032	24992
238	28.493595	97517568	65679360	29908928	24992
239	30.456828	97517568	65679360	22141944	24992
240	29.676771	97517568	65679360	31445960	24992
241	32.155377	97517568	65679360	25003808	24992
242	31.020335	97517568	65679360	35628992	24992
243	33.098877	97517568	65679360	30510216	24992
244	33.85425	97517568	65679360	26018552	24992
245	34.818867	97517568	65679360	22184976	24992
246	33.949911	97517568	65679360	35452160	24992
247	36.072526	97787904	65679360	32983912	24992
248	37.662957	97787904	65679360	31136744	24992
249	37.653128	97787904	65679360	29953200	24992
250	38.534935	97787904	65679360	29427464	24992
251	39.768538	97787904	65679360	29564152	24992
252	0.799357	97787904	65679360	30171640	24992
253	1.49721	97787904	65679360	31509384	24992
254	2.193164	97787904	65679360	33506536	24992
255	3.098343	97787904	65679360	36163096	24992
256	5.586557	97787904	65679360	23015056	24992
257	4.557329	97787904	65679360	26990936	24992
258	5.095394	97787904	65679360	31626216	24992
259	5.750659	97787904	65679360	36920904	24992
260	8.194379	97787904	65679360	26445688	24992
261	7.383656	97787904	65679360	33060144	24992
262	9.622772	97787904	65679360	23904464	24992
263	8.608435	97787904	65679360	31837728	24992
264	11.061211	97787904	65679360	23992584	24992
265	10.453953	97787904	65679360	33244648	24992
266	12.360877	97787904	65679360	26726352	24992
267	11.72809	97787904	65679360	37297232	24992
268	14.008504	97787904	65679360	32107856	24992
269	14.6544	97787904	65679360	27565392	24992
270	15.40488	97787904	65679360	23666584	24992
271	14.718641	97787904	65679360	36877288	24992
272	16.930065	97787904	65679360	34322152	24992
273	17.528944	97787904	65679360	32429888	24992
274	18.495256	97787904	65679360	31177080	24992
275	19.16774	97787904	65679360	30585512	24992
276	20.059955	97787904	65679360	30655544	24992
277	20.627953	97787904	65679360	31387072	24992
278	21.447436	97787904	65679360	32780120	24992
279	22.461417	97787904	65679360	34834472	24992
280	23.07884	97787904	65679360	37550136	24992
281	25.517137	97787904	65679360	24468736	24992
282	24.694478	97787904	65679360	28478608	24992
283	25.358203	97787904	65679360	33182696	24992
284	25.675397	97787904	65679360	38553656	24992
285	28.195104	97787904	65679360	28132976	24992
286	27.241086	97787904	65679360	34794528	24992
287	29.469657	97787904	65679360	25703752	24992
288	28.792925	97787904	65679360	33686728	24992
289	31.087556	97787904	65679360	25923072	24992
290	29.977778	97787904	65679360	35227184	24992
291	32.408082	97787904	65679360	28783224	24992
292	31.554785	97787904	65679360	39407624	24992
293	34.411959	97787904	65679360	34262720	24992
294	34.686856	97787904	65679360	29788128	24992
295	35.338686	97787904	65679360	25954104	24992
296	34.527729	97787904	65679360	39221352	24992
297	37.024177	97787904	65679360	36752432	24992
298	37.695218	97787904	65679360	34905216	24992
299	38.450974	97787904	65679360	33720472	24992
300	39.157363	97787904	65679360	33196464	24992
301	39.882509	97787904	65679360	33333184	24992
302	0.839907	97787904	65679360	33940928	24992
303	1.570114	97787904	65679360	35278672	24992
304	2.324089	97787904	65679360	37275824	24992
305	3.194496	97787904	65679360	39932384	24992
306	5.581635	97787904	65679360	26783752	24992
307	4.381418	97787904	65679360	30759632	24992
308	5.419616	97787904	65679360	35394912	24992
309	7.696359	97787904	65679360	24248376	24992
310	6.67459	97787904	65679360	30203424	24992
311	7.229871	97787904	65679360	36817880	24992
312	9.897427	97787904	65679360	27662288	24992
313	9.496537	97787904	65679360	35606640	24992
314	11.46404	97787904	65679360	27772640	24992
315	10.334649	97787904	65679360	37024752	24992
316	12.711776	97787904	65679360	30506856	24992
317	13.668231	97787904	65679360	24637224	24992
318	12.602409	97787904	65679360	35869368	24992
319	14.923965	97787904	65679360	31326368	24992
320	16.18157	97787904	65679360	27446864	24992
321	14.451521	97787904	65679360	40657632	24992
322	17.303768	97787904	65679360	38094704	24992
323	17.947989	97787904	65679360	36202224	24992
324	18.644109	97787904	65679360	34955904	24992
325	19.601337	97787904	65679360	34364128	24992
326	20.351164	97787904	65679360	34434080	24992
327	21.058418	97787904	65679360	35165576	24992
328	21.853952	97787904	65679360	36558400	24992
329	22.663547	97787904	65679360	38612512	24992
330	25.231943	97787904	65679360	24868448	24992
331	24.327183	97787904	65679360	28217696	24992
332	24.612842	98058240	65679360	32258224	24992
333	25.646692	98058240	65679360	36962048	24992
334	28.10017	98058240	65679360	25878992	24992
335	26.686054	98058240	65679360	31880264	24992
336	27.296103	98058240	65679360	38579056	24992
337	30.357536	98058240	65679360	29483888	24992
338	28.801997	98058240	65679360	37466944	24992
339	31.560574	98058240	65679360	29701384	24992
340	30.287255	98058240	65679360	39005496	24992
341	33.318744	98058240	65679360	32565040	24992
342	33.849254	98058240	65679360	26749896	24992
343	32.457173	98058240	65679360	38035496	24992
344	35.720743	98058240	65679360	33579512	24992
345	36.340455	98058240	65679360	29749328	24992
346	37.086139	98058240	65679360	26577560	24992
347	35.71395	98058240	65679360	40505224	24992
348	38.676599	98058240	65679360	38699624	24992
349	39.216035	98058240	65679360	37513984	24992
350	39.744056	98058240	65679360	36990888	24992
351	40.829583	98058240	65679360	37129224	24992
352	0.802843	98058240	65679360	37736648	24992
353	1.500377	98058240	65679360	39074392	24992
354	2.192274	98058240	65679360	41071544	24992
355	5.196452	98058240	65679360	27256696	24992
356	3.694204	98058240	65679360	30573168	24992
357	4.372029	98058240	65679360	34549048	24992
358	5.082203	98058240	65679360	39184360	24992
359	8.071998	98058240	65679360	28037880	24992
360	6.48194	98058240	65679360	33997376	24992
361	7.186459	98058240	65679360	40611832	24992
362	10.30572	98058240	65679360	31467400	24992
363	8.79902	98058240	65679360	39400696	24992
364	11.89201	98058240	65679360	31570776	24992
365	10.100967	98058240	65679360	40822888	24992
366	13.247005	98058240	65679360	34304448	24992
367	13.951185	98058240	65679360	28434824	24992
368	12.439537	98058240	65679360	39666992	24992
369	15.260441	98058240	65679360	35123848	24992
370	16.038249	98058240	65679360	31244200	24992
371	17.558968	98058240	65679360	28007384	24992
372	15.706404	98058240	65679360	41877560	24992
373	18.388793	98058240	65679360	39985016	24992
374	19.346732	98058240	65679360	38755176	24992
375	19.908354	98058240	65679360	38163272	24992
376	20.6623	98058240	65679360	38232792	24992
377	21.796232	98058240	65679360	38963920	24992
378	21.844488	98058240	65679360	40356552	24992
379	22.851479	98058240	65679360	42410584	24992
380	25.956836	98058240	65679360	28666488	24992
381	24.257968	98058240	65679360	32015768	24992
382	24.646503	98058240	65679360	36056312	24992
383	25.369995	98058240	65679360	40760104	24992
384	28.71389	98058240	65679360	29676888	24992
385	27.327439	98058240	65679360	35678288	24992
386	28.031024	98058240	65679360	42377176	24992
387	31.305621	98058240	65679360	33282008	24992
388	30.048463	98058240	65679360	41264248	24992
389	32.63099	98058240	65679360	33498560	24992
390	30.917349	98058240	65679360	42801888	24992
391	34.180981	98058240	65679360	36361528	24992
392	35.126097	98058240	65679360	30546544	24992
393	33.526775	98058240	65679360	41832192	24992
394	36.921029	98058240	65679360	37376048	24992
395	36.952044	98058240	65679360	33546024	24992
396	38.016033	98058240	65679360	30373936	24992
397	35.784082	98058240	66203648	44301664	24992
398	39.228726	98058240	66203648	42480560	24992
399	40.031094	98328576	66203648	41299384	24992
400	40.471519	98328576	66203648	40775376	24992
401	41.389751	98328576	66203648	40914048	24992
402	0.834037	98328576	66203648	41523440	24992
403	1.509446	98328576	66203648	42861184	24992
404	2.196256	98328576	66203648	44858336	24992
405	5.598316	98328576	66203648	31042880	24992
406	3.834252	98328576	66203648	34359352	24992
407	4.518742	98328576	66203648	38335232	24992
408	5.218295	98328576	66203648	42970512	24992
409	8.657969	98328576	66203648	31827552	24992
410	6.674603	98328576	66203648	37782680	24992
411	7.194563	98328576	66203648	44397136	24992
412	10.675342	98328576	66203648	35248256	24992
413	8.771918	98328576	66203648	43181568	24992
414	12.2527	98598912	66727936	35347008	24992
415	10.530858	98598912	66727936	44599072	24992
416	13.688946	98598912	66727936	38079864	24992
417	14.16847	98598912	66727936	32210272	24992
418	12.807132	98598912	66727936	43442408	24992
419	16.636149	98598912	66727936	38899168	24992
420	17.081595	98598912	66727936	35019504	24992
421	17.630214	98598912	66727936	31781808	24992
422	18.010583	98869248	66727936	29206496	24992
423	16.069368	98869248	66727936	43736016	24992
424	19.757403	98869248	66727936	42506056	24992
425	20.156099	98869248	66727936	41938832	24992
426	20.838801	98869248	66727936	42008416	24992
427	21.919274	98869248	66727936	42739496	24992
428	22.532362	98869248	66727936	44132000	24992
429	26.244853	98869248	66727936	29725272	24992
430	24.026081	98869248	66727936	32414008	24992
431	25.027817	99139584	67252224	35792776	24992
432	25.387566	99139584	67252224	39832000	24992
433	26.219163	99139584	67252224	44535520	24992
434	29.950805	99139584	67252224	33452240	24992
435	27.752442	99409920	67252224	39453704	24992
436	28.656183	99409920	67252224	46152608	24992
437	31.856903	99409920	67252224	37032200	24992
438	30.057505	99409920	67252224	45032432	24992
439	33.527749	99409920	67252224	37262792	24992
440	31.197705	99409920	67252224	46566152	24992
441	35.10685	99409920	67252224	40077832	24992
442	35.565342	99680256	67776512	34298320	24992
443	33.829618	99680256	67776512	45584160	24992
444	37.116682	99680256	67776512	41127328	24992
445	38.104394	99950592	67776512	37296744	24992
446	39.167266	99950592	67776512	34124416	24992
447	39.163442	99950592	67776512	31614352	24992
448	37.447864	99950592	67776512	46202592	24992
449	40.880937	100220928	67776512	45058920	24992
450	41.590895	100220928	67776512	44534944	24992
451	42.182501	100220928	67776512	44673280	24992
452	0.83998	100220928	67776512	45282560	24992
453	1.567589	100220928	67776512	46620304	24992
454	5.315981	100220928	67776512	32140176	24992
455	3.207139	100220928	67776512	34796736	24992
456	3.634316	100220928	67776512	38113208	24992
457	4.573958	100220928	67776512	42089088	24992
458	5.236135	100220928	67776512	46724368	24992
459	8.791184	100220928	67776512	35581472	24992
460	6.704326	100220928	67776512	41536520	24992
461	10.265656	100220928	67776512	31721512	24992
462	8.162467	100220928	67776512	38995424	24992
463	8.617193	100220928	67776512	46928688	24992
464	12.588553	100220928	67776512	39093408	24992
465	13.446129	100220928	67776512	31911912	24992
466	10.779046	100220928	67776512	41823384	24992
467	14.740982	100220928	67776512	35953536	24992
468	12.408483	100220928	67776512	47185688	24992
469	16.39076	100220928	67776512	42659280	24992
470	16.990575	100220928	67776512	38779200	24992
471	17.785323	100220928	67776512	35541440	24992
472	18.354425	100220928	67776512	32966144	24992
473	16.163959	100220928	67776512	47495712	24992
474	19.926125	100220928	67776512	46265128	24992
475	20.773255	100220928	67776512	45697952	24992
476	20.995211	100220928	67776512	45767280	24992
477	22.0295	100220928	67776512	46498104	24992
478	23.010261	100220928	67776512	47890544	24992
479	26.912641	100220928	67776512	33480048	24992
480	24.459975	100220928	67776512	36168440	24992
481	24.9676	100220928	67776512	39547240	24992
482	25.894345	100220928	67776512	43586480	24992
483	26.587727	100220928	67776512	48289792	24992
484	30.554541	100220928	68300800	37187784	24992
485	28.052097	100491264	68300800	43201816	24992
486	32.117447	100491264	68825088	33446488	24992
487	29.907336	100491264	68825088	40768824	24992
488	30.703567	100491264	68825088	48787112	24992
489	34.272318	100491264	68825088	40971200	24992
490	35.257075	100761600	68825088	33866184	24992
491	32.26257	100761600	68825088	43830696	24992
492	36.674284	100761600	68825088	38050248	24992
493	37.180398	101031936	68825088	32895192	24992
494	34.570542	101031936	68825088	44841272	24992
495	38.651864	101031936	68825088	41047840	24992
496	39.252885	101302272	69349376	37879416	24992
497	40.002421	101302272	69349376	35369000	24992
498	41.048021	101302272	69349376	33520344	24992
499	38.825023	101302272	69349376	48769192	24992
500	42.628644	101572608	69349376	48288136	24992
501	42.828585	101572608	69349376	48426648	24992
502	0.800844	101572608	69349376	49036040	24992
503	4.770781	101842944	69349376	33891632	24992
504	2.276674	101842944	69349376	35888776	24992
505	2.938597	101842944	69349376	38545336	24992
506	3.685918	101842944	69349376	41861808	24992
507	4.56304	101842944	69349376	45837688	24992
508	8.630174	101842944	69349376	34025584	24992
509	5.793424	101842944	69349376	39320264	24992
510	6.66841	101842944	69349376	45275312	24992
511	10.877003	101842944	69349376	35464808	24992
512	7.999931	101842944	69349376	42738712	24992
513	12.391482	101842944	69349376	34240152	24992
514	9.39728	101842944	69349376	42832808	24992
515	13.656904	101842944	69349376	35651320	24992
516	10.856202	101842944	69349376	45562840	24992
517	15.431152	101842944	69873664	39708184	24992
518	15.923956	102113280	70397952	34502992	24992
519	13.204861	102113280	70397952	46394744	24992
520	17.710793	102113280	70397952	42514672	24992
521	18.408593	102113280	70397952	39297640	24992
522	19.104486	102113280	70397952	36721896	24992
523	19.554344	102113280	70397952	34808144	24992
524	16.856111	102113280	70397952	49997088	24992
525	21.326545	102113280	70397952	49429048	24992
526	21.765289	102383616	70397952	49524344	24992
527	22.57282	102383616	70397952	50254480	24992
528	26.824224	102383616	70397952	35179472	24992
529	24.547284	102383616	70397952	37210176	24992
530	25.293621	102383616	70397952	39927400	24992
531	25.641324	102653952	70397952	43305504	24992
532	26.358603	102653952	70397952	47344840	24992
533	30.245395	102653952	70397952	35592152	24992
534	27.554576	102653952	70397952	40931360	24992
535	28.16875	102653952	70922240	46965384	24992
536	32.580952	102924288	70922240	37207808	24992
537	29.741349	102924288	70922240	44530224	24992
538	34.312259	102924288	70922240	36104192	24992
539	31.071196	102924288	70922240	44747680	24992
540	35.548365	103194624	70922240	37643264	24992
541	32.711153	103194624	70922240	47607840	24992
542	36.799215	103194624	70922240	41826416	24992
543	37.704563	103464960	70922240	36672944	24992
544	35.032948	103464960	70922240	48619024	24992
545	40.160922	103464960	71446528	44825416	24992
546	40.119662	103735296	71446528	41657264	24992
547	40.760588	103735296	71446528	39146480	24992
548	41.497042	103735296	71970816	37298048	24992
549	41.946486	104005632	71970816	36110936	24992
550	39.423927	104005632	71970816	52020264	24992
551	43.568508	104005632	71970816	52144456	24992
552	4.500262	104005632	71970816	36306856	24992
553	1.530898	104005632	71970816	37644672	24992
554	2.198	104005632	71970816	39641824	24992
555	2.950413	104005632	71970816	42298384	24992
556	3.686871	104005632	71970816	45621656	24992
557	4.366943	104005632	71970816	49597584	24992
558	8.861995	104005632	71970816	37787672	24992
559	5.995362	104005632	71970816	43082424	24992
560	6.49331	104005632	71970816	49037472	24992
561	11.063632	104275968	71970816	39237488	24992
562	8.095801	104275968	71970816	46511344	24992
563	13.086059	104275968	71970816	38013440	24992
564	9.507738	104275968	71970816	46606160	24992
565	14.482899	104275968	71970816	39426192	24992
566	10.945345	104275968	71970816	49337664	24992
567	20.564187	104275968	71970816	43484640	24992
568	17.620931	104275968	71970816	20162384	24992
569	13.884825	104275968	71970816	15577256	24992
570	13.991077	104275968	71970816	11657632	24992
571	14.590627	104275968	71970816	24868360	24992
572	15.564593	104275968	71970816	22274520	24992
573	16.48098	104275968	71970816	20341552	24992
574	17.022203	104275968	71970816	19062696	24992
575	17.99872	104275968	71970816	18444120	24992
576	18.696249	104275968	71970816	18485992	24992
577	19.591912	104275968	71970816	19188368	24992
578	20.106785	104275968	71970816	20551000	24992
579	20.633786	104275968	71970816	22574088	24992
580	21.741393	104275968	71970816	25257096	24992
581	22.69744	104275968	71970816	12131056	24992
582	23.19661	104275968	71970816	16129632	24992
583	24.05727	104275968	71970816	20798248	24992
584	24.516409	104275968	71970816	26130688	24992
585	25.487681	104275968	71970816	15656608	24992
586	26.322031	104275968	71970816	22305104	24992
587	27.135657	104275968	71970816	13159488	24992
588	27.213737	104275968	71970816	21128256	24992
589	28.514123	104275968	71970816	13301392	24992
590	29.222419	104275968	71970816	22590672	24992
591	30.026558	104275968	71970816	16085728	24992
592	30.661802	104275968	71970816	26695360	24992
593	32.276773	104275968	71970816	21510848	24992
594	32.046188	104275968	71970816	16986680	24992
595	32.87316	104275968	71970816	13119864	24992
596	33.311333	104275968	72495104	26370232	24992
597	34.410963	104546304	73543680	23830312	24992
598	34.735489	104546304	74592256	21948640	24992
599	35.786273	104546304	75640832	20727264	24992
600	35.980444	104546304	76689408	20164784	24992
601	36.974739	104816640	77737984	20264040	24992
602	0.818829	104816640	78786560	20856032	24992
603	1.501179	104816640	78786560	22193776	24992
604	2.266578	104816640	78786560	24190944	24992
605	3.112057	104816640	78786560	26847504	24992
606	3.96223	104816640	79310848	13688664	24992
607	4.432516	104816640	79310848	17664544	24992
608	5.088985	104816640	79310848	22299824	24992
609	5.772685	104816640	79310848	27594608	24992
610	6.856103	104816640	79835136	17085696	24992
611	7.213669	104816640	79835136	23700152	24992
612	8.260024	104816640	80359424	14507880	24992
613	8.656353	104816640	80359424	22441144	24992
614	9.682574	104816640	80883712	14564528	24992
615	10.080975	104816640	80883712	23816608	24992
616	11.141314	104816640	81408000	17261464	24992
617	11.575902	104816640	81408000	27832344	24992
618	12.573965	104816640	81932288	22600664	24992
619	13.226041	104816640	82456576	18025096	24992
620	14.218548	104816640	82980864	14104960	24992
621	14.376986	104816640	82980864	27315664	24992
622	15.905113	104816640	83505152	24721792	24992
623	16.829198	105086976	84029440	22788824	24992
624	17.045979	105086976	84553728	21509840	24992
625	17.88157	105086976	85078016	20891376	24992
626	18.913555	105086976	85602304	20933440	24992
627	19.593902	105086976	85602304	21639104	24992
628	19.937051	105086976	85602304	23002152	24992
629	20.953787	105086976	85602304	25026688	24992
630	21.673183	105086976	85602304	27709728	24992
631	22.334006	105086976	85602304	14583688	24992
632	22.747516	105086976	85602304	18582264	24992
633	23.822608	105086976	85602304	23250528	24992
634	24.521021	105086976	85602304	28582968	24992
635	25.613014	105086976	85602304	18108264	24992
636	25.857956	105086976	85602304	24756840	24992
637	26.732779	105086976	85602304	15610168	24992
638	27.556556	105086976	85602304	23578992	24992
639	28.483253	105357312	85602304	15753816	24992
640	29.699353	105357312	85602304	25052664	24992
641	30.140978	105357312	85602304	18577960	24992
642	30.531588	105357312	85602304	29202976	24992
643	31.726046	105357312	85602304	24077840	24992
644	32.434502	105357312	85602304	19586264	24992
645	32.504592	105627648	85602304	15752440	24992
646	33.37241	105627648	85602304	29019736	24992
647	34.058114	105627648	85602304	26542320	24992
648	34.798883	105627648	85602304	24695240	24992
649	35.63352	105627648	85602304	23511720	24992
650	36.27652	105897984	85602304	22986232	24992
651	37.057028	105897984	85602304	23123120	24992
652	0.797906	105897984	85602304	23730296	24992
653	1.509334	105897984	85602304	25068024	24992
654	2.19101	105897984	85602304	27065160	24992
655	2.970468	105897984	85602304	29721704	24992
656	4.06408	105897984	85602304	16576736	24992
657	4.637116	105897984	85602304	20552600	24992
658	5.12949	105897984	85602304	25187864	24992
659	5.763138	105897984	85602304	30482600	24992
660	6.967364	105897984	85602304	20012384	24992
661	7.208268	105897984	85602304	26626872	24992
662	8.634015	105897984	85602304	17475064	24992
663	8.635718	105897984	85602304	25408344	24992
664	9.998761	105897984	85602304	17565552	24992
665	10.265281	105897984	85602304	26817664	24992
666	11.567605	106168320	85602304	20302056	24992
667	11.750475	106168320	85602304	30872920	24992
668	12.974123	106168320	85602304	25682888	24992
669	13.51697	106168320	85602304	21142008	24992
670	14.66174	106168320	85602304	17246360	24992
671	14.540983	106168320	85602304	30457096	24992
672	15.943013	106168320	85602304	27903200	24992
673	17.035941	106168320	85602304	26012728	24992
674	17.44838	106168320	85602304	24760440	24992
675	18.1176	106168320	85602304	24170128	24992
676	18.937573	106168320	85602304	24241416	24992
677	19.58133	106438656	85602304	24974184	24992
678	20.191314	106438656	85602304	26368520	24992
679	20.857155	106438656	85602304	28423952	24992
680	21.802595	106438656	85602304	31140792	24992
681	22.879038	106438656	85602304	18060560	24992
682	22.982681	106438656	85602304	22070960	24992
683	24.116807	106438656	85602304	26776096	24992
684	25.277582	106708992	85602304	15688320	24992
685	25.417018	106708992	85602304	21689712	24992
686	25.951068	106708992	85602304	28380104	24992
687	27.596179	106708992	85602304	19278200	24992
688	28.127467	106708992	85602304	27261448	24992
689	28.9627	106708992	85602304	19489616	24992
690	29.369289	106708992	85602304	28793816	24992
691	30.473412	106979328	85602304	22344800	24992
692	31.634813	106979328	85602304	16529840	24992
693	31.96255	106979328	85602304	27815536	24992
694	33.030175	106979328	85602304	23351520	24992
695	33.363288	106979328	85602304	19521472	24992
696	34.433854	107249664	85602304	16349920	24992
697	34.084194	107249664	85602304	30277680	24992
698	35.521808	107249664	85602304	28463376	24992
699	36.451786	107249664	85602304	27277968	24992
700	36.818083	107249664	85602304	26756016	24992
701	37.835098	107520000	85602304	26895552	24992
702	0.800599	107520000	85602304	27502872	24992
703	1.489923	107520000	85602304	28840600	24992
704	2.214224	107520000	85602304	30837736	24992
705	3.743128	107520000	85602304	17025280	24992
706	3.888853	107520000	85602304	20341744	24992
707	4.400836	107520000	85602304	24317608	24992
708	5.077376	107520000	85602304	28952872	24992
709	6.617285	107520000	85602304	17811416	24992
710	6.484075	107520000	85602304	23766448	24992
711	7.284915	107520000	85602304	30380888	24992
712	8.76694	107520000	85602304	21236632	24992
713	8.683476	107520000	85602304	29169880	24992
714	10.242291	107520000	85602304	21338784	24992
715	10.129055	107520000	85602304	30590832	24992
716	11.68155	107520000	85602304	24074888	24992
717	12.417025	107520000	85602304	18207280	24992
718	12.2555	107520000	85602304	29439400	24992
719	13.786885	107790336	85602304	24898280	24992
720	14.822353	107790336	85602304	21020552	24992
721	15.301694	107790336	85602304	17785280	24992
722	15.16239	107790336	85602304	31655376	24992
723	16.744001	107790336	85602304	29764760	24992
724	17.454919	107790336	85602304	28537048	24992
725	18.133737	107790336	85602304	27946320	24992
726	18.921136	107790336	85602304	28017352	24992
727	19.750024	107790336	85602304	28749944	24992
728	21.078106	107790336	85602304	30153152	24992
729	21.382267	108060672	85602304	32208552	24992
730	22.94695	108060672	85602304	18466408	24992
731	22.720269	108060672	85602304	21816296	24992
732	23.577383	108060672	85602304	25857952	24992
733	24.353233	108060672	85602304	30562744	24992
734	25.954279	108060672	85602304	19473928	24992
735	25.600883	108060672	85602304	25475312	24992
736	26.437054	108060672	85602304	32167328	24992
737	28.121667	108331008	85602304	23065360	24992
738	28.158892	108331008	85602304	31048128	24992
739	29.866775	108331008	85602304	23275336	24992
740	29.185877	108331008	85602304	32579112	24992
741	31.154116	108331008	85602304	26131216	24992
742	32.393158	108601344	85602304	20316464	24992
743	32.034207	108601344	85602304	31602144	24992
744	33.422837	108601344	85602304	27138048	24992
745	34.116128	108601344	85602304	23308160	24992
746	34.703639	108601344	85602304	20136776	24992
747	34.52063	108601344	85602304	34064656	24992
748	36.142319	108871680	85602304	32249680	24992
749	36.88993	108871680	85602304	31064208	24992
750	37.693289	108871680	85602304	30540448	24992
751	38.86239	108871680	85602304	30687024	24992
752	0.795136	109142016	85602304	31297552	24992
753	1.502387	109142016	85602304	32635280	24992
754	2.216577	109142016	85602304	34632416	24992
755	4.038609	109142016	85602304	20820008	24992
756	3.678411	109142016	85602304	24136464	24992
757	4.516198	109142016	85602304	28112328	24992
758	5.251645	109142016	85602304	32747592	24992
759	7.147745	109142016	85602304	21607872	24992
760	6.500391	109142016	85602304	27562968	24992
761	7.442103	109142016	85602304	34177408	24992
762	9.161224	109142016	85602304	25033040	24992
763	8.652046	109142016	85602304	32966288	24992
764	10.77777	109142016	85602304	25134952	24992
765	10.425135	109142016	85602304	34387000	24992
766	12.192187	109142016	85602304	27871056	24992
767	12.973643	109412352	85602304	22003384	24992
768	12.662972	109412352	85602304	33235504	24992
769	14.49692	109412352	85602304	28694192	24992
770	14.971768	109412352	85602304	24816464	24992
771	15.917514	109412352	85602304	21580472	24992
772	15.518013	109412352	85602304	35450568	24992
773	17.400318	109412352	85602304	33559296	24992
774	17.958887	109412352	85602304	32331264	24992
775	18.982601	109412352	85602304	31740648	24992
776	19.42966	109412352	85602304	31811504	24992
777	20.06751	109682688	85602304	32543936	24992
778	21.128478	109682688	85602304	33938000	24992
779	21.758283	109682688	85602304	35993416	24992
780	24.051986	109682688	85602304	22241376	24992
781	23.14432	109682688	85602304	25597240	24992
782	23.803299	109682688	85602304	29638368	24992
783	24.55014	109682688	85602304	34343384	24992
784	26.449498	109953024	85602304	23261056	24992
785	26.029456	109953024	85602304	29262728	24992
786	26.941947	109953024	85602304	35962352	24992
787	29.217183	109953024	85602304	26867600	24992
788	29.479402	109953024	85602304	34850192	24992
789	31.463769	109953024	85602304	27085496	24992
790	30.129658	109953024	85602304	36389096	24992
791	31.786138	110223360	85602304	29945736	24992
792	32.871845	110223360	85602304	24124760	24992
793	32.147313	110223360	85602304	35410776	24992
794	34.517778	110223360	85602304	30955560	24992
795	34.747623	110223360	85602304	27126000	24992
796	35.477137	110493696	85602304	23954280	24992
797	36.851462	110493696	85602304	21444696	24992
798	35.5981	110493696	85602304	36033496	24992
799	38.084421	110493696	85602304	34891440	24992
800	38.324755	110764032	85602304	34368008	24992
801	39.532591	110764032	85602304	34507000	24992
802	0.81433	110764032	85602304	35116600	24992
803	1.497218	110764032	85602304	36454328	24992
804	3.598157	110764032	85602304	21975928	24992
805	2.96682	110764032	85602304	24632472	24992
806	3.669289	110764032	85602304	27948928	24992
807	4.376435	110764032	85602304	31924792	24992
808	5.086071	110764032	85602304	36560056	24992
809	7.270125	110764032	85602304	25422144	24992
810	6.522445	110764032	85602304	31377176	24992
811	7.243327	110764032	85602304	37991616	24992
812	9.460121	110764032	85602304	28839560	24992
813	8.626625	110764032	85602304	36772808	24992
814	11.124189	110764032	85602304	28941440	24992
815	11.668718	110764032	85602304	21760336	24992
816	10.781788	110764032	85602304	31671784	24992
817	13.415651	111034368	85602304	25804072	24992
818	12.632996	111034368	85602304	37036224	24992
819	14.729284	111034368	85602304	32513144	24992
820	15.240742	111034368	85602304	28635240	24992
821	16.114604	111034368	85602304	25398768	24992
822	16.941741	111034368	85602304	22824840	24992
823	16.09706	111034368	85602304	37354392	24992
824	18.41839	111034368	85602304	36126440	24992
825	18.858649	111034368	85602304	35561104	24992
826	19.981325	111034368	85602304	35631672	24992
827	21.013458	111034368	85602304	36363784	24992
828	21.15469	111304704	85602304	37757416	24992
829	23.699765	111304704	85602304	23351952	24992
830	22.963421	111304704	85602304	26041344	24992
831	23.670935	111304704	85602304	29421640	24992
832	24.613488	111304704	85602304	33462152	24992
833	25.034993	111304704	85602304	38166720	24992
834	27.730388	111575040	85602304	27083672	24992
835	26.25796	111575040	85602304	33085424	24992
836	28.880686	111575040	85602304	23334912	24992
837	28.230864	111575040	85602304	30657584	24992
838	28.979171	111575040	85602304	38676512	24992
839	31.175592	111575040	85602304	30903976	24992
840	32.269064	111575040	85602304	23759792	24992
841	30.693303	111575040	85602304	33724544	24992
842	33.331495	111845376	85602304	27946176	24992
843	32.318372	111845376	85602304	39232640	24992
844	34.827754	111845376	85602304	34754656	24992
845	35.669925	111845376	85602304	30935496	24992
846	36.523009	112115712	85602304	27765664	24992
847	37.575222	112115712	85602304	25256304	24992
848	35.825795	112115712	85602304	39844976	24992
849	38.763567	112115712	85602304	38646112	24992
850	39.337425	112386048	85602304	38197032	24992
851	39.791366	112386048	85602304	38336136	24992
852	0.817631	112386048	85602304	38958648	24992
853	1.567788	112386048	85602304	40296376	24992
854	4.438788	112386048	85602304	25824608	24992
855	3.109395	112386048	85602304	28481152	24992
856	3.677208	112386048	85602304	31797640	24992
857	4.53424	112386048	85602304	35773504	24992
858	6.884816	112386048	85602304	23958856	24992
859	5.959982	112386048	85602304	29253520	24992
860	6.52785	112386048	85602304	35208552	24992
861	9.324	112386048	85602304	25394352	24992
862	8.17434	112386048	85602304	32668192	24992
863	10.679274	112386048	85602304	24170472	24992
864	9.562525	112656384	85602304	32763120	24992
865	12.106675	112656384	85602304	25582304	24992
866	10.978213	112656384	85602304	35493840	24992
867	13.586776	112656384	85602304	29639888	24992
868	14.386068	112656384	85602304	24435704	24992
869	13.36541	112656384	85602304	36327376	24992
870	15.81752	112656384	85602304	32447784	24992
871	16.906103	112656384	85602304	29231280	24992
872	17.152784	112656384	85602304	26656320	24992
873	17.910545	112656384	85602304	24742888	24992
874	17.081281	112656384	85602304	39932792	24992
875	19.398178	112656384	85602304	39365264	24992
876	20.29352	112926720	85602304	39461008	24992
877	21.093557	112926720	85602304	40192168	24992
878	23.643784	112926720	85602304	25122712	24992
879	22.455096	112926720	85602304	27151096	24992
880	23.000237	112926720	85602304	29868672	24992
881	23.915907	112926720	85602304	33247128	24992
882	24.58275	112926720	85602304	37286688	24992
883	27.565947	113197056	85602304	25534512	24992
884	26.256021	113197056	85602304	30873688	24992
885	27.149639	113197056	85602304	36908032	24992
886	29.689059	113197056	85602304	27150952	24992
887	28.363989	113197056	85602304	34473496	24992
888	32.045115	113197056	85602304	26056296	24992
889	29.812718	113197056	85602304	34699704	24992
890	33.00198	113467392	85602304	27595240	24992
891	31.004412	113467392	85602304	37559784	24992
892	34.103194	113467392	85602304	31778424	24992
893	34.52124	113467392	85602304	26624824	24992
894	33.601559	113467392	85602304	38570968	24992
895	36.008643	113737728	85602304	34777488	24992
896	37.029413	113737728	85602304	31608984	24992
897	37.671207	113737728	85602304	29098152	24992
898	38.722272	113737728	85602304	27249512	24992
899	39.159293	114008064	85602304	26062304	24992
900	37.976006	114008064	85602304	41971504	24992
901	40.790832	114008064	85602304	42142112	24992
902	0.922835	114008064	85602304	42753072	24992
903	3.581509	114008064	85602304	27597608	24992
904	2.264258	114008064	85602304	29594744	24992
905	2.902614	114008064	85602304	32251288	24992
906	3.670771	114008064	85602304	35567744	24992
907	4.334348	114008064	85602304	39543608	24992
908	7.410212	114008064	85602304	27727256	24992
909	5.791133	114008064	85602304	33021960	24992
910	6.521355	114008064	85602304	38976992	24992
911	9.799683	114008064	85602304	29169672	24992
912	8.115303	114008064	85602304	36443512	24992
913	11.02977	114008064	85602304	27944888	24992
914	9.355307	114008064	85602304	36537528	24992
915	12.501576	114278400	85602304	29356120	24992
916	11.0097	114278400	85602304	39267704	24992
917	13.896051	114278400	85602304	33413032	24992
918	14.456311	114278400	85602304	28207824	24992
919	13.171402	114278400	85602304	40099352	24992
920	16.026149	114278400	85602304	36219120	24992
921	17.040373	114278400	85602304	33002120	24992
922	17.330639	114278400	85602304	30425896	24992
923	18.305443	114278400	85602304	28512112	24992
924	18.995964	114278400	85602304	27259936	24992
925	17.556651	114278400	85602304	43108248	24992
926	20.68974	114278400	85602304	43186568	24992
927	23.443859	114548736	85602304	27473160	24992
928	22.158257	114548736	85602304	28858176	24992
929	22.885058	114548736	85602304	30913864	24992
930	23.575795	114548736	85602304	33630888	24992
931	24.148022	114548736	85602304	37008528	24992
932	25.337244	114548736	85602304	41047752	24992
933	28.063326	114548736	85602304	29294808	24992
934	27.231193	114548736	85602304	34633952	24992
935	27.11422	114819072	85602304	40668008	24992
936	30.528825	114819072	85602304	30910208	24992
937	29.010142	114819072	85602304	38232688	24992
938	32.021124	114819072	85602304	29806336	24992
939	29.955911	114819072	85602304	38449840	24992
940	33.311679	115089408	85602304	31345008	24992
941	31.752574	115089408	85602304	41309600	24992
942	34.591961	115089408	85602304	35528112	24992
943	35.37447	115089408	85602304	30374640	24992
944	33.559308	115089408	85602304	42320800	24992
945	37.194444	115359744	85602304	38527240	24992
946	37.424597	115359744	85602304	35358736	24992
947	38.389851	115359744	85602304	32848032	24992
948	38.949596	115359744	85602304	30999520	24992
949	39.667007	115359744	85602304	29812584	24992
950	41.26227	115630080	85602304	29287104	24992
951	41.592168	115630080	85602304	29423888	24992
952	0.809068	115630080	85602304	30031584	24992
953	1.563479	115630080	85602304	31369312	24992
954	2.196513	115630080	85602304	33366448	24992
955	3.111914	115630080	85602304	36022992	24992
956	3.804065	115630080	85602304	39339560	24992
957	4.394553	115630080	85602304	43315424	24992
958	7.614386	115630080	85602304	31503072	24992
959	5.940288	115630080	85602304	36797744	24992
960	6.690959	115630080	85602304	42752824	24992
961	9.88075	115630080	85602304	32948976	24992
962	7.967042	115630080	85602304	40222816	24992
963	11.358328	115630080	85602304	31723760	24992
964	9.592987	115630080	85602304	40316512	24992
965	12.851167	115900416	85602304	33134560	24992
966	10.942605	115900416	85602304	43046016	24992
967	14.539724	115900416	85602304	37191200	24992
968	14.788534	115900416	85602304	31985992	24992
969	13.176636	115900416	85602304	43877552	24992
970	16.369192	115900416	85602304	39997208	24992
971	17.273014	115900416	85602304	36779712	24992
972	17.800404	115900416	85602304	34203488	24992
973	18.894102	115900416	85602304	32289704	24992
974	19.4987	115900416	85602304	31037456	24992
975	20.3514	115900416	85602304	30446768	24992
976	20.849288	115900416	85602304	30517968	24992
977	21.803785	116170752	85602304	31250360	24992
978	22.35107	116170752	85602304	32644320	24992
979	23.034787	116170752	85602304	34699808	24992
980	23.958995	116170752	85602304	37416368	24992
981	24.734324	116170752	85602304	40794040	24992
982	25.26698	116170752	85602304	44832768	24992
983	28.814461	116170752	85602304	33079872	24992
984	26.862532	116170752	85602304	38419064	24992
985	27.907032	116441088	85602304	44453184	24992
986	31.004716	116441088	85602304	34695400	24992
987	29.015262	116441088	85602304	42018008	24992
988	32.618511	116441088	85602304	33589832	24992
989	30.320698	116441088	85602304	42233384	24992
990	33.849496	116711424	85602304	35130440	24992
991	31.854601	116711424	85602304	45094712	24992
992	35.472564	116711424	85602304	39316968	24992
993	36.018023	116711424	85602304	34163624	24992
994	34.330904	116711424	85602304	46109864	24992
995	37.915115	116981760	85602304	42318040	24992
996	39.239924	116981760	85602304	39138304	24992
997	39.428254	116981760	85602304	36631536	24992
998	39.862438	116981760	86126592	34782352	24992
999	40.765478	116981760	86126592	33595592	24992
1000	41.448407	117252096	86126592	33070176	24992
