x	Duration	RSS	HeapTotal	HeapUsed	External
0	NA	101244928	68825088	10976760	24992
1	0.945978	101244928	68825088	11656832	24992
2	1.547311	101244928	68825088	12995224	24992
3	2.305674	101244928	68825088	14992992	24992
4	3.095284	101244928	68825088	17650296	24992
5	3.915277	101244928	68825088	20968696	24992
6	4.614173	101244928	68825088	24945640	24992
7	5.515279	101244928	68825088	13116096	24992
8	6.194068	101244928	68825088	18412168	24992
9	6.732774	101244928	68825088	24368776	24992
10	7.714102	101244928	68825088	14525856	24992
11	8.279885	101244928	68825088	21801592	24992
12	9.149481	101244928	68825088	13269464	24992
13	9.436978	101244928	68825088	21864320	24992
14	11.735942	101244928	68825088	14665280	24992
15	11.067696	101244928	68825088	24579288	24992
16	12.408074	101244928	68825088	18693528	24992
17	12.70626	101244928	68825088	13460312	24992
18	13.243269	101244928	68825088	25354840	24992
19	14.345764	101244928	68825088	21443712	24992
20	15.266923	101244928	68825088	18193768	24992
21	15.565547	101244928	68825088	15597640	24992
22	16.414452	101244928	68825088	13663040	24992
23	17.070459	101244928	68825088	12388968	24992
24	17.773835	101244928	68825088	11775368	24992
25	18.542228	101244928	68825088	11822352	24992
26	19.413403	101244928	68825088	12529984	24992
27	20.56508	101244928	68825088	13898072	24992
28	21.220229	101244928	68825088	15926792	24992
29	21.752576	101244928	68825088	18616056	24992
30	22.52138	101244928	68825088	21964976	24992
31	24.143192	101244928	68825088	25982248	24992
32	23.977014	101244928	68825088	14187568	24992
33	24.577926	101244928	68825088	19519792	24992
34	24.951119	101244928	68825088	25519064	24992
35	26.634233	101244928	68825088	15715472	24992
36	26.681091	101244928	68825088	23028736	24992
37	27.644565	101244928	68825088	14546248	24992
38	27.993724	101244928	68825088	23178408	24992
39	29.428455	101244928	68825088	16018696	24992
40	29.383335	101244928	68825088	25971432	24992
41	30.914758	101244928	68825088	20133400	24992
42	32.071402	101244928	68825088	14963280	24992
43	31.675561	101244928	68825088	26896952	24992
44	32.720492	101244928	68825088	23038464	24992
45	33.630991	101244928	68825088	19841536	24992
46	34.412412	101244928	68825088	17300104	24992
47	34.951583	101244928	68825088	15420152	24992
48	35.694642	101244928	68825088	14201152	24992
49	36.335596	101244928	68825088	13642928	24992
50	36.714955	101244928	68825088	13746664	24992
51	37.607838	101244928	68825088	14511600	24992
52	0.994201	101244928	68825088	15765488	24992
53	1.503974	101244928	68825088	17103496	24992
54	2.194938	101244928	68825088	19100976	24992
55	2.956305	101244928	68825088	21757944	24992
56	3.661516	101244928	68825088	25074920	24992
57	4.37222	101244928	68825088	29051368	24992
58	5.384465	101244928	68825088	17218768	24992
59	5.775901	101244928	68825088	22514264	24992
60	6.475249	101244928	68825088	28470136	24992
61	7.526994	101244928	68825088	18625704	24992
62	7.994331	101244928	68825088	25900528	24992
63	8.980531	101244928	68825088	17367376	24992
64	9.544306	101244928	68825088	25961192	24992
65	10.482187	101244928	68825088	18746416	24992
66	10.962857	101244928	68825088	28659240	24992
67	11.949042	101244928	68825088	22765696	24992
68	12.725019	101244928	68825088	17531072	24992
69	13.728784	101244928	68825088	12953512	24992
70	13.915257	101244928	68825088	25505512	24992
71	14.759966	101244928	68825088	22252528	24992
72	15.699891	101244928	68825088	19661680	24992
73	16.12968	101244928	68825088	17723672	24992
74	17.22411	101244928	68825088	16446544	24992
75	17.847531	101244928	68825088	15830000	24992
76	18.797344	101244928	68825088	15873760	24992
77	19.471274	101244928	68825088	16577960	24992
78	19.933487	101244928	68825088	17942592	24992
79	20.745091	101244928	68825088	19967728	24992
80	21.42755	101244928	68825088	22652608	24992
81	22.113976	101244928	68825088	25998880	24992
82	23.109558	101244928	68825088	13535232	24992
83	25.185435	101244928	68825088	18208296	24992
84	24.701026	101244928	68825088	23557864	24992
85	24.974152	101244928	68825088	29586144	24992
86	26.362392	101244928	68825088	19800168	24992
87	26.445295	101244928	68825088	27138784	24992
88	27.672924	101244928	68825088	18700144	24992
89	28.075825	101244928	68825088	27343616	24992
90	28.860376	101244928	68825088	20233888	24992
91	29.87608	101244928	68825088	13757752	24992
92	30.20481	101244928	68825088	24383096	24992
93	31.388713	101244928	68825088	19259200	24992
94	31.810366	101244928	68825088	14764624	24992
95	32.304532	101244928	68825088	27371520	24992
96	33.288718	101244928	68825088	24232896	24992
97	34.565203	101244928	68825088	21726576	24992
98	34.629473	101244928	68825088	19878192	24992
99	36.08768	101244928	68825088	18691256	24992
100	36.483141	101244928	68825088	18166592	24992
101	37.286327	101244928	68825088	18304368	24992
102	0.795099	101244928	68825088	18911928	24992
103	1.483298	101244928	68825088	20249672	24992
104	2.203512	101244928	68825088	22246888	24992
105	2.921074	101244928	68825088	24903448	24992
106	3.840986	101244928	68825088	28219952	24992
107	4.89353	101244928	68825088	15744280	24992
108	5.230214	101244928	68825088	20379560	24992
109	5.840641	101244928	68825088	25674248	24992
110	6.994445	101244928	68825088	15206792	24992
111	7.477995	101244928	68825088	21821248	24992
112	7.875402	101244928	68825088	29095152	24992
113	9.410604	101244928	68825088	20610248	24992
114	9.448147	101244928	68825088	29202904	24992
115	10.805312	101244928	68825088	22037328	24992
116	11.477599	101244928	68825088	15507680	24992
117	11.666409	101244928	68825088	26078560	24992
118	13.066498	101244928	68825088	20875608	24992
119	13.66412	101244928	68825088	16335768	24992
120	13.91999	101244928	68825088	28887112	24992
121	15.059883	101244928	68825088	25671984	24992
122	16.045838	101244928	68825088	23119904	24992
123	16.441031	101244928	68825088	21207304	24992
124	17.555638	101244928	68825088	19955984	24992
125	18.105461	101244928	68825088	19367056	24992
126	18.915549	101244928	68825088	19439632	24992
127	19.582569	101244928	68825088	20173752	24992
128	20.086586	101244928	68825088	21569472	24992
129	21.215185	101244928	68825088	23625840	24992
130	21.698043	101244928	68825088	26343680	24992
131	22.265676	101244928	68825088	29722632	24992
132	23.589285	101244928	68825088	17306376	24992
133	24.28286	101244928	68825088	21980248	24992
134	24.625323	101244928	68825088	27346384	24992
135	26.438585	101244928	68825088	16921280	24992
136	26.498899	101244928	68825088	23584064	24992
137	26.848076	101244928	68825088	30936224	24992
138	28.738775	101244928	68825088	22497368	24992
139	28.176655	101244928	68825088	31140520	24992
140	30.106644	101244928	68825088	24031128	24992
141	30.575754	101244928	68825088	17555152	24992
142	30.688265	101244928	68825088	28184192	24992
143	31.729902	101244928	68825088	23060176	24992
144	32.809635	101244928	68825088	18568944	24992
145	32.641273	101244928	68825088	31175968	24992
146	35.265214	101244928	68825088	28041416	24992
147	35.77695	101244928	68825088	25534120	24992
148	35.951696	101244928	68825088	23687688	24992
149	36.588253	101244928	68825088	22500848	24992
150	36.93351	101244928	68825088	21975464	24992
151	38.092387	101244928	68825088	22112920	24992
152	0.793635	101244928	68825088	22720480	24992
153	1.655468	101244928	68825088	24058224	24992
154	2.429887	101244928	68825088	26055376	24992
155	2.93263	101244928	68825088	28711936	24992
156	3.59804	101244928	68825088	32028408	24992
157	5.216132	101244928	68825088	19552688	24992
158	5.139588	101244928	68825088	24187984	24992
159	5.949242	101244928	68825088	29482672	24992
160	7.340427	101244928	68825088	19015056	24992
161	7.449854	101244928	68825088	25629560	24992
162	7.891758	101244928	68825088	32903624	24992
163	9.596733	101244928	68825088	24418048	24992
164	9.366854	101244928	68825088	33010704	24992
165	11.147045	101244928	68825088	25844488	24992
166	11.940416	101244928	68825088	19314872	24992
167	11.778681	101244928	68825088	29885752	24992
168	13.075098	101244928	68825088	24682752	24992
169	14.7321	101244928	68825088	20151256	24992
170	14.125723	101244928	68825088	32705272	24992
171	15.772798	101244928	68825088	29490208	24992
172	16.15368	101244928	68825088	26937968	24992
173	16.95834	101244928	68825088	25025064	24992
174	17.542758	101244928	68825088	23773744	24992
175	18.662975	101244928	68825088	23183936	24992
176	19.081806	101244928	68825088	23256144	24992
177	20.315759	101244928	68825088	23989816	24992
178	21.219447	101244928	68825088	25384632	24992
179	21.280067	101244928	68825088	27440928	24992
180	22.272117	101244928	68825088	30158816	24992
181	22.832016	101244928	68825088	33537752	24992
182	24.901072	101244928	68825088	21120904	24992
183	24.437403	101244928	68825088	25794872	24992
184	25.228255	101244928	68825088	31161152	24992
185	26.879226	101244928	68825088	20735104	24992
186	26.655786	101244928	68825088	27397408	24992
187	28.447901	101244928	68825088	18302600	24992
188	28.20251	101244928	68825088	26285704	24992
189	29.537075	101244928	68825088	18512096	24992
190	29.341957	101244928	68825088	27816400	24992
191	31.196889	101244928	68825088	21367720	24992
192	30.953282	101244928	68825088	31993176	24992
193	32.522197	101244928	68825088	26867184	24992
194	33.035158	101244928	68825088	22376080	24992
195	33.391242	101244928	68825088	34983232	24992
196	35.271891	101244928	68825088	31811936	24992
197	36.02138	101244928	68825088	29325648	24992
198	36.4889	101244928	68825088	27480928	24992
199	38.28891	101244928	68825088	26302256	24992
200	37.669028	101244928	68825088	25777424	24992
201	38.807253	101244928	68825088	25914952	24992
202	0.793278	101244928	68825088	26522600	24992
203	1.488375	101244928	68825088	27860376	24992
204	2.196601	101244928	68825088	29857528	24992
205	2.895513	101244928	68825088	32514088	24992
206	3.843071	101244928	68825088	35830560	24992
207	5.783868	101244928	68825088	23343880	24992
208	5.220044	101244928	68825088	27979160	24992
209	5.738428	101244928	68825088	33273896	24992
210	8.019299	101244928	68825088	22806184	24992
211	7.452186	101244928	68825088	29420640	24992
212	9.175622	101244928	68825088	20270024	24992
213	8.847497	101244928	68825088	28203288	24992
214	10.630385	101244928	68825088	20361648	24992
215	10.358913	101244928	68825088	29613712	24992
216	12.208049	101244928	68825088	23099352	24992
217	11.804136	101244928	68825088	33670232	24992
218	13.712612	101244928	68825088	28484424	24992
219	14.266992	101244928	68825088	23944424	24992
220	14.937606	101244928	68825088	20047752	24992
221	14.813866	101244928	68825088	33258496	24992
222	16.542429	101244928	68825088	30706064	24992
223	17.843722	101244928	68825088	28816568	24992
224	18.215057	101244928	68825088	27565200	24992
225	19.086764	101244928	68825088	26975344	24992
226	19.746226	101244928	68825088	27047056	24992
227	21.031897	101244928	68825088	27780312	24992
228	20.943981	101244928	68825088	29175056	24992
229	21.429672	101244928	68825088	31237104	24992
230	22.269044	101244928	68825088	33957440	24992
231	24.975957	101244928	68825088	20878552	24992
232	23.952368	101244928	68825088	24889160	24992
233	24.795552	101244928	68825088	29595792	24992
234	25.508261	101244928	68825088	34968048	24992
235	27.435518	101244928	68825088	24549400	24992
236	27.385188	101244928	68825088	31211856	24992
237	29.084128	101244928	68825088	22124632	24992
238	28.49754	101244928	68825088	30108056	24992
239	30.767657	101244928	68825088	22342608	24992
240	29.862786	101244928	68825088	31647120	24992
241	32.373849	101244928	68825088	25206536	24992
242	31.224151	101244928	68825088	35832264	24992
243	33.837463	101244928	68825088	30715056	24992
244	34.61634	101244928	68825088	26225072	24992
245	35.318869	101244928	68825088	22392520	24992
246	34.254008	101244928	68825088	35660344	24992
247	36.984619	101244928	68825088	33193600	24992
248	37.27088	101244928	68825088	31347496	24992
249	37.59828	101244928	68825088	30165080	24992
250	38.555518	101244928	68825088	29640504	24992
251	39.317041	101244928	68825088	29778192	24992
252	1.36464	101244928	68825088	30386032	24992
253	2.569395	101244928	68825088	31723776	24992
254	3.819014	101244928	68825088	33720928	24992
255	5.117913	101244928	68825088	36377488	24992
256	8.570427	101244928	68825088	23233512	24992
257	7.586999	101244928	68825088	27209392	24992
258	5.876188	101244928	68825088	31844672	24992
259	5.745894	101244928	68825088	37139360	24992
260	8.402522	101244928	68825088	26671720	24992
261	7.182308	101244928	68825088	33286176	24992
262	9.60875	101244928	68825088	24135680	24992
263	8.796176	101244928	68825088	32068944	24992
264	11.401187	101244928	68825088	24227272	24992
265	10.212341	101244928	68825088	33479336	24992
266	12.703543	101244928	68825088	26964496	24992
267	11.453821	101244928	68825088	37535392	24992
268	14.118276	101244928	68825088	32349472	24992
269	14.968185	101244928	68825088	27809472	24992
270	15.588552	101244928	68825088	23912360	24992
271	15.106786	101244928	68825088	37123112	24992
272	16.964925	101244928	68825088	34570568	24992
273	18.540225	101244928	68825088	32680848	24992
274	18.498758	101244928	68825088	31429256	24992
275	19.245479	101244928	68825088	30839384	24992
276	19.961816	101244928	68825088	30911112	24992
277	20.874829	101244928	68825088	31644480	24992
278	21.737998	101244928	68825088	33039240	24992
279	22.155129	101244928	68825088	35095432	24992
280	22.785755	101244928	68825088	37812824	24992
281	25.276057	101244928	68825088	24733936	24992
282	24.523019	101244928	68825088	28744560	24992
283	25.17574	101244928	68825088	33450328	24992
284	25.844452	101244928	68825088	38822344	24992
285	28.640876	101244928	68825088	28395096	24992
286	27.131403	101244928	68825088	35059912	24992
287	30.284858	101244928	68825088	25966896	24992
288	28.63133	101244928	68825088	33950416	24992
289	31.350316	101244928	68825088	26188376	24992
290	30.408447	101244928	68825088	35493160	24992
291	32.902827	101244928	68825088	29050784	24992
292	31.921015	101244928	68825088	39675936	24992
293	35.065284	101244928	68825088	34511944	24992
294	34.957599	101244928	68825088	30057840	24992
295	35.935008	101244928	68825088	26226768	24992
296	34.373979	101244928	68825088	39494512	24992
297	38.388025	101244928	68825088	37029472	24992
298	38.839158	101244928	68825088	35190696	24992
299	38.730897	101244928	68825088	34006728	24992
300	39.302719	101244928	68825088	33483640	24992
301	40.008889	101244928	68825088	33621264	24992
302	0.801447	101244928	68825088	34228960	24992
303	1.497921	101244928	68825088	35566704	24992
304	2.185862	101244928	68825088	37563856	24992
305	2.957765	101244928	68825088	40220416	24992
306	5.670227	101244928	68825088	27073496	24992
307	4.400819	101244928	68825088	31049376	24992
308	5.04411	101244928	68825088	35684656	24992
309	7.884588	101244928	68825088	24541008	24992
310	6.468774	101244928	68825088	30496064	24992
311	7.164304	101244928	68825088	37110520	24992
312	10.067528	101244928	68825088	27957192	24992
313	9.842939	101244928	68825088	35901352	24992
314	11.566891	101244928	68825088	28069312	24992
315	10.340039	101244928	68825088	37321376	24992
316	13.299233	101244928	68825088	30805016	24992
317	13.629066	101244928	68825088	24936560	24992
318	12.472926	101244928	68825088	36168696	24992
319	15.513885	101244928	68825088	31626856	24992
320	15.830373	101244928	68825088	27748488	24992
321	14.534757	101244928	68825088	40959192	24992
322	17.474894	101244928	68825088	38378384	24992
323	18.135786	101244928	68825088	36487056	24992
324	19.153466	101244928	68825088	35257720	24992
325	19.51254	101244928	68825088	34666704	24992
326	20.646129	101244928	68825088	34737432	24992
327	21.155678	101244928	68825088	35469784	24992
328	21.737959	101244928	68825088	36863432	24992
329	22.646146	101244928	68825088	38918640	24992
330	25.7162	101244928	68825088	25175712	24992
331	23.989057	101244928	68825088	28525360	24992
332	25.06644	101244928	68825088	32566456	24992
333	25.577588	101244928	68825088	37270960	24992
334	28.483598	101244928	68825088	26188440	24992
335	27.300963	101244928	68825088	32190112	24992
336	27.670812	101244928	68825088	38889712	24992
337	30.703546	101244928	68825088	29795792	24992
338	29.26603	101244928	68825088	37779216	24992
339	32.52106	101244928	68825088	30015128	24992
340	30.731721	101244928	68825088	39321000	24992
341	33.665198	101244928	68825088	32881728	24992
342	34.470355	101244928	68825088	27067504	24992
343	33.397936	101244928	68825088	38353440	24992
344	35.796081	101244928	68825088	33898592	24992
345	36.398528	101244928	68825088	30069280	24992
346	37.772611	101244928	68825088	26898320	24992
347	35.946949	101244928	68825088	40826528	24992
348	39.032121	101244928	68825088	39022048	24992
349	39.677022	101244928	68825088	37837280	24992
350	40.457387	101244928	68825088	37314976	24992
351	40.753951	101244928	68825088	37453096	24992
352	0.801959	101244928	68825088	38062344	24992
353	1.493573	101244928	68825088	39400088	24992
354	2.185435	101244928	68825088	41397272	24992
355	5.412914	101244928	68825088	27583752	24992
356	3.661671	101244928	68825088	30900224	24992
357	4.355656	101244928	68825088	34876104	24992
358	5.032673	101244928	68825088	39511384	24992
359	8.514101	101244928	68825088	28367792	24992
360	7.026781	101244928	68825088	34327288	24992
361	7.556873	101244928	68825088	40941744	24992
362	10.883015	101244928	68825088	31800128	24992
363	8.916833	101244928	68825088	39733424	24992
364	12.195076	101244928	68825088	31905352	24992
365	10.047347	101244928	68825088	41157456	24992
366	13.50189	101244928	68825088	34640496	24992
367	14.258758	101244928	68825088	28772040	24992
368	12.604794	101244928	68825088	40004256	24992
369	15.661606	101244928	68825088	35462400	24992
370	16.314209	101244928	68825088	31583968	24992
371	17.335809	101244928	68825088	28347896	24992
372	15.245901	101244928	68825088	42218024	24992
373	18.353521	101244928	68825088	40326752	24992
374	19.394008	101244928	68825088	39098096	24992
375	20.57288	101244928	68825088	38506952	24992
376	20.640719	101244928	68825088	38577248	24992
377	21.866205	101244928	68825088	39309088	24992
378	22.553287	101244928	68825088	40702576	24992
379	22.955433	101244928	68825088	42757368	24992
380	26.408178	101244928	68825088	29013752	24992
381	24.688017	101244928	68825088	32363464	24992
382	25.335025	101244928	68825088	36404672	24992
383	26.036678	101244928	68825088	41109208	24992
384	29.285705	101244928	68825088	30026752	24992
385	27.646642	101244928	68825088	36028504	24992
386	28.078179	101244928	68825088	42728344	24992
387	31.925116	101244928	68825088	33634376	24992
388	29.918243	101244928	68825088	41616984	24992
389	33.613823	101244928	68825088	33852496	24992
390	30.969002	101244928	68825088	43156160	24992
391	34.973847	101244928	68825088	36717032	24992
392	35.324711	101244928	68825088	30903080	24992
393	33.852614	101244928	68825088	42189208	24992
394	36.88976	101244928	68825088	37734248	24992
395	37.436686	101244928	68825088	33905096	24992
396	38.208511	101244928	68825088	30733432	24992
397	36.24919	101244928	68825088	44661624	24992
398	39.724727	101244928	68825088	42828552	24992
399	40.439143	101244928	68825088	41660584	24992
400	41.536963	101244928	68825088	41137352	24992
401	42.122285	101244928	68825088	41276752	24992
402	0.798864	101244928	68825088	41886096	24992
403	1.493839	101244928	68825088	43223840	24992
404	2.188015	101244928	68825088	45220992	24992
405	6.053624	101244928	68825088	31406864	24992
406	3.663808	101244928	68825088	34723336	24992
407	4.371366	101244928	68825088	38699216	24992
408	5.031561	101244928	68825088	43334512	24992
409	8.695522	101244928	68825088	32194488	24992
410	6.477072	101244928	68825088	38149600	24992
411	7.179842	101244928	68825088	44764120	24992
412	10.861135	101244928	68825088	35617640	24992
413	8.806527	101244928	68825088	43550936	24992
414	12.593279	101244928	68825088	35718304	24992
415	10.313146	101244928	68825088	44970368	24992
416	13.953505	101244928	68825088	38452744	24992
417	14.50896	101244928	68825088	32584288	24992
418	12.575531	101244928	68825088	43816440	24992
419	16.206009	101244928	68825088	39274344	24992
420	16.98475	101244928	68825088	35395944	24992
421	17.752966	101244928	68825088	32158976	24992
422	18.253896	101244928	68825088	29584480	24992
423	15.913457	101244928	68825088	44114056	24992
424	19.705619	101244928	68825088	42885304	24992
425	20.352622	101244928	68825088	42319232	24992
426	21.54353	101244928	68825088	42389624	24992
427	21.652928	101244928	68825088	43121448	24992
428	22.615319	101244928	68825088	44514600	24992
429	26.485233	101244928	68825088	30109072	24992
430	24.184193	101244928	68825088	32798280	24992
431	25.429614	101244928	68825088	36177832	24992
432	25.462949	101244928	68825088	40217800	24992
433	26.505768	101244928	68825088	44922112	24992
434	30.227548	101244928	68825088	33839352	24992
435	27.970269	101244928	68825088	39841136	24992
436	28.957403	101244928	68825088	46540896	24992
437	29.405218	101244928	68825088	37400736	24992
438	29.984614	101244928	68825088	45419656	24992
439	34.073152	101244928	68825088	37651032	24992
440	34.595639	101244928	68825088	30513504	24992
441	32.561611	101244928	68825088	40478512	24992
442	35.913888	101244928	68825088	34700272	24992
443	33.946736	101244928	68825088	45986384	24992
444	37.65084	101244928	68825088	41530736	24992
445	38.256603	101244928	68825088	37701264	24992
446	39.727709	101244928	68825088	34529712	24992
447	39.938729	101244928	68825088	32020328	24992
448	37.344065	101244928	68825088	46608952	24992
449	41.119369	101244928	68825088	45466416	24992
450	42.498717	101244928	68825088	44943296	24992
451	42.404112	101244928	68825088	45082440	24992
452	0.798949	101244928	68825088	45691720	24992
453	1.490238	101244928	68825088	47029464	24992
454	5.503036	101244928	68825088	32550280	24992
455	2.928709	101244928	68825088	35206840	24992
456	3.625202	101244928	68825088	38523312	24992
457	4.383108	101244928	68825088	42499208	24992
458	5.079475	101244928	68825088	47134488	24992
459	9.331998	101244928	68825088	35993816	24992
460	6.675336	101244928	68825088	41948912	24992
461	10.596754	101244928	68825088	32136432	24992
462	7.895262	101244928	68825088	39410288	24992
463	8.83464	101244928	68825088	47343552	24992
464	12.931489	101244928	68825088	39510272	24992
465	13.597338	101244928	68825088	32330448	24992
466	11.032289	101244928	68825088	42241936	24992
467	15.142528	101244928	68825088	36373312	24992
468	12.442844	101244928	68825088	47605448	24992
469	16.816082	101244928	68825088	43080608	24992
470	17.220458	101244928	68825088	39201680	24992
471	17.902508	101244928	68825088	35964776	24992
472	18.648831	101244928	68825088	33390240	24992
473	16.045602	101244928	68825088	47919760	24992
474	20.416695	101244928	68825088	46689216	24992
475	21.070562	101244928	68825088	46123080	24992
476	22.189863	101244928	68825088	46194608	24992
477	22.153099	101244928	68825088	46926224	24992
478	22.850979	101244928	68825088	48319360	24992
479	27.296544	101244928	68825088	33894912	24992
480	25.050782	101244928	68825088	36597912	24992
481	25.221058	101244928	68825088	39977472	24992
482	26.11281	101244928	68825088	44017440	24992
483	26.788885	101244928	68825088	48721480	24992
484	31.163787	101244928	68825088	37598408	24992
485	28.619628	101244928	68825088	43632672	24992
486	32.553499	101244928	68825088	33877440	24992
487	29.508417	101244928	68825088	41200216	24992
488	34.183713	101244928	68825088	32773536	24992
489	31.304588	101244928	68825088	41417328	24992
490	35.483252	101244928	68825088	34313984	24992
491	32.950447	101244928	68825088	44279200	24992
492	36.956872	101244928	68825088	38499936	24992
493	37.82677	101244928	68825088	33345368	24992
494	34.655228	101244928	68825088	45291912	24992
495	39.173813	101244928	69349376	41499488	24992
496	40.110873	101515264	69873664	38331728	24992
497	40.99126	101515264	69873664	35822136	24992
498	41.468618	101515264	69873664	33974240	24992
499	38.954588	101515264	69873664	49223360	24992
500	42.87711	101785600	69873664	48738632	24992
501	43.662688	101785600	69873664	48871464	24992
502	0.807784	101785600	69873664	49480952	24992
503	5.160971	101785600	69873664	34337080	24992
504	2.261183	101785600	69873664	36334232	24992
505	2.954589	101785600	69873664	38990808	24992
506	3.651074	102055936	69873664	42307280	24992
507	4.508195	102055936	69873664	46283160	24992
508	8.81959	102055936	69873664	34473456	24992
509	5.985237	102055936	69873664	39768144	24992
510	6.498067	102055936	69873664	45723192	24992
511	11.178429	102055936	69873664	35915784	24992
512	7.955465	102055936	69873664	43189640	24992
513	12.55742	102055936	69873664	34692992	24992
514	9.522226	102055936	69873664	43285712	24992
515	14.051118	102055936	69873664	36106032	24992
516	10.989795	102055936	69873664	46017504	24992
517	15.502045	102055936	70397952	40164448	24992
518	16.300177	102326272	70397952	34960440	24992
519	13.089153	102326272	70397952	46852016	24992
520	17.627467	102326272	70397952	42973088	24992
521	18.644454	102326272	70397952	39757208	24992
522	18.937834	102326272	70397952	37182240	24992
523	20.273563	102326272	70397952	35269280	24992
524	16.627122	102326272	70397952	50458192	24992
525	21.437002	102326272	70397952	49880224	24992
526	21.955512	102596608	70397952	49975968	24992
527	22.869995	102596608	70397952	50717728	24992
528	27.106857	102596608	70397952	35621360	24992
529	24.445229	102596608	70397952	37671872	24992
530	25.145302	102596608	70397952	40389904	24992
531	25.853001	102866944	70922240	43768416	24992
532	26.474199	102866944	70922240	47808400	24992
533	31.210971	102866944	70922240	36056848	24992
534	28.25225	102866944	70922240	41395992	24992
535	28.754672	102866944	70922240	47430416	24992
536	33.52888	103137280	70922240	37674232	24992
537	30.479227	103137280	70922240	44997160	24992
538	34.966385	103137280	71446528	36572312	24992
539	31.648257	103137280	71446528	45216168	24992
540	36.133325	103407616	71446528	38112664	24992
541	33.088056	103407616	71446528	48077352	24992
542	37.528457	103407616	71446528	42297128	24992
543	38.28022	103677952	71446528	37144592	24992
544	35.205124	103677952	71446528	49091168	24992
545	39.871429	103677952	71446528	45298728	24992
546	40.577268	103948288	71446528	42131128	24992
547	41.161692	103948288	71970816	39621168	24992
548	42.575591	103948288	72495104	37773448	24992
549	42.794817	104218624	72495104	36587400	24992
550	44.136651	104218624	72495104	36065152	24992
551	45.088361	104218624	72495104	36205280	24992
552	0.822622	104218624	72495104	19659400	24992
553	1.492464	104218624	72495104	20997176	24992
554	2.19868	104218624	72495104	22994424	24992
555	2.909056	104218624	72495104	25650984	24992
556	4.040225	104218624	72495104	12505800	24992
557	4.329026	104218624	72495104	16481680	24992
558	5.037926	104218624	72495104	21116960	24992
559	5.979627	104218624	72495104	26411648	24992
560	6.984279	104218624	72495104	15909520	24992
561	7.396153	104218624	72495104	22524120	24992
562	8.383516	104218624	72495104	13331640	24992
563	8.784008	104218624	72495104	21264904	24992
564	9.696986	104218624	72495104	13388272	24992
565	10.238971	104218624	72495104	22640352	24992
566	11.291613	104218624	72495104	16085176	24992
567	11.760087	104218624	72495104	26656056	24992
568	12.625678	104218624	72495104	21424472	24992
569	13.211242	104218624	72495104	16848904	24992
570	13.883211	104218624	72495104	12928784	24992
571	14.853398	104218624	72495104	26139552	24992
572	15.524318	104218624	72495104	23545760	24992
573	16.119658	104218624	72495104	21612808	24992
574	17.195084	104218624	72495104	20333856	24992
575	17.625814	104218624	72495104	19715280	24992
576	18.591995	104218624	72495104	19757136	24992
577	19.066513	104218624	72495104	20459416	24992
578	20.22574	104218624	72495104	21822176	24992
579	21.07738	104218624	73019392	23845248	24992
580	21.395919	104218624	73543680	26528320	24992
581	22.391427	104488960	74592256	13402312	24992
582	22.857966	104488960	75116544	17400936	24992
583	24.050502	104488960	75640832	22069136	24992
584	24.726123	104488960	76165120	27401512	24992
585	25.346994	104488960	77213696	16926712	24992
586	25.878594	104488960	77737984	23574872	24992
587	26.956084	104488960	78786560	14428120	24992
588	26.986215	104488960	79310848	22396944	24992
589	28.630133	104759296	80359424	14571784	24992
590	28.884433	104759296	80883712	23860984	24992
591	29.702082	104759296	81932288	17354264	24992
592	30.452537	104759296	82456576	27963496	24992
593	31.189234	104759296	83505152	22782104	24992
594	31.948257	105029632	84553728	18257920	24992
595	32.477637	105029632	85602304	14390688	24992
596	33.195522	105029632	86126592	27641008	24992
597	34.133817	105029632	87175168	25100784	24992
598	34.620188	105029632	88223744	23218232	24992
599	35.194153	105299968	89272320	21998344	24992
600	36.164532	105299968	90320896	21435960	24992
601	37.520206	105299968	91369472	21535296	24992
602	0.798039	105299968	92418048	22127320	24992
603	1.493705	105299968	92418048	23465064	24992
604	2.205239	105299968	92418048	25462216	24992
605	2.950629	105299968	92418048	28118776	24992
606	3.966823	105299968	92942336	14959968	24992
607	4.390998	105299968	92942336	18935848	24992
608	5.03728	105299968	92942336	23571176	24992
609	5.747632	105299968	92942336	28865880	24992
610	6.878538	105299968	93466624	18356344	24992
611	7.512323	105299968	93466624	24970800	24992
612	8.264759	105570304	93990912	15778304	24992
613	8.692058	105570304	93990912	23711568	24992
614	9.684094	105570304	94515200	15834728	24992
615	10.210371	105570304	94515200	25086792	24992
616	11.207208	105570304	95039488	18531616	24992
617	11.717036	105570304	95039488	29102544	24992
618	12.708991	105570304	95563776	23870192	24992
619	13.364474	105570304	96088064	19294400	24992
620	13.97613	105570304	96612352	15373816	24992
621	14.349814	105570304	96612352	28584536	24992
622	15.867255	105570304	97136640	25989976	24992
623	16.719233	105570304	97136640	24058328	24992
624	16.914025	105570304	97136640	22779264	24992
625	17.970495	105570304	97136640	22160832	24992
626	18.225828	105570304	97136640	22202720	24992
627	19.717166	105570304	97136640	22905160	24992
628	20.222689	105570304	97136640	24271320	24992
629	20.940558	105570304	97136640	26294328	24992
630	21.534512	105570304	97136640	28977224	24992
631	22.581734	105570304	97136640	15850480	24992
632	22.694865	105570304	97136640	19849120	24992
633	23.722574	105570304	97136640	24516872	24992
634	24.395183	105570304	97136640	29848864	24992
635	25.483454	105570304	97136640	19347704	24992
636	27.030841	105840640	97136640	26009800	24992
637	26.720663	105840640	97136640	16886360	24992
638	27.498673	105840640	97136640	24869464	24992
639	28.585563	105840640	97136640	17097712	24992
640	28.911284	105840640	97136640	26401864	24992
641	29.839401	105840640	97136640	19952216	24992
642	30.543515	106110976	97136640	14137208	24992
643	31.463589	106110976	97136640	25422872	24992
644	31.960159	106110976	97136640	20959656	24992
645	33.159901	106110976	97136640	17127704	24992
646	32.991125	106110976	97136640	30395192	24992
647	34.76691	106110976	97136640	27885696	24992
648	35.130895	106381312	97136640	26060408	24992
649	35.4806	106381312	97136640	24875016	24992
650	36.316061	106381312	97136640	24353096	24992
651	37.66842	106381312	97136640	24490096	24992
652	0.796662	106651648	97136640	25097480	24992
653	1.526061	106651648	97136640	26435208	24992
654	2.199584	106651648	97136640	28432344	24992
655	2.951467	106651648	97136640	31088888	24992
656	4.173712	106651648	97136640	17942368	24992
657	4.369959	106651648	97136640	21918232	24992
658	5.209788	106651648	97136640	26553496	24992
659	6.475038	106651648	97136640	15411976	24992
660	6.748729	106651648	97136640	21367008	24992
661	7.163823	106651648	97136640	27981464	24992
662	8.827399	106651648	97136640	18829960	24992
663	8.856896	106651648	97136640	26763272	24992
664	9.995379	106651648	97136640	18932128	24992
665	10.207898	106651648	97136640	28184208	24992
666	11.723054	106651648	97136640	21668408	24992
667	12.29473	106651648	97136640	15800704	24992
668	12.405735	106651648	97136640	27032888	24992
669	13.787978	106651648	97136640	22491784	24992
670	14.397822	106651648	97136640	18614136	24992
671	14.989367	106651648	97136640	15378576	24992
672	15.516396	106651648	97136640	29248736	24992
673	16.791471	106921984	97136640	27358200	24992
674	17.256377	106921984	97136640	26130424	24992
675	18.355443	106921984	97136640	25539248	24992
676	18.982909	106921984	97136640	25610264	24992
677	19.747026	106921984	97136640	26342824	24992
678	20.340974	106921984	97136640	27736776	24992
679	21.02542	106921984	97136640	29792176	24992
680	22.726669	107192320	97136640	16049984	24992
681	22.358358	107192320	97136640	19399920	24992
682	23.202268	107192320	97136640	23441576	24992
683	24.261046	107192320	97136640	28146416	24992
684	25.765422	107192320	97136640	17057696	24992
685	25.649779	107192320	97136640	23059064	24992
686	26.399276	107192320	97136640	29751760	24992
687	27.766166	107192320	97136640	20649760	24992
688	27.640934	107192320	97136640	28632864	24992
689	29.615905	107462656	97136640	20860056	24992
690	29.004583	107462656	97136640	30164296	24992
691	30.885445	107462656	97136640	23716432	24992
692	31.163251	107462656	97136640	17901504	24992
693	31.780403	107462656	97136640	29187184	24992
694	32.552795	107732992	97136640	24723344	24992
695	33.493022	107732992	97136640	20893360	24992
696	34.175625	107732992	97136640	17724360	24992
697	34.154848	107732992	97136640	31652136	24992
698	35.485343	107732992	97136640	29837912	24992
699	36.104657	108003328	97136640	28652504	24992
700	37.012658	108003328	97136640	28128648	24992
701	38.650599	108003328	97136640	28268080	24992
702	0.807429	108003328	97136640	28876232	24992
703	1.48076	108003328	97136640	30213960	24992
704	2.190963	108003328	97136640	32211096	24992
705	3.715685	108003328	97136640	18398656	24992
706	3.661191	108003328	97136640	21715112	24992
707	4.366493	108003328	97136640	25690976	24992
708	5.031888	108003328	97136640	30326368	24992
709	6.68239	108003328	97136640	19186680	24992
710	6.573757	108003328	97136640	25141712	24992
711	7.452104	108003328	97136640	31756152	24992
712	8.92251	108273664	97136640	22611784	24992
713	8.595604	108273664	97136640	30545048	24992
714	10.359832	108273664	97136640	22713792	24992
715	10.13469	108273664	97136640	31965872	24992
716	11.806491	108273664	97136640	25449928	24992
717	12.602898	108273664	97136640	19582304	24992
718	12.381486	108273664	97136640	30814488	24992
719	13.926991	108273664	97136640	26273272	24992
720	15.335379	108273664	97136640	22403872	24992
721	15.485756	108273664	97136640	19168344	24992
722	15.416696	108273664	97136640	33038440	24992
723	17.173214	108273664	97136640	31147152	24992
724	17.783393	108273664	97136640	29919184	24992
725	18.488098	108544000	97136640	29328424	24992
726	19.251275	108544000	97136640	29399200	24992
727	19.767714	108544000	97136640	30131520	24992
728	20.787983	108544000	97136640	31525392	24992
729	21.696622	108544000	97136640	33580632	24992
730	24.015185	108544000	97136640	19837832	24992
731	23.844233	108544000	97136640	23187752	24992
732	23.965388	108544000	97136640	27229072	24992
733	24.336626	108814336	97136640	31933848	24992
734	26.086759	108814336	97136640	20844888	24992
735	25.649018	108814336	97136640	26846544	24992
736	26.815471	108814336	97136640	33538656	24992
737	28.29046	108814336	97136640	24435968	24992
738	27.887351	108814336	97136640	32418304	24992
739	29.696096	109084672	97136640	24645528	24992
740	29.996266	109084672	97136640	33948952	24992
741	31.237468	109084672	97136640	27499920	24992
742	32.622781	109084672	97136640	21685200	24992
743	31.452582	109084672	97136640	32971008	24992
744	33.606804	109084672	97136640	28506880	24992
745	34.091983	109355008	97136640	24677040	24992
746	35.297761	109355008	97136640	21504864	24992
747	35.800811	109355008	97136640	18994776	24992
748	35.195341	109355008	97136640	33583016	24992
749	38.196956	109355008	97136640	32440520	24992
750	37.560196	109625344	97136640	31917136	24992
751	38.915229	109625344	97136640	32056224	24992
752	0.797429	109625344	97136640	32665776	24992
753	1.487253	109625344	97136640	34003504	24992
754	3.371492	109625344	97136640	19525104	24992
755	3.131152	109625344	97136640	22181648	24992
756	3.86958	109625344	97136640	25498104	24992
757	4.522793	109625344	97136640	29474032	24992
758	5.223911	109625344	97136640	34109296	24992
759	7.241878	109895680	97136640	22971352	24992
760	6.565307	109895680	97136640	28926432	24992
761	7.21431	109895680	97136640	35540872	24992
762	9.475238	109895680	97136640	26402432	24992
763	8.802532	109895680	97136640	34335680	24992
764	10.886811	109895680	97136640	26504376	24992
765	10.024981	109895680	97136640	35756424	24992
766	12.271183	109895680	97136640	29239952	24992
767	12.965005	109895680	97136640	23372280	24992
768	12.389066	109895680	97136640	34604400	24992
769	14.693383	109895680	97136640	30063056	24992
770	14.96671	109895680	97136640	26184800	24992
771	15.704246	109895680	97136640	22948392	24992
772	16.593534	110166016	97136640	20374368	24992
773	16.077001	110166016	97136640	34903872	24992
774	18.046746	110166016	97136640	33675856	24992
775	18.728522	110166016	97136640	33110488	24992
776	19.535553	110166016	97136640	33181248	24992
777	20.836466	110166016	97136640	33913560	24992
778	20.917053	110166016	97136640	35307200	24992
779	23.065325	110166016	97136640	20902408	24992
780	22.56884	110166016	97136640	23591864	24992
781	23.921478	110436352	97136640	26971968	24992
782	24.058298	110436352	97136640	31012432	24992
783	24.753186	110436352	97136640	35717304	24992
784	26.971952	110436352	97136640	24634240	24992
785	25.936438	110436352	97136640	30636232	24992
786	28.202446	110436352	97136640	20885720	24992
787	28.050819	110436352	97136640	28208392	24992
788	28.426386	110706688	97136640	36227256	24992
789	30.685957	110706688	97136640	28457688	24992
790	31.269622	110706688	97136640	21320008	24992
791	30.87442	110706688	97136640	31284776	24992
792	32.749454	110706688	97136640	25506296	24992
793	32.465949	110706688	97136640	36792392	24992
794	34.106895	110977024	97136640	32336536	24992
795	35.005063	110977024	97136640	28506000	24992
796	35.653827	110977024	97136640	25336280	24992
797	36.430439	110977024	97136640	22826920	24992
798	35.75941	110977024	97136640	37415544	24992
799	38.704018	111247360	97136640	36254512	24992
800	38.827622	111247360	97136640	35739064	24992
801	39.798308	111247360	97136640	35878104	24992
802	0.795669	111247360	97136640	36487688	24992
803	1.499587	111247360	97136640	37825416	24992
804	3.741453	111247360	97136640	23346392	24992
805	2.926247	111247360	97136640	26002936	24992
806	3.79972	111247360	97136640	29319392	24992
807	4.360554	111247360	97136640	33295256	24992
808	5.213247	111247360	97136640	37930520	24992
809	7.353204	111517696	97136640	26791952	24992
810	6.660249	111517696	97136640	32746984	24992
811	8.994008	111517696	97136640	22936280	24992
812	8.023565	111517696	97136640	30210120	24992
813	8.822264	111517696	97136640	38143368	24992
814	11.147963	111517696	97136640	30311320	24992
815	12.166463	111517696	97136640	23132408	24992
816	10.906064	111517696	97136640	33043864	24992
817	13.422764	111517696	97136640	27175944	24992
818	12.416971	111517696	97136640	38408064	24992
819	14.797365	111517696	97136640	33872232	24992
820	15.519753	111517696	97136640	29994320	24992
821	16.284454	111517696	97136640	26769968	24992
822	17.172771	111788032	97136640	24195976	24992
823	17.75221	111788032	97136640	22283520	24992
824	16.750421	111788032	97136640	37472424	24992
825	19.119194	111788032	97136640	36907096	24992
826	19.83774	111788032	97136640	37004280	24992
827	20.616422	111788032	97136640	37736472	24992
828	23.195992	111788032	97136640	22669064	24992
829	22.299926	111788032	97136640	24697992	24992
830	23.288431	111788032	97136640	27416504	24992
831	23.879129	111788032	97136640	30796424	24992
832	24.350333	112058368	97136640	34836888	24992
833	27.105761	112058368	97136640	23086152	24992
834	25.680143	112058368	97136640	28425488	24992
835	26.674262	112058368	97136640	34459880	24992
836	28.968928	112058368	97136640	24704128	24992
837	27.932682	112058368	97136640	32026792	24992
838	30.671984	112328704	97136640	23599808	24992
839	29.343938	112328704	97136640	32243536	24992
840	32.335519	112328704	97136640	25140016	24992
841	31.377497	112328704	97136640	35104816	24992
842	33.211722	112328704	97136640	29324448	24992
843	34.135852	112599040	97136640	24171456	24992
844	33.078971	112599040	97136640	36117920	24992
845	35.740844	112599040	97136640	32326664	24992
846	36.162009	112599040	97136640	29158944	24992
847	37.918847	112599040	97136640	26648736	24992
848	39.780483	112869376	97136640	24822200	24992
849	36.973342	112869376	97136640	40071192	24992
850	39.959357	112869376	97136640	39594776	24992
851	39.876581	113139712	97136640	39753104	24992
852	0.800213	113139712	97136640	40361936	24992
853	3.358102	113139712	97136640	25217040	24992
854	2.413138	113139712	97136640	27214176	24992
855	2.954705	113139712	97136640	29870736	24992
856	3.601948	113139712	97136640	33187192	24992
857	4.693309	113139712	97136640	37163056	24992
858	6.984764	113139712	97136640	25351888	24992
859	6.0359	113139712	97136640	30646560	24992
860	6.507791	113139712	97136640	36601592	24992
861	9.387072	113139712	97136640	26792448	24992
862	8.199101	113139712	97136640	34066384	24992
863	10.923342	113139712	97136640	25569632	24992
864	9.315779	113139712	97136640	34162272	24992
865	12.23181	113139712	97136640	26981456	24992
866	11.044559	113139712	97136640	36892912	24992
867	13.614505	113139712	97136640	31038944	24992
868	14.584966	113410048	97136640	25834280	24992
869	13.39826	113410048	97136640	37725840	24992
870	15.693605	113410048	97136640	33846168	24992
871	16.836013	113410048	97136640	30629616	24992
872	17.261999	113410048	97136640	28053744	24992
873	18.698223	113410048	97136640	26140312	24992
874	18.806135	113410048	97136640	24888424	24992
875	17.823686	113410048	97136640	40736736	24992
876	20.429219	113410048	97136640	40831824	24992
877	23.005123	113410048	97136640	25126568	24992
878	22.269718	113410048	97136640	26492600	24992
879	22.881047	113680384	97136640	28548672	24992
880	23.400837	113680384	97136640	31266016	24992
881	23.936153	113680384	97136640	34644136	24992
882	25.035288	113680384	97136640	38683680	24992
883	27.428678	113680384	97136640	26931344	24992
884	26.275018	113680384	97136640	32270488	24992
885	27.976199	113680384	97136640	38312960	24992
886	29.863974	113950720	97136640	28555416	24992
887	28.406045	113950720	97136640	35877896	24992
888	31.345422	113950720	97136640	27451688	24992
889	29.903305	113950720	97136640	36095224	24992
890	32.790054	113950720	97136640	28990632	24992
891	31.023239	113950720	97136640	38955192	24992
892	33.992689	114221056	97136640	33173736	24992
893	34.82126	114221056	97136640	28020328	24992
894	33.394275	114221056	97136640	39966424	24992
895	37.396938	114221056	97136640	36172864	24992
896	37.210661	114221056	97136640	33004248	24992
897	37.945583	114491392	97136640	30493464	24992
898	38.686037	114491392	97136640	28644968	24992
899	39.096696	114491392	97136640	27457936	24992
900	39.715823	114491392	97136640	26932312	24992
901	40.617949	114761728	97136640	27069128	24992
902	0.803012	114761728	97136640	27676872	24992
903	1.482221	114761728	97136640	29014600	24992
904	2.181356	114761728	97136640	31011736	24992
905	2.898376	114761728	97136640	33668280	24992
906	3.905546	114761728	97136640	36984736	24992
907	4.351573	114761728	97136640	40960600	24992
908	7.555177	114761728	97136640	29148264	24992
909	5.759107	114761728	97136640	34442968	24992
910	6.449737	114761728	97136640	40398000	24992
911	9.752101	114761728	97136640	30594136	24992
912	8.09265	114761728	97136640	37868072	24992
913	11.137751	114761728	97136640	29369016	24992
914	9.636593	114761728	97136640	37961656	24992
915	12.560688	114761728	97136640	30779720	24992
916	10.797603	114761728	97136640	40691224	24992
917	14.030877	114761728	97136640	34836344	24992
918	14.669681	114761728	97136640	29631152	24992
919	13.067562	114761728	97136640	41522680	24992
920	16.242573	115032064	97136640	37642368	24992
921	16.936005	115032064	97136640	34425144	24992
922	17.945878	115032064	97136640	31848920	24992
923	18.306176	115032064	97136640	29935152	24992
924	19.558026	115032064	97136640	28682904	24992
925	19.857423	115032064	97136640	28092184	24992
926	20.594801	115032064	97136640	28163016	24992
927	21.480525	115032064	97136640	28895392	24992
928	22.705296	115032064	97136640	30289320	24992
929	22.786497	115032064	97136640	32344808	24992
930	23.600615	115302400	97136640	35061848	24992
931	24.22671	115302400	97136640	38439616	24992
932	25.017533	115302400	97136640	42478488	24992
933	28.07674	115302400	97136640	30725672	24992
934	26.380131	115302400	97136640	36064880	24992
935	27.360908	115302400	97136640	42098936	24992
936	30.545024	115572736	97136640	32341184	24992
937	28.915432	115572736	97136640	39663680	24992
938	31.7766	115572736	97136640	31235488	24992
939	30.117372	115572736	97136640	39879072	24992
940	33.136731	115572736	97136640	32776208	24992
941	31.704793	115572736	97136640	42740944	24992
942	35.419498	115843072	97136640	36963184	24992
943	35.539115	115843072	97136640	31809808	24992
944	33.732339	115843072	97136640	43756080	24992
945	37.400483	115843072	97136640	39961848	24992
946	37.434468	115843072	97136640	36792240	24992
947	38.519907	116113408	97136640	34283408	24992
948	39.591724	116113408	97136640	32434160	24992
949	39.951784	116113408	97136640	31247240	24992
950	40.734586	116113408	97136640	30721760	24992
951	41.682421	116383744	97136640	30858784	24992
952	0.794064	116383744	97136640	31466880	24992
953	1.480407	116383744	97136640	32804656	24992
954	2.187249	116383744	97136640	34801792	24992
955	2.937485	116383744	97136640	37458336	24992
956	3.683218	116383744	97136640	40774792	24992
957	4.358801	116383744	97136640	44750656	24992
958	7.692571	116383744	97136640	32937696	24992
959	5.752951	116383744	97136640	38232368	24992
960	6.539343	116383744	97136640	44187416	24992
961	10.147192	116383744	97136640	34383584	24992
962	8.134196	116383744	97136640	41657728	24992
963	11.339154	116383744	97136640	33158656	24992
964	9.572152	116383744	97136640	41751328	24992
965	13.523201	116383744	97136640	34569440	24992
966	11.308386	116383744	97136640	44480976	24992
967	14.443581	116383744	97136640	38626144	24992
968	15.088561	116383744	97136640	33420936	24992
969	13.263262	116383744	97136640	45312464	24992
970	16.679734	116383744	97136640	41431448	24992
971	17.295558	116654080	97136640	38213952	24992
972	18.06345	116654080	97136640	35637728	24992
973	18.853426	116654080	97136640	33723048	24992
974	19.564446	116654080	97136640	32470784	24992
975	20.016387	116654080	97136640	31880112	24992
976	21.027191	116654080	97136640	31950960	24992
977	21.92044	116654080	97136640	32683352	24992
978	22.750046	116654080	97136640	34077264	24992
979	23.836233	116654080	97136640	36132736	24992
980	23.795027	116654080	97136640	38848848	24992
981	24.603756	116924416	97136640	42226520	24992
982	25.196183	116924416	97136640	46265312	24992
983	28.848919	116924416	97136640	34474520	24992
984	26.993651	116924416	97136640	39846208	24992
985	27.521889	116924416	97136640	45880104	24992
986	31.280854	116924416	97136640	36121584	24992
987	28.90559	116924416	97136640	43443248	24992
988	32.978618	117194752	97136640	35014960	24992
989	30.751412	117194752	97136640	43658608	24992
990	34.019844	117194752	97136640	36555728	24992
991	31.860318	117194752	97136640	46519552	24992
992	35.523308	117194752	97136640	40718600	24992
993	35.970816	117465088	97136640	35575744	24992
994	36.522312	117465088	97136640	31080448	24992
995	35.455807	117465088	97136640	43691784	24992
996	38.134439	117465088	97136640	40561208	24992
997	38.707467	117465088	97136640	38054424	24992
998	39.638768	117735424	97136640	36205336	24992
999	40.251329	117735424	97136640	35018096	24992
1000	41.164904	117735424	97136640	34492872	24992
