x	Duration	RSS	HeapTotal	HeapUsed	External
0	NA	95264768	64630784	10971672	24992
1	1.258151	95264768	64630784	11651752	24992
2	2.172753	95264768	64630784	12990104	24992
3	3.183781	95264768	64630784	14987872	24992
4	4.197037	95264768	64630784	17645096	24992
5	5.477423	95264768	64630784	20962392	24992
6	4.47671	95264768	64630784	24939224	24992
7	5.80677	95264768	64630784	13109480	24992
8	6.460959	95264768	64630784	18405408	24992
9	7.093458	95264768	64630784	24361856	24992
10	7.755499	95264768	64630784	14518640	24992
11	8.682953	95264768	64630784	21794168	24992
12	9.308005	95264768	64630784	13261800	24992
13	9.634868	95264768	64630784	21856432	24992
14	10.68423	95264768	64630784	14642536	24992
15	11.429164	95264768	64630784	24556336	24992
16	12.434961	95264768	64630784	18664232	24992
17	13.283802	95264768	64630784	13430360	24992
18	13.369723	95264768	64630784	25324728	24992
19	17.328709	95264768	64630784	21427184	24992
20	15.327146	95264768	64630784	18176904	24992
21	16.352232	95264768	64630784	15580376	24992
22	16.706165	95264768	64630784	13645280	24992
23	17.724841	95264768	64630784	12370728	24992
24	18.147411	95264768	64630784	11756728	24992
25	19.200253	95264768	64630784	11803280	24992
26	19.860984	95264768	64630784	12510432	24992
27	20.49926	95264768	64630784	13878088	24992
28	22.536934	95264768	64630784	15915288	24992
29	22.123696	95264768	64630784	18602056	24992
30	23.521667	95531008	64630784	21961328	24992
31	23.170871	95531008	64630784	25967976	24992
32	26.157395	95531008	64630784	14179160	24992
33	25.030484	95531008	64630784	19508648	24992
34	25.850553	95531008	64630784	25505168	24992
35	26.459158	95531008	64630784	15695152	24992
36	27.050269	95531008	64630784	23008464	24992
37	28.966076	95531008	64630784	14525992	24992
38	29.224343	95531008	64630784	23158216	24992
39	30.80011	95531008	64630784	16001960	24992
40	30.565367	95531008	64630784	25956936	24992
41	31.118469	95531008	64630784	20116536	24992
42	31.925694	95531008	64630784	14934912	24992
43	32.478074	95531008	64630784	26868472	24992
44	33.112631	95531008	64630784	23009968	24992
45	34.282686	95531008	64630784	19813104	24992
46	34.86178	95531008	64630784	17271672	24992
47	35.73634	95531008	64630784	15391472	24992
48	37.265091	95531008	64630784	14180528	24992
49	37.408379	95531008	64630784	13622320	24992
50	37.784849	95531008	64630784	13726024	24992
51	38.319818	95531008	64630784	14490896	24992
52	0.812911	95531008	64630784	15744784	24992
53	1.532596	95531008	64630784	17082872	24992
54	2.241917	95531008	64630784	19080352	24992
55	3.184743	95531008	64630784	21737320	24992
56	3.701129	95531008	64630784	25054296	24992
57	4.426611	95531008	64630784	29030808	24992
58	5.541285	95531008	64630784	17198208	24992
59	5.895537	95531008	64630784	22493624	24992
60	6.662418	95531008	64630784	28449512	24992
61	7.844504	95531008	64630784	18605080	24992
62	8.078225	95531008	64630784	25879904	24992
63	9.294735	95531008	64630784	17346752	24992
64	9.647454	95531008	64630784	25940552	24992
65	10.827501	95531008	64630784	18725760	24992
66	11.279815	95531008	64630784	28638520	24992
67	12.182401	95531008	64630784	22745232	24992
68	13.313237	95531008	64630784	17510608	24992
69	14.107315	95531008	64630784	12933000	24992
70	14.082467	95531008	64630784	25485000	24992
71	15.59664	95531008	64630784	22233464	24992
72	15.792121	95531008	64630784	19641232	24992
73	16.751361	95531008	64630784	17702760	24992
74	17.50345	95531008	64630784	16425632	24992
75	18.09037	95531008	64630784	15808960	24992
76	19.085914	95531008	64630784	15852800	24992
77	19.768711	95531008	64630784	16556968	24992
78	20.413181	95531008	64630784	17921648	24992
79	21.362418	95531008	64630784	19946752	24992
80	22.358408	95531008	64630784	22631552	24992
81	23.352902	95801344	64630784	25986424	24992
82	23.686926	95801344	64630784	13546200	24992
83	25.064634	95801344	64630784	18222552	24992
84	25.114095	95801344	64630784	23590944	24992
85	25.644247	95801344	64630784	29618240	24992
86	26.740497	95801344	64630784	19829992	24992
87	27.46765	95801344	64630784	27168944	24992
88	28.311118	95801344	64630784	18728712	24992
89	29.074359	95801344	64630784	27371688	24992
90	29.839089	95801344	64630784	20260440	24992
91	30.787906	95801344	64630784	13783192	24992
92	31.288473	95801344	64630784	24407928	24992
93	32.246218	95801344	64630784	19282432	24992
94	32.64152	95801344	64630784	14786680	24992
95	33.748765	95801344	64630784	27393048	24992
96	34.196178	95801344	64630784	24252840	24992
97	35.142504	95801344	64630784	21745648	24992
98	36.172126	95801344	64630784	19896392	24992
99	36.53088	95801344	64630784	18708440	24992
100	37.341215	95801344	64630784	18182760	24992
101	37.981428	95801344	64630784	18319392	24992
102	0.813917	95801344	64630784	18926760	24992
103	1.599805	95801344	64630784	20264504	24992
104	2.243863	95801344	64630784	22261656	24992
105	3.184747	95801344	64630784	24918216	24992
106	3.742509	95801344	64630784	28234848	24992
107	5.010273	95801344	64630784	15754248	24992
108	5.416533	95801344	64630784	20389528	24992
109	5.861154	95801344	64630784	25684216	24992
110	7.39384	95801344	64630784	15209232	24992
111	7.330256	95801344	64630784	21823688	24992
112	8.088423	95801344	64630784	29097544	24992
113	9.784731	95801344	64630784	20607392	24992
114	9.73691	95801344	64630784	29200072	24992
115	10.931433	95801344	64630784	22030216	24992
116	11.558627	95801344	64630784	15497992	24992
117	12.4601	95801344	64630784	26068872	24992
118	13.207546	95801344	64630784	20863264	24992
119	13.885206	95801344	64630784	16320704	24992
120	14.059605	95801344	64630784	28872152	24992
121	15.495506	95801344	64630784	25654440	24992
122	16.335971	95801344	64630784	23099864	24992
123	16.90364	95801344	64630784	21185376	24992
124	17.742895	95801344	64630784	19932328	24992
125	18.630141	95801344	64630784	19341768	24992
126	19.133983	95801344	64630784	19412616	24992
127	19.980956	95801344	64630784	20145008	24992
128	21.274463	95801344	64630784	21538936	24992
129	21.969368	95801344	64630784	23593512	24992
130	22.331988	95801344	64630784	26309624	24992
131	23.048828	95801344	64630784	29686848	24992
132	24.257691	95801344	64630784	17267984	24992
133	24.45216	95801344	64630784	21941040	24992
134	25.492529	95801344	64630784	27306136	24992
135	26.681889	95801344	64630784	16879696	24992
136	27.262829	95801344	64630784	23541936	24992
137	27.310118	95801344	64630784	30892888	24992
138	29.163813	95801344	64630784	22452432	24992
139	29.130011	95801344	64630784	31095040	24992
140	30.899656	95801344	64630784	23984032	24992
141	31.137106	95801344	64630784	17506928	24992
142	31.81552	95801344	64630784	28135600	24992
143	32.658194	95801344	64630784	23009984	24992
144	34.152995	95801344	64630784	18517608	24992
145	33.405567	95801344	64630784	31124056	24992
146	35.736694	95801344	64630784	27987936	24992
147	35.648233	95801344	64630784	25479560	24992
148	36.914465	95801344	64630784	23632320	24992
149	37.28484	95801344	64630784	22444384	24992
150	39.102205	96071680	64630784	21918112	24992
151	38.960507	96071680	64630784	22054072	24992
152	0.808395	96071680	64630784	22661376	24992
153	1.533296	96071680	64630784	23999120	24992
154	2.231477	96071680	64630784	25996272	24992
155	3.18639	96071680	64630784	28652832	24992
156	3.900348	96071680	64630784	31969304	24992
157	5.681449	96071680	64630784	19488656	24992
158	5.422835	96071680	64630784	24123968	24992
159	5.874416	96071680	64630784	29418688	24992
160	7.858871	96071680	64630784	18943544	24992
161	7.473767	96071680	64630784	25558016	24992
162	8.270975	96071680	64630784	32831872	24992
163	10.034115	96071680	64630784	24341048	24992
164	9.795202	96071680	64630784	32933752	24992
165	11.469307	96342016	64630784	25763328	24992
166	12.198119	96342016	64630784	19231168	24992
167	11.828052	96342016	64630784	29802048	24992
168	13.873097	96342016	64630784	24596520	24992
169	14.499928	96342016	64630784	20053928	24992
170	16.049493	96342016	64630784	32613856	24992
171	15.989696	96342016	65155072	29396200	24992
172	16.407872	96342016	65155072	26841304	24992
173	17.760101	96342016	65155072	24926704	24992
174	17.899005	96612352	65155072	23673640	24992
175	19.23762	96612352	65155072	23082056	24992
176	20.227143	96612352	65155072	23152488	24992
177	20.132005	96612352	65155072	23884576	24992
178	21.328373	96612352	65155072	25277672	24992
179	22.274351	96612352	65155072	27332408	24992
180	22.813748	96612352	65155072	30048616	24992
181	23.000308	96612352	65155072	33425824	24992
182	25.115622	96882688	65155072	21006368	24992
183	25.414062	96882688	65155072	25679472	24992
184	25.880852	96882688	65155072	31044632	24992
185	27.401847	96882688	65155072	20617248	24992
186	27.61835	96882688	65155072	27278960	24992
187	29.443939	96882688	65155072	18182504	24992
188	28.853862	96882688	65155072	26165096	24992
189	31.395068	97153024	65155072	18389824	24992
190	30.255352	97153024	65155072	27693472	24992
191	32.168879	97153024	65155072	21243272	24992
192	32.009059	97153024	65155072	31868136	24992
193	33.673024	97153024	65155072	26740592	24992
194	34.758454	97153024	65155072	22248376	24992
195	34.790425	97153024	65155072	34854984	24992
196	35.730062	97423360	65155072	31687808	24992
197	36.65518	97423360	65155072	29194800	24992
198	37.200538	97423360	65155072	27349112	24992
199	38.947559	97423360	65155072	26169264	24992
200	39.226124	97423360	65155072	25643432	24992
201	39.61088	97423360	65155072	25779928	24992
202	0.808433	97423360	65155072	26387256	24992
203	1.523551	97423360	65155072	27725000	24992
204	2.225015	97423360	65155072	29722152	24992
205	3.347899	97423360	65155072	32378712	24992
206	3.729564	97423360	65155072	35695184	24992
207	5.785702	97423360	65155072	23213480	24992
208	5.417449	97423360	65155072	27848760	24992
209	5.854788	97423360	65155072	33143448	24992
210	8.240943	97423360	65155072	22668208	24992
211	7.347801	97423360	65155072	29282664	24992
212	9.713412	97423360	65155072	20119728	24992
213	8.846033	97423360	65155072	28052992	24992
214	11.141401	97423360	65155072	20207880	24992
215	10.300765	97423360	65155072	29459944	24992
216	12.609882	97423360	65155072	22942096	24992
217	12.096038	97423360	65155072	33512976	24992
218	14.024305	97423360	65155072	28323600	24992
219	15.239084	97423360	65155072	23781008	24992
220	15.520078	97423360	65155072	19882608	24992
221	14.813146	97423360	65155072	33093320	24992
222	17.069663	97423360	65155072	30538296	24992
223	17.734163	97423360	65155072	28646208	24992
224	18.501466	97423360	65155072	27393208	24992
225	19.206489	97423360	65155072	26801656	24992
226	20.475492	97423360	65155072	26871640	24992
227	21.36456	97423360	65155072	27603168	24992
228	21.556805	97423360	65155072	28996216	24992
229	22.403856	97423360	65155072	31056568	24992
230	22.89019	97423360	65155072	33775128	24992
231	25.719001	97423360	65155072	20693648	24992
232	24.956611	97423360	65155072	24703360	24992
233	25.570292	97423360	65155072	29408200	24992
234	26.241223	97423360	65155072	34779416	24992
235	28.49873	97423360	65155072	24359472	24992
236	28.133468	97423360	65155072	31021408	24992
237	29.663298	97423360	65155072	21932616	24992
238	29.611636	97423360	65155072	29915672	24992
239	31.346208	97423360	65155072	22148608	24992
240	30.83592	97423360	65155072	31452656	24992
241	32.975088	97423360	65155072	25010616	24992
242	32.173114	97423360	65155072	35635800	24992
243	35.057183	97423360	65155072	30517040	24992
244	35.361083	97423360	65155072	26025392	24992
245	36.343628	97423360	65155072	22191736	24992
246	34.881897	97423360	65155072	35458904	24992
247	37.579983	97423360	65155072	32990576	24992
248	38.454035	97423360	65155072	31143456	24992
249	39.333377	97423360	65155072	29959960	24992
250	39.45855	97423360	65155072	29434208	24992
251	40.56124	97423360	65155072	29570752	24992
252	0.812236	97423360	65155072	30178304	24992
253	1.526452	97423360	65155072	31516048	24992
254	2.234943	97423360	65155072	33513200	24992
255	3.180926	97423360	65155072	36169776	24992
256	6.400405	97423360	65155072	23021736	24992
257	4.654844	97423360	65155072	26997616	24992
258	5.34658	97423360	65155072	31632896	24992
259	5.870219	97423360	65155072	36927584	24992
260	8.566976	97423360	65155072	26452368	24992
261	7.337782	97423360	65155072	33066824	24992
262	10.052358	97423360	65155072	23911144	24992
263	9.011149	97423360	65155072	31844408	24992
264	11.50582	97423360	65155072	23999296	24992
265	10.307006	97423360	65155072	33251360	24992
266	12.980518	97423360	65155072	26733064	24992
267	11.97697	97423360	65155072	37303944	24992
268	14.263039	97693696	65155072	32114584	24992
269	15.434941	97693696	65155072	27571992	24992
270	15.746865	97693696	65155072	23673152	24992
271	14.900743	97693696	65155072	36883856	24992
272	17.672898	97693696	65155072	34328208	24992
273	18.187353	97693696	65155072	32435352	24992
274	18.993772	97693696	65155072	31182256	24992
275	19.740879	97693696	65155072	30590688	24992
276	20.629935	97693696	65155072	30660656	24992
277	21.355318	97693696	65155072	31392168	24992
278	22.250668	97693696	65155072	32785248	24992
279	22.575288	97693696	65155072	34839696	24992
280	23.483971	97693696	65155072	37555376	24992
281	26.583793	97693696	65155072	24473944	24992
282	25.651381	97693696	65155072	28483736	24992
283	25.759836	97693696	65155072	33187792	24992
284	26.464289	97693696	65155072	38558736	24992
285	29.04326	97693696	65155072	28138072	24992
286	28.121579	97693696	65155072	34799640	24992
287	30.486057	97693696	65155072	25708848	24992
288	29.659694	97693696	65155072	33691856	24992
289	32.426683	97693696	65155072	25928280	24992
290	30.973205	97693696	65155072	35232360	24992
291	34.018049	97693696	65155072	28788448	24992
292	32.611177	97693696	65155072	39412960	24992
293	35.467781	97693696	65155072	34269288	24992
294	35.842861	97693696	65155072	29794616	24992
295	37.062889	97693696	65155072	25960624	24992
296	36.336566	97693696	65155072	39227952	24992
297	38.346324	97693696	65155072	36759176	24992
298	39.179575	97693696	65155072	34911928	24992
299	39.466297	97693696	65155072	33727200	24992
300	40.166958	97693696	65155072	33203256	24992
301	41.135675	97693696	65155072	33339960	24992
302	0.810176	97693696	65155072	33947720	24992
303	1.523342	97693696	65155072	35285464	24992
304	2.227412	97693696	65155072	37282616	24992
305	3.01669	97693696	65155072	39939176	24992
306	5.927151	97693696	65155072	26790608	24992
307	4.473268	97693696	65155072	30766488	24992
308	5.134474	97693696	65155072	35401768	24992
309	8.044734	97693696	65155072	24255232	24992
310	6.615527	97693696	65155072	30210280	24992
311	7.592107	97693696	65155072	36824752	24992
312	10.470972	97693696	65155072	27669080	24992
313	9.600851	97693696	65155072	35613296	24992
314	12.038379	97693696	65155072	27779296	24992
315	10.46788	97693696	65155072	37031392	24992
316	13.387235	97693696	65155072	30513480	24992
317	14.151081	97693696	65155072	24643848	24992
318	12.666056	97693696	65155072	35876008	24992
319	15.395201	97693696	65155072	31333008	24992
320	16.39956	97693696	65155072	27453360	24992
321	14.826802	97693696	65155072	40664128	24992
322	17.877438	97693696	65155072	38101040	24992
323	18.683152	97693696	65155072	36208656	24992
324	19.700881	97693696	65155072	34962336	24992
325	20.569513	97693696	65155072	34370528	24992
326	21.015918	97693696	65155072	34440480	24992
327	22.127276	97693696	65155072	35171976	24992
328	22.291785	97693696	65155072	36564784	24992
329	23.224949	97693696	65155072	38618896	24992
330	26.586041	97693696	65155072	24874784	24992
331	24.771906	97693696	65155072	28223984	24992
332	25.385422	97693696	65155072	32264512	24992
333	26.160407	97693696	65155072	36968224	24992
334	29.56617	97693696	65155072	25885152	24992
335	27.772183	97693696	65155072	31886392	24992
336	28.771235	97693696	65155072	38585200	24992
337	31.721327	97693696	65155072	29490144	24992
338	30.331623	97693696	65155072	37473264	24992
339	32.959965	97693696	65155072	29707752	24992
340	31.630484	97693696	65155072	39011896	24992
341	34.545567	97693696	65155072	32571440	24992
342	35.382028	97693696	65155072	26756280	24992
343	33.600339	97693696	65155072	38041848	24992
344	36.814981	97693696	65155072	33585768	24992
345	38.011987	97693696	65155072	29755520	24992
346	38.342441	97693696	65155072	26583720	24992
347	36.913392	97693696	65155072	40511400	24992
348	39.936274	97693696	65155072	38705720	24992
349	40.622898	97693696	65155072	37520096	24992
350	41.171548	97693696	65155072	36996936	24992
351	42.243014	97693696	65155072	37135304	24992
352	0.815876	97693696	65155072	37742808	24992
353	1.579186	97693696	65155072	39080568	24992
354	2.227068	97693696	65155072	41077720	24992
355	5.576306	97693696	65155072	27262872	24992
356	3.915588	97693696	65155072	30579344	24992
357	4.639359	97693696	65155072	34555224	24992
358	5.340711	97693696	65155072	39190552	24992
359	8.693998	97693696	65155072	28044152	24992
360	6.923861	97693696	65155072	34003648	24992
361	7.32792	97693696	65155072	40618104	24992
362	10.713782	97693696	65155072	31473672	24992
363	9.01781	97693696	65155072	39406936	24992
364	12.345007	97693696	65155072	31577016	24992
365	10.483792	97693696	65155072	40829128	24992
366	13.894115	97693696	65155072	34310672	24992
367	14.666762	97693696	65155072	28441032	24992
368	12.488283	97693696	65155072	39673168	24992
369	16.243991	97693696	65155072	35130024	24992
370	16.612659	97693696	65155072	31250376	24992
371	18.140447	97693696	65155072	28013560	24992
372	15.661305	97693696	65155072	41883720	24992
373	18.975673	97693696	65155072	39991176	24992
374	19.941124	97693696	65155072	38761416	24992
375	20.45002	97693696	65155072	38169448	24992
376	21.317937	97693696	65155072	38239016	24992
377	21.941326	97693696	65155072	38970064	24992
378	23.071458	97693696	65155072	40362648	24992
379	23.858832	97693696	65155072	42416712	24992
380	27.365609	97693696	65155072	28672664	24992
381	25.359727	97693696	65155072	32022008	24992
382	26.275099	97693696	65155072	36062440	24992
383	26.460944	97693696	65155072	40766200	24992
384	30.696151	97693696	65155072	29682936	24992
385	28.254969	97693696	65155072	35684352	24992
386	28.904925	97693696	65155072	42383208	24992
387	32.745269	97693696	65155072	33288088	24992
388	30.417663	97693696	65155072	41270376	24992
389	34.504956	97693696	65155072	33504720	24992
390	31.882003	97693696	65155072	42808016	24992
391	35.870205	97693696	65155072	36367624	24992
392	36.414955	97693696	65155072	30552608	24992
393	34.585485	97693696	65155072	41838224	24992
394	37.659124	97693696	65155072	37382032	24992
395	38.828936	97693696	65155072	33551976	24992
396	39.175139	97693696	65155072	30379920	24992
397	36.943463	97693696	65155072	44307664	24992
398	40.978983	97693696	65155072	42487144	24992
399	41.291604	97693696	65155072	41305832	24992
400	42.153383	97693696	65155072	40781824	24992
401	43.066543	97693696	65155072	40920352	24992
402	0.810388	97693696	65155072	41529664	24992
403	1.544578	97693696	65155072	42867408	24992
404	2.256988	97693696	65155072	44864560	24992
405	5.998232	97693696	65155072	31049104	24992
406	3.793272	97693696	65155072	34365576	24992
407	4.481431	97693696	65155072	38341488	24992
408	5.138533	97693696	65155072	42976768	24992
409	9.117817	97693696	65155072	31833808	24992
410	6.838281	97693696	65155072	37788856	24992
411	7.754378	97693696	65155072	44403312	24992
412	11.151134	97693696	65155072	35254432	24992
413	8.803114	97693696	65155072	43187792	24992
414	13.027205	97693696	65155072	35353200	24992
415	10.566218	97693696	65155072	44605264	24992
416	14.15912	97693696	65155072	38086056	24992
417	15.150197	97693696	65155072	32216512	24992
418	12.466751	97693696	65155072	43448648	24992
419	16.431132	97693696	65155072	38905472	24992
420	17.244104	97693696	65155072	35025808	24992
421	17.902815	97693696	65155072	31788064	24992
422	18.825239	97693696	65155072	29207400	24992
423	16.332668	97693696	65155072	43736912	24992
424	20.150827	97693696	65155072	42506952	24992
425	21.191533	97693696	65155072	41939712	24992
426	22.022267	97693696	65155072	42009536	24992
427	22.665621	97693696	65155072	42740616	24992
428	23.385049	97693696	65155072	44133104	24992
429	28.039751	97693696	65679360	29726424	24992
430	24.584606	97693696	66203648	32415096	24992
431	25.423681	97964032	66203648	35793992	24992
432	26.793875	97964032	66203648	39833184	24992
433	27.098657	97964032	66203648	44537072	24992
434	31.120482	97964032	66203648	33453840	24992
435	28.478985	97964032	66203648	39455288	24992
436	29.461349	98234368	66203648	46154272	24992
437	33.421778	98234368	66203648	37035056	24992
438	30.80464	98234368	66203648	45035216	24992
439	34.685691	98504704	66203648	37265896	24992
440	32.436142	98504704	66203648	46569224	24992
441	36.289006	98504704	66203648	40080928	24992
442	36.674572	98504704	66727936	34301240	24992
443	34.484771	98504704	66727936	45586968	24992
444	38.5837	98775040	66727936	41130200	24992
445	38.966922	98775040	66727936	37300112	24992
446	39.944645	99045376	66727936	34127752	24992
447	40.739705	99045376	66727936	31617608	24992
448	38.602603	99045376	66727936	46205928	24992
449	42.281027	99315712	66727936	45062768	24992
450	42.915936	99315712	66727936	44538776	24992
451	43.486013	99315712	67252224	44677160	24992
452	0.83181	99315712	67252224	45286648	24992
453	1.522338	99315712	67252224	46624392	24992
454	5.631815	99315712	67252224	32144264	24992
455	3.038681	99315712	67252224	34800856	24992
456	3.742204	99315712	67252224	38117328	24992
457	4.454386	99586048	67252224	42093208	24992
458	5.187632	99586048	67252224	46728488	24992
459	9.522627	99586048	67776512	35585592	24992
460	6.683649	99586048	67776512	41540640	24992
461	10.764974	99586048	67776512	31725632	24992
462	8.091746	99586048	67776512	38999480	24992
463	9.007336	99586048	67776512	46932744	24992
464	13.150709	99586048	67776512	39097464	24992
465	13.732491	99586048	67776512	31915968	24992
466	11.225235	99586048	67776512	41827440	24992
467	15.392423	99586048	67776512	35957592	24992
468	12.664864	99586048	67776512	47189744	24992
469	16.806466	99856384	67776512	42663352	24992
470	17.7533	99856384	67776512	38783368	24992
471	18.29001	99856384	67776512	35545608	24992
472	19.049325	99856384	67776512	32970328	24992
473	16.733593	99856384	67776512	47499864	24992
474	20.767411	99856384	67776512	46269248	24992
475	21.577339	99856384	67776512	45702184	24992
476	22.164653	100126720	67776512	45771496	24992
477	22.778068	100126720	67776512	46502320	24992
478	23.800971	100126720	67776512	47894904	24992
479	28.056233	100126720	67776512	33485584	24992
480	25.232011	100126720	67776512	36173968	24992
481	26.008367	100126720	67776512	39552864	24992
482	26.481152	100397056	68300800	43592088	24992
483	27.744891	100397056	68300800	48295496	24992
484	31.699317	100397056	68300800	37193992	24992
485	28.897138	100397056	68300800	43207936	24992
486	33.163922	100667392	68300800	33452368	24992
487	30.610889	100667392	68300800	40774704	24992
488	31.071399	100667392	68300800	48793024	24992
489	35.631988	100667392	68825088	40977512	24992
490	35.847734	100937728	68825088	33872512	24992
491	33.141226	100937728	68825088	43837024	24992
492	37.583136	100937728	68825088	38056592	24992
493	38.506441	101208064	68825088	32901520	24992
494	36.163038	101208064	68825088	44847552	24992
495	39.886013	101208064	68825088	41054136	24992
496	41.342893	101208064	68825088	37885872	24992
497	41.605472	101478400	69349376	35375424	24992
498	42.641885	101478400	69349376	33526752	24992
499	39.38907	101478400	69349376	48775584	24992
500	43.640724	101748736	69349376	48294576	24992
501	44.208517	101748736	69873664	48433120	24992
502	0.818142	101748736	69873664	49042544	24992
503	5.125445	101748736	69873664	33898136	24992
504	2.32414	101748736	69873664	35895280	24992
505	3.028125	101748736	69873664	38551840	24992
506	3.764861	101748736	69873664	41868312	24992
507	4.680912	101748736	69873664	45844192	24992
508	8.84935	101748736	69873664	34032024	24992
509	6.128416	101748736	69873664	39326880	24992
510	6.688988	101748736	69873664	45281928	24992
511	11.088413	102019072	69873664	35471440	24992
512	8.307184	102019072	69873664	42745296	24992
513	12.876691	102019072	69873664	34246736	24992
514	9.69078	102019072	69873664	42839392	24992
515	14.40365	102019072	69873664	35657968	24992
516	11.808297	102019072	69873664	45569488	24992
517	15.964046	102019072	69873664	39714832	24992
518	16.840359	102019072	69873664	34509640	24992
519	13.484239	102019072	69873664	46401248	24992
520	17.692176	102019072	69873664	42521224	24992
521	18.872484	102289408	69873664	39304224	24992
522	19.353951	102289408	69873664	36728480	24992
523	20.44081	102289408	69873664	34814744	24992
524	17.124469	102289408	69873664	50003656	24992
525	21.849194	102289408	69873664	49435616	24992
526	22.778411	102289408	69873664	49530896	24992
527	23.180866	102559744	69873664	50261032	24992
528	28.182113	102559744	70397952	35186152	24992
529	24.970104	102559744	70922240	37216840	24992
530	25.979401	102559744	70922240	39934096	24992
531	26.315892	102559744	70922240	43312232	24992
532	26.827203	102830080	70922240	47351488	24992
533	31.874479	102830080	70922240	35598736	24992
534	28.519753	102830080	70922240	40938024	24992
535	29.519683	102830080	70922240	46972000	24992
536	33.769727	103100416	70922240	37214456	24992
537	31.082144	103100416	70922240	44536856	24992
538	35.591147	103100416	70922240	36110920	24992
539	32.96443	103100416	70922240	44754392	24992
540	36.93984	103370752	70922240	37649976	24992
541	34.45491	103370752	70922240	47614520	24992
542	38.067357	103370752	71446528	41833096	24992
543	38.870309	103370752	71446528	36679576	24992
544	36.317897	103641088	71446528	48625688	24992
545	40.640711	103641088	71446528	44832064	24992
546	41.161909	103641088	71446528	41664504	24992
547	42.360555	103911424	71446528	39153672	24992
548	43.860133	103911424	71446528	37305112	24992
549	45.405207	103911424	71446528	36117968	24992
550	40.569165	103911424	71970816	52027264	24992
551	46.268385	104181760	71970816	52152080	24992
552	4.850541	104181760	72495104	36314832	24992
553	1.545997	104181760	72495104	37652648	24992
554	2.291152	104181760	72495104	39649800	24992
555	2.953025	104181760	72495104	42306360	24992
556	3.737439	104181760	72495104	45629632	24992
557	4.448128	104181760	72495104	49605560	24992
558	9.731124	104181760	72495104	37795648	24992
559	5.977146	104181760	72495104	43090400	24992
560	6.93111	104181760	72495104	49045448	24992
561	11.713539	104452096	72495104	39246392	24992
562	8.387781	104452096	72495104	46520248	24992
563	13.402763	104452096	72495104	38023168	24992
564	9.654404	104452096	72495104	46615840	24992
565	17.056999	104452096	72495104	39435776	24992
566	19.608195	104452096	72495104	16308776	24992
567	11.982022	104452096	72495104	26880504	24992
568	13.376321	104452096	72495104	21638840	24992
569	13.417615	104452096	72495104	17063104	24992
570	15.382662	104452096	72495104	13151344	24992
571	14.90557	104452096	72495104	26362048	24992
572	15.866756	104452096	72495104	23813488	24992
573	16.650966	104452096	72495104	21949568	24992
574	17.364108	104452096	72495104	20719656	24992
575	18.112113	104452096	72495104	20152512	24992
576	19.308195	104452096	72495104	20247952	24992
577	20.25591	104452096	72495104	21005952	24992
578	20.41998	104452096	72495104	22426536	24992
579	21.216318	104452096	72495104	24509440	24992
580	22.524471	104452096	72495104	27254608	24992
581	22.976506	104722432	72495104	14225056	24992
582	23.859758	104722432	72495104	18257552	24992
583	24.795749	104722432	72495104	22994096	24992
584	25.170801	104722432	72495104	28396200	24992
585	26.343889	104722432	72495104	17965736	24992
586	26.891109	104722432	72495104	24691984	24992
587	27.952396	104992768	72495104	15654632	24992
588	28.659712	104992768	72495104	23663080	24992
589	29.280427	104992768	72495104	15959328	24992
590	30.04507	104992768	72495104	25290296	24992
591	31.271047	104992768	72495104	18912504	24992
592	32.098376	104992768	72495104	13153912	24992
593	32.238131	104992768	72495104	24468488	24992
594	33.056883	104992768	72495104	20082176	24992
595	34.513918	104992768	72495104	16312952	24992
596	34.766771	104992768	72495104	13203592	24992
597	35.289175	104992768	72495104	27163208	24992
598	36.533375	104992768	72495104	25434288	24992
599	36.891226	104992768	72495104	24315464	24992
600	38.002422	104992768	72495104	23861432	24992
601	38.508338	104992768	72495104	24067704	24992
602	0.838417	104992768	72495104	24719568	24992
603	1.567147	104992768	72495104	26057312	24992
604	2.288	104992768	72495104	28054464	24992
605	3.987814	104992768	72495104	14244696	24992
606	3.749892	104992768	72495104	17561224	24992
607	4.678636	104992768	72495104	21537104	24992
608	5.357393	104992768	72495104	26172384	24992
609	6.764159	104992768	72495104	15040720	24992
610	6.615852	104992768	72495104	20995768	24992
611	7.375975	104992768	72495104	27610256	24992
612	8.919094	104992768	72495104	18483216	24992
613	8.900685	104992768	72495104	26416496	24992
614	10.442427	104992768	72495104	18604384	24992
615	10.488095	104992768	72495104	27856448	24992
616	12.280523	104992768	72495104	21360704	24992
617	12.588254	104992768	72495104	15511536	24992
618	12.67718	104992768	72495104	26743688	24992
619	14.289179	104992768	72495104	22223888	24992
620	15.020648	104992768	72495104	18368760	24992
621	15.850967	104992768	72495104	15152464	24992
622	15.735703	104992768	72495104	29022608	24992
623	17.242364	104992768	72495104	27158480	24992
624	18.312808	104992768	72495104	25958456	24992
625	19.0098	104992768	72495104	25390928	24992
626	19.936984	104992768	72495104	25489304	24992
627	20.227459	104992768	72495104	26247288	24992
628	21.429734	104992768	72495104	27668840	24992
629	22.330629	104992768	72495104	29731808	24992
630	24.228087	104992768	72495104	15990352	24992
631	23.721609	104992768	72495104	19340696	24992
632	24.285035	104992768	72495104	23382824	24992
633	25.377798	104992768	72495104	28088128	24992
634	26.941211	104992768	72495104	16999400	24992
635	26.9113	104992768	72495104	23000704	24992
636	27.385005	104992768	72495104	29692680	24992
637	28.878432	104992768	72495104	20590488	24992
638	28.589781	104992768	72495104	28573272	24992
639	30.617837	104992768	72495104	20800128	24992
640	30.293284	104992768	72495104	30103424	24992
641	31.989765	104992768	72495104	23655400	24992
642	32.675115	104992768	72495104	17840432	24992
643	33.126596	104992768	72495104	29126096	24992
644	34.187296	104992768	72495104	24661600	24992
645	35.32371	104992768	72495104	20831544	24992
646	36.124237	104992768	72495104	17659552	24992
647	35.528627	104992768	72495104	31587360	24992
648	37.720647	104992768	72495104	29769272	24992
649	38.232364	104992768	72495104	28577224	24992
650	38.796435	104992768	72495104	28053280	24992
651	39.36047	104992768	72495104	28191680	24992
652	0.829128	104992768	72495104	28800696	24992
653	1.542995	104992768	72495104	30138464	24992
654	2.343644	104992768	72495104	32135592	24992
655	4.413952	104992768	72495104	18323256	24992
656	3.751692	104992768	72495104	21639760	24992
657	4.468351	104992768	72495104	25615624	24992
658	5.372963	104992768	72495104	30250888	24992
659	7.595762	104992768	72495104	19114600	24992
660	6.624953	104992768	72495104	25069632	24992
661	7.783262	104992768	72495104	31684072	24992
662	9.459289	104992768	72495104	22541400	24992
663	8.81638	104992768	72495104	30474648	24992
664	11.055806	104992768	72495104	22644480	24992
665	10.591918	104992768	72495104	31896528	24992
666	12.306928	104992768	72495104	25381544	24992
667	13.31467	104992768	72495104	19514560	24992
668	12.670382	104992768	72495104	30746680	24992
669	14.852162	104992768	72495104	26206136	24992
670	15.573116	104992768	72495104	22329144	24992
671	16.415035	104992768	72495104	19093600	24992
672	15.794193	104992768	72495104	32963728	24992
673	17.512155	104992768	72495104	31060408	24992
674	18.821593	104992768	72495104	29833128	24992
675	19.506635	104992768	72495104	29255040	24992
676	20.32766	104992768	72495104	29326376	24992
677	20.655088	104992768	72495104	30059176	24992
678	21.799062	104992768	72495104	31453528	24992
679	23.878398	104992768	72495104	17049520	24992
680	23.477555	104992768	72495104	19739136	24992
681	24.310422	104992768	72495104	23119656	24992
682	24.439764	104992768	72495104	27160632	24992
683	25.82186	104992768	72495104	31865936	24992
684	27.412152	104992768	72495104	20777064	24992
685	26.692061	104992768	72495104	26778544	24992
686	28.132663	104992768	72495104	33470632	24992
687	29.964502	104992768	72495104	24353544	24992
688	28.939818	104992768	72495104	32344552	24992
689	31.19659	104992768	72495104	24567536	24992
690	30.569844	104992768	72495104	33871544	24992
691	33.034958	104992768	72495104	27394408	24992
692	33.409464	104992768	72495104	21598184	24992
693	33.139107	104992768	72495104	32883896	24992
694	34.880905	104992768	72495104	28419480	24992
695	36.019623	104992768	72495104	24589296	24992
696	37.570672	104992768	72495104	21417080	24992
697	37.825481	104992768	72495104	18906968	24992
698	36.609198	104992768	72495104	33495208	24992
699	39.079917	104992768	72495104	32342624	24992
700	40.084174	104992768	72495104	31821024	24992
701	40.460049	104992768	72495104	31959376	24992
702	0.816869	104992768	72495104	32568456	24992
703	1.565037	104992768	72495104	33906184	24992
704	3.802031	104992768	72495104	19428296	24992
705	3.209939	104992768	72495104	22084840	24992
706	3.908076	104992768	72495104	25401344	24992
707	4.459182	104992768	72495104	29377208	24992
708	5.358284	104992768	72495104	34012520	24992
709	7.633037	104992768	72495104	22876320	24992
710	6.84681	104992768	72495104	28831352	24992
711	9.002077	104992768	72495104	19022560	24992
712	8.086416	104992768	72495104	26296552	24992
713	9.053875	104992768	72495104	34229816	24992
714	11.467659	104992768	72495104	26399656	24992
715	12.481825	104992768	72495104	19222728	24992
716	11.392288	104992768	72495104	29134192	24992
717	13.724646	104992768	72495104	23266736	24992
718	12.451772	104992768	72495104	34498872	24992
719	15.371555	104992768	72495104	29975040	24992
720	15.584256	104992768	72495104	26096864	24992
721	16.761525	104992768	72495104	22860472	24992
722	17.357366	104992768	72495104	20286528	24992
723	16.310145	104992768	72495104	34816112	24992
724	19.084705	104992768	72495104	33587552	24992
725	19.899109	104992768	72495104	33022120	24992
726	21.009035	104992768	72495104	33092688	24992
727	22.273592	104992768	72495104	33834136	24992
728	22.601006	104992768	72495104	35230280	24992
729	24.472662	104992768	72495104	20824800	24992
730	23.641463	104992768	72495104	23514224	24992
731	24.216559	104992768	72495104	26894360	24992
732	24.702691	104992768	72495104	30934920	24992
733	25.439873	104992768	72495104	35639328	24992
734	28.333722	104992768	72495104	24539136	24992
735	27.151404	104992768	72495104	30545640	24992
736	29.883497	104992768	72495104	20783400	24992
737	28.598152	104992768	72495104	28105896	24992
738	29.406706	104992768	72495104	36117120	24992
739	32.156925	104992768	72495104	28308536	24992
740	33.055604	104992768	72495104	21189144	24992
741	31.48681	104992768	72495104	31153704	24992
742	34.680233	104992768	72495104	25365608	24992
743	35.239618	104992768	72495104	20210800	24992
744	34.262598	104992768	72495104	32156928	24992
745	36.284856	104992768	72495104	28355640	24992
746	37.690698	104992768	72495104	25187272	24992
747	37.996807	104992768	72495104	22677424	24992
748	38.727605	104992768	72495104	20828872	24992
749	37.784382	104992768	72495104	36077704	24992
750	40.237194	104992768	72495104	35587736	24992
751	41.891625	104992768	72495104	35735672	24992
752	0.810069	104992768	72495104	36345320	24992
753	3.474276	104992768	72495104	21202016	24992
754	2.24284	104992768	72495104	23199144	24992
755	3.198997	104992768	72495104	25855688	24992
756	3.903025	104992768	72495104	29172144	24992
757	4.627754	104992768	72495104	33148008	24992
758	7.391803	104992768	72495104	21340120	24992
759	6.113945	104992768	72495104	26634824	24992
760	6.65453	104992768	72495104	32589856	24992
761	9.494804	104992768	72495104	22784480	24992
762	8.421196	104992768	72495104	30058320	24992
763	11.093771	104992768	72495104	21562952	24992
764	9.534249	104992768	72495104	30155592	24992
765	12.374069	104992768	72495104	22976680	24992
766	11.209732	104992768	72495104	32888136	24992
767	14.141986	104992768	72495104	27036104	24992
768	15.09293	104992768	72495104	21833296	24992
769	13.464388	104992768	72495104	33724824	24992
770	16.320671	104992768	72495104	29846648	24992
771	16.98588	104992768	72495104	26631520	24992
772	17.829906	104992768	72495104	24057848	24992
773	18.704944	104992768	72495104	22145352	24992
774	17.037307	104992768	72495104	37334264	24992
775	20.361908	104992768	72495104	36768200	24992
776	21.128881	104992768	72495104	36865416	24992
777	21.360396	104992768	72495104	37597528	24992
778	24.602411	104992768	72495104	22529416	24992
779	23.219687	104992768	72495104	24558312	24992
780	24.284655	104992768	72495104	27276872	24992
781	24.788231	104992768	72495104	30656312	24992
782	25.716348	104992768	72495104	34696904	24992
783	28.534069	104992768	72495104	22946024	24992
784	26.991676	104992768	72495104	28285296	24992
785	28.348592	104992768	72495104	34319752	24992
786	30.620333	104992768	72495104	24563200	24992
787	29.207404	104992768	72495104	31885904	24992
788	32.474298	104992768	72495104	23460784	24992
789	30.719337	104992768	72495104	32104512	24992
790	33.736693	104992768	72495104	25000960	24992
791	32.311625	104992768	72495104	34965872	24992
792	34.880372	104992768	72495104	29185504	24992
793	36.100311	104992768	72495104	24032608	24992
794	34.374774	104992768	72495104	35978992	24992
795	37.523654	104992768	72495104	32186376	24992
796	38.587145	104992768	72495104	29018544	24992
797	39.221658	104992768	72495104	26508400	24992
798	39.53817	104992768	72495104	24660432	24992
799	40.828716	104992768	72495104	23473992	24992
800	38.794648	104992768	72495104	39383720	24992
801	42.349894	104992768	72495104	39524240	24992
802	3.456331	104992768	72495104	23667760	24992
803	1.537299	104992768	72495104	25005488	24992
804	2.254813	104992768	72495104	27002624	24992
805	2.980074	104992768	72495104	29659168	24992
806	3.704472	104992768	72495104	32975624	24992
807	4.509632	104992768	72495104	36951488	24992
808	8.039226	104992768	72495104	25139120	24992
809	6.215128	104992768	72495104	30433792	24992
810	6.959802	104992768	72495104	36388904	24992
811	10.421957	104992768	72495104	26588040	24992
812	8.669874	104992768	72495104	33861880	24992
813	11.77569	104992768	72495104	25366512	24992
814	9.664092	104992768	72495104	33959184	24992
815	13.04485	104992768	72495104	26780048	24992
816	11.225409	104992768	72495104	36691504	24992
817	14.356319	104992768	72495104	30839328	24992
818	15.422232	104992768	72495104	25636056	24992
819	13.425018	104992768	72495104	37527584	24992
820	16.770633	104992768	72495104	33649184	24992
821	17.407029	104992768	72495104	30434056	24992
822	18.229823	104992768	72495104	27859120	24992
823	18.981543	104992768	72495104	25946624	24992
824	19.96904	104992768	72495104	24695664	24992
825	20.801897	104992768	72495104	24106312	24992
826	21.205724	104992768	72495104	24178536	24992
827	21.99191	104992768	72495104	24912224	24992
828	23.134774	104992768	72495104	26307616	24992
829	23.462441	104992768	72495104	28364440	24992
830	24.370148	104992768	72495104	31082832	24992
831	25.134991	104992768	72495104	34461760	24992
832	25.940322	104992768	72495104	38502016	24992
833	29.186489	104992768	72495104	26751024	24992
834	27.887116	104992768	72495104	32090328	24992
835	28.283944	104992768	72495104	38124960	24992
836	31.47803	104992768	72495104	28368136	24992
837	29.733656	104992768	72495104	35690968	24992
838	32.830007	104992768	72495104	27264648	24992
839	31.459026	104992768	72495104	35908432	24992
840	34.717162	104992768	72495104	28805560	24992
841	32.531636	104992768	72495104	38770736	24992
842	36.372557	104992768	72495104	32992040	24992
843	36.76421	104992768	72495104	27839432	24992
844	34.918327	104992768	72495104	39785944	24992
845	38.062866	104992768	72495104	35993360	24992
846	39.325729	104992768	72495104	32825192	24992
847	39.824577	104992768	72495104	30315128	24992
848	40.202019	104992768	72495104	28466952	24992
849	41.181585	104992768	72495104	27280576	24992
850	42.913708	104992768	72495104	26786672	24992
851	46.531797	105263104	72495104	26945848	24992
852	0.820441	105263104	72495104	27553592	24992
853	1.516749	105263104	72495104	28891320	24992
854	2.239103	105263104	72495104	30888456	24992
855	2.954186	105263104	72495104	33545000	24992
856	3.720011	105263104	72495104	36861456	24992
857	4.463614	105263104	72495104	40837320	24992
858	8.394724	105263104	72495104	29026056	24992
859	6.106022	105263104	72495104	34320728	24992
860	6.814243	105263104	72495104	40275760	24992
861	10.278412	105263104	72495104	30473512	24992
862	8.076941	105263104	72495104	37747352	24992
863	11.949805	105263104	72495104	29249160	24992
864	9.761364	105263104	72495104	37841864	24992
865	13.273845	105263104	72495104	30660648	24992
866	11.219783	105263104	72495104	40572104	24992
867	15.107379	105263104	72495104	34717912	24992
868	15.80396	105263104	72495104	29513232	24992
869	13.376003	105263104	72495104	41404776	24992
870	16.841422	105263104	72495104	37524976	24992
871	18.064754	105263104	72495104	34307992	24992
872	18.704757	105263104	72495104	31733096	24992
873	19.599909	105263104	72495104	29819232	24992
874	20.515358	105263104	72495104	28567320	24992
875	20.925942	105263104	72495104	27976984	24992
876	22.117756	105263104	72495104	28048200	24992
877	22.366388	105263104	72495104	28780928	24992
878	23.307782	105263104	72495104	30175320	24992
879	23.790401	105263104	72495104	32231192	24992
880	24.897165	105263104	72495104	34947688	24992
881	25.768939	105263104	72495104	38325712	24992
882	26.027068	105263104	72495104	42364808	24992
883	30.317417	105263104	72495104	30611752	24992
884	28.194482	105263104	72495104	35950960	24992
885	28.697448	105263104	72495104	41985288	24992
886	32.378333	105263104	72495104	32227984	24992
887	32.351029	105263104	72495104	39558560	24992
888	33.790675	105263104	72495104	31130592	24992
889	31.701037	105263104	72495104	39774144	24992
890	35.690985	105263104	72495104	32671232	24992
891	33.066321	105263104	72495104	42635504	24992
892	37.488888	105263104	72495104	36857056	24992
893	37.434575	105263104	72495104	31703840	24992
894	35.179578	105263104	72495104	43650080	24992
895	39.660069	105263104	72495104	39825760	24992
896	40.712739	105263104	72495104	36675216	24992
897	41.546698	105263104	72495104	34168752	24992
898	41.966848	105263104	72495104	32319840	24992
899	42.557696	105263104	72495104	31133096	24992
900	43.111812	105263104	72495104	30607680	24992
901	44.37879	105263104	72495104	30744704	24992
902	0.932677	105263104	72495104	31353248	24992
903	1.555552	105263104	72495104	32690976	24992
904	2.275892	105263104	72495104	34688128	24992
905	3.038065	105263104	72495104	37344672	24992
906	3.9279	105263104	72495104	40661288	24992
907	8.206988	105263104	72495104	28181080	24992
908	5.366721	105263104	72495104	32816336	24992
909	5.867644	105263104	72495104	38111008	24992
910	6.81352	105263104	72495104	44066040	24992
911	10.749249	105263104	72495104	34262000	24992
912	8.067769	105263104	72495104	41535888	24992
913	12.63085	105263104	72495104	33045856	24992
914	9.744579	105263104	72495104	41638976	24992
915	13.661931	105263104	72495104	34456912	24992
916	11.278346	105263104	72495104	44368368	24992
917	15.590862	105263104	72495104	38512800	24992
918	16.034241	105263104	72495104	33307704	24992
919	16.818487	105263104	72495104	28747416	24992
920	14.307693	105263104	72495104	41298912	24992
921	18.283719	105263104	72495104	38081408	24992
922	19.307794	105263104	72495104	35526928	24992
923	19.967605	105263104	72495104	33612312	24992
924	20.989328	105263104	72495104	32360112	24992
925	21.335241	105263104	72495104	31769408	24992
926	22.500024	105263104	72495104	31840240	24992
927	22.723759	105263104	72495104	32572616	24992
928	23.741393	105263104	72495104	33966560	24992
929	24.35674	105263104	72495104	36021568	24992
930	25.551941	105263104	72495104	38737664	24992
931	25.72596	105263104	72495104	42115336	24992
932	30.155865	105263104	72495104	29696712	24992
933	27.68848	105263104	72495104	34369912	24992
934	28.308918	105263104	72495104	39741824	24992
935	32.428343	105263104	72495104	29324024	24992
936	30.226741	105263104	72495104	35985816	24992
937	30.516387	105263104	72495104	43342576	24992
938	34.647847	105263104	72495104	34910056	24992
939	31.845731	105263104	72495104	43553384	24992
940	36.502261	105263104	72495104	36452568	24992
941	36.724738	105263104	72495104	29975776	24992
942	34.240538	105263104	72495104	40600688	24992
943	38.415329	105263104	72495104	35483864	24992
944	39.574643	105263104	72495104	30988248	24992
945	36.236701	105263104	72495104	43594872	24992
946	40.431084	105263104	72495104	40463928	24992
947	41.370377	105263104	72495104	37956984	24992
948	41.835483	105263104	72495104	36107976	24992
949	42.889586	105263104	72495104	34920512	24992
950	44.767138	105263104	72495104	34395256	24992
951	44.669227	105263104	72495104	34532424	24992
952	0.847537	105263104	72495104	35140440	24992
953	1.512381	105263104	72495104	36478168	24992
954	2.459899	105263104	72495104	38475304	24992
955	3.386909	105263104	72495104	41131848	24992
956	3.732995	105263104	72495104	44448304	24992
957	8.35328	105263104	72495104	31967576	24992
958	5.151953	105263104	72495104	36602872	24992
959	5.919059	105263104	72495104	41897560	24992
960	10.754634	105263104	72495104	31422368	24992
961	7.368221	105263104	72495104	38036824	24992
962	8.27781	105263104	72495104	45310664	24992
963	12.609101	105263104	72495104	36820512	24992
964	9.752876	105263104	72495104	45413200	24992
965	14.266574	105263104	72495104	38243432	24992
966	15.017068	105263104	72495104	31711392	24992
967	11.755597	105263104	72495104	42282248	24992
968	16.962807	105263104	72495104	37076784	24992
969	16.989722	105263104	72495104	32534176	24992
970	14.123758	105263104	72495104	45086032	24992
971	18.784298	105263104	72495104	41868280	24992
972	19.656907	105263104	72495104	39313368	24992
973	19.937526	105263104	72495104	37398704	24992
974	21.082566	105263104	72495104	36145560	24992
975	21.988072	105263104	72495104	35554408	24992
976	22.320063	105263104	72495104	35625256	24992
977	23.275287	105263104	72495104	36357712	24992
978	24.192701	105263104	72495104	37751384	24992
979	24.716559	105263104	72495104	39805992	24992
980	25.847947	105263104	72495104	42522088	24992
981	26.172559	105263104	72495104	45899280	24992
982	30.852025	105263104	72495104	33480400	24992
983	28.16952	105263104	72495104	38153648	24992
984	28.638258	105263104	72495104	43525192	24992
985	33.74245	105263104	72495104	33105376	24992
986	30.392764	105263104	72495104	39767248	24992
987	30.957075	105263104	72495104	47127704	24992
988	35.881033	105263104	72495104	38694480	24992
989	32.255086	105263104	72495104	47337456	24992
990	37.136847	105263104	72495104	40233872	24992
991	37.915674	105263104	72495104	33757192	24992
992	34.920477	105263104	72495104	44382296	24992
993	39.733324	105263104	72495104	39263568	24992
994	41.490499	105263104	72495104	34771696	24992
995	37.274797	105263104	72495104	47383096	24992
996	41.518793	105263104	72495104	44251832	24992
997	42.560444	105263104	72495104	41743000	24992
998	43.316501	105263104	72495104	39897800	24992
999	44.073225	105263104	72495104	38710320	24992
1000	44.553381	105263104	72495104	38184408	24992
