x	Duration	RSS	HeapTotal	HeapUsed	External
0	NA	95973376	65155072	10978256	24992
1	2.513856	95973376	65155072	11658368	24992
2	4.540469	95973376	65155072	12996768	24992
3	6.576371	95973376	65155072	14994584	24992
4	2.970151	95973376	65155072	17651888	24992
5	3.874697	95973376	65155072	20969328	24992
6	4.688569	95973376	65155072	24946272	24992
7	5.37518	95973376	65155072	13116656	24992
8	5.840777	95973376	65155072	18412728	24992
9	6.752287	95973376	65155072	24369336	24992
10	7.501198	95973376	65155072	14526296	24992
11	7.99948	95973376	65155072	21802112	24992
12	9.381131	95973376	65155072	13269920	24992
13	10.624989	95973376	65155072	21878736	24992
14	10.758684	95973376	65155072	14665432	24992
15	11.514479	95973376	65155072	24579424	24992
16	12.023044	95973376	65155072	18687960	24992
17	12.72225	95973376	65155072	13454728	24992
18	13.485535	95973376	65155072	25349336	24992
19	14.253159	95973376	65155072	21438192	24992
20	15.125179	95973376	65155072	18188232	24992
21	16.009878	95973376	65155072	15592024	24992
22	16.441516	95973376	65155072	13657424	24992
23	17.432279	95973376	65155072	12383288	24992
24	17.96568	95973376	65155072	11769688	24992
25	18.485593	95973376	65155072	11816704	24992
26	19.272027	95973376	65155072	12525152	24992
27	20.158009	95973376	65155072	13893288	24992
28	21.485929	95973376	65155072	15927312	24992
29	21.402886	95973376	65155072	18616576	24992
30	22.141856	95973376	65155072	21965496	24992
31	22.920033	95973376	65155072	25974784	24992
32	24.616453	95973376	65155072	14180104	24992
33	24.860155	95973376	65155072	19512328	24992
34	26.031418	95973376	65155072	25515208	24992
35	26.564789	95973376	65155072	15705016	24992
36	26.886975	95973376	65155072	23018344	24992
37	27.984024	95973376	65155072	14535920	24992
38	28.209579	95973376	65155072	23168032	24992
39	29.613004	95973376	65155072	16008272	24992
40	29.893251	95973376	65155072	25963312	24992
41	30.200589	95973376	65155072	20122912	24992
42	31.586921	95973376	65155072	14941304	24992
43	31.531238	95973376	65155072	26874800	24992
44	32.470508	95973376	65155072	23016392	24992
45	34.037361	95973376	65155072	19819480	24992
46	34.398109	95973376	65155072	17278080	24992
47	34.624874	95973376	65155072	15397848	24992
48	35.765986	95973376	65155072	14178808	24992
49	36.112034	95973376	65155072	13620696	24992
50	37.411812	95973376	65155072	13724320	24992
51	37.628703	95973376	65155072	14489224	24992
52	0.814824	95973376	65155072	15752328	24992
53	2.131059	95973376	65155072	17090352	24992
54	2.489814	95973376	65155072	19087832	24992
55	3.083458	96243712	65155072	21753304	24992
56	3.662396	96243712	65155072	25070280	24992
57	4.746235	96243712	65155072	29046728	24992
58	5.677813	96243712	65155072	17214128	24992
59	6.261567	96243712	65155072	22509560	24992
60	6.470305	96243712	65155072	28465432	24992
61	7.629001	96243712	65155072	18621000	24992
62	8.163537	96243712	65155072	25895824	24992
63	8.94238	96243712	65155072	17362672	24992
64	9.402614	96243712	65155072	25956504	24992
65	10.568002	96243712	65155072	18741728	24992
66	10.979942	96243712	65155072	28654504	24992
67	11.73091	96243712	65155072	22760960	24992
68	12.824616	96243712	65155072	17526336	24992
69	13.702033	96243712	65155072	12948776	24992
70	14.271982	96243712	65155072	25500776	24992
71	15.063267	96243712	65155072	22249192	24992
72	15.510135	96243712	65155072	19656912	24992
73	17.471259	96243712	65155072	17718536	24992
74	16.766509	96243712	65155072	16441408	24992
75	17.695535	96243712	65155072	15824736	24992
76	18.564083	96243712	65155072	15869488	24992
77	19.414559	96243712	65155072	16573656	24992
78	19.878435	96243712	65155072	17938272	24992
79	20.851492	96243712	65155072	19963376	24992
80	21.605137	96243712	65155072	22648288	24992
81	22.150657	96243712	65155072	25994512	24992
82	22.993718	96243712	65155072	13530880	24992
83	25.064355	96243712	65155072	18203896	24992
84	24.392696	96243712	65155072	23552712	24992
85	25.658968	96243712	65155072	29581072	24992
86	26.111969	96243712	65155072	19793936	24992
87	26.462611	96243712	65155072	27132112	24992
88	28.106887	96243712	65155072	18692384	24992
89	29.16437	96243712	65155072	27343648	24992
90	29.063818	96243712	65155072	20232496	24992
91	30.040335	96243712	65155072	13755264	24992
92	30.270101	96243712	65155072	24380016	24992
93	31.433357	96243712	65155072	19254536	24992
94	32.018623	96243712	65155072	14758832	24992
95	32.6042	96243712	65155072	27365216	24992
96	33.834408	96243712	65155072	24225024	24992
97	33.979283	96243712	65155072	21717640	24992
98	34.967728	96243712	65155072	19868384	24992
99	35.891683	96243712	65155072	18680304	24992
100	36.643883	96243712	65155072	18154672	24992
101	37.605303	96243712	65155072	18291272	24992
102	0.797364	96243712	65155072	18898672	24992
103	1.479323	96243712	65155072	20236416	24992
104	2.201528	96243712	65155072	22233584	24992
105	2.897847	96243712	65155072	24890144	24992
106	3.662137	96243712	65155072	28206696	24992
107	5.086308	96243712	65155072	15726096	24992
108	5.259566	96243712	65155072	20361376	24992
109	6.176614	96243712	65155072	25656064	24992
110	6.953866	96243712	65155072	15181080	24992
111	7.394944	96243712	65155072	21795552	24992
112	7.927132	96243712	65155072	29069440	24992
113	9.223279	96243712	65155072	20579336	24992
114	9.53876	96243712	65155072	29171992	24992
115	10.740781	96243712	65155072	22002112	24992
116	11.282938	96243712	65155072	15469888	24992
117	11.663888	96243712	65155072	26040816	24992
118	12.932023	96243712	65155072	20835176	24992
119	13.634204	96243712	65155072	16292632	24992
120	13.833085	96243712	65155072	28844176	24992
121	15.539541	96243712	65155072	25626464	24992
122	15.76533	96243712	65155072	23072096	24992
123	16.509499	96243712	65155072	21157432	24992
124	17.392549	96243712	65155072	19904336	24992
125	17.994912	96243712	65155072	19313696	24992
126	18.97704	96243712	65155072	19384544	24992
127	19.501712	96243712	65155072	20116936	24992
128	20.339221	96243712	65155072	21510864	24992
129	21.136965	96243712	65155072	23565440	24992
130	22.061717	96243712	65155072	26281552	24992
131	22.593108	96243712	65155072	29658776	24992
132	23.548888	96243712	65155072	17239928	24992
133	24.163647	96243712	65155072	21912968	24992
134	24.455022	96243712	65155072	27278080	24992
135	25.87458	96243712	65155072	16852416	24992
136	26.136077	96243712	65155072	23514088	24992
137	26.736453	96243712	65155072	30865040	24992
138	28.699562	96243712	65155072	22424584	24992
139	28.388761	96243712	65155072	31067640	24992
140	30.028187	96243712	65155072	23956568	24992
141	30.485679	96243712	65155072	17479512	24992
142	30.965278	96243712	65155072	28108120	24992
143	31.883741	96243712	65155072	22982712	24992
144	32.688351	96243712	65155072	18490352	24992
145	32.960047	96243712	65155072	31096832	24992
146	34.884996	96243712	65155072	27960696	24992
147	35.06753	96243712	65155072	25452304	24992
148	35.387529	96243712	65155072	23604776	24992
149	36.575404	96243712	65155072	22416872	24992
150	37.14601	96243712	65155072	21890424	24992
151	37.673908	96243712	65155072	22026800	24992
152	0.796007	96243712	65155072	22634120	24992
153	1.513242	96243712	65155072	23971864	24992
154	2.189236	96243712	65155072	25969016	24992
155	3.132495	96243712	65155072	28625576	24992
156	3.649476	96243712	65155072	31942048	24992
157	5.166328	96243712	65155072	19461400	24992
158	5.478906	96243712	65155072	24096696	24992
159	5.987716	96243712	65155072	29391400	24992
160	7.307727	96243712	65155072	18916256	24992
161	7.401949	96243712	65155072	25530792	24992
162	8.081312	96243712	65155072	32804648	24992
163	9.738816	96243712	65155072	24313824	24992
164	10.095672	96243712	65155072	32906496	24992
165	11.780246	96243712	65155072	25736056	24992
166	12.568357	96243712	65155072	19204128	24992
167	11.968658	96243712	65155072	29775000	24992
168	13.354559	96243712	65155072	24569392	24992
169	14.795282	96514048	65155072	20035128	24992
170	14.037661	96514048	65155072	32587288	24992
171	15.322357	96514048	65155072	29369584	24992
172	16.541763	96514048	65155072	26814672	24992
173	17.536799	96514048	65155072	24900024	24992
174	17.63297	96514048	65155072	23647024	24992
175	18.31216	96514048	65155072	23055440	24992
176	19.109166	96514048	65155072	23125840	24992
177	20.011655	96514048	65155072	23857816	24992
178	20.726477	96514048	65155072	25250864	24992
179	21.819648	96514048	65155072	27305472	24992
180	21.981662	96514048	65155072	30021616	24992
181	22.746051	96514048	65155072	33398872	24992
182	24.539623	96784384	65155072	20979320	24992
183	24.691826	96784384	65155072	25652472	24992
184	25.57522	96784384	65155072	31017600	24992
185	26.560888	96784384	65155072	20590168	24992
186	26.889806	96784384	65155072	27251832	24992
187	28.206957	96784384	65155072	18155424	24992
188	28.080126	96784384	65155072	26138032	24992
189	29.96726	97054720	65155072	18363224	24992
190	29.423216	97054720	65155072	27666872	24992
191	31.478191	97054720	65155072	21216608	24992
192	31.028009	97054720	65155072	31841472	24992
193	32.935002	97054720	65155072	26713880	24992
194	33.313748	97054720	65155072	22221696	24992
195	33.518588	97054720	65155072	34828256	24992
196	35.09402	97325056	65155072	31659192	24992
197	35.533091	97325056	65155072	29166184	24992
198	36.44701	97325056	65155072	27320464	24992
199	37.987673	97325056	65155072	26140552	24992
200	37.949558	97325056	65155072	25614656	24992
201	38.766814	97325056	65155072	25751088	24992
202	0.800475	97325056	65155072	26358448	24992
203	1.48434	97325056	65155072	27696192	24992
204	2.202197	97325056	65155072	29693392	24992
205	3.128735	97325056	65155072	32349952	24992
206	3.817113	97325056	65155072	35666424	24992
207	5.667844	97325056	65155072	23184272	24992
208	5.3406	97325056	65155072	27819552	24992
209	6.13808	97325056	65155072	33114240	24992
210	7.650677	97325056	65155072	22638968	24992
211	7.18728	97325056	65155072	29253424	24992
212	9.260453	97325056	65155072	20090488	24992
213	8.612393	97325056	65155072	28023752	24992
214	10.755052	97325056	65155072	20178816	24992
215	10.433726	97325056	65155072	29430880	24992
216	13.083676	97325056	65155072	22913032	24992
217	12.129981	97325056	65155072	33483928	24992
218	13.917293	97325056	65155072	28294552	24992
219	14.555525	97325056	65155072	23751960	24992
220	15.120447	97325056	65155072	19853560	24992
221	14.734008	97325056	65155072	33064608	24992
222	16.607884	97325056	65155072	30509584	24992
223	17.177099	97325056	65155072	28617496	24992
224	18.530975	97325056	65155072	27364496	24992
225	19.102037	97325056	65155072	26773008	24992
226	19.408078	97325056	65155072	26842960	24992
227	20.248142	97325056	65155072	27574504	24992
228	21.460874	97325056	65155072	28967552	24992
229	21.762142	97325056	65155072	31027920	24992
230	22.212556	97325056	65155072	33746544	24992
231	24.475704	97325056	65155072	20665064	24992
232	23.826628	97325056	65155072	24674808	24992
233	24.565982	97325056	65155072	29379664	24992
234	25.791931	97325056	65155072	34753424	24992
235	27.216638	97325056	65155072	24333400	24992
236	26.946994	97325056	65155072	30995352	24992
237	28.75883	97325056	65155072	21906560	24992
238	28.273233	97325056	65155072	29889456	24992
239	30.531077	97325056	65155072	22122472	24992
240	30.259743	97325056	65155072	31426488	24992
241	31.749089	97325056	65155072	24984336	24992
242	31.315199	97325056	65155072	35609520	24992
243	33.570976	97325056	65155072	30490744	24992
244	34.656408	97325056	65155072	25999080	24992
245	35.057148	97325056	65155072	22165504	24992
246	34.063175	97325056	65155072	35432688	24992
247	36.438696	97325056	65155072	32964440	24992
248	37.223293	97325056	65155072	31117272	24992
249	37.74568	97325056	65155072	29933728	24992
250	38.320094	97325056	65155072	29407992	24992
251	39.234875	97325056	65155072	29544680	24992
252	0.799464	97325056	65155072	30152168	24992
253	1.508523	97325056	65155072	31489912	24992
254	2.177092	97325056	65155072	33487064	24992
255	2.939955	97325056	65155072	36143624	24992
256	5.57567	97325056	65155072	22995584	24992
257	4.414401	97325056	65155072	26971464	24992
258	5.090664	97325056	65155072	31606744	24992
259	5.730876	97325056	65155072	36901432	24992
260	7.995159	97325056	65155072	26426216	24992
261	7.463462	97325056	65155072	33040672	24992
262	9.439307	97325056	65155072	23884992	24992
263	8.805409	97325056	65155072	31818256	24992
264	11.267792	97325056	65155072	23973112	24992
265	10.115236	97325056	65155072	33225176	24992
266	12.279548	97325056	65155072	26706880	24992
267	12.244074	97325056	65155072	37277760	24992
268	14.767887	97325056	65155072	32088384	24992
269	15.15338	97325056	65155072	27545920	24992
270	15.94772	97325056	65155072	23647112	24992
271	14.623713	97325056	65155072	36857816	24992
272	17.003569	97325056	65155072	34302680	24992
273	17.721923	97325056	65155072	32410416	24992
274	18.245596	97325056	65155072	31157608	24992
275	19.07893	97325056	65155072	30566040	24992
276	19.682805	97325056	65155072	30636072	24992
277	20.693543	97325056	65155072	31367600	24992
278	21.302134	97325056	65155072	32760648	24992
279	22.302538	97325056	65155072	34815000	24992
280	22.692915	97325056	65155072	37530664	24992
281	25.628671	97325056	65155072	24449264	24992
282	24.257798	97325056	65155072	28459136	24992
283	25.537547	97325056	65155072	33163224	24992
284	25.871166	97325056	65155072	38534184	24992
285	28.469392	97325056	65155072	28113504	24992
286	27.052543	97325056	65155072	34775056	24992
287	29.690958	97325056	65155072	25684280	24992
288	28.695653	97325056	65155072	33667256	24992
289	31.756865	97325056	65155072	25903600	24992
290	30.265933	97325056	65155072	35207712	24992
291	32.943243	97325056	65155072	28763752	24992
292	31.86651	97325056	65155072	39388152	24992
293	34.26308	97325056	65155072	34243248	24992
294	34.563088	97325056	65155072	29768656	24992
295	35.79295	97325056	65155072	25934632	24992
296	34.764775	97325056	65155072	39201880	24992
297	37.089301	97325056	65155072	36732960	24992
298	38.174512	97325056	65155072	34885744	24992
299	38.834031	97325056	65155072	33701000	24992
300	39.582883	97325056	65155072	33176992	24992
301	40.16389	97325056	65155072	33313712	24992
302	0.797555	97325056	65155072	33921456	24992
303	1.483724	97325056	65155072	35259200	24992
304	2.198063	97325056	65155072	37256352	24992
305	2.892437	97325056	65155072	39912912	24992
306	5.632967	97325056	65155072	26764280	24992
307	4.367944	97325056	65155072	30740160	24992
308	5.241306	97325056	65155072	35375440	24992
309	7.75091	97325056	65155072	24228904	24992
310	6.571081	97325056	65155072	30183952	24992
311	7.252183	97325056	65155072	36798408	24992
312	10.134924	97325056	65155072	27642816	24992
313	9.983884	97325056	65155072	35587024	24992
314	11.659843	97325056	65155072	27753024	24992
315	10.499255	97325056	65155072	37005136	24992
316	12.90867	97325056	65155072	30487240	24992
317	13.70488	97325056	65679360	24617608	24992
318	12.411833	97325056	65679360	35849752	24992
319	15.102224	97325056	65679360	31306752	24992
320	15.82377	97325056	65679360	27427248	24992
321	14.555644	97325056	65679360	40638016	24992
322	17.245153	97325056	65679360	38075088	24992
323	17.966459	97325056	65679360	36182608	24992
324	18.67251	97595392	65679360	34936288	24992
325	19.378561	97595392	65679360	34344512	24992
326	20.358138	97595392	65679360	34414464	24992
327	20.87545	97595392	65679360	35145960	24992
328	21.671221	97595392	65679360	36538784	24992
329	22.232932	97595392	65679360	38592896	24992
330	25.474684	97595392	65679360	24848832	24992
331	24.284405	97595392	65679360	28198080	24992
332	24.91527	97595392	65679360	32238608	24992
333	25.378718	97865728	66203648	36942432	24992
334	28.332601	97865728	66203648	25859376	24992
335	27.06753	97865728	66203648	31860648	24992
336	27.623137	97865728	66203648	38559440	24992
337	30.871425	98136064	66203648	29464272	24992
338	29.117802	98136064	66203648	37447328	24992
339	32.011888	98136064	66203648	29681768	24992
340	30.918916	98136064	66203648	38985880	24992
341	32.851965	98136064	66203648	32545424	24992
342	33.994784	98406400	66727936	26730280	24992
343	32.86445	98406400	66727936	38015880	24992
344	35.946628	98406400	66727936	33559896	24992
345	36.936372	98676736	66727936	29729712	24992
346	37.028566	98676736	66727936	26557944	24992
347	36.034507	98676736	66727936	40485608	24992
348	38.446353	98676736	66727936	38680008	24992
349	39.06269	98676736	66727936	37494368	24992
350	40.404822	98947072	66727936	36971272	24992
351	41.551851	98947072	66727936	37109608	24992
352	0.801992	98947072	66727936	37717032	24992
353	1.488148	98947072	66727936	39054776	24992
354	2.180384	98947072	66727936	41051928	24992
355	5.158871	98947072	66727936	27237080	24992
356	3.611531	98947072	66727936	30553552	24992
357	4.325326	98947072	66727936	34529432	24992
358	5.087941	98947072	66727936	39164744	24992
359	8.29564	98947072	66727936	28018264	24992
360	6.705033	98947072	66727936	33977760	24992
361	7.191366	98947072	66727936	40592216	24992
362	10.529655	98947072	66727936	31447784	24992
363	8.597824	98947072	66727936	39381080	24992
364	11.848089	98947072	66727936	31551160	24992
365	10.089929	98947072	66727936	40803272	24992
366	13.29624	98947072	66727936	34284832	24992
367	14.020937	98947072	66727936	28415208	24992
368	12.384634	98947072	66727936	39647376	24992
369	15.494164	98947072	66727936	35104232	24992
370	16.061356	98947072	66727936	31224584	24992
371	17.288546	98947072	66727936	27987768	24992
372	15.294401	98947072	66727936	41857944	24992
373	18.059448	98947072	66727936	39965400	24992
374	19.336086	98947072	66727936	38735560	24992
375	19.770501	98947072	66727936	38143656	24992
376	20.426448	98947072	66727936	38213176	24992
377	21.752669	98947072	66727936	38944304	24992
378	22.375236	98947072	67252224	40336936	24992
379	22.970897	98947072	67252224	42390968	24992
380	25.989579	98947072	67252224	28646872	24992
381	24.401933	98947072	67252224	31996152	24992
382	25.393579	98947072	67252224	36036696	24992
383	26.242053	98947072	67252224	40740488	24992
384	29.366662	99217408	67252224	29657272	24992
385	27.68464	99217408	67252224	35658672	24992
386	28.141905	99217408	67252224	42357560	24992
387	31.255558	99217408	67252224	33262392	24992
388	29.510485	99217408	67776512	41244632	24992
389	32.657127	99487744	67776512	33478944	24992
390	31.316816	99487744	67776512	42782272	24992
391	34.507436	99487744	67776512	36341912	24992
392	34.994246	99758080	67776512	30526928	24992
393	33.396106	99758080	67776512	41812576	24992
394	36.564185	99758080	67776512	37356432	24992
395	37.446677	99758080	67776512	33526408	24992
396	37.70988	100028416	67776512	30354320	24992
397	36.14301	100028416	67776512	44282048	24992
398	39.957524	100028416	68300800	42460944	24992
399	40.592001	100298752	68300800	41279768	24992
400	41.168345	100298752	68300800	40755760	24992
401	41.64179	100298752	68300800	40894432	24992
402	0.798639	100298752	68300800	41503824	24992
403	1.480027	100298752	68300800	42841568	24992
404	2.213037	100298752	68300800	44838720	24992
405	5.542941	100298752	68300800	31023264	24992
406	3.66342	100298752	68300800	34339736	24992
407	4.371918	100298752	68300800	38315616	24992
408	5.113126	100298752	68300800	42950896	24992
409	8.525974	100298752	68300800	31807936	24992
410	6.468075	100298752	68300800	37763064	24992
411	7.404043	100298752	68300800	44377520	24992
412	11.077515	100298752	68300800	35228640	24992
413	8.652325	100298752	68300800	43161952	24992
414	12.225624	100569088	68300800	35327392	24992
415	10.262982	100569088	68300800	44579456	24992
416	13.509439	100569088	68825088	38060248	24992
417	14.475975	100569088	68825088	32190656	24992
418	12.53711	100569088	68825088	43422792	24992
419	15.850782	100569088	68825088	38879552	24992
420	16.862587	100569088	68825088	34999888	24992
421	17.292756	100569088	68825088	31762192	24992
422	18.415723	100839424	68825088	29186880	24992
423	15.955732	100839424	68825088	43716400	24992
424	19.460333	100839424	68825088	42486440	24992
425	20.106827	100839424	68825088	41919216	24992
426	20.858901	100839424	68825088	41988800	24992
427	21.638352	100839424	68825088	42719880	24992
428	22.676868	100839424	68825088	44112384	24992
429	25.809202	100839424	68825088	29705656	24992
430	23.742018	100839424	69349376	32394392	24992
431	24.616106	101109760	69349376	35773160	24992
432	25.231631	101109760	69349376	39812384	24992
433	26.107396	101109760	69349376	44515904	24992
434	29.646338	101109760	69349376	33432624	24992
435	27.284271	101380096	69349376	39434088	24992
436	28.227541	101380096	69349376	46132992	24992
437	31.95926	101380096	69349376	37012584	24992
438	29.63664	101380096	69349376	45012816	24992
439	33.190377	101650432	69349376	37243176	24992
440	31.295157	101650432	69349376	46546536	24992
441	34.705987	101650432	69349376	40058216	24992
442	35.681819	101650432	69873664	34278704	24992
443	33.244924	101650432	69873664	45564544	24992
444	37.411195	101920768	69873664	41107712	24992
445	38.088114	101920768	69873664	37277128	24992
446	38.464417	101920768	69873664	34104800	24992
447	39.858165	102191104	69873664	31594736	24992
448	37.146401	102191104	69873664	46182976	24992
449	40.634284	102191104	69873664	45039304	24992
450	41.223846	102191104	70397952	44515328	24992
451	42.18636	102461440	70397952	44653664	24992
452	0.798929	102461440	70397952	45262944	24992
453	1.503139	102461440	70397952	46600688	24992
454	5.239665	102461440	70397952	32120560	24992
455	2.959603	102461440	70397952	34777120	24992
456	3.659328	102461440	70397952	38093592	24992
457	4.348395	102461440	70397952	42069472	24992
458	5.110706	102461440	70397952	46704752	24992
459	8.83127	102461440	70397952	35561856	24992
460	6.526146	102461440	70397952	41516904	24992
461	10.26266	102461440	70397952	31701896	24992
462	7.941243	102461440	70397952	38975808	24992
463	8.882049	102461440	70397952	46909072	24992
464	12.436178	102461440	70397952	39073792	24992
465	13.126926	102461440	70397952	31892296	24992
466	10.793438	102461440	70397952	41803768	24992
467	14.595435	102461440	70397952	35933920	24992
468	12.206605	102461440	70397952	47166072	24992
469	16.058659	102731776	70397952	42639664	24992
470	16.888918	102731776	70397952	38759584	24992
471	17.419738	102731776	70397952	35521824	24992
472	18.498322	102731776	70922240	32946528	24992
473	15.831702	102731776	70922240	47476096	24992
474	19.854604	102731776	70922240	46245512	24992
475	20.553995	102731776	70922240	45678336	24992
476	21.273415	102731776	70922240	45747664	24992
477	22.064985	103002112	70922240	46478488	24992
478	23.531557	103002112	70922240	47870928	24992
479	26.889323	103002112	70922240	33460432	24992
480	24.221194	103002112	70922240	36148824	24992
481	25.382843	103002112	70922240	39527624	24992
482	25.789102	103002112	70922240	43566864	24992
483	26.477961	103002112	70922240	48270176	24992
484	30.434711	103272448	70922240	37168168	24992
485	27.939179	103272448	71446528	43182200	24992
486	32.317572	103272448	71446528	33426872	24992
487	29.505198	103272448	71446528	40749208	24992
488	30.266034	103542784	71446528	48767496	24992
489	34.155756	103542784	71446528	40951584	24992
490	35.110544	103542784	71446528	33846568	24992
491	32.621835	103542784	71446528	43811080	24992
492	37.231992	103542784	71446528	38030632	24992
493	37.515619	103813120	71446528	32875576	24992
494	34.687872	103813120	71970816	44821624	24992
495	38.480518	103813120	71970816	41028176	24992
496	39.428126	104083456	71970816	37859800	24992
497	39.855443	104083456	71970816	35349384	24992
498	41.019736	104083456	71970816	33500728	24992
499	38.009901	104083456	71970816	48749576	24992
500	42.052575	104083456	71970816	48268520	24992
501	42.798122	104353792	72495104	48407032	24992
502	0.812218	104353792	72495104	49016424	24992
503	4.798293	104353792	72495104	33872016	24992
504	2.207271	104353792	72495104	35869160	24992
505	2.952649	104353792	72495104	38525720	24992
506	3.656456	104353792	72495104	41842192	24992
507	4.398614	104353792	72495104	45818072	24992
508	8.466834	104353792	72495104	34005968	24992
509	5.76938	104353792	72495104	39300648	24992
510	6.494061	104353792	72495104	45255696	24992
511	11.022715	104353792	72495104	35445192	24992
512	7.999128	104353792	72495104	42719096	24992
513	12.20755	104624128	72495104	34220536	24992
514	9.659296	104624128	72495104	42813192	24992
515	13.868267	104624128	72495104	35631704	24992
516	10.967446	104624128	72495104	45543224	24992
517	15.183395	104624128	72495104	39688568	24992
518	15.938136	104624128	72495104	34483376	24992
519	13.131022	104624128	72495104	46375128	24992
520	17.240277	104624128	72495104	42495056	24992
521	18.345994	104624128	72495104	39278024	24992
522	18.91771	104624128	72495104	36702280	24992
523	19.232617	104624128	72495104	34788528	24992
524	16.730465	104624128	72495104	49977472	24992
525	20.818391	104894464	73019392	49409432	24992
526	21.522104	104894464	73019392	49504728	24992
527	23.059064	104894464	73019392	50234864	24992
528	26.664991	104894464	73019392	35159856	24992
529	23.893966	104894464	73019392	37190560	24992
530	24.909008	105164800	73019392	39907784	24992
531	25.705742	105164800	73019392	43285888	24992
532	26.210848	105164800	73019392	47325224	24992
533	30.75749	105164800	73019392	35572504	24992
534	27.521836	105164800	73019392	40911744	24992
535	28.874698	105164800	73019392	46945768	24992
536	32.941496	105435136	73019392	37188192	24992
537	30.435837	105435136	73543680	44510608	24992
538	34.172265	105435136	73543680	36084576	24992
539	31.469494	105435136	73543680	44728064	24992
540	35.500859	105705472	73543680	37623648	24992
541	32.793057	105705472	73543680	47588224	24992
542	37.060282	105705472	73543680	41806800	24992
543	37.886902	105705472	73543680	36653328	24992
544	35.509641	105705472	73543680	48599408	24992
545	39.211819	105705472	73543680	44805800	24992
546	40.326315	105975808	74067968	41637648	24992
547	40.872894	105975808	74067968	39126864	24992
548	41.24207	105975808	74067968	37278384	24992
549	42.171575	106246144	74067968	36091256	24992
550	39.51452	106246144	74067968	52000520	24992
551	44.368775	106246144	74067968	52124840	24992
552	4.570105	106246144	74067968	36287240	24992
553	1.539152	106246144	74067968	37625056	24992
554	2.232115	106246144	74067968	39622208	24992
555	3.175268	106246144	74067968	42278768	24992
556	3.950089	106246144	74067968	45602040	24992
557	4.498493	106246144	74067968	49577968	24992
558	9.344025	106246144	74067968	37768056	24992
559	5.767045	106246144	74067968	43062808	24992
560	6.664994	106246144	74067968	49017856	24992
561	11.336022	106516480	74592256	39217872	24992
562	8.017049	106516480	74592256	46491728	24992
563	12.861352	106516480	74592256	37993824	24992
564	9.457867	106516480	74592256	46586544	24992
565	14.282666	106516480	74592256	39406576	24992
566	11.499421	106516480	74592256	49318048	24992
567	21.570432	106516480	74592256	43465024	24992
568	17.89797	106119168	73543680	20324128	24992
569	13.5196	106119168	73543680	15740168	24992
570	14.17159	106119168	73543680	11821768	24992
571	14.407304	106119168	73543680	25034152	24992
572	15.896115	106119168	73543680	22441720	24992
573	16.270373	106119168	73543680	20510240	24992
574	17.384351	106119168	73543680	19232840	24992
575	17.819751	106119168	73543680	18615912	24992
576	18.827557	106119168	73543680	18659464	24992
577	19.061556	106119168	73543680	19363520	24992
578	20.590992	106119168	73543680	20728056	24992
579	21.300425	106119168	73543680	22753064	24992
580	22.35232	106119168	73543680	25438104	24992
581	22.63634	106119168	73543680	12313808	24992
582	24.00069	106119168	73543680	16328888	24992
583	23.839901	106119168	73543680	21000128	24992
584	24.672134	106119168	73543680	26335304	24992
585	25.773307	106119168	73543680	15864104	24992
586	26.407848	106119168	73543680	22515528	24992
587	26.854145	106119168	73543680	13372664	24992
588	27.582736	106119168	73543680	21344504	24992
589	28.624494	106119168	73543680	13520792	24992
590	29.833821	106119168	73543680	22817952	24992
591	30.138172	106119168	73543680	16313392	24992
592	30.156452	106119168	73543680	26923056	24992
593	31.525692	106119168	73543680	21738544	24992
594	31.972318	106119168	73543680	17214992	24992
595	33.160511	106119168	73543680	13348200	24992
596	33.090812	106119168	73543680	26598536	24992
597	34.304367	106119168	73543680	24058712	24992
598	34.489685	106119168	73543680	22176256	24992
599	35.98329	106119168	73543680	20956688	24992
600	36.339313	106119168	73543680	20394224	24992
601	37.126205	106119168	73543680	20493432	24992
602	0.813277	106119168	73543680	21085456	24992
603	1.497946	106119168	73543680	22423200	24992
604	2.221797	106119168	73543680	24420352	24992
605	2.955676	106119168	73543680	27076928	24992
606	3.902485	106119168	73543680	13918088	24992
607	4.453853	106119168	73543680	17893968	24992
608	5.265756	106119168	73543680	22529248	24992
609	6.01486	106119168	73543680	27823936	24992
610	6.724524	106119168	73543680	17315040	24992
611	7.406994	106119168	73543680	23929496	24992
612	8.202595	106119168	73543680	14737080	24992
613	8.802816	106119168	73543680	22670344	24992
614	9.951728	106119168	73543680	14793712	24992
615	10.333918	106119168	73543680	24045776	24992
616	11.053319	106119168	73543680	17490584	24992
617	11.753632	106119168	73543680	28061464	24992
618	12.921828	106119168	73543680	22829880	24992
619	13.22083	106119168	73543680	18254344	24992
620	14.164757	106119168	73543680	14334368	24992
621	14.681135	106119168	73543680	27545072	24992
622	15.961191	106119168	73543680	24951264	24992
623	16.375561	106119168	73543680	23018360	24992
624	17.192647	106119168	73543680	21739424	24992
625	17.956753	106119168	73543680	21121256	24992
626	18.845266	106119168	73543680	21166624	24992
627	19.16962	106119168	73543680	21869224	24992
628	20.280939	106119168	73543680	23231904	24992
629	21.213958	106119168	73543680	25256184	24992
630	21.381015	106119168	73543680	27939256	24992
631	22.572121	106119168	73543680	14813184	24992
632	23.518178	106119168	73543680	18811984	24992
633	24.21058	106119168	73543680	23479752	24992
634	24.458285	106119168	73543680	28811968	24992
635	25.307516	106119168	73543680	18337168	24992
636	25.910193	106119168	73543680	24985376	24992
637	27.023833	106119168	73543680	15838624	24992
638	27.438069	106119168	73543680	23807416	24992
639	28.584813	106119168	73543680	15982176	24992
640	29.775053	106119168	73543680	25280720	24992
641	30.024847	106119168	73543680	18804944	24992
642	30.07142	106119168	73543680	29429824	24992
643	31.185388	106119168	73543680	24302760	24992
644	32.211147	106119168	73543680	19805696	24992
645	32.899835	106119168	73543680	15971904	24992
646	33.254658	106119168	73543680	29239168	24992
647	33.963747	106119168	73543680	26761752	24992
648	35.027904	106119168	73543680	24914816	24992
649	36.285669	106119168	73543680	23731088	24992
650	36.883111	106119168	73543680	23205632	24992
651	37.668629	106119168	73543680	23342488	24992
652	0.81729	106119168	73543680	23949712	24992
653	1.514399	106119168	73543680	25287440	24992
654	2.251289	106119168	73543680	27284576	24992
655	2.95874	106119168	73543680	29941120	24992
656	4.24997	106119168	73543680	16796184	24992
657	4.580387	106119168	73543680	20772048	24992
658	5.317539	106119168	73543680	25407312	24992
659	5.955858	106119168	73543680	30701984	24992
660	7.223213	106119168	73543680	20231800	24992
661	7.498862	106119168	73543680	26846240	24992
662	8.39515	106119168	73543680	17694432	24992
663	8.753114	106119168	73543680	25627680	24992
664	10.154247	106119168	73543680	17784424	24992
665	10.395526	106119168	73543680	27036504	24992
666	11.287397	106119168	73543680	20520784	24992
667	12.227959	106119168	73543680	14653080	24992
668	12.594224	106119168	73543680	25885200	24992
669	13.42417	106119168	73543680	21344096	24992
670	14.395012	106119168	73543680	17466400	24992
671	14.609587	106119168	73543680	30677088	24992
672	15.92119	106119168	73543680	28123208	24992
673	16.664375	106119168	73543680	26232736	24992
674	17.376241	106119168	73543680	24980432	24992
675	17.935128	106119168	73543680	24390184	24992
676	18.956599	106119168	73543680	24461408	24992
677	19.323657	106119168	73543680	25194224	24992
678	20.294632	106119168	73543680	26588560	24992
679	21.433893	106119168	73543680	28644072	24992
680	21.569047	106119168	73543680	31361040	24992
681	23.131745	106119168	73543680	18268120	24992
682	23.904123	106119168	73543680	22288008	24992
683	24.408252	106119168	73543680	26993112	24992
684	25.128011	106119168	73543680	15905304	24992
685	25.844602	106119168	73543680	21906616	24992
686	26.482977	106119168	73543680	28596992	24992
687	27.649287	106119168	73543680	19495104	24992
688	28.168018	106119168	73543680	27478224	24992
689	29.885724	106119168	73543680	19705560	24992
690	29.484411	106119168	73543680	29009720	24992
691	31.249407	106119168	73543680	22562568	24992
692	31.504133	106119168	73543680	16747880	24992
693	31.509748	106119168	73543680	28033480	24992
694	33.208634	106119168	73543680	23569464	24992
695	34.101336	106119168	73543680	19744800	24992
696	34.303343	106119168	73543680	16573184	24992
697	34.170773	106119168	73543680	30501008	24992
698	35.976303	106119168	73543680	28686784	24992
699	36.681274	106119168	73543680	27501552	24992
700	38.055196	106119168	73543680	26980984	24992
701	37.825772	106119168	73543680	27119664	24992
702	0.794323	106119168	73543680	27727048	24992
703	1.485584	106119168	73543680	29064776	24992
704	2.204845	106119168	73543680	31061976	24992
705	3.723597	106119168	73543680	17249512	24992
706	3.722214	106119168	73543680	20565968	24992
707	4.54186	106119168	73543680	24541832	24992
708	5.238121	106119168	73543680	29177096	24992
709	6.759226	106119168	73543680	18035592	24992
710	6.510591	106119168	73543680	23990624	24992
711	7.153858	106119168	73543680	30605064	24992
712	8.941368	106119168	73543680	21460840	24992
713	8.821707	106119168	73543680	29394088	24992
714	10.179557	106119168	73543680	21562944	24992
715	10.116706	106119168	73543680	30814992	24992
716	11.891092	106119168	73543680	24299048	24992
717	12.669548	106119168	73543680	18431344	24992
718	12.326408	106119168	73543680	29663464	24992
719	14.289639	106119168	73543680	25122376	24992
720	14.506508	106119168	73543680	21244664	24992
721	15.529786	106119168	73543680	18009088	24992
722	15.293597	106119168	73543680	31879200	24992
723	16.93554	106119168	73543680	29988632	24992
724	17.516736	106119168	73543680	28760888	24992
725	18.50879	106119168	73543680	28170176	24992
726	18.969654	106119168	73543680	28241272	24992
727	19.843357	106119168	73543680	28973752	24992
728	20.750535	106119168	73543680	30367672	24992
729	21.680244	106119168	73543680	32432328	24992
730	22.796949	106119168	73543680	18690136	24992
731	23.136388	106119168	73543680	22040008	24992
732	24.195093	106119168	73543680	26081632	24992
733	24.788471	106119168	73543680	30786520	24992
734	26.174548	106119168	73543680	19697656	24992
735	25.770706	106119168	73543680	25699040	24992
736	26.854921	106119168	73543680	32391344	24992
737	28.237517	106119168	73543680	23289360	24992
738	27.746397	106119168	73543680	31272080	24992
739	29.592549	106119168	73543680	23498648	24992
740	29.925893	106119168	73543680	32802488	24992
741	31.236719	106119168	73543680	26354656	24992
742	32.287252	106119168	73543680	20539920	24992
743	31.508778	106119168	73543680	31825664	24992
744	33.846676	106119168	73543680	27361504	24992
745	33.880785	106119168	73543680	23531568	24992
746	35.315063	106119168	73543680	20359712	24992
747	35.220691	106119168	73543680	34287552	24992
748	36.540369	106119168	73543680	32472640	24992
749	37.30323	106119168	73543680	31287232	24992
750	37.524649	106119168	73543680	30763672	24992
751	39.817998	106119168	73543680	30910160	24992
752	0.809046	106119168	73543680	31519936	24992
753	1.506193	106119168	73543680	32857664	24992
754	2.248042	106119168	73543680	34854800	24992
755	4.056808	106119168	73543680	21041712	24992
756	3.842775	106119168	73543680	24358168	24992
757	4.550977	106119168	73543680	28334032	24992
758	5.254152	106119168	73543680	32969344	24992
759	7.332009	106119168	73543680	21831408	24992
760	6.481592	106119168	73543680	27786440	24992
761	7.36743	106119168	73543680	34400960	24992
762	9.152637	106119168	73543680	25256592	24992
763	8.60758	106119168	73543680	33189872	24992
764	11.020964	106119168	73543680	25358504	24992
765	10.307333	106119168	73543680	34610568	24992
766	12.01908	106119168	73543680	28094640	24992
767	12.92823	106119168	73543680	22226936	24992
768	12.464916	106119168	73543680	33459088	24992
769	14.231955	106119168	73543680	28917760	24992
770	15.403121	106119168	73543680	25040064	24992
771	15.578483	106119168	73543680	21804056	24992
772	15.322025	106119168	73543680	35674152	24992
773	17.846022	106119168	73543680	33778880	24992
774	17.820952	106119168	73543680	32550896	24992
775	18.661152	106119168	73543680	31963096	24992
776	19.367436	106119168	73543680	32033904	24992
777	20.470785	106119168	73543680	32766224	24992
778	21.022023	106119168	73543680	34160064	24992
779	22.003144	106119168	73543680	36215288	24992
780	23.740117	106119168	73543680	22437504	24992
781	23.422702	106119168	73543680	25817064	24992
782	24.004436	106119168	73543680	29857808	24992
783	24.692903	106119168	73543680	34562824	24992
784	26.632674	106119168	73543680	23480464	24992
785	26.421152	106119168	73543680	29482168	24992
786	27.096423	106119168	73543680	36181712	24992
787	28.659942	106119168	73543680	27082776	24992
788	28.373159	106119168	73543680	35064448	24992
789	30.803385	106119168	73543680	27295832	24992
790	29.709626	106119168	73543680	36599496	24992
791	31.990982	106119168	73543680	30140176	24992
792	32.390346	106119168	73543680	24335272	24992
793	32.398789	106119168	73543680	35621288	24992
794	33.999414	106119168	73543680	31166024	24992
795	34.899036	106119168	73543680	27336448	24992
796	35.905414	106119168	73543680	24164648	24992
797	36.421286	106119168	73543680	21655096	24992
798	36.176272	106119168	73543680	36243640	24992
799	38.244346	106119168	73543680	35100848	24992
800	38.705703	106119168	73543680	34577496	24992
801	39.602052	106119168	73543680	34716488	24992
802	0.792929	106119168	73543680	35326264	24992
803	1.716633	106119168	73543680	36664056	24992
804	3.669134	106119168	73543680	22185656	24992
805	2.956207	106119168	73543680	24842200	24992
806	3.681442	106119168	73543680	28158656	24992
807	4.617942	106119168	73543680	32134552	24992
808	5.245328	106119168	73543680	36769816	24992
809	7.296327	106119168	73543680	25631904	24992
810	6.462024	106119168	73543680	31586936	24992
811	8.990338	106119168	73543680	21776448	24992
812	8.219578	106119168	73543680	29050280	24992
813	8.605527	106119168	73543680	36983528	24992
814	11.038366	106119168	73543680	29152200	24992
815	11.790937	106119168	73543680	21973328	24992
816	10.761209	106119168	73543680	31884808	24992
817	13.324061	106119168	73543680	26017112	24992
818	12.367777	106119168	73543680	37249232	24992
819	14.478578	106119168	73543680	32726088	24992
820	15.569484	106119168	73543680	28848136	24992
821	16.091587	106119168	73543680	25611696	24992
822	16.9088	106119168	73543680	23037672	24992
823	15.927453	106119168	73543680	37567176	24992
824	18.308044	106119168	73543680	36338456	24992
825	19.030672	106119168	73543680	35773088	24992
826	19.955378	106119168	73543680	35843736	24992
827	21.044282	106119168	73543680	36575848	24992
828	21.442179	106119168	73543680	37969720	24992
829	23.778632	106119168	73543680	23564240	24992
830	22.908414	106119168	73543680	26254096	24992
831	23.789631	106119168	73543680	29634248	24992
832	24.782512	106119168	73543680	33674808	24992
833	25.354427	106119168	73543680	38379360	24992
834	27.252477	106119168	73543680	27295360	24992
835	26.493152	106119168	73543680	33292912	24992
836	28.66595	106119168	73543680	23538496	24992
837	28.344077	106119168	73543680	30861152	24992
838	29.060762	106119168	73543680	38880112	24992
839	31.229153	106119168	73543680	31092024	24992
840	32.054781	106119168	73543680	23963856	24992
841	31.192951	106119168	73543680	33928688	24992
842	33.385462	106119168	73543680	28150032	24992
843	32.814062	106119168	73543680	39435680	24992
844	34.692328	106119168	73543680	34929768	24992
845	35.908458	106119168	73543680	31136904	24992
846	36.310048	106119168	73543680	27969168	24992
847	37.034353	106119168	73543680	25459744	24992
848	37.911946	106119168	73543680	23611680	24992
849	36.827657	106119168	73543680	38860736	24992
850	39.402118	106119168	73543680	38411672	24992
851	40.095343	106119168	73543680	38550760	24992
852	0.809527	106119168	73543680	39169688	24992
853	3.282808	106119168	73543680	24025592	24992
854	2.344906	106119168	73543680	26031232	24992
855	2.995385	106119168	73543680	28687776	24992
856	3.661255	106119168	73543680	32004232	24992
857	4.535755	106119168	73543680	35980096	24992
858	6.900916	106119168	73543680	24168904	24992
859	6.057668	106119168	73543680	29463568	24992
860	6.520221	106119168	73543680	35418648	24992
861	9.235387	106119168	73543680	25609504	24992
862	8.108127	106119168	73543680	32883344	24992
863	10.686661	106119168	73543680	24385608	24992
864	9.321431	106119168	73543680	32978272	24992
865	12.1818	106119168	73543680	25797456	24992
866	10.966181	106119168	73543680	35708912	24992
867	13.570445	106119168	73543680	29854992	24992
868	14.349883	106119168	73543680	24650784	24992
869	13.110263	106119168	73543680	36542304	24992
870	15.557121	106119168	73543680	32662712	24992
871	16.434205	106119168	73543680	29446224	24992
872	17.425818	106119168	73543680	26871376	24992
873	18.289984	106119168	73543680	24958920	24992
874	16.632793	106119168	73543680	40147816	24992
875	19.55199	106119168	73543680	39580320	24992
876	20.357619	106119168	73543680	39676112	24992
877	21.204294	106119168	73543680	40407272	24992
878	23.996677	106119168	73543680	25337768	24992
879	22.633798	106119168	73543680	27366184	24992
880	22.986707	106119168	73543680	30083808	24992
881	23.728465	106119168	73543680	33462344	24992
882	24.221477	106119168	73543680	37501872	24992
883	27.557188	106119168	73543680	25749680	24992
884	26.471651	106119168	73543680	31088808	24992
885	27.149062	106119168	73543680	37123040	24992
886	29.769467	106119168	73543680	27365960	24992
887	28.801913	106119168	73543680	34688568	24992
888	31.89573	106119168	73543680	26271488	24992
889	29.995388	106119168	73543680	34914992	24992
890	32.626089	106119168	73543680	27810544	24992
891	31.215884	106119168	73543680	37775168	24992
892	33.785014	106119168	73543680	31993968	24992
893	34.971495	106119168	73543680	26840512	24992
894	34.179235	106119168	73543680	38786592	24992
895	36.380681	106119168	73543680	34993016	24992
896	37.514879	106119168	73543680	31825448	24992
897	37.621294	106119168	73543680	29314760	24992
898	38.314398	106119168	73543680	27466312	24992
899	39.619744	106119168	73543680	26279120	24992
900	38.063348	106119168	73543680	42188384	24992
901	40.306668	106119168	73543680	42342680	24992
902	2.937243	106119168	73543680	26476976	24992
903	1.494312	106119168	73543680	27814712	24992
904	2.232304	106119168	73543680	29811848	24992
905	3.102294	106119168	73543680	32468440	24992
906	3.641417	106119168	73543680	35784944	24992
907	4.375584	106119168	73543680	39760808	24992
908	7.427875	106119168	73543680	27944080	24992
909	5.960826	106119168	73543680	33238752	24992
910	6.707261	106119168	73543680	39193784	24992
911	9.400494	106119168	73543680	29387080	24992
912	7.891827	106119168	73543680	36660984	24992
913	11.108346	106119168	73543680	28162360	24992
914	9.650329	106119168	73543680	36755000	24992
915	12.280726	106119168	73543680	29573496	24992
916	11.091232	106119168	73543680	39484952	24992
917	13.962278	106119168	73543680	33630184	24992
918	14.65826	106119168	73543680	28425008	24992
919	13.112983	106119168	73543680	40316568	24992
920	16.322069	106119168	73543680	36436336	24992
921	16.846532	106119168	73543680	33219256	24992
922	17.320168	106119168	73543680	30643032	24992
923	18.4591	106119168	73543680	28729312	24992
924	19.401592	106119168	73543680	27477160	24992
925	19.714998	106119168	73543680	26886448	24992
926	20.7454	106119168	73543680	26957448	24992
927	21.458553	106119168	73543680	27689856	24992
928	22.108542	106119168	73543680	29083784	24992
929	22.870889	106119168	73543680	31139224	24992
930	23.699151	106119168	73543680	33856216	24992
931	24.690723	106119168	73543680	37233872	24992
932	24.785154	106119168	73543680	41273112	24992
933	28.054225	106119168	73543680	29520200	24992
934	26.323471	106119168	73543680	34859376	24992
935	27.392198	106119168	73543680	40893384	24992
936	30.205986	106119168	73543680	31135648	24992
937	28.584947	106119168	73543680	38458160	24992
938	31.787767	106119168	73543680	30031712	24992
939	29.934461	106119168	73543680	38675200	24992
940	33.706867	106119168	73543680	31569424	24992
941	32.026978	106119168	73543680	41534040	24992
942	34.668938	106119168	73543680	35754432	24992
943	35.935692	106119168	73543680	30600976	24992
944	33.515002	106119168	73543680	42547104	24992
945	36.899247	106119168	73543680	38753544	24992
946	37.335122	106119168	73543680	35584896	24992
947	38.840633	106119168	73543680	33074288	24992
948	39.23037	106119168	73543680	31225360	24992
949	39.887681	106119168	73543680	30038728	24992
950	40.546066	106119168	73543680	29513152	24992
951	41.535076	106119168	73543680	29650176	24992
952	0.805831	106119168	73543680	30257856	24992
953	1.492765	106119168	73543680	31595584	24992
954	2.217478	106119168	73543680	33592720	24992
955	2.923405	106119168	73543680	36249264	24992
956	3.808468	106119168	73543680	39565880	24992
957	4.530525	106119168	73543680	43541744	24992
958	8.067032	106119168	73543680	31729440	24992
959	6.024393	106119168	73543680	37024112	24992
960	6.467954	106119168	73543680	42979144	24992
961	9.92253	106119168	73543680	33175296	24992
962	8.189141	106119168	73543680	40449152	24992
963	11.746126	106119168	73543680	31950128	24992
964	9.416772	106119168	73543680	40542768	24992
965	12.972765	106119168	73543680	33360816	24992
966	10.836681	106119168	73543680	43272288	24992
967	14.493408	106119168	73543680	37417392	24992
968	14.75469	106119168	73543680	32212248	24992
969	13.09543	106119168	73543680	44103808	24992
970	16.634904	106119168	73543680	40223480	24992
971	17.18058	106119168	73543680	37006064	24992
972	17.871136	106119168	73543680	34429888	24992
973	18.591776	106119168	73543680	32515704	24992
974	19.297794	106119168	73543680	31263456	24992
975	20.017325	106119168	73543680	30672736	24992
976	21.318018	106119168	73543680	30743664	24992
977	21.73484	106119168	73543680	31476040	24992
978	22.221004	106119168	73543680	32869984	24992
979	23.161558	106119168	73543680	34925424	24992
980	24.116654	106119168	73543680	37642016	24992
981	24.759047	106119168	73543680	41019656	24992
982	25.730159	106119168	73543680	45058400	24992
983	28.635085	106119168	73543680	33304816	24992
984	27.563301	106119168	73543680	38644040	24992
985	27.658545	106119168	73543680	44678112	24992
986	30.889117	106119168	73543680	34920328	24992
987	29.795716	106119168	73543680	42242424	24992
988	32.564193	106119168	73543680	33814360	24992
989	30.672108	106119168	73543680	42457880	24992
990	34.375237	106119168	73543680	35355032	24992
991	31.987126	106119168	73543680	45319288	24992
992	35.501406	106119168	73543680	39540824	24992
993	36.221224	106119168	73543680	34387544	24992
994	34.246338	106119168	73543680	46333752	24992
995	37.835824	106119168	73543680	42522216	24992
996	38.446004	106119168	73543680	39359096	24992
997	39.492106	106119168	73543680	36852232	24992
998	39.5711	106119168	73543680	35003016	24992
999	40.597126	106119168	73543680	33816472	24992
1000	41.524437	106119168	73543680	33291064	24992
