x	Duration	RSS	HeapTotal	HeapUsed	External
0	NA	103288832	71970816	10979880	24992
1	1.286329	103288832	71970816	11659992	24992
2	2.281894	103288832	71970816	12998392	24992
3	3.221453	103288832	71970816	14996208	24992
4	4.443498	103288832	71970816	17653512	24992
5	5.039941	103288832	71970816	20970952	24992
6	4.580415	103288832	71970816	24947896	24992
7	5.586553	103288832	71970816	13118528	24992
8	6.066965	103288832	71970816	18414600	24992
9	6.968442	103288832	71970816	24371208	24992
10	7.570792	103288832	71970816	14528168	24992
11	8.318836	103288832	71970816	21803984	24992
12	9.180854	103288832	71970816	13271792	24992
13	9.431047	103288832	71970816	21866648	24992
14	10.464165	103288832	71970816	14652992	24992
15	12.358458	103288832	71970816	24580944	24992
16	12.093546	103288832	71970816	18689480	24992
17	12.642093	103288832	71970816	13456232	24992
18	13.472117	103288832	71970816	25350776	24992
19	13.984054	103288832	71970816	21439632	24992
20	15.159029	103288832	71970816	18189688	24992
21	15.669932	103288832	71970816	15593576	24992
22	16.69319	103288832	71970816	13658848	24992
23	17.233536	103288832	71970816	12384824	24992
24	17.898691	103288832	71970816	11771224	24992
25	18.83962	103288832	71970816	11818208	24992
26	19.790528	103288832	71970816	12525808	24992
27	20.80294	103288832	71970816	13893912	24992
28	21.245858	103288832	71970816	15927936	24992
29	21.829646	103288832	71970816	18617184	24992
30	22.640577	103288832	71970816	21966072	24992
31	23.276332	103288832	71970816	25975360	24992
32	24.028986	103288832	71970816	14180696	24992
33	24.731301	103288832	71970816	19512904	24992
34	25.161265	103288832	71970816	25512144	24992
35	27.023809	103288832	71970816	15708552	24992
36	27.325103	103288832	71970816	23021848	24992
37	27.929286	103288832	71970816	14539392	24992
38	28.736463	103288832	71970816	23171504	24992
39	29.041453	103288832	71970816	16011808	24992
40	30.448109	103288832	71970816	25966768	24992
41	31.351786	103288832	71970816	20126368	24992
42	31.907788	103288832	71970816	14944744	24992
43	31.569488	103288832	71970816	26878256	24992
44	33.658667	103288832	71970816	23019784	24992
45	33.556318	103288832	71970816	19822872	24992
46	34.373906	103288832	71970816	17281424	24992
47	34.998246	103288832	71970816	15401176	24992
48	36.31556	103288832	71970816	14182232	24992
49	36.651587	103288832	71970816	13624056	24992
50	37.336027	103288832	71970816	13729144	24992
51	37.756009	103288832	71970816	14490064	24992
52	0.917055	103288832	71970816	15740504	24992
53	1.501959	103288832	71970816	17078352	24992
54	2.223035	103288832	71970816	19075576	24992
55	2.905891	103288832	71970816	21732208	24992
56	3.833503	103288832	71970816	25048768	24992
57	4.55637	103288832	71970816	29024720	24992
58	5.382435	103288832	71970816	17191912	24992
59	5.778357	103288832	71970816	22486872	24992
60	6.470636	103288832	71970816	28442000	24992
61	7.652776	103288832	71970816	18597120	24992
62	8.131531	103288832	71970816	25871080	24992
63	9.056329	103288832	71970816	17336952	24992
64	9.63455	103288832	71970816	25929728	24992
65	10.744149	103288832	71970816	18713800	24992
66	11.050833	103288832	71970816	28625344	24992
67	11.789116	103288832	71970816	22730568	24992
68	12.758722	103288832	71970816	17494568	24992
69	13.666225	103288832	71970816	12914304	24992
70	13.657935	103288832	71970816	25465680	24992
71	15.242519	103288832	71970816	22213040	24992
72	15.530375	103288832	71970816	19620104	24992
73	16.28803	103288832	71970816	17680912	24992
74	16.932578	103288832	71970816	16403032	24992
75	17.539044	103288832	71970816	15785592	24992
76	18.559719	103288832	71970816	15828536	24992
77	19.080892	103288832	71970816	16531984	24992
78	20.072545	103288832	71970816	17895736	24992
79	21.307927	103288832	71970816	19919944	24992
80	21.293178	103288832	71970816	22603816	24992
81	22.150557	103288832	71970816	25949448	24992
82	23.755567	103288832	71970816	13485480	24992
83	23.989703	103288832	71970816	18146952	24992
84	25.742072	103288832	71970816	23492216	24992
85	25.039151	103288832	71970816	29499416	24992
86	26.442995	103288832	71970816	19715744	24992
87	26.617322	103288832	71970816	27051248	24992
88	27.60083	103288832	71970816	18612000	24992
89	28.528147	103288832	71970816	27255296	24992
90	28.806844	103288832	71970816	20144960	24992
91	29.369152	103288832	71970816	30108912	24992
92	30.967842	103288832	71970816	24275376	24992
93	31.455772	103288832	71970816	19150496	24992
94	32.474057	103288832	71970816	14655400	24992
95	32.26255	103288832	71970816	27262104	24992
96	33.994092	103559168	71970816	24123064	24992
97	34.192749	103559168	71970816	21616288	24992
98	35.301105	103559168	71970816	19767432	24992
99	36.452694	103559168	71970816	18580024	24992
100	36.432341	103559168	71970816	18055016	24992
101	37.489817	103829504	71970816	18192288	24992
102	0.797618	103829504	71970816	18799928	24992
103	1.506889	103829504	71970816	20137672	24992
104	2.190378	103829504	71970816	22134824	24992
105	2.954907	103829504	71970816	24791384	24992
106	3.675141	103829504	71970816	28107904	24992
107	4.848224	103829504	71970816	15631016	24992
108	5.098141	103829504	71970816	20266296	24992
109	5.840642	103829504	71970816	25560984	24992
110	7.127588	103829504	71970816	15091656	24992
111	7.194628	103829504	71970816	21706136	24992
112	7.885682	103829504	71970816	28980088	24992
113	9.434675	103829504	71970816	20493832	24992
114	9.413132	103829504	71970816	29086488	24992
115	10.89866	103829504	71970816	21919848	24992
116	11.523942	103829504	71970816	15389592	24992
117	11.486895	103829504	71970816	25960472	24992
118	13.041114	103829504	71970816	20756840	24992
119	13.988764	103829504	71970816	16216216	24992
120	13.770765	103829504	71970816	28767592	24992
121	15.296034	104099840	71970816	25551864	24992
122	15.700929	104099840	71970816	22999144	24992
123	16.677397	104099840	71970816	21085768	24992
124	17.43581	104099840	71970816	19834264	24992
125	18.172193	104099840	71970816	19244896	24992
126	18.837833	104099840	71970816	19317032	24992
127	19.860305	104099840	71970816	20050712	24992
128	20.193448	104099840	71970816	21445960	24992
129	21.19916	104099840	71970816	23501824	24992
130	22.352351	104099840	71970816	26219288	24992
131	22.534412	104099840	71970816	29597800	24992
132	23.926543	104099840	71970816	17180888	24992
133	23.969078	104099840	71970816	21854568	24992
134	25.222247	104099840	71970816	27220440	24992
135	26.417645	104099840	71970816	16795448	24992
136	27.796925	104099840	71970816	23457344	24992
137	28.806278	104099840	71970816	30808952	24992
138	28.061491	104099840	71970816	22369440	24992
139	28.338467	104099840	71970816	31012304	24992
140	30.433835	104099840	71970816	23902032	24992
141	30.645107	104099840	71970816	17425664	24992
142	30.970866	104099840	71970816	28054448	24992
143	31.990459	104099840	71970816	22929824	24992
144	33.535013	104099840	71970816	18440712	24992
145	32.872125	104099840	71970816	31047512	24992
146	34.726371	104099840	71970816	27912352	24992
147	34.951823	104099840	71970816	25404568	24992
148	35.897483	104099840	71970816	23557680	24992
149	36.74887	104099840	71970816	22370352	24992
150	37.692434	104099840	71970816	21844592	24992
151	38.053634	104099840	71970816	21981592	24992
152	0.790801	104099840	71970816	22589168	24992
153	1.485911	104099840	71970816	23926912	24992
154	2.20159	104099840	71970816	25924064	24992
155	2.89528	104099840	71970816	28580624	24992
156	3.843908	104099840	71970816	31897096	24992
157	5.431661	104099840	71970816	19420160	24992
158	5.25389	104099840	71970816	24055568	24992
159	5.757618	104099840	71970816	29350272	24992
160	7.367031	104099840	71970816	18880792	24992
161	7.185364	104099840	71970816	25495248	24992
162	8.118543	104099840	71970816	32769104	24992
163	9.943038	104099840	71970816	24282192	24992
164	9.599291	104099840	71970816	32874848	24992
165	11.312431	104099840	71970816	25707600	24992
166	11.707505	104099840	71970816	19177312	24992
167	11.7499	104099840	71970816	29748192	24992
168	13.620839	104099840	71970816	24544496	24992
169	14.335148	104099840	71970816	20012168	24992
170	13.827277	104099840	71970816	32563464	24992
171	15.589139	104099840	71970816	29347688	24992
172	16.220572	104099840	71970816	26794776	24992
173	17.006271	104099840	71970816	24881416	24992
174	17.92371	104099840	71970816	23629752	24992
175	19.058836	104099840	71970816	23039456	24992
176	19.519561	104099840	71970816	23111176	24992
177	20.172309	104099840	71970816	23844568	24992
178	20.373405	104099840	71970816	25238952	24992
179	21.660051	104099840	71970816	27294832	24992
180	22.377909	104099840	71970816	30012408	24992
181	22.945909	104099840	71970816	33390936	24992
182	24.625639	104099840	71970816	20973368	24992
183	24.383312	104099840	71970816	25647128	24992
184	25.208836	104099840	71970816	31013016	24992
185	27.123584	104099840	71970816	20586400	24992
186	27.039972	104099840	71970816	27248352	24992
187	30.372445	104099840	71970816	18152840	24992
188	27.814677	104099840	71970816	26135816	24992
189	29.691121	104099840	71970816	18361744	24992
190	29.960482	104099840	71970816	27665840	24992
191	31.599921	104099840	71970816	21216600	24992
192	31.130366	104099840	71970816	31841848	24992
193	33.13648	104099840	71970816	26715216	24992
194	33.490311	104099840	71970816	22223608	24992
195	33.491446	104099840	71970816	34830456	24992
196	35.176094	104099840	71970816	31663776	24992
197	35.657309	104099840	71970816	29172032	24992
198	36.676548	104099840	71970816	27326872	24992
199	37.969018	104099840	71970816	26147824	24992
200	38.010338	104099840	71970816	25622744	24992
201	39.060964	104370176	71970816	25759976	24992
202	0.791395	104370176	71970816	26367592	24992
203	1.501303	104370176	71970816	27705336	24992
204	2.191476	104370176	71970816	29702488	24992
205	3.130455	104370176	71970816	32359048	24992
206	3.819392	104370176	71970816	35675520	24992
207	5.662942	104370176	71970816	23196424	24992
208	5.381229	104370176	71970816	27831704	24992
209	5.775754	104370176	71970816	33126392	24992
210	8.003636	104370176	71970816	22657064	24992
211	7.411957	104370176	71970816	29271520	24992
212	9.229592	104370176	71970816	20112392	24992
213	8.722216	104370176	71970816	28045656	24992
214	10.951828	104370176	71970816	20203168	24992
215	10.559626	104370176	71970816	29455232	24992
216	12.21573	104370176	71970816	22940008	24992
217	11.692165	104370176	71970816	33510952	24992
218	13.871913	104370176	71970816	28324168	24992
219	14.412314	104370176	71970816	23783512	24992
220	15.418199	104370176	71970816	19886424	24992
221	14.405703	104370176	71970816	33097160	24992
222	16.705928	104370176	71970816	30544080	24992
223	17.751636	104370176	71970816	28653944	24992
224	18.058909	104370176	71970816	27402120	24992
225	18.969105	104370176	71970816	26811840	24992
226	19.474142	104370176	71970816	26883192	24992
227	20.127005	104370176	71970816	27616040	24992
228	21.04589	104370176	71970816	29010360	24992
229	22.240446	104370176	71970816	31072080	24992
230	22.572102	104370176	71970816	33791928	24992
231	24.537095	104370176	71970816	20712416	24992
232	24.37679	104370176	71970816	24722816	24992
233	25.340936	104370176	71970816	29428928	24992
234	25.543877	104370176	71970816	34801160	24992
235	27.995144	104370176	71970816	24381920	24992
236	27.501635	104370176	71970816	31044192	24992
237	29.565841	104370176	71970816	21956312	24992
238	28.642437	104370176	71970816	29939544	24992
239	31.525223	104370176	71970816	22173472	24992
240	30.043706	104370176	71970816	31477792	24992
241	32.369455	104370176	71970816	25036584	24992
242	31.190293	104370176	71970816	35662056	24992
243	34.110493	104370176	71970816	30544288	24992
244	34.370802	104370176	71970816	26053264	24992
245	35.220241	104370176	71970816	22220328	24992
246	34.153488	104370176	71970816	35487800	24992
247	36.769521	104370176	71970816	33020480	24992
248	37.080552	104370176	71970816	31173904	24992
249	37.909867	104370176	71970816	29990952	24992
250	38.705059	104370176	71970816	29465888	24992
251	39.705854	104370176	71970816	29603136	24992
252	0.791961	104370176	71970816	30210912	24992
253	1.543555	104370176	71970816	31548656	24992
254	2.19199	104370176	71970816	33545808	24992
255	2.952958	104370176	71970816	36202368	24992
256	6.086201	104370176	71970816	23057384	24992
257	4.392945	104370176	71970816	27033264	24992
258	5.464644	104370176	71970816	31668544	24992
259	5.755419	104370176	71970816	36963232	24992
260	8.660295	104370176	71970816	26493672	24992
261	7.204275	104370176	71970816	33108128	24992
262	9.646275	104370176	71970816	23956336	24992
263	8.85196	104370176	71970816	31889600	24992
264	11.36977	104370176	71970816	24047192	24992
265	10.05167	104370176	71970816	33299256	24992
266	12.762573	104370176	71970816	26783552	24992
267	11.779139	104370176	71970816	37354528	24992
268	13.987344	104370176	71970816	32167744	24992
269	14.885016	104370176	71970816	27627120	24992
270	15.894437	104370176	71970816	23729584	24992
271	14.627165	104370176	71970816	36940288	24992
272	17.065724	104370176	71970816	34387144	24992
273	17.783201	104370176	71970816	32496816	24992
274	18.553904	104370176	71970816	31244752	24992
275	19.22618	104370176	71970816	30654568	24992
276	19.969661	104370176	71970816	30725856	24992
277	20.947562	104370176	71970816	31458816	24992
278	21.649617	104370176	71970816	32853200	24992
279	22.093088	104370176	71970816	34908840	24992
280	22.762875	104370176	71970816	37625952	24992
281	25.638788	104370176	71970816	24546440	24992
282	24.62195	104370176	71970816	28556824	24992
283	25.707177	104370176	71970816	33262168	24992
284	25.899091	104370176	71970816	38633920	24992
285	29.095212	104370176	71970816	28210320	24992
286	27.227039	104370176	71970816	34868792	24992
287	30.7887	104370176	71970816	25775056	24992
288	29.019455	104370176	71970816	33758544	24992
289	31.667014	104370176	71970816	25995720	24992
290	30.643953	104370176	71970816	35300104	24992
291	33.521417	104370176	71970816	28857200	24992
292	31.981215	104370176	71970816	39481904	24992
293	35.268728	104370176	71970816	34335160	24992
294	35.145055	104370176	71970816	29864008	24992
295	36.779317	104370176	71970816	26032464	24992
296	34.567847	104370176	71970816	39300096	24992
297	38.726434	104370176	71970816	36843072	24992
298	39.254217	104370176	71970816	34997432	24992
299	38.816751	104370176	71970816	33813104	24992
300	41.29844	104370176	71970816	33289544	24992
301	41.499155	104370176	71970816	33426632	24992
302	0.800042	104370176	71970816	34034344	24992
303	1.484992	104370176	71970816	35372088	24992
304	2.203496	104370176	71970816	37369320	24992
305	2.903064	104370176	71970816	40025880	24992
306	5.971812	104370176	71970816	26877936	24992
307	4.340699	104370176	71970816	30853816	24992
308	5.318867	104370176	71970816	35489096	24992
309	7.920284	104370176	71970816	24343792	24992
310	6.707575	104370176	71970816	30299032	24992
311	7.240092	104370176	71970816	36913488	24992
312	10.228529	104370176	71970816	27759848	24992
313	9.709841	104370176	71970816	35703224	24992
314	11.988063	104370176	71970816	27870104	24992
315	10.271895	104370176	71970816	37122168	24992
316	13.093848	104370176	71970816	30604944	24992
317	13.881174	104370176	71970816	24735840	24992
318	12.720339	104370176	71970816	35968112	24992
319	15.698772	104370176	71970816	31425704	24992
320	15.907647	104370176	71970816	27546696	24992
321	14.586473	104370176	71970816	40757400	24992
322	17.841198	104370176	71970816	38191176	24992
323	18.20153	104370176	71970816	36299200	24992
324	19.183149	104370176	71970816	35056792	24992
325	19.855303	104370176	71970816	34465560	24992
326	20.330883	104370176	71970816	34535864	24992
327	21.52605	104370176	71970816	35267712	24992
328	22.253473	104370176	71970816	36660936	24992
329	23.067365	104370176	71970816	38715480	24992
330	25.64317	104370176	71970816	24971896	24992
331	24.220621	104370176	71970816	28321272	24992
332	25.666339	104370176	71970816	32361992	24992
333	26.532893	104370176	71970816	37074712	24992
334	28.854136	104370176	71970816	25991960	24992
335	27.305106	104370176	71970816	31993264	24992
336	27.993541	104370176	71970816	38692120	24992
337	31.277275	104370176	71970816	29596984	24992
338	29.25178	104370176	71970816	37580312	24992
339	32.523271	104370176	71970816	29814752	24992
340	30.524413	104370176	71970816	39118848	24992
341	33.887183	104370176	71970816	32678456	24992
342	34.790592	104370176	71970816	26863376	24992
343	32.763636	104370176	71970816	38148944	24992
344	35.892546	104370176	71970816	33692912	24992
345	36.843485	104370176	71970816	29862872	24992
346	37.316527	104370176	71970816	26691104	24992
347	36.002749	104370176	71970816	40618768	24992
348	39.183563	104370176	71970816	38813056	24992
349	40.055131	104370176	71970816	37627480	24992
350	40.829947	104370176	71970816	37104320	24992
351	41.358657	104370176	71970816	37242624	24992
352	0.809251	104370176	71970816	37849920	24992
353	1.481099	104370176	71970816	39187664	24992
354	2.208284	104370176	71970816	41184816	24992
355	5.435437	104370176	71970816	27369968	24992
356	3.688465	104370176	71970816	30686440	24992
357	4.367536	104370176	71970816	34662320	24992
358	5.266731	104370176	71970816	39297600	24992
359	8.618307	104370176	71970816	28151184	24992
360	6.694926	104370176	71970816	34110680	24992
361	7.178842	104370176	71970816	40725184	24992
362	10.550525	104370176	71970816	31580752	24992
363	8.85119	104370176	71970816	39514032	24992
364	12.361763	104370176	71970816	31684112	24992
365	10.324473	104370176	71970816	40936208	24992
366	14.081338	104370176	71970816	34417704	24992
367	14.473041	104370176	71970816	28548080	24992
368	12.450399	104370176	71970816	39780264	24992
369	16.181184	104370176	71970816	35237120	24992
370	16.480525	104370176	71970816	31357504	24992
371	17.136296	104370176	71970816	28120688	24992
372	15.543132	104370176	71970816	41990816	24992
373	18.484473	104370176	71970816	40098304	24992
374	19.810533	104370176	71970816	38868496	24992
375	20.771852	104370176	71970816	38276448	24992
376	20.791496	104370176	71970816	38345968	24992
377	21.978278	104370176	71970816	39077096	24992
378	22.724767	104370176	71970816	40469664	24992
379	23.6332	104370176	71970816	42523712	24992
380	26.63928	104370176	71970816	28779792	24992
381	24.999274	104370176	71970816	32129088	24992
382	25.393433	104370176	71970816	36169536	24992
383	26.247323	104370176	71970816	40873248	24992
384	29.67904	104370176	71970816	29790032	24992
385	28.056418	104370176	71970816	35791400	24992
386	28.310749	104370176	71970816	42490336	24992
387	31.789306	104370176	71970816	33395248	24992
388	29.925374	104370176	71970816	41377664	24992
389	34.539577	104370176	71970816	33611960	24992
390	31.602722	104370176	71970816	42915224	24992
391	34.778752	104370176	71970816	36474912	24992
392	36.035812	104370176	71970816	30659944	24992
393	33.084212	104370176	71970816	41945592	24992
394	37.244559	104370176	71970816	37489416	24992
395	38.170944	104370176	71970816	33659424	24992
396	38.345587	104370176	71970816	30487352	24992
397	36.439054	104370176	71970816	44415112	24992
398	39.762323	104370176	71970816	42589856	24992
399	40.602989	104370176	71970816	41412976	24992
400	41.065244	104370176	71970816	40888952	24992
401	41.945612	104370176	71970816	41027464	24992
402	0.802887	104370176	71970816	41636824	24992
403	1.485739	104370176	71970816	42974568	24992
404	2.211771	104370176	71970816	44971720	24992
405	5.843839	104370176	71970816	31156264	24992
406	3.672563	104370176	71970816	34472736	24992
407	4.376429	104370176	71970816	38448632	24992
408	5.078991	104370176	71970816	43083912	24992
409	9.157519	104370176	71970816	31940952	24992
410	6.475772	104370176	71970816	37896096	24992
411	7.692729	104370176	71970816	44510552	24992
412	10.996742	104370176	71970816	35361672	24992
413	8.866147	104370176	71970816	43294936	24992
414	12.60704	104370176	71970816	35460360	24992
415	10.125586	104370176	71970816	44712456	24992
416	14.324044	104370176	71970816	38193248	24992
417	14.811149	104370176	71970816	32323672	24992
418	12.575578	104370176	71970816	43555808	24992
419	16.139862	104370176	71970816	39012536	24992
420	17.191488	104370176	71970816	35132872	24992
421	17.773387	104370176	71970816	31895192	24992
422	18.323403	104370176	71970816	29319880	24992
423	16.252598	104370176	71970816	43849400	24992
424	19.725943	104370176	71970816	42619504	24992
425	20.717362	104370176	71970816	42052312	24992
426	21.016547	104370176	71970816	42121848	24992
427	22.362646	104370176	71970816	42852912	24992
428	22.967961	104370176	71970816	44245384	24992
429	26.85484	104370176	71970816	29838656	24992
430	24.589319	104370176	71970816	32527328	24992
431	24.954657	104370176	71970816	35906096	24992
432	25.903753	104370176	72495104	39945336	24992
433	26.355732	104370176	72495104	44648872	24992
434	30.872591	104640512	72495104	33565672	24992
435	27.91555	104640512	72495104	39567056	24992
436	28.729592	104640512	72495104	46266008	24992
437	32.757333	104640512	72495104	37137120	24992
438	30.372293	104640512	72495104	45144408	24992
439	34.044799	104640512	72495104	37374848	24992
440	34.937066	104910848	72495104	30236512	24992
441	32.503001	104910848	73019392	40201024	24992
442	36.872862	104910848	73019392	34421904	24992
443	33.9574	104910848	73019392	45707632	24992
444	38.000107	105181184	73019392	41250784	24992
445	38.493923	105181184	73019392	37420616	24992
446	39.311785	105181184	73019392	34248288	24992
447	40.571547	105181184	73019392	31738160	24992
448	37.894814	105181184	73019392	46326416	24992
449	41.420057	105451520	73019392	45182728	24992
450	41.897089	105451520	73543680	44658800	24992
451	43.282074	105451520	73543680	44797136	24992
452	0.797365	105721856	73543680	45406384	24992
453	1.500852	105721856	73543680	46744128	24992
454	5.48976	105721856	73543680	32264000	24992
455	2.965049	105721856	73543680	34920560	24992
456	3.66769	105721856	73543680	38237032	24992
457	4.357646	105721856	73543680	42212912	24992
458	5.219738	105721856	73543680	46848192	24992
459	9.478974	105721856	73543680	35705296	24992
460	6.53604	105721856	73543680	41660344	24992
461	10.829304	105721856	73543680	31845344	24992
462	7.911005	105721856	73543680	39119200	24992
463	8.824463	105721856	73543680	47052464	24992
464	12.99295	105721856	73543680	39217184	24992
465	13.683986	105721856	73543680	32035688	24992
466	10.996774	105721856	73543680	41947160	24992
467	14.850995	105721856	73543680	36077312	24992
468	12.70303	105721856	73543680	47309448	24992
469	16.340048	105721856	73543680	42783040	24992
470	17.296349	105721856	73543680	38902976	24992
471	18.004054	105992192	74067968	35665216	24992
472	18.97391	105992192	74067968	33089920	24992
473	16.322694	105992192	74067968	47619488	24992
474	20.211558	105992192	74067968	46388856	24992
475	20.965363	105992192	74067968	45821520	24992
476	22.168248	105992192	74067968	45890816	24992
477	22.683121	105992192	74067968	46621640	24992
478	23.460759	106262528	74067968	48014000	24992
479	27.370442	106262528	74067968	33599792	24992
480	24.646874	106262528	74067968	36292536	24992
481	25.676922	106262528	74067968	39671336	24992
482	26.296731	106262528	74067968	43710576	24992
483	26.72954	106262528	74067968	48413840	24992
484	31.242921	106262528	74067968	37307168	24992
485	28.618094	106532864	74592256	43325400	24992
486	32.723666	106532864	74592256	33569832	24992
487	30.058545	106532864	74592256	40892168	24992
488	34.231868	106532864	74592256	32462408	24992
489	31.227464	106803200	74592256	41105944	24992
490	35.694525	106803200	74592256	34003480	24992
491	32.945367	106803200	74592256	43967960	24992
492	37.504774	106803200	74592256	38187560	24992
493	37.866754	106803200	74592256	33032584	24992
494	35.26776	107073536	75116544	44978712	24992
495	39.125854	107073536	75116544	41185248	24992
496	40.283496	107073536	75116544	38016712	24992
497	41.225033	107343872	75116544	35506328	24992
498	41.61258	107343872	75116544	33657912	24992
499	38.857208	107343872	75116544	48906664	24992
500	43.167651	107343872	75116544	48425576	24992
501	43.657664	107343872	75116544	48564120	24992
502	0.797328	107614208	75640832	49173768	24992
503	5.11321	107614208	75640832	34029360	24992
504	2.256955	107614208	75640832	36026504	24992
505	2.954761	107614208	75640832	38683064	24992
506	3.662302	107614208	75640832	41999568	24992
507	4.368546	107614208	75640832	45975448	24992
508	9.00172	107614208	75640832	34163256	24992
509	5.783199	107614208	75640832	39457944	24992
510	6.908757	107614208	75640832	45412992	24992
511	10.955129	107614208	75640832	35602072	24992
512	7.922121	107614208	75640832	42875928	24992
513	12.647773	107614208	75640832	34377352	24992
514	9.615413	107614208	75640832	42970008	24992
515	13.776365	107614208	75640832	35788504	24992
516	11.102756	107614208	75640832	45699976	24992
517	15.78052	107614208	75640832	39845320	24992
518	16.065793	107614208	75640832	34640192	24992
519	13.123177	107614208	75640832	46531736	24992
520	17.917833	107884544	75640832	42651632	24992
521	18.391058	107884544	75640832	39434568	24992
522	19.28861	107884544	75640832	36858968	24992
523	19.803392	107884544	75640832	34945216	24992
524	16.779889	107884544	75640832	50134224	24992
525	21.161822	107884544	75640832	49566232	24992
526	22.064884	107884544	75640832	49660784	24992
527	23.314429	107884544	76165120	50391568	24992
528	27.482686	108154880	76165120	35312112	24992
529	24.469036	108154880	76165120	37347616	24992
530	25.505063	108154880	76165120	40064840	24992
531	26.117491	108154880	76165120	43442512	24992
532	26.887343	108154880	76165120	47481752	24992
533	31.168916	108425216	76165120	35728984	24992
534	28.234744	108425216	76165120	41068064	24992
535	28.95973	108425216	76165120	47102008	24992
536	33.4812	108425216	76165120	37344432	24992
537	30.217022	108425216	76165120	44666976	24992
538	34.991586	108425216	76165120	36241104	24992
539	31.72375	108425216	76689408	44886000	24992
540	36.708842	108695552	76689408	37781824	24992
541	33.211181	108695552	76689408	47746416	24992
542	37.896846	108695552	76689408	41965264	24992
543	38.770302	108695552	76689408	36811712	24992
544	36.008816	108695552	76689408	48757888	24992
545	39.765253	108965888	76689408	44964392	24992
546	41.001106	108965888	76689408	41796048	24992
547	41.927855	108965888	77213696	39285312	24992
548	42.49679	109236224	77213696	37436736	24992
549	43.425614	109236224	77213696	36249624	24992
550	39.535349	109236224	77213696	52158872	24992
551	44.674091	109236224	77213696	52284672	24992
552	4.899197	109506560	77213696	36445800	24992
553	1.609973	109506560	77213696	37783544	24992
554	2.371889	109506560	77213696	39780696	24992
555	3.190937	109506560	77213696	42437256	24992
556	3.944479	109506560	77213696	45760528	24992
557	4.440257	109506560	77213696	49736408	24992
558	9.639929	109506560	77213696	37927536	24992
559	5.953747	109506560	77213696	43222240	24992
560	6.754617	109506560	77213696	49177288	24992
561	13.597228	109506560	77213696	39379320	24992
562	16.499432	108146688	75640832	13139520	24992
563	8.9853	108146688	75640832	21073680	24992
564	9.795276	108146688	75640832	13189848	24992
565	10.3322	108146688	75640832	22441976	24992
566	11.337472	108146688	75640832	15886840	24992
567	11.699559	108146688	75640832	26457736	24992
568	12.671144	108146688	75640832	21226056	24992
569	13.60393	108146688	75640832	16650488	24992
570	14.145071	108146688	75640832	12730352	24992
571	14.640713	108146688	75640832	25941120	24992
572	15.754324	108146688	75640832	23347248	24992
573	16.377579	108146688	75640832	21414280	24992
574	17.199157	108146688	75640832	20135328	24992
575	17.997197	108146688	75640832	19516784	24992
576	18.221127	108146688	75640832	19558688	24992
577	19.969058	108146688	75640832	20261016	24992
578	20.559495	108146688	75640832	21623648	24992
579	20.572346	108146688	75640832	23646768	24992
580	21.642947	108146688	75640832	26329776	24992
581	22.801244	108146688	75640832	13203752	24992
582	23.14302	108146688	75640832	17202456	24992
583	23.806126	108146688	75640832	21870656	24992
584	24.600371	108146688	75640832	27202856	24992
585	25.479655	108146688	75640832	16728152	24992
586	26.032284	108146688	75640832	23376792	24992
587	26.714359	108146688	75640832	14230056	24992
588	27.381283	108146688	75640832	22198880	24992
589	28.640029	108146688	75640832	14373656	24992
590	29.287511	108146688	75640832	23662872	24992
591	30.253782	108146688	75640832	17157080	24992
592	30.015458	108146688	75640832	27766464	24992
593	31.771375	108146688	75640832	22583400	24992
594	32.395235	108146688	75640832	18059168	24992
595	32.858349	108146688	76165120	14192016	24992
596	33.389675	108146688	76689408	27442336	24992
597	34.221477	108417024	77737984	24901776	24992
598	34.573454	108417024	78786560	23019368	24992
599	35.575742	108417024	79835136	21799672	24992
600	36.290482	108417024	80883712	21237272	24992
601	36.893955	108417024	81932288	21336576	24992
602	0.807012	108687360	82980864	21928696	24992
603	1.506389	108687360	82980864	23266440	24992
604	2.195163	108687360	82980864	25263592	24992
605	2.959152	108687360	82980864	27920152	24992
606	3.947343	108687360	83505152	14761344	24992
607	4.396923	108687360	83505152	18737224	24992
608	5.078722	108687360	83505152	23372504	24992
609	5.776755	108687360	83505152	28667192	24992
610	6.793519	108687360	84029440	18157672	24992
611	7.198991	108687360	84029440	24772128	24992
612	8.23349	108687360	84553728	15579632	24992
613	8.645172	108687360	84553728	23512896	24992
614	9.704532	108687360	85078016	15636056	24992
615	10.111355	108687360	85078016	24888120	24992
616	11.550102	108687360	85602304	18332928	24992
617	11.734175	108687360	85602304	28903824	24992
618	12.526255	108687360	86126592	23671456	24992
619	13.437942	108687360	86650880	19095664	24992
620	14.181096	108687360	87175168	15175080	24992
621	14.579095	108687360	87175168	28386024	24992
622	15.837758	108687360	87699456	25792152	24992
623	16.334012	108687360	88223744	23859184	24992
624	17.140627	108957696	88748032	22579992	24992
625	18.247762	108957696	89272320	21961480	24992
626	18.991389	108957696	89272320	22008200	24992
627	19.379105	108957696	89272320	22710848	24992
628	20.374436	108957696	89272320	24073464	24992
629	20.773893	108957696	89272320	26096088	24992
630	21.492237	108957696	89272320	28779064	24992
631	22.685934	108957696	89272320	15652352	24992
632	22.635143	108957696	89272320	19651024	24992
633	23.635372	108957696	89272320	24318872	24992
634	24.890386	108957696	89272320	29650928	24992
635	25.776989	108957696	89272320	19151872	24992
636	26.039657	108957696	89272320	25802736	24992
637	27.826663	108957696	89272320	16659560	24992
638	27.422809	108957696	89272320	24643888	24992
639	28.131848	109228032	89272320	16871968	24992
640	29.251335	109228032	89272320	26176136	24992
641	30.383083	109228032	89272320	19726664	24992
642	30.555046	109228032	89272320	13911640	24992
643	31.024549	109228032	89272320	25197288	24992
644	32.775689	109228032	89272320	20734072	24992
645	33.274679	109498368	89272320	16902104	24992
646	33.259459	109498368	89272320	30169480	24992
647	34.307301	109498368	89272320	27666648	24992
648	35.0623	109498368	89272320	25834312	24992
649	35.960248	109498368	89272320	24648904	24992
650	36.433887	109768704	89272320	24126984	24992
651	37.211839	109768704	89272320	24263952	24992
652	0.792169	109768704	89272320	24871256	24992
653	1.55931	109768704	89272320	26208984	24992
654	2.203855	109768704	89272320	28206120	24992
655	2.951447	109768704	89272320	30862664	24992
656	4.274627	109768704	89272320	17717088	24992
657	4.378808	109768704	89272320	21692952	24992
658	5.080716	109768704	89272320	26328280	24992
659	6.450611	109768704	89272320	15186760	24992
660	6.47452	109768704	89272320	21141792	24992
661	7.405671	109768704	89272320	27756344	24992
662	8.419933	109768704	89272320	18604424	24992
663	8.921613	109768704	89272320	26537704	24992
664	9.850675	109768704	89272320	18706560	24992
665	10.344539	109768704	89272320	27958704	24992
666	11.515341	110039040	89272320	21442936	24992
667	12.266268	110039040	89272320	15575280	24992
668	12.406676	110039040	89272320	26807496	24992
669	13.435094	110039040	89272320	22266376	24992
670	14.645886	110039040	89272320	18388648	24992
671	14.906031	110039040	89272320	15153168	24992
672	15.325239	110039040	89272320	29023296	24992
673	16.985026	110039040	89272320	27132696	24992
674	17.36168	110039040	89272320	25904920	24992
675	18.282488	110039040	89272320	25314384	24992
676	18.743123	110039040	89272320	25385672	24992
677	19.428636	110309376	89272320	26118504	24992
678	20.238591	110309376	89272320	27512504	24992
679	21.047529	110309376	89272320	29567984	24992
680	22.089643	110309376	89272320	15825824	24992
681	23.031232	110309376	89272320	19175664	24992
682	23.206286	110309376	89272320	23217416	24992
683	23.840679	110309376	89272320	27922224	24992
684	25.378407	110579712	89272320	16833584	24992
685	25.790124	110579712	89272320	22834968	24992
686	26.387225	110579712	89272320	29527080	24992
687	28.002985	110579712	89272320	20425160	24992
688	27.684423	110579712	89272320	28408296	24992
689	29.637131	110579712	89272320	20638168	24992
690	29.309079	110579712	89272320	29942424	24992
691	30.660509	110850048	89272320	23494512	24992
692	31.29358	110850048	89272320	17680032	24992
693	31.419859	110850048	89272320	28965792	24992
694	33.020655	110850048	89272320	24501680	24992
695	33.789519	110850048	89272320	20671712	24992
696	34.02073	111120384	89272320	17500256	24992
697	34.140592	111120384	89272320	31428048	24992
698	35.890082	111120384	89272320	29613760	24992
699	36.966782	111120384	89272320	28430728	24992
700	37.198121	111120384	89272320	27906920	24992
701	38.374533	111390720	89272320	28046400	24992
702	0.796527	111390720	89272320	28654536	24992
703	1.497004	111390720	89272320	29992264	24992
704	2.188767	111390720	89272320	31989400	24992
705	3.877824	111390720	89272320	18176960	24992
706	3.852289	111390720	89272320	21493416	24992
707	4.540907	111390720	89272320	25469392	24992
708	5.459417	111390720	89272320	30104656	24992
709	6.597218	111390720	89272320	18964936	24992
710	6.690273	111390720	89272320	24919984	24992
711	7.175536	111390720	89272320	31534424	24992
712	8.834165	111390720	89272320	22390056	24992
713	8.839995	111390720	89272320	30323304	24992
714	10.481952	111390720	89272320	22492160	24992
715	10.301446	111390720	89272320	31744336	24992
716	11.824318	111390720	89272320	25228392	24992
717	12.607699	111390720	89272320	19360720	24992
718	12.277609	111390720	89272320	30592840	24992
719	14.012021	111390720	89272320	26051624	24992
720	14.720047	111661056	89272320	22173896	24992
721	15.372423	111661056	89272320	18938320	24992
722	15.616438	111661056	89272320	32808416	24992
723	16.779322	111661056	89272320	30917128	24992
724	18.085293	111661056	89272320	29689128	24992
725	18.599683	111661056	89272320	29107848	24992
726	19.272096	111661056	89272320	29178656	24992
727	19.594014	111661056	89272320	29911056	24992
728	21.044079	111661056	89272320	31304912	24992
729	21.485904	111931392	89272320	33360248	24992
730	23.288313	111931392	89272320	19617432	24992
731	22.842911	111931392	89272320	22967336	24992
732	23.297916	111931392	89272320	27008592	24992
733	24.750172	111931392	89272320	31713448	24992
734	26.454089	111931392	89272320	20624648	24992
735	26.338764	111931392	89272320	26626064	24992
736	26.87986	111931392	89272320	33318176	24992
737	28.353958	112201728	89272320	24215520	24992
738	28.113246	112201728	89272320	32197840	24992
739	30.443505	112201728	89272320	24425048	24992
740	29.606589	112201728	89272320	33728536	24992
741	31.219671	112201728	89272320	27280080	24992
742	32.420717	112472064	89272320	21465328	24992
743	31.685619	112472064	89272320	32751232	24992
744	33.703419	112472064	89272320	28287056	24992
745	34.6268	112472064	89272320	24457344	24992
746	34.841805	112472064	89272320	21285072	24992
747	34.972808	112472064	89272320	35212992	24992
748	36.176591	112742400	89272320	33343376	24992
749	37.13747	112742400	89272320	32191152	24992
750	38.792807	112742400	89272320	31675544	24992
751	38.54867	112742400	89272320	31814648	24992
752	0.794791	113012736	89272320	32424280	24992
753	1.484381	113012736	89272320	33762008	24992
754	3.311767	113012736	89272320	19283576	24992
755	2.967818	113012736	89272320	21940120	24992
756	3.662558	113012736	89272320	25256576	24992
757	4.413172	113012736	89272320	29232440	24992
758	5.07884	113012736	89272320	33867704	24992
759	6.972337	113012736	89272320	22729760	24992
760	6.485462	113012736	89272320	28684856	24992
761	7.237571	113012736	89272320	35299296	24992
762	9.380042	113012736	89272320	26160856	24992
763	8.63105	113012736	89272320	34094104	24992
764	10.573745	113012736	89272320	26262768	24992
765	10.074717	113012736	89272320	35514816	24992
766	12.000861	113012736	89272320	28998200	24992
767	12.721035	113012736	89272320	23130512	24992
768	12.221115	113012736	89272320	34362632	24992
769	14.535271	113012736	89272320	29821320	24992
770	15.136323	113012736	89272320	25943640	24992
771	15.969701	113012736	89272320	22707416	24992
772	16.918534	113283072	89272320	20133376	24992
773	16.183412	113283072	89272320	34662952	24992
774	18.249679	113283072	89272320	33434920	24992
775	18.597669	113283072	89272320	32869504	24992
776	20.104888	113283072	89272320	32940264	24992
777	20.197538	113283072	89272320	33672600	24992
778	20.822007	113283072	89272320	35066248	24992
779	23.613296	113283072	89272320	20661456	24992
780	22.509346	113283072	89272320	23350880	24992
781	23.611899	113283072	89272320	26731016	24992
782	23.934113	113553408	89272320	30771512	24992
783	24.501763	113553408	89272320	35476320	24992
784	27.234772	113553408	89272320	24393944	24992
785	26.226028	113553408	89272320	30395648	24992
786	28.303028	113553408	89272320	20646128	24992
787	27.860922	113553408	89272320	27968800	24992
788	29.055876	113823744	89272320	35987696	24992
789	30.38455	113823744	89272320	28218192	24992
790	31.384204	113823744	89272320	21080528	24992
791	30.779808	113823744	89272320	31045696	24992
792	32.959176	113823744	89272320	25267248	24992
793	32.203653	113823744	89272320	36553296	24992
794	34.270911	114094080	89272320	32097440	24992
795	35.510817	114094080	89272320	28266840	24992
796	35.725423	114094080	89272320	25096928	24992
797	36.679792	114094080	89272320	22587456	24992
798	35.523478	114094080	89272320	37176096	24992
799	38.410715	114364416	89272320	36022472	24992
800	38.434932	114364416	89272320	35500448	24992
801	39.519639	114364416	89272320	35639632	24992
802	0.808166	114364416	89272320	36249264	24992
803	1.489689	114364416	89272320	37586992	24992
804	3.862144	114364416	89272320	23108000	24992
805	2.966462	114364416	89272320	25764576	24992
806	3.836709	114364416	89272320	29081032	24992
807	4.3724	114364416	89272320	33056896	24992
808	5.244757	114364416	89272320	37692160	24992
809	7.315444	114634752	89272320	26553592	24992
810	6.697072	114634752	89272320	32508624	24992
811	8.743891	114634752	89272320	22697920	24992
812	7.908301	114634752	89272320	29971776	24992
813	8.836885	114634752	89272320	37905040	24992
814	11.142067	114634752	89272320	30072992	24992
815	12.122943	114634752	89272320	22894064	24992
816	11.136435	114634752	89272320	32805520	24992
817	13.088778	114634752	89272320	26937600	24992
818	12.487031	114634752	89272320	38169832	24992
819	14.952368	114634752	89272320	33640544	24992
820	15.638845	114634752	89272320	29762416	24992
821	16.198521	114634752	89272320	26531064	24992
822	16.690813	114634752	89272320	23957056	24992
823	16.379587	114634752	89272320	38486576	24992
824	18.16857	114905088	89272320	37229504	24992
825	19.32396	114905088	89272320	36664064	24992
826	20.005946	114905088	89272320	36760336	24992
827	20.442978	114905088	89272320	37492432	24992
828	23.055977	114905088	89272320	22425040	24992
829	22.118512	114905088	89272320	24453888	24992
830	23.192516	114905088	89272320	27172384	24992
831	23.407693	114905088	89272320	30552240	24992
832	24.578159	115175424	89272320	34592720	24992
833	26.658348	115175424	89272320	22842064	24992
834	25.890451	115175424	89272320	28181256	24992
835	26.816706	115175424	89272320	34216128	24992
836	29.171345	115175424	89272320	24460392	24992
837	28.212548	115175424	89272320	31783056	24992
838	30.548812	115445760	89272320	23356056	24992
839	29.839385	115445760	89272320	31999976	24992
840	32.408045	115445760	89272320	24896552	24992
841	30.987998	115445760	89272320	34861400	24992
842	33.474932	115445760	89272320	29081000	24992
843	34.520298	115716096	89272320	23928008	24992
844	33.166936	115716096	89272320	35874360	24992
845	36.120153	115716096	89272320	32081856	24992
846	36.26197	115716096	89272320	28914024	24992
847	37.314385	115716096	89272320	26404216	24992
848	38.325734	115986432	89272320	24556184	24992
849	36.982729	115986432	89272320	39805272	24992
850	41.019998	115986432	89272320	39354136	24992
851	40.489937	115986432	89272320	39505808	24992
852	0.797687	116256768	89272320	40114560	24992
853	3.304709	116256768	89272320	24969664	24992
854	2.237113	116256768	89272320	26966800	24992
855	3.058634	116256768	89272320	29623344	24992
856	3.951417	116256768	89272320	32939800	24992
857	4.529733	116256768	89272320	36915664	24992
858	7.213989	116256768	89272320	25104664	24992
859	6.049277	116256768	89272320	30399328	24992
860	6.469189	116256768	89272320	36354360	24992
861	9.239394	116256768	89272320	26545216	24992
862	8.135854	116256768	89272320	33819072	24992
863	10.97552	116256768	89272320	25321392	24992
864	9.40215	116256768	89272320	33914032	24992
865	12.228078	116256768	89272320	26733264	24992
866	10.828574	116256768	89272320	36644768	24992
867	13.664353	116256768	89272320	30790800	24992
868	14.470194	116527104	89272320	25586184	24992
869	13.170738	116527104	89272320	37477840	24992
870	15.915989	116527104	89272320	33599160	24992
871	16.318502	116527104	89272320	30382624	24992
872	17.675466	116527104	89272320	27806784	24992
873	17.74221	116527104	89272320	25893480	24992
874	18.96369	116527104	89272320	24641576	24992
875	17.216916	116527104	89272320	40489888	24992
876	20.372667	116527104	89272320	40584976	24992
877	22.80593	116527104	89272320	24880024	24992
878	21.840347	116797440	89272320	26247880	24992
879	22.575126	116797440	89272320	28303904	24992
880	22.864624	116797440	89272320	31021408	24992
881	24.048172	116797440	89272320	34399400	24992
882	25.162769	116797440	89272320	38439024	24992
883	27.443877	116797440	89272320	26686624	24992
884	26.224517	116797440	89272320	32025800	24992
885	26.815289	116797440	89272320	38059936	24992
886	30.541043	117067776	89272320	28302792	24992
887	29.378511	117067776	89272320	35633688	24992
888	31.183608	117067776	89272320	27207592	24992
889	30.035452	117067776	89272320	35851128	24992
890	32.521282	117067776	89272320	28746440	24992
891	31.559955	117067776	89272320	38711064	24992
892	34.387534	117338112	89272320	32929672	24992
893	35.182783	117338112	89272320	27776184	24992
894	33.413188	117338112	89272320	39722312	24992
895	36.51655	117338112	89272320	35928720	24992
896	37.42814	117608448	89272320	32760168	24992
897	38.151143	117608448	89272320	30253720	24992
898	38.494433	117608448	89272320	28405192	24992
899	39.820561	117608448	89272320	27218080	24992
900	40.208971	117608448	89272320	26692456	24992
901	40.98199	117878784	89272320	26829208	24992
902	0.804365	117878784	89272320	27436856	24992
903	1.520567	117878784	89272320	28774680	24992
904	2.221969	117878784	89272320	30771816	24992
905	3.149222	117878784	89272320	33428360	24992
906	3.84595	117878784	89272320	36744816	24992
907	4.360384	117878784	89272320	40720712	24992
908	7.749496	117878784	89272320	28908344	24992
909	5.987382	117878784	89272320	34203096	24992
910	6.658891	117878784	89272320	40158128	24992
911	9.520307	117878784	89272320	30354360	24992
912	7.947547	117878784	89272320	37628200	24992
913	11.120499	117878784	89272320	29129368	24992
914	9.553306	117878784	89272320	37722024	24992
915	12.40473	117878784	89272320	30540168	24992
916	11.341878	117878784	89272320	40451624	24992
917	14.025203	117878784	89272320	34596760	24992
918	14.525678	117878784	89272320	29391552	24992
919	13.194015	117878784	89272320	41283112	24992
920	16.213582	118149120	89272320	37402768	24992
921	16.875772	118149120	89272320	34185512	24992
922	17.585955	118149120	89272320	31609736	24992
923	18.346448	118149120	89272320	29695952	24992
924	19.580426	118149120	89272320	28443752	24992
925	20.059152	118149120	89272320	27853064	24992
926	20.546317	118149120	89272320	27924136	24992
927	21.540385	118149120	89272320	28656528	24992
928	22.407175	118149120	89272320	30050424	24992
929	23.196947	118149120	89272320	32105912	24992
930	23.846447	118419456	89272320	34823000	24992
931	24.17845	118419456	89272320	38200672	24992
932	24.986053	118419456	89272320	42239496	24992
933	28.183323	118419456	89272320	30486552	24992
934	26.781234	118419456	89272320	35825744	24992
935	27.571519	118419456	89272320	41859784	24992
936	30.444009	118689792	89272320	32101952	24992
937	29.108365	118689792	89272320	39424480	24992
938	31.947966	118689792	89272320	30996368	24992
939	30.573823	118689792	89272320	39639920	24992
940	33.279892	118689792	89272320	32537024	24992
941	31.971396	118689792	89272320	42501712	24992
942	34.642498	118960128	89272320	36723968	24992
943	36.20775	118960128	89272320	31570608	24992
944	33.790137	118960128	89272320	43516848	24992
945	37.12602	118960128	89272320	39722696	24992
946	37.993343	118960128	89272320	36553160	24992
947	38.580916	119230464	89272320	34044336	24992
948	40.52411	119230464	89272320	32195104	24992
949	41.172064	119230464	89272320	31008120	24992
950	41.076795	119230464	89272320	30482672	24992
951	41.72007	119500800	89272320	30619632	24992
952	0.790382	119500800	89272320	31227456	24992
953	1.495293	119500800	89272320	32565184	24992
954	2.18819	119500800	89272320	34562320	24992
955	3.135676	119500800	89272320	37218864	24992
956	3.823479	119500800	89272320	40535320	24992
957	4.539161	119500800	89272320	44511184	24992
958	7.874367	119500800	89272320	32698976	24992
959	5.986399	119500800	89272320	37993648	24992
960	6.498618	119500800	89272320	43948728	24992
961	9.891589	119500800	89272320	34144896	24992
962	8.190899	119500800	89272320	41418736	24992
963	11.507957	119500800	89272320	32919664	24992
964	9.350718	119500800	89272320	41512368	24992
965	12.946892	119500800	89272320	34330400	24992
966	10.828901	119500800	89272320	44241856	24992
967	14.819658	119500800	89272320	38387008	24992
968	14.880707	119500800	89272320	33181800	24992
969	13.18833	119500800	89272320	45073472	24992
970	16.609292	119500800	89272320	41192440	24992
971	17.380444	119771136	89272320	37974992	24992
972	18.016842	119771136	89272320	35398840	24992
973	18.813932	119771136	89272320	33484152	24992
974	19.523377	119771136	89272320	32231888	24992
975	20.525834	119771136	89272320	31641184	24992
976	21.218307	119771136	89272320	31712032	24992
977	22.171846	119771136	89272320	32444424	24992
978	23.053282	119771136	89272320	33838352	24992
979	23.409345	119771136	89796608	35893888	24992
980	23.914043	120041472	89796608	38610080	24992
981	24.791364	120041472	89796608	41987768	24992
982	25.722025	120041472	89796608	46026496	24992
983	28.761923	120041472	89796608	34244920	24992
984	26.893967	120041472	89796608	39607816	24992
985	27.735619	120041472	89796608	45641744	24992
986	30.918452	120311808	89796608	35883224	24992
987	29.292418	120311808	89796608	43204936	24992
988	32.650077	120311808	89796608	34776712	24992
989	30.765189	120311808	89796608	43420264	24992
990	34.524128	120311808	89796608	36317176	24992
991	32.204853	120311808	89796608	46281112	24992
992	35.740349	120582144	89796608	40489904	24992
993	36.581079	120582144	89796608	35339112	24992
994	37.358736	120582144	89796608	30843864	24992
995	35.267774	120582144	89796608	43450440	24992
996	38.791479	120582144	89796608	40319640	24992
997	39.094641	120852480	89796608	37812792	24992
998	39.794633	120852480	89796608	35963640	24992
999	40.725399	120852480	89796608	34776368	24992
1000	41.355881	120852480	89796608	34250984	24992
