x	Duration	RSS	HeapTotal	HeapUsed	External
0	NA	103092224	108670976	10975456	24992
1	1.447057	103092224	108670976	11655568	24992
2	2.544186	103092224	108670976	12993968	24992
3	3.903336	103092224	108670976	14991784	24992
4	2.94106	103092224	108670976	17649088	24992
5	3.694424	103092224	108670976	20966528	24992
6	4.390182	103092224	108670976	24943472	24992
7	5.636755	103092224	108670976	13113856	24992
8	5.795693	103092224	108670976	18409928	24992
9	6.720145	103092224	108670976	24366536	24992
10	7.822232	103092224	108670976	14523496	24992
11	7.976267	103092224	108670976	21799312	24992
12	9.147386	103092224	108670976	13267120	24992
13	9.856839	103092224	108670976	21861976	24992
14	10.739514	103092224	108670976	14648320	24992
15	12.354268	103092224	108670976	24576272	24992
16	12.081906	103092224	108670976	18684808	24992
17	12.927383	103092224	108670976	13451560	24992
18	12.926849	103092224	108670976	25346104	24992
19	14.161419	103092224	108670976	21434960	24992
20	14.849431	103092224	108670976	18185016	24992
21	15.82302	103092224	108670976	15588904	24992
22	16.400838	103092224	108670976	13654176	24992
23	17.200394	103092224	108670976	12380152	24992
24	18.031939	103362560	108670976	11766552	24992
25	18.521656	103362560	108670976	11813536	24992
26	19.29365	103362560	108670976	12521136	24992
27	20.570992	103362560	108670976	13889240	24992
28	21.483427	103362560	108670976	15923264	24992
29	21.543123	103362560	108670976	18612512	24992
30	21.895294	103362560	108670976	21961400	24992
31	22.908648	103362560	108670976	25970688	24992
32	23.842159	103362560	108670976	14176024	24992
33	24.641884	103632896	108670976	19508232	24992
34	25.556113	103632896	108670976	25507472	24992
35	26.981585	103632896	108670976	15703880	24992
36	26.581865	103632896	108670976	23017176	24992
37	27.48331	103632896	108670976	14534720	24992
38	28.537203	103632896	108670976	23166832	24992
39	29.657791	103903232	108670976	16007136	24992
40	29.85476	103903232	108670976	25962096	24992
41	30.78082	103903232	108670976	20121696	24992
42	31.319378	103903232	108670976	14940072	24992
43	31.797185	103903232	108670976	26873584	24992
44	32.431415	103903232	108670976	23015112	24992
45	33.391829	103903232	108670976	19818200	24992
46	34.249988	103903232	108670976	17276752	24992
47	34.894993	103903232	108670976	15396504	24992
48	35.429015	103903232	108670976	14177560	24992
49	35.992532	104173568	108670976	13619384	24992
50	37.086873	104173568	108670976	13723072	24992
51	37.406007	104173568	108670976	14487976	24992
52	0.79419	104173568	108670976	15741928	24992
53	1.493686	104173568	108670976	17079952	24992
54	2.447012	104173568	108670976	19077432	24992
55	3.125966	104173568	108670976	21734400	24992
56	3.667787	104173568	108670976	25051376	24992
57	4.532425	104173568	108670976	29027824	24992
58	5.293503	104173568	108670976	17195224	24992
59	5.951441	104173568	108670976	22490704	24992
60	6.613998	104173568	108670976	28446576	24992
61	7.908018	104173568	108670976	18602144	24992
62	7.943859	104173568	108670976	25876968	24992
63	9.187902	104173568	108670976	17343816	24992
64	9.426915	104173568	108670976	25937616	24992
65	10.574048	104173568	108670976	18722920	24992
66	10.992117	104173568	108670976	28635696	24992
67	11.762718	104173568	108670976	22742184	24992
68	12.677014	104173568	108670976	17507560	24992
69	13.865481	104173568	108670976	12930000	24992
70	13.816037	104173568	108670976	25482000	24992
71	14.587536	104173568	108670976	22228968	24992
72	15.998048	104173568	108670976	19638120	24992
73	16.229636	104173568	108670976	17699776	24992
74	16.981272	104173568	108670976	16422648	24992
75	17.787791	104173568	108670976	15805976	24992
76	18.566225	104173568	108670976	15849736	24992
77	19.331974	104173568	108670976	16553984	24992
78	19.964234	104173568	108670976	17918600	24992
79	20.874833	104173568	108670976	19943720	24992
80	21.245425	104443904	108670976	22628536	24992
81	22.304447	104443904	108670976	25974728	24992
82	23.309293	104443904	108670976	13511048	24992
83	25.064282	104443904	108670976	18184064	24992
84	24.43262	104443904	108670976	23533032	24992
85	25.404035	104443904	108670976	29561720	24992
86	26.20086	104443904	108670976	19774792	24992
87	26.788187	104443904	108670976	27113128	24992
88	27.686671	104443904	108670976	18673928	24992
89	28.052005	104443904	108670976	27317208	24992
90	29.048939	104714240	108670976	20206840	24992
91	30.276202	104714240	108670976	13730280	24992
92	30.391866	104714240	108670976	24355352	24992
93	31.296562	104714240	108670976	19230832	24992
94	32.538825	104714240	108670976	14735752	24992
95	32.501047	104714240	108670976	27342552	24992
96	33.937872	104984576	108670976	24203288	24992
97	34.062627	104984576	108670976	21696624	24992
98	35.675678	104984576	108670976	19847816	24992
99	35.603882	104984576	108670976	18660456	24992
100	37.066577	104984576	108670976	18135464	24992
101	38.657874	105254912	108670976	18272752	24992
102	0.785961	105254912	108670976	18880344	24992
103	1.472802	105254912	108670976	20218088	24992
104	2.199635	105254912	108670976	22215272	24992
105	3.132733	105254912	108670976	24871832	24992
106	3.818419	105254912	108670976	28188352	24992
107	4.938711	105254912	108670976	15711464	24992
108	5.229106	105254912	108670976	20346744	24992
109	6.152949	105254912	108670976	25641432	24992
110	7.056155	105254912	108670976	15172112	24992
111	7.410683	105254912	108670976	21786568	24992
112	7.849694	105254912	108670976	29060488	24992
113	9.357295	105254912	108670976	20574216	24992
114	9.327831	105254912	108670976	29166872	24992
115	10.850446	105254912	108670976	22000216	24992
116	11.526646	105254912	108670976	15469960	24992
117	11.454466	105254912	108670976	26040840	24992
118	12.976447	105254912	108670976	20837224	24992
119	13.724892	105254912	108670976	16296632	24992
120	13.823514	105254912	108670976	28847976	24992
121	15.386329	105254912	108670976	25632200	24992
122	15.657804	105525248	108670976	23079496	24992
123	16.503573	105525248	108670976	21166168	24992
124	17.268957	105525248	108670976	19914376	24992
125	18.154586	105525248	108670976	19324992	24992
126	18.982939	105525248	108670976	19397128	24992
127	20.216344	105525248	108670976	20130952	24992
128	19.956921	105525248	108670976	21526216	24992
129	21.122484	105525248	108670976	23582192	24992
130	22.053836	105525248	108670976	26299848	24992
131	22.129927	105525248	108670976	29678360	24992
132	23.824378	105795584	108670976	17261448	24992
133	24.594268	105795584	108670976	21935144	24992
134	24.810285	105795584	108670976	27301000	24992
135	26.453529	105795584	108670976	16876040	24992
136	26.210039	105795584	108670976	23538000	24992
137	26.90309	105795584	108670976	30889672	24992
138	28.620767	105795584	108670976	22450176	24992
139	28.38134	105795584	108670976	31093056	24992
140	30.066245	106065920	108670976	23982784	24992
141	31.148046	106065920	108670976	17506368	24992
142	31.195615	106065920	108670976	28135200	24992
143	32.043027	106065920	108670976	23010768	24992
144	33.021629	106065920	108670976	18519016	24992
145	32.831185	106065920	108670976	31125832	24992
146	34.428673	106336256	108670976	27986680	24992
147	36.077693	106336256	108670976	25481288	24992
148	35.510898	106336256	108670976	23634368	24992
149	36.405061	106336256	108670976	22447232	24992
150	37.6249	106336256	108670976	21921392	24992
151	37.851317	106606592	108670976	22058392	24992
152	0.791098	106606592	108670976	22665968	24992
153	1.476476	106606592	108670976	24003712	24992
154	2.198756	106606592	108670976	26000864	24992
155	2.998096	106606592	108670976	28657424	24992
156	3.644242	106606592	108670976	31973896	24992
157	5.238582	106606592	108670976	19496960	24992
158	5.236357	106606592	108670976	24132288	24992
159	6.013301	106606592	108670976	29426992	24992
160	7.739494	106606592	108670976	18957512	24992
161	7.198194	106606592	108670976	25572048	24992
162	8.115517	106606592	108670976	32845904	24992
163	9.823787	106606592	108670976	24358992	24992
164	9.269829	106606592	108670976	32951648	24992
165	11.150492	106606592	108670976	25784368	24992
166	11.861798	106606592	108670976	19254080	24992
167	11.612119	106606592	108670976	29824960	24992
168	14.381194	106606592	108670976	24630392	24992
169	14.125004	106606592	108670976	20089736	24992
170	13.581961	106606592	108670976	32641032	24992
171	15.575707	106606592	108670976	29425304	24992
172	16.137959	106876928	108670976	26872344	24992
173	16.891804	106876928	108670976	24959048	24992
174	17.646581	106876928	108670976	23707272	24992
175	18.361952	106876928	108670976	23116976	24992
176	19.364252	106876928	108670976	23188760	24992
177	20.013238	106876928	108670976	23922008	24992
178	20.619084	106876928	108670976	25316392	24992
179	21.721897	106876928	108670976	27372272	24992
180	22.103352	106876928	108670976	30089704	24992
181	22.547972	106876928	108670976	33468248	24992
182	24.735731	107147264	108670976	21050696	24992
183	24.312652	107147264	108670976	25724488	24992
184	25.110067	107147264	108670976	31090376	24992
185	26.987106	107147264	108670976	20663712	24992
186	26.707758	107147264	108670976	27325776	24992
187	28.751474	107147264	108670976	18230248	24992
188	27.862355	107147264	108670976	26213160	24992
189	30.040945	107147264	108670976	18438880	24992
190	29.79592	107147264	108670976	27742880	24992
191	31.64267	107417600	108670976	21293560	24992
192	30.90506	107417600	108670976	31918792	24992
193	32.63914	107417600	108670976	26792208	24992
194	33.591377	107417600	108670976	22300600	24992
195	33.620239	107417600	108670976	34907496	24992
196	34.72859	107687936	108670976	31736664	24992
197	35.710389	107687936	108670976	29247856	24992
198	36.827314	107687936	108670976	27402744	24992
199	37.83183	107687936	108670976	26223488	24992
200	37.852339	107687936	108670976	25698424	24992
201	39.068265	107958272	108670976	25835592	24992
202	0.829581	107958272	108670976	26443736	24992
203	1.545198	107958272	108670976	27781480	24992
204	2.17428	107958272	108670976	29778632	24992
205	3.116626	107958272	108670976	32435192	24992
206	3.811104	107958272	108670976	35751664	24992
207	5.618895	107958272	108670976	23266488	24992
208	5.268849	107958272	108670976	27901768	24992
209	5.703057	107958272	108670976	33196456	24992
210	7.893731	107958272	108670976	22726864	24992
211	7.285287	107958272	108670976	29341320	24992
212	9.605488	107958272	108670976	20185880	24992
213	8.78756	107958272	108670976	28119144	24992
214	10.726662	107958272	108670976	20276608	24992
215	10.046106	107958272	108670976	29528672	24992
216	12.690801	107958272	108670976	23013448	24992
217	11.634426	107958272	108670976	33584328	24992
218	13.518366	107958272	108670976	28397544	24992
219	14.497078	108228608	108670976	23856888	24992
220	14.906207	108228608	108670976	19959784	24992
221	14.456483	108228608	108670976	33170552	24992
222	16.631014	108228608	108670976	30617472	24992
223	17.302476	108228608	108670976	28727336	24992
224	18.271839	108228608	108670976	27475544	24992
225	18.710202	108228608	108670976	26885264	24992
226	19.615114	108228608	108670976	26956696	24992
227	20.313868	108228608	108670976	27689528	24992
228	21.110403	108228608	108670976	29083848	24992
229	21.957079	108498944	108670976	31145552	24992
230	23.223191	108498944	108670976	33865400	24992
231	24.563888	108498944	108670976	20785856	24992
232	23.93649	108498944	108670976	24796312	24992
233	24.6397	108498944	108670976	29502464	24992
234	25.121762	108498944	108670976	34874504	24992
235	27.706577	108498944	108670976	24455344	24992
236	27.181681	108498944	108670976	31117616	24992
237	29.590752	108769280	108670976	22029784	24992
238	28.550027	108769280	108670976	30013064	24992
239	30.539675	108769280	108670976	22246944	24992
240	30.002802	108769280	108670976	31551312	24992
241	32.005508	108769280	108670976	25110072	24992
242	31.019948	108769280	108670976	35735560	24992
243	33.765691	109039616	108670976	30617808	24992
244	34.237091	109039616	108670976	26126864	24992
245	35.138048	109039616	108670976	22293864	24992
246	34.43458	109039616	108670976	35561416	24992
247	36.781844	109039616	108670976	33094048	24992
248	36.727248	109309952	108670976	31247456	24992
249	37.823378	109309952	108670976	30064712	24992
250	38.727384	109309952	108670976	29539760	24992
251	39.603576	109309952	108670976	29677152	24992
252	0.79372	109309952	108670976	30284944	24992
253	1.486697	109309952	108670976	31622688	24992
254	2.173758	109309952	108670976	33619840	24992
255	2.930167	109309952	108670976	36276400	24992
256	5.679517	109309952	108670976	23131416	24992
257	4.568365	109309952	108670976	27107296	24992
258	5.231719	109309952	108670976	31742576	24992
259	5.711063	109309952	108670976	37037264	24992
260	8.334353	109309952	108670976	26567768	24992
261	7.36326	109309952	108670976	33182224	24992
262	9.600562	109580288	108670976	24030432	24992
263	8.786624	109580288	108670976	31963696	24992
264	11.175205	109580288	108670976	24121192	24992
265	9.988178	109580288	108670976	33373256	24992
266	12.643994	109580288	108670976	26857552	24992
267	11.631732	109580288	108670976	37428528	24992
268	13.962284	109580288	108670976	32241744	24992
269	14.941838	109580288	108670976	27701152	24992
270	15.506872	109580288	108670976	23803600	24992
271	14.688783	109580288	108670976	37014384	24992
272	16.852454	109580288	108670976	34461192	24992
273	17.664576	109580288	108670976	32570864	24992
274	18.296289	109580288	108670976	31318800	24992
275	19.182375	109580288	108670976	30728536	24992
276	19.816934	109850624	108670976	30799808	24992
277	20.701469	109850624	108670976	31532624	24992
278	22.080714	109850624	108670976	32926992	24992
279	22.511159	109850624	108670976	34982632	24992
280	22.582172	109850624	108670976	37699632	24992
281	25.090579	109850624	108670976	24620136	24992
282	24.579485	109850624	108670976	28630520	24992
283	25.156848	109850624	108670976	33335992	24992
284	25.819599	109850624	108670976	38707712	24992
285	28.281336	110120960	108670976	28282856	24992
286	27.599672	110120960	108670976	34944552	24992
287	29.753418	110120960	108670976	25850896	24992
288	29.435503	110120960	108670976	33834240	24992
289	31.249127	110120960	108670976	26071416	24992
290	30.484005	110120960	108670976	35375880	24992
291	32.497495	110120960	108670976	28932960	24992
292	32.057434	110120960	108670976	39557744	24992
293	34.098112	110391296	108670976	34398024	24992
294	35.174301	110391296	108670976	29938408	24992
295	36.152745	110391296	108670976	26107072	24992
296	34.420277	110391296	108670976	39374656	24992
297	37.451955	110661632	108670976	36902064	24992
298	39.086896	110927872	108670976	35071920	24992
299	38.820489	110927872	108670976	33887592	24992
300	39.266949	110927872	108670976	33363968	24992
301	39.675654	110927872	108670976	33501040	24992
302	0.788101	111198208	108670976	34108720	24992
303	1.551031	111198208	108670976	35446464	24992
304	2.180509	111198208	108670976	37443616	24992
305	2.928956	111198208	108670976	40100192	24992
306	5.553162	111198208	108670976	26952232	24992
307	4.428291	111198208	108670976	30928192	24992
308	5.455479	111198208	108670976	35563472	24992
309	7.719306	111198208	108670976	24418168	24992
310	6.440661	111198208	108670976	30373216	24992
311	7.129828	111198208	108670976	36987672	24992
312	10.098725	111198208	108670976	27833088	24992
313	9.512888	111198208	108670976	35777352	24992
314	11.712901	111198208	108670976	27944232	24992
315	10.122471	111198208	108670976	37196296	24992
316	13.237312	111198208	108670976	30679072	24992
317	13.675264	111198208	108670976	24809968	24992
318	12.181953	111198208	108670976	36042144	24992
319	15.072505	111198208	108670976	31499656	24992
320	15.807455	111198208	108670976	27620584	24992
321	14.489474	111198208	108670976	40831288	24992
322	17.873125	111198208	108670976	38261256	24992
323	18.477198	111198208	108670976	36369400	24992
324	18.933018	111468544	108670976	35129928	24992
325	19.411871	111468544	108670976	34538712	24992
326	20.454477	111468544	108670976	34609128	24992
327	21.091764	111468544	108670976	35340976	24992
328	21.347464	111468544	108670976	36734264	24992
329	22.582529	111468544	108670976	38788792	24992
330	25.506844	111468544	108670976	25045304	24992
331	24.298379	111468544	108670976	28394648	24992
332	25.265819	111468544	108670976	32435288	24992
333	27.01698	111468544	108670976	37147960	24992
334	28.236654	111738880	108670976	26065080	24992
335	27.335041	111738880	108670976	32066368	24992
336	27.848766	111738880	108670976	38765336	24992
337	30.390087	111738880	108670976	29670216	24992
338	29.430581	111738880	108670976	37653288	24992
339	32.209647	112009216	108670976	29887808	24992
340	30.839859	112009216	108670976	39191904	24992
341	33.570711	112009216	108670976	32751464	24992
342	34.125649	112009216	108670976	26936336	24992
343	33.201747	112009216	108670976	38221920	24992
344	35.449693	112009216	108670976	33765856	24992
345	35.935965	112009216	108670976	29935736	24992
346	37.11912	112279552	108670976	26764032	24992
347	36.108544	112279552	108670976	40691728	24992
348	38.930435	112279552	108670976	38886048	24992
349	39.186427	112279552	108670976	37700440	24992
350	40.500385	112279552	108670976	37177280	24992
351	40.756821	112549888	108670976	37315536	24992
352	0.805504	112549888	108670976	37922864	24992
353	1.481227	112549888	108670976	39260608	24992
354	2.174437	112549888	108670976	41257760	24992
355	5.210078	112549888	108670976	27442912	24992
356	3.891404	112549888	108670976	30759496	24992
357	4.338889	112549888	108670976	34735376	24992
358	5.234135	112549888	108670976	39370656	24992
359	8.26189	112549888	108670976	28224192	24992
360	6.644996	112549888	108670976	34183688	24992
361	7.133684	112549888	108670976	40798208	24992
362	10.288901	112549888	108670976	31653856	24992
363	8.784095	112549888	108670976	39587152	24992
364	11.862265	112549888	108670976	31757232	24992
365	10.278422	112549888	108670976	41009328	24992
366	13.226451	112549888	108670976	34490808	24992
367	13.982071	112549888	108670976	28621184	24992
368	12.41922	112549888	108670976	39853336	24992
369	15.743709	112549888	108670976	35310192	24992
370	16.129766	112549888	108670976	31430576	24992
371	16.875862	112549888	108670976	28193824	24992
372	15.226293	112549888	108670976	42063936	24992
373	18.523858	112820224	108670976	40171776	24992
374	19.021044	112820224	108670976	38942048	24992
375	19.665598	112820224	108670976	38350000	24992
376	20.710308	112820224	108670976	38419504	24992
377	21.582896	112820224	108670976	39150552	24992
378	22.852306	112820224	108670976	40543200	24992
379	23.350354	112820224	108670976	42597216	24992
380	26.691088	112820224	108670976	28852464	24992
381	24.668579	112820224	108670976	32201728	24992
382	24.97963	112820224	108670976	36242112	24992
383	25.519144	113090560	108670976	40945840	24992
384	28.814877	113090560	108670976	29862544	24992
385	27.235641	113090560	108670976	35864528	24992
386	28.361376	113090560	108670976	42563416	24992
387	31.00172	113090560	108670976	33468328	24992
388	29.439156	113090560	108670976	41450584	24992
389	32.394432	113360896	108670976	33684880	24992
390	31.145557	113360896	108670976	42988320	24992
391	34.015703	113360896	108670976	36547960	24992
392	34.854708	113360896	108670976	30732960	24992
393	33.105006	113360896	108670976	42018592	24992
394	36.400554	113360896	108670976	37562464	24992
395	37.653637	113631232	108670976	33732456	24992
396	37.53787	113631232	108670976	30560368	24992
397	36.30175	113631232	108670976	44488240	24992
398	39.008953	113631232	108670976	42660128	24992
399	39.660204	113631232	108670976	41486424	24992
400	40.770044	113901568	108670976	40962704	24992
401	41.407905	113901568	108670976	41101280	24992
402	0.793365	113901568	108670976	41710640	24992
403	1.501992	113901568	108670976	43048448	24992
404	2.176205	113901568	108670976	45045600	24992
405	5.5262	113901568	108670976	31230144	24992
406	3.615222	113901568	108670976	34546616	24992
407	4.369545	113901568	108670976	38522496	24992
408	5.05671	113901568	108670976	43157776	24992
409	8.463113	113901568	108670976	32014816	24992
410	6.663094	113901568	108670976	37969864	24992
411	7.130743	113901568	108670976	44584320	24992
412	10.622729	113901568	108670976	35434752	24992
413	8.572253	113901568	108670976	43368016	24992
414	11.977393	113901568	108670976	35533488	24992
415	10.051877	113901568	108670976	44785712	24992
416	13.525324	113901568	108670976	38266536	24992
417	14.300533	113901568	108670976	32396944	24992
418	12.128035	113901568	108670976	43629080	24992
419	15.643695	113901568	108670976	39085808	24992
420	16.515125	114171904	108670976	35206144	24992
421	17.002773	114171904	108670976	31968464	24992
422	18.171295	114171904	108670976	29393152	24992
423	15.843718	114171904	108670976	43922672	24992
424	19.676862	114171904	108670976	42692760	24992
425	19.874819	114171904	108670976	42125744	24992
426	20.908181	114171904	108670976	42195312	24992
427	21.597257	114171904	108670976	42926408	24992
428	22.012543	114171904	108670976	44318992	24992
429	26.370343	114442240	108670976	29912344	24992
430	23.892438	114442240	108670976	32601256	24992
431	24.592573	114442240	108670976	35980072	24992
432	25.933157	114442240	108670976	40019328	24992
433	26.034069	114442240	108670976	44722816	24992
434	29.414595	114442240	108670976	33639536	24992
435	27.289947	114442240	108670976	39640984	24992
436	28.421239	114442240	108670976	46340000	24992
437	31.829756	114442240	108670976	37201216	24992
438	30.194934	114712576	108670976	45218720	24992
439	33.057525	114712576	108670976	37449320	24992
440	34.62313	114712576	108670976	30310968	24992
441	32.008766	114712576	108670976	40275512	24992
442	36.0897	114712576	108670976	34496312	24992
443	33.15349	114712576	108670976	45782024	24992
444	37.530056	114982912	108670976	41325224	24992
445	37.875428	114982912	108670976	37494880	24992
446	38.600571	114982912	108670976	34322784	24992
447	39.728796	114982912	108670976	31812616	24992
448	36.533304	114982912	108670976	46400872	24992
449	40.276948	115253248	108670976	45257152	24992
450	41.445013	115253248	108670976	44733224	24992
451	41.661248	115253248	108670976	44871624	24992
452	0.794416	115253248	108670976	45480856	24992
453	1.510055	115253248	108670976	46818600	24992
454	5.146675	115253248	108670976	32338472	24992
455	2.962	115253248	108670976	34995032	24992
456	3.642808	115253248	108670976	38311504	24992
457	4.333515	115253248	108670976	42287384	24992
458	5.038702	115253248	108670976	46922664	24992
459	8.741731	115523584	108670976	35779800	24992
460	6.46123	115523584	108670976	41734880	24992
461	10.418559	115523584	108670976	31919880	24992
462	7.901739	115523584	108670976	39193736	24992
463	8.845396	115523584	108670976	47127000	24992
464	12.826924	115523584	108670976	39291768	24992
465	13.331068	115523584	108670976	32110272	24992
466	10.701953	115523584	108670976	42021744	24992
467	14.92379	115523584	108670976	36151928	24992
468	12.363671	115523584	108670976	47384064	24992
469	16.354361	115523584	108670976	42857656	24992
470	16.92493	115523584	108670976	38977560	24992
471	17.864342	115793920	108670976	35739880	24992
472	18.342942	115793920	108670976	33164568	24992
473	15.678759	115793920	108670976	47694088	24992
474	20.026259	115793920	108670976	46463456	24992
475	20.669158	115793920	108670976	45898880	24992
476	21.353213	115793920	108670976	45968176	24992
477	21.752515	115793920	108670976	46699064	24992
478	22.996179	116064256	108670976	48091536	24992
479	26.70834	116064256	108670976	33671840	24992
480	24.343827	116064256	108670976	36367640	24992
481	25.238636	116064256	108670976	39746424	24992
482	25.97836	116064256	108670976	43785632	24992
483	26.467857	116064256	108670976	48488960	24992
484	30.362452	116334592	108670976	37374336	24992
485	27.857928	116334592	108670976	43398296	24992
486	32.09186	116334592	108670976	33641880	24992
487	29.498559	116334592	108670976	40964208	24992
488	33.932358	116604928	108670976	32536296	24992
489	30.793482	116604928	108670976	41179720	24992
490	35.217084	116604928	108670976	34075352	24992
491	32.202302	116604928	108670976	44039976	24992
492	36.27931	116875264	108670976	38259544	24992
493	37.574925	116875264	108670976	33104536	24992
494	34.622757	116875264	108670976	45050600	24992
495	38.482468	117145600	108670976	41257168	24992
496	39.316567	117145600	108670976	38088616	24992
497	40.121947	117145600	108670976	35578184	24992
498	40.949801	117145600	108670976	33729752	24992
499	37.935035	117145600	108670976	48978488	24992
500	42.170185	117415936	108670976	48497848	24992
501	44.052154	117415936	108670976	48636424	24992
502	0.79285	117686272	108670976	49245960	24992
503	4.728219	117686272	108670976	34101560	24992
504	2.407202	117686272	108670976	36098712	24992
505	2.893192	117686272	108670976	38755272	24992
506	3.626731	117686272	108670976	42071744	24992
507	4.334981	117686272	108670976	46047624	24992
508	9.037955	117686272	108670976	34235432	24992
509	5.749771	117686272	108670976	39530120	24992
510	6.426779	117686272	108670976	45485168	24992
511	10.743408	117686272	108670976	35674616	24992
512	7.898869	117686272	108670976	42948640	24992
513	12.190775	117686272	108670976	34450024	24992
514	9.297497	117686272	108670976	43042680	24992
515	13.61974	117686272	108670976	35861176	24992
516	10.921998	117686272	108670976	45772648	24992
517	15.008977	117686272	108670976	39917992	24992
518	15.842383	117686272	108670976	34712832	24992
519	13.026801	117686272	108670976	46604376	24992
520	17.317773	117956608	108670976	42724272	24992
521	17.901749	117956608	108670976	39507208	24992
522	18.815713	117956608	108670976	36931448	24992
523	19.275841	117956608	108670976	35017728	24992
524	16.938998	117956608	108670976	50206688	24992
525	20.713604	117956608	108670976	49636536	24992
526	22.320573	117956608	108670976	49731176	24992
527	22.308677	118226944	108670976	50464176	24992
528	26.415025	118226944	108670976	35379992	24992
529	24.14152	118226944	108670976	37417840	24992
530	24.956761	118226944	108670976	40135064	24992
531	25.751663	118226944	108670976	43512816	24992
532	26.142262	118226944	108670976	47551992	24992
533	30.118979	118497280	108670976	35799176	24992
534	27.664319	118497280	108670976	41138336	24992
535	28.598628	118497280	108670976	47172312	24992
536	32.561376	118497280	108670976	37414816	24992
537	29.880326	118497280	108670976	44737216	24992
538	34.105751	118767616	108670976	36311232	24992
539	31.680005	118767616	108670976	44954720	24992
540	35.372476	118767616	108670976	37850336	24992
541	32.210598	118767616	108670976	47814880	24992
542	36.688808	119037952	108670976	42033584	24992
543	37.51858	119037952	108670976	36880256	24992
544	34.6227	119037952	108670976	48826384	24992
545	39.205138	119308288	108670976	45032856	24992
546	39.736775	119308288	108670976	41864576	24992
547	40.968475	119308288	108670976	39353856	24992
548	41.351942	119308288	108670976	37505280	24992
549	42.026555	119578624	108670976	36318136	24992
550	38.72752	119578624	108670976	52227560	24992
551	47.059692	119578624	108670976	35917744	24992
552	4.691779	119578624	108670976	36526616	24992
553	1.549346	119578624	108670976	37864360	24992
554	2.225087	119578624	108670976	39861512	24992
555	3.036051	119578624	108670976	42518104	24992
556	3.663125	119578624	108670976	45841376	24992
557	4.479711	119848960	108670976	49817256	24992
558	8.981265	119848960	108670976	38008416	24992
559	9.806451	119848960	108670976	43303168	24992
560	12.975564	114606080	85078016	13884496	24992
561	7.455109	114606080	85078016	20500632	24992
562	8.344453	114606080	85078016	11297408	24992
563	8.708015	114606080	85078016	19231704	24992
564	9.619285	114606080	85078016	11355880	24992
565	10.280244	114606080	85078016	20609144	24992
566	11.343256	114606080	85078016	14055312	24992
567	11.731335	114606080	85078016	24627552	24992
568	12.667485	114606080	85078016	19397120	24992
569	13.396053	114606080	85078016	14822784	24992
570	13.723098	114606080	85078016	27375696	24992
571	14.893649	114606080	85078016	24121784	24992
572	15.560349	114606080	85078016	21529528	24992
573	16.383747	114606080	85078016	19591632	24992
574	18.392936	114606080	85078016	18328544	24992
575	17.928139	114606080	85078016	17711968	24992
576	18.593174	114606080	85078016	17755888	24992
577	19.930956	114606080	85078016	18460296	24992
578	20.616928	114606080	85078016	19825200	24992
579	21.206141	114606080	85078016	21850576	24992
580	21.353469	114606080	85078016	24536240	24992
581	21.692775	114606080	85078016	27882024	24992
582	23.54697	114606080	85078016	15406272	24992
583	24.069753	114606080	85078016	20080584	24992
584	24.454254	114606080	85078016	25415976	24992
585	25.575545	114606080	85078016	14944856	24992
586	26.050505	114606080	85078016	21596264	24992
587	27.649449	114606080	85078016	12457344	24992
588	27.360329	114606080	85078016	20426192	24992
589	28.224752	114606080	85078016	12599312	24992
590	28.638153	114606080	85078016	21888512	24992
591	30.371692	114606080	85078016	15384000	24992
592	30.190305	114606080	85078016	25993632	24992
593	31.30801	114606080	85078016	20809088	24992
594	32.069767	114606080	85078016	16284920	24992
595	32.435397	114606080	85078016	12418424	24992
596	33.490172	114606080	85078016	25668632	24992
597	33.96004	114606080	85078016	23128840	24992
598	34.518463	114606080	85078016	21248064	24992
599	35.866314	114606080	85078016	20024752	24992
600	35.828167	114606080	85078016	19462256	24992
601	36.686931	114606080	85078016	19561336	24992
602	0.805002	114606080	85078016	20153408	24992
603	1.564018	114606080	85078016	21491152	24992
604	2.198669	114606080	85078016	23488336	24992
605	3.127701	114606080	85078016	26144912	24992
606	3.904319	114606080	85078016	12986120	24992
607	4.365797	114606080	85078016	16962000	24992
608	5.001215	114606080	85078016	21597280	24992
609	5.747908	114606080	85078016	26891968	24992
610	6.942912	114606080	85078016	16383040	24992
611	7.145339	114606080	85078016	22997496	24992
612	8.350661	114606080	85078016	13805448	24992
613	8.570364	114606080	85078016	21738760	24992
614	10.041667	114606080	85078016	13862128	24992
615	9.978565	114606080	85078016	23114192	24992
616	11.211044	114606080	85078016	16559448	24992
617	11.44078	114606080	85078016	27130328	24992
618	12.856835	114606080	85078016	21898696	24992
619	13.403485	114606080	85078016	17323144	24992
620	14.109447	114606080	85078016	13403560	24992
621	14.475373	114606080	85078016	26614320	24992
622	15.5583	114606080	85078016	24020512	24992
623	16.508021	114606080	85078016	22087592	24992
624	16.79552	114606080	85078016	20808656	24992
625	18.072651	114606080	85078016	20191512	24992
626	18.584457	114606080	85078016	20233400	24992
627	19.667617	114606080	85078016	20939112	24992
628	20.323077	114606080	85078016	22302192	24992
629	20.651394	114606080	85078016	24325280	24992
630	21.433721	114606080	85078016	27008288	24992
631	22.378799	114606080	85078016	13882216	24992
632	23.105081	114606080	85078016	17880760	24992
633	23.319368	114606080	85078016	22549312	24992
634	24.10378	114606080	85078016	27881768	24992
635	25.080313	114606080	85078016	17407672	24992
636	26.034525	114606080	85078016	24056168	24992
637	27.870391	114606080	85078016	14920264	24992
638	27.22335	114606080	85078016	22903224	24992
639	28.72754	114606080	85078016	15128960	24992
640	28.78942	114606080	85078016	24433024	24992
641	29.850454	114606080	85078016	17983368	24992
642	30.067043	114606080	85078016	28608632	24992
643	31.212382	114606080	85078016	23482096	24992
644	32.027495	114606080	85078016	18990584	24992
645	32.847557	114606080	85078016	15157064	24992
646	33.268824	114606080	85078016	28424328	24992
647	34.131542	114606080	85078016	25947584	24992
648	35.549034	114606080	85078016	24100552	24992
649	36.040238	114606080	85078016	22917208	24992
650	36.28255	114606080	85078016	22391624	24992
651	37.112259	114606080	85078016	22528384	24992
652	0.789794	114606080	85078016	23135480	24992
653	1.492697	114606080	85078016	24473208	24992
654	2.180017	114606080	85078016	26470344	24992
655	2.947257	114606080	85078016	29126888	24992
656	4.264273	114606080	85078016	15981888	24992
657	4.429987	114606080	85078016	19957752	24992
658	5.458505	114606080	85078016	24593016	24992
659	5.921216	114606080	85078016	29887688	24992
660	6.924967	114606080	85078016	19418112	24992
661	7.363662	114606080	85078016	26032552	24992
662	8.367826	114606080	85078016	16880744	24992
663	8.558742	114606080	85078016	24813992	24992
664	10.062571	114606080	85078016	16971440	24992
665	10.242199	114606080	85078016	26223488	24992
666	11.497127	114606080	85078016	19707768	24992
667	11.624289	114606080	85078016	30278672	24992
668	12.855947	114606080	85078016	25091880	24992
669	13.799543	114606080	85078016	20551224	24992
670	14.301079	114606080	85078016	16653800	24992
671	14.533153	114606080	85078016	29864488	24992
672	15.778975	114606080	85078016	27311280	24992
673	16.214076	114606080	85078016	25420968	24992
674	17.345631	114606080	85078016	24168888	24992
675	17.87387	114606080	85078016	23578608	24992
676	19.113983	114606080	85078016	23649848	24992
677	19.08856	114606080	85078016	24382696	24992
678	20.320402	114606080	85078016	25777064	24992
679	20.880888	114606080	85078016	27832688	24992
680	21.87994	114606080	85078016	30549672	24992
681	22.770174	114606080	85078016	17470160	24992
682	23.31234	114606080	85078016	21480544	24992
683	24.542171	114606080	85078016	26185664	24992
684	24.448125	114606080	85078016	31551664	24992
685	25.833545	114606080	85078016	21124168	24992
686	26.491462	114606080	85078016	27781376	24992
687	27.57556	114606080	85078016	18679832	24992
688	27.936272	114606080	85078016	26663616	24992
689	28.755683	114606080	85078016	18892680	24992
690	29.451777	114606080	85078016	28196808	24992
691	30.405657	114606080	85078016	21745376	24992
692	30.567516	114606080	85078016	32369792	24992
693	32.095081	114606080	85078016	27216352	24992
694	33.030902	114606080	85078016	22743616	24992
695	33.409977	114606080	85078016	18911616	24992
696	34.311984	114606080	85078016	32178976	24992
697	35.697977	114606080	85078016	29700840	24992
698	35.745168	114606080	85078016	27847128	24992
699	36.821154	114606080	85078016	26662728	24992
700	36.984719	114606080	85078016	26138920	24992
701	37.876386	114606080	85078016	26275872	24992
702	0.791866	114606080	85078016	26883432	24992
703	1.478137	114606080	85078016	28221160	24992
704	2.193763	114606080	85078016	30218296	24992
705	3.182439	114606080	85078016	32874840	24992
706	4.615239	114606080	85078016	19729248	24992
707	4.35747	114606080	85078016	23705112	24992
708	5.216648	114606080	85078016	28340376	24992
709	7.065975	114606080	85078016	17198832	24992
710	6.42731	114606080	85078016	23153872	24992
711	7.350273	114606080	85078016	29768328	24992
712	8.735858	114606080	85078016	20616616	24992
713	8.865709	114606080	85078016	28549912	24992
714	10.496594	114606080	85078016	20718832	24992
715	10.178991	114606080	85078016	29970944	24992
716	11.600358	114606080	85078016	23455224	24992
717	12.534649	114606080	85078016	17587520	24992
718	12.540407	114606080	85078016	28819656	24992
719	13.730528	114606080	85078016	24278584	24992
720	14.961057	114606080	85078016	20400888	24992
721	14.22511	114606080	85078016	33611576	24992
722	16.144626	114606080	85078016	31045904	24992
723	16.881395	114606080	85078016	29155320	24992
724	17.601745	114606080	85078016	27913240	24992
725	19.176452	114606080	85078016	27332168	24992
726	18.926686	114606080	85078016	27403392	24992
727	20.282313	114606080	85078016	28136160	24992
728	21.006344	114606080	85078016	29530256	24992
729	21.070084	114876416	85078016	31585656	24992
730	22.856453	114876416	85078016	17843480	24992
731	23.013903	114876416	85078016	21193288	24992
732	23.715577	114876416	85078016	25234896	24992
733	24.361353	114876416	85078016	29939672	24992
734	25.956819	114876416	85078016	18851032	24992
735	25.969705	114876416	85078016	24852336	24992
736	26.571913	114876416	85078016	31544320	24992
737	28.402152	114876416	85078016	22442320	24992
738	28.213829	114876416	85078016	30425440	24992
739	29.480692	114876416	85078016	22652824	24992
740	29.691685	114876416	85078016	31957048	24992
741	31.167594	114876416	85078016	25509184	24992
742	31.813422	114876416	85078016	19694336	24992
743	31.604913	114876416	85078016	30979984	24992
744	33.372845	114876416	85078016	26516016	24992
745	34.064425	114876416	85078016	22686112	24992
746	35.510997	114876416	85078016	19514640	24992
747	34.434718	114876416	85078016	33442400	24992
748	36.78919	114876416	85078016	31628080	24992
749	37.336486	114876416	85078016	30442640	24992
750	38.128119	114876416	85078016	29927544	24992
751	38.499547	114876416	85078016	30066456	24992
752	0.80563	114876416	85078016	30674024	24992
753	1.49454	114876416	85078016	32011752	24992
754	2.173405	114876416	85078016	34008888	24992
755	4.113574	114876416	85078016	20196440	24992
756	3.832558	114876416	85078016	23512896	24992
757	4.360491	114876416	85078016	27488760	24992
758	5.249966	114876416	85078016	32124040	24992
759	6.979678	114876416	85078016	20982568	24992
760	6.645816	114876416	85078016	26937600	24992
761	7.143167	114876416	85078016	33552088	24992
762	9.149529	114876416	85078016	24407752	24992
763	8.782888	114876416	85078016	32341032	24992
764	10.769372	114876416	85078016	24509888	24992
765	10.264678	114876416	85078016	33761968	24992
766	12.370604	114876416	85078016	27246088	24992
767	12.685713	114876416	85078016	21378384	24992
768	12.370259	114876416	85078016	32610504	24992
769	14.356522	114876416	85078016	28069288	24992
770	15.043289	114876416	85078016	24191640	24992
771	15.967494	114876416	85078016	20956128	24992
772	15.093261	114876416	85078016	34826240	24992
773	17.162566	114876416	85078016	32935656	24992
774	18.258132	114876416	85078016	31707816	24992
775	18.646994	114876416	85078016	31117056	24992
776	19.667907	114876416	85078016	31187880	24992
777	20.632929	114876416	85078016	31920248	24992
778	20.828204	114876416	85078016	33314232	24992
779	21.722781	114876416	85078016	35369536	24992
780	24.051524	114876416	85078016	21627456	24992
781	23.719102	114876416	85078016	24977328	24992
782	23.652279	114876416	85078016	29019016	24992
783	24.842215	114876416	85078016	33724128	24992
784	26.719294	114876416	85078016	22641960	24992
785	26.290531	114876416	85078016	28643632	24992
786	26.826759	114876416	85078016	35343112	24992
787	29.071677	114876416	85078016	26248920	24992
788	28.282788	114876416	85078016	34231464	24992
789	30.39853	114876416	85078016	26466704	24992
790	30.055795	114876416	85078016	35770480	24992
791	31.994024	114876416	85078016	29331096	24992
792	32.528446	114876416	85078016	23516704	24992
793	32.24696	114876416	85078016	34802624	24992
794	34.157692	115146752	85078016	30347344	24992
795	35.24096	115146752	85078016	26517896	24992
796	35.567993	115146752	85078016	23346592	24992
797	35.450729	115146752	85078016	37274704	24992
798	37.140816	115146752	85078016	35449632	24992
799	37.944924	115417088	85078016	34274024	24992
800	38.574167	115417088	85078016	33750912	24992
801	38.744636	115417088	85078016	33889936	24992
802	0.791971	115417088	85078016	34499824	24992
803	1.493084	115417088	85078016	35837552	24992
804	2.200685	115417088	85078016	37834688	24992
805	4.438254	115417088	85078016	24021632	24992
806	3.653868	115417088	85078016	27338088	24992
807	4.337821	115417088	85078016	31313952	24992
808	5.056166	115417088	85078016	35949216	24992
809	7.298659	115417088	85078016	24811256	24992
810	6.431803	115417088	85078016	30766296	24992
811	7.130018	115417088	85078016	37380736	24992
812	9.69595	115417088	85078016	28236368	24992
813	8.5798	115417088	85078016	36169616	24992
814	10.878846	115417088	85078016	28338296	24992
815	10.048728	115417088	85078016	37590424	24992
816	12.30488	115417088	85078016	31073936	24992
817	13.064413	115417088	85078016	25206280	24992
818	12.093782	115417088	85078016	36438400	24992
819	14.451602	115417088	85078016	31897056	24992
820	15.665694	115417088	85078016	28019328	24992
821	16.356584	115417088	85078016	24783256	24992
822	17.033648	115417088	85078016	22209224	24992
823	15.907404	115417088	85078016	36738720	24992
824	18.940527	115417088	85078016	35510704	24992
825	19.262527	115687424	85078016	34945448	24992
826	19.794513	115687424	85078016	35016416	24992
827	20.865803	115687424	85078016	35748784	24992
828	21.916865	115687424	85078016	37142528	24992
829	23.592396	115687424	85078016	22737768	24992
830	23.021061	115687424	85078016	25427144	24992
831	23.206707	115687424	85078016	28807280	24992
832	24.227736	115957760	85078016	32847824	24992
833	25.649747	115957760	85078016	37552632	24992
834	27.257566	115957760	85078016	26470336	24992
835	26.173882	115957760	85078016	32472040	24992
836	27.598506	115957760	85602304	39171568	24992
837	30.064437	115957760	85602304	30034856	24992
838	29.007011	116228096	85602304	38051456	24992
839	31.59599	116228096	85602304	30282840	24992
840	31.975752	116228096	85602304	23145176	24992
841	30.722955	116228096	85602304	33109912	24992
842	33.785944	116228096	85602304	27331720	24992
843	32.492633	116228096	85602304	38617800	24992
844	34.942037	116498432	85602304	34161960	24992
845	35.581031	116498432	85602304	30332240	24992
846	36.395761	116498432	85602304	27160520	24992
847	37.041816	116498432	85602304	24651048	24992
848	36.107109	116498432	85602304	39239608	24992
849	40.069967	116768768	85602304	38109712	24992
850	40.228264	116768768	85602304	37625848	24992
851	39.97197	117039104	85602304	37764536	24992
852	0.820963	117039104	85602304	38373736	24992
853	1.487003	117039104	85602304	39711464	24992
854	4.089942	117039104	85602304	25231672	24992
855	2.943202	117039104	85602304	27888216	24992
856	3.708426	117039104	85602304	31204672	24992
857	4.340233	117039104	85602304	35180536	24992
858	5.228443	117039104	85602304	39815800	24992
859	7.755552	117039104	85602304	28674152	24992
860	6.746419	117039104	85602304	34629248	24992
861	9.173476	117039104	85602304	24815464	24992
862	8.107536	117039104	85602304	32089304	24992
863	8.542801	117039104	85602304	40022552	24992
864	11.601978	117039104	85602304	32188200	24992
865	11.981734	117039104	85602304	25007392	24992
866	10.919711	117039104	85602304	34918848	24992
867	13.877444	117039104	85602304	29049512	24992
868	12.102203	117039104	85602304	40281632	24992
869	15.3191	117039104	85602304	35756648	24992
870	15.934212	117309440	85602304	31877064	24992
871	16.441248	117309440	85602304	28639704	24992
872	17.239378	117309440	85602304	26064728	24992
873	15.889163	117309440	85602304	40594232	24992
874	18.683799	117309440	85602304	39364112	24992
875	19.960401	117309440	85602304	38797368	24992
876	20.504624	117309440	85602304	38867000	24992
877	20.594424	117309440	85602304	39598192	24992
878	21.812892	117309440	85602304	40991016	24992
879	24.721427	117579776	85602304	26572312	24992
880	23.484125	117579776	85602304	29269440	24992
881	24.292144	117579776	85602304	32648608	24992
882	24.658426	117579776	85602304	36688120	24992
883	25.403812	117579776	85602304	41391784	24992
884	28.319228	117579776	85602304	30272368	24992
885	28.146115	117579776	85602304	36310112	24992
886	29.494374	117850112	85602304	26553824	24992
887	28.902289	117850112	85602304	33876200	24992
888	31.540929	117850112	85602304	25448336	24992
889	29.758923	117850112	85602304	34091664	24992
890	32.687571	117850112	85602304	26987152	24992
891	31.271996	117850112	85602304	36951696	24992
892	34.503174	117850112	85602304	31171264	24992
893	35.305646	117850112	85602304	26016192	24992
894	33.354872	117850112	85602304	37962256	24992
895	35.954618	117850112	85602304	34168840	24992
896	37.219165	117850112	85602304	31000304	24992
897	37.854778	117850112	85602304	28489856	24992
898	38.143435	117850112	85602304	26641152	24992
899	36.978699	117850112	85602304	41890064	24992
900	40.339432	117850112	85602304	41408992	24992
901	40.79495	118120448	85602304	41546864	24992
902	0.913227	118120448	85602304	42157008	24992
903	3.736209	118120448	85602304	27012960	24992
904	2.283612	118120448	85602304	29010096	24992
905	2.884688	118120448	85602304	31666640	24992
906	3.633932	118120448	85602304	34983096	24992
907	4.322401	118120448	85602304	38958960	24992
908	7.675701	118120448	85602304	27147120	24992
909	5.948925	118120448	85602304	32441792	24992
910	6.424785	118120448	85602304	38396824	24992
911	9.760515	118120448	85602304	28586256	24992
912	8.153176	118120448	85602304	35860112	24992
913	11.177349	118120448	85602304	27361488	24992
914	9.253248	118120448	85602304	35954128	24992
915	12.333177	118120448	85602304	28772608	24992
916	10.946101	118120448	85602304	38684064	24992
917	14.085915	118120448	85602304	32829392	24992
918	14.846661	118120448	85602304	27624280	24992
919	13.027907	118120448	85602304	39515856	24992
920	16.292784	118120448	85602304	35635752	24992
921	17.081498	118120448	85602304	32418672	24992
922	17.370064	118120448	85602304	29842976	24992
923	18.439312	118120448	85602304	27929256	24992
924	16.601019	118120448	85602304	43118232	24992
925	19.691526	118120448	85602304	42543920	24992
926	20.701409	118120448	85602304	42638448	24992
927	21.197851	118120448	85602304	43372888	24992
928	24.808803	118120448	85602304	28288888	24992
929	22.798912	118120448	85602304	30328104	24992
930	23.889425	118120448	85602304	33045408	24992
931	24.318334	118120448	85602304	36423080	24992
932	25.570689	118120448	85602304	40462736	24992
933	27.898709	118120448	85602304	28709920	24992
934	27.168681	118120448	85602304	34049032	24992
935	27.327117	118120448	85602304	40083072	24992
936	30.731348	118120448	85602304	30325496	24992
937	28.540045	118120448	85602304	37647880	24992
938	31.74932	118120448	85602304	29221864	24992
939	30.199799	118120448	85602304	37865288	24992
940	33.338615	118120448	85602304	30760648	24992
941	31.58127	118120448	85602304	40725240	24992
942	34.776617	118120448	85602304	34943896	24992
943	35.03586	118120448	85602304	29790440	24992
944	33.911673	118120448	85602304	41736728	24992
945	36.650048	118120448	85602304	37943104	24992
946	37.45399	118120448	85602304	34774824	24992
947	38.306327	118120448	85602304	32264024	24992
948	39.138187	118120448	85602304	30415416	24992
949	39.962836	118120448	85602304	29228288	24992
950	41.164322	118120448	85602304	28702584	24992
951	41.25585	118120448	85602304	28839304	24992
952	3.377899	118120448	85602304	29445504	24992
953	1.501929	118120448	85602304	30783232	24992
954	2.191075	118120448	85602304	32780368	24992
955	2.877159	118120448	85602304	35436912	24992
956	3.809675	118120448	85602304	38753368	24992
957	4.51024	118120448	85602304	42729232	24992
958	7.69009	118120448	85602304	30912408	24992
959	5.722016	118120448	85602304	36207208	24992
960	6.790986	118120448	85602304	42162240	24992
961	10.206257	118120448	85602304	32355472	24992
962	7.957637	118120448	85602304	39629328	24992
963	11.44914	118120448	85602304	31130528	24992
964	9.384336	118120448	85602304	39723168	24992
965	12.918746	118120448	85602304	32541504	24992
966	10.915496	118120448	85602304	42453008	24992
967	14.088377	118120448	85602304	36598240	24992
968	15.214142	118120448	85602304	31393032	24992
969	12.870462	118120448	85602304	43284560	24992
970	16.542367	118120448	85602304	39404216	24992
971	17.491043	118120448	85602304	36187232	24992
972	17.962816	118120448	85602304	33611088	24992
973	18.630134	118120448	85602304	31697336	24992
974	19.358475	118120448	85602304	30445088	24992
975	20.486112	118120448	85602304	29854376	24992
976	21.040325	118120448	85602304	29925232	24992
977	21.745036	118120448	85602304	30657608	24992
978	22.352165	118120448	85602304	32051536	24992
979	23.357499	118120448	85602304	34106976	24992
980	24.157142	118120448	85602304	36823984	24992
981	24.783147	118120448	85602304	40201624	24992
982	25.525518	118120448	85602304	44240608	24992
983	29.182132	118120448	85602304	32487808	24992
984	26.911829	118120448	85602304	37827208	24992
985	27.787449	118120448	85602304	43861248	24992
986	30.621699	118120448	85602304	34103416	24992
987	29.763546	118120448	85602304	41425928	24992
988	32.220789	118120448	85602304	32998616	24992
989	30.702855	118120448	85602304	41642224	24992
990	33.684347	118120448	85602304	34538344	24992
991	32.213012	118120448	85602304	44502976	24992
992	35.399138	118120448	85602304	38723320	24992
993	36.107447	118120448	85602304	33569880	24992
994	34.470504	118120448	85602304	45516088	24992
995	37.895444	118120448	85602304	41727320	24992
996	38.402778	118120448	85602304	38557840	24992
997	39.2744	118120448	85602304	36048976	24992
998	40.414908	118120448	85602304	34200096	24992
999	40.349571	118120448	85602304	33013128	24992
1000	41.558639	118120448	85602304	32487728	24992
