x	Duration	RSS	HeapTotal	HeapUsed	External
0	NA	100384768	68825088	10971712	24992
1	1.102237	100384768	68825088	11651824	24992
2	1.970578	100384768	68825088	12990224	24992
3	2.77954	100384768	68825088	14988040	24992
4	3.592827	100384768	68825088	17645344	24992
5	4.884428	100384768	68825088	20962784	24992
6	4.592187	100384768	68825088	24939728	24992
7	5.559732	100384768	68825088	13110112	24992
8	6.239238	100384768	68825088	18406184	24992
9	6.534573	100384768	68825088	24362792	24992
10	7.478896	100384768	68825088	14519752	24992
11	8.248711	100384768	68825088	21795568	24992
12	9.314885	100384768	68825088	13263376	24992
13	9.420406	100384768	68825088	21858232	24992
14	11.749841	100384768	68825088	14659136	24992
15	11.073742	100384768	68825088	24573112	24992
16	12.171185	100384768	68825088	18681648	24992
17	13.405827	100384768	68825088	13448432	24992
18	14.13735	100384768	68825088	25342976	24992
19	14.898569	100384768	68825088	21431816	24992
20	15.149018	100384768	68825088	18181920	24992
21	15.826444	100384768	68825088	15585728	24992
22	16.520184	100384768	68825088	13651128	24992
23	17.184074	100384768	68825088	12377056	24992
24	17.96236	100384768	68825088	11763456	24992
25	18.342977	100384768	68825088	11810440	24992
26	19.680543	100384768	68825088	12518584	24992
27	20.363823	100384768	68825088	13886720	24992
28	21.022277	100384768	68825088	15920744	24992
29	22.545341	100384768	68825088	18617992	24992
30	22.816226	100384768	68825088	21966912	24992
31	23.197082	100384768	68825088	25976200	24992
32	24.231779	100384768	68825088	14181520	24992
33	25.090825	100384768	68825088	19513744	24992
34	25.31027	100384768	68825088	25513016	24992
35	26.552851	100384768	68825088	15709424	24992
36	26.924762	100384768	68825088	23023760	24992
37	28.258343	100384768	68825088	14540296	24992
38	28.152321	100384768	68825088	23170696	24992
39	30.448116	100384768	68825088	16009096	24992
40	30.076735	100384768	68825088	25962248	24992
41	30.557748	100384768	68825088	20119896	24992
42	31.103293	100384768	68825088	14936288	24992
43	31.713141	100384768	68825088	26867720	24992
44	32.872422	100384768	68825088	23007152	24992
45	33.025263	100384768	68825088	19808080	24992
46	34.488464	100384768	68825088	17264616	24992
47	34.675447	100384768	68825088	15382208	24992
48	35.352731	100384768	68825088	14160896	24992
49	35.810664	100384768	68825088	13600320	24992
50	36.924784	100384768	68825088	13701432	24992
51	38.495486	100384768	68825088	14464096	24992
52	0.809484	100384768	68825088	15715456	24992
53	1.485312	100384768	68825088	17053368	24992
54	2.218609	100384768	68825088	19050704	24992
55	2.917335	100384768	68825088	21707480	24992
56	3.668957	100384768	68825088	25024216	24992
57	4.552088	100384768	68825088	29000408	24992
58	5.552597	100384768	68825088	17167472	24992
59	5.982744	100384768	68825088	22462504	24992
60	6.683987	100384768	68825088	28418072	24992
61	7.824015	100384768	68825088	18573160	24992
62	8.132457	100384768	68825088	25847456	24992
63	8.857106	100384768	68825088	17313728	24992
64	9.696251	100384768	68825088	25906904	24992
65	10.64236	100384768	68825088	18691440	24992
66	10.994666	100384768	68825088	28603480	24992
67	11.726934	100384768	68825088	22709264	24992
68	12.723234	100384768	68825088	17473824	24992
69	13.424999	100384768	68825088	12894152	24992
70	13.653225	100384768	68825088	25446152	24992
71	14.824881	100384768	68825088	22192960	24992
72	16.264601	100384768	68825088	19602112	24992
73	16.344861	100384768	68825088	17663640	24992
74	17.01906	100384768	68825088	16386512	24992
75	17.709032	100384768	68825088	15769920	24992
76	18.384647	100384768	68825088	15813760	24992
77	19.132865	100384768	68825088	16518088	24992
78	19.906043	100384768	68825088	17882704	24992
79	20.809422	100384768	68825088	19909080	24992
80	21.937196	100384768	68825088	22594472	24992
81	22.625002	100384768	68825088	25940856	24992
82	23.16283	100384768	68825088	13477208	24992
83	24.280227	100384768	68825088	18141960	24992
84	25.398087	100384768	68825088	23486192	24992
85	25.400855	100384768	68825088	29494200	24992
86	25.953766	100655104	68825088	19709656	24992
87	26.362827	100655104	68825088	27044408	24992
88	28.00247	100655104	68825088	18604680	24992
89	28.030045	100655104	68825088	27247848	24992
90	29.385429	100655104	68825088	20137080	24992
91	29.403688	100655104	68825088	30100856	24992
92	30.555371	100655104	68825088	24267144	24992
93	31.063374	100655104	68825088	19141784	24992
94	32.036314	100655104	68825088	14646352	24992
95	32.363932	100655104	68825088	27252896	24992
96	33.640161	100655104	68825088	24113200	24992
97	34.260187	100655104	68825088	21606232	24992
98	34.87301	100655104	68825088	19758128	24992
99	35.994816	100655104	68825088	18570336	24992
100	36.479451	100655104	68825088	18044928	24992
101	36.963933	100655104	68825088	18181832	24992
102	0.792396	100655104	68825088	18789536	24992
103	1.477935	100655104	68825088	20127280	24992
104	2.197048	100655104	68825088	22124432	24992
105	2.888427	100655104	68825088	24780992	24992
106	3.617951	100655104	68825088	28097464	24992
107	4.836049	100655104	68825088	15619664	24992
108	5.252986	100655104	68825088	20254944	24992
109	5.741266	100655104	68825088	25549632	24992
110	7.174664	100655104	68825088	15078896	24992
111	7.166617	100655104	68825088	21693376	24992
112	7.882228	100655104	68825088	28967312	24992
113	9.565843	100655104	68825088	20480080	24992
114	9.554691	100655104	68825088	29072736	24992
115	10.589631	100655104	68825088	21905232	24992
116	11.471817	100655104	68825088	15374416	24992
117	11.647728	100655104	68825088	25945296	24992
118	12.742815	100655104	68825088	20741216	24992
119	14.011744	100655104	68825088	16200128	24992
120	13.808841	100655104	68825088	28751440	24992
121	15.176867	100655104	68825088	25535168	24992
122	15.525995	100655104	68825088	22981936	24992
123	17.122378	100655104	68825088	21068272	24992
124	17.320553	100655104	68825088	19816096	24992
125	18.172993	100655104	68825088	19226344	24992
126	18.81081	100655104	68825088	19298128	24992
127	20.06198	100925440	68825088	20031456	24992
128	20.751801	100925440	68825088	21426352	24992
129	21.036901	100925440	68825088	23481864	24992
130	21.734067	100925440	68825088	26198944	24992
131	22.883031	100925440	68825088	29577104	24992
132	23.792501	100925440	68825088	17159744	24992
133	24.068973	100925440	68825088	21833232	24992
134	24.958817	100925440	68825088	27198880	24992
135	26.307839	100925440	68825088	16773856	24992
136	26.097995	100925440	68825088	23435736	24992
137	27.082872	100925440	68825088	30787056	24992
138	28.409253	100925440	68825088	22347000	24992
139	28.974462	100925440	68825088	30989736	24992
140	29.892645	100925440	68825088	23878920	24992
141	30.460361	100925440	68825088	17402104	24992
142	30.592574	100925440	68825088	28030712	24992
143	32.362742	100925440	68825088	22905496	24992
144	32.576691	100925440	68825088	18413488	24992
145	33.016545	100925440	68825088	31020080	24992
146	34.381872	100925440	68825088	27884312	24992
147	35.393932	100925440	68825088	25376224	24992
148	35.472154	100925440	68825088	23529256	24992
149	36.66933	100925440	68825088	22341592	24992
150	37.245797	100925440	68825088	21815464	24992
151	38.086995	100925440	68825088	21952048	24992
152	0.857208	100925440	68825088	22559752	24992
153	1.481666	100925440	68825088	23897496	24992
154	2.237391	100925440	68825088	25894648	24992
155	3.15752	100925440	68825088	28551208	24992
156	3.856237	100925440	68825088	31867680	24992
157	5.175415	100925440	68825088	19389864	24992
158	5.234445	100925440	68825088	24025192	24992
159	5.738961	100925440	68825088	29320056	24992
160	7.585857	100925440	68825088	18849168	24992
161	7.399612	100925440	68825088	25463624	24992
162	7.885543	100925440	68825088	32737480	24992
163	9.650966	100925440	68825088	24249480	24992
164	9.655599	100925440	68825088	32842136	24992
165	11.209805	100925440	68825088	25673992	24992
166	11.824466	100925440	68825088	19143192	24992
167	12.6172	100925440	68825088	29722448	24992
168	13.294351	100925440	68825088	24518224	24992
169	14.031106	100925440	68825088	19979632	24992
170	13.972525	100925440	68825088	32530928	24992
171	15.629427	100925440	68825088	29314608	24992
172	16.230748	100925440	68825088	26761168	24992
173	16.811302	100925440	68825088	24847456	24992
174	17.591143	100925440	68825088	23595312	24992
175	18.261123	100925440	68825088	23004664	24992
176	19.017826	100925440	68825088	23076016	24992
177	20.026693	100925440	68825088	23808992	24992
178	20.495713	100925440	68825088	25203008	24992
179	21.650426	100925440	68825088	27258536	24992
180	22.517531	100925440	68825088	29975600	24992
181	22.764376	100925440	68825088	33353744	24992
182	24.458768	100925440	68825088	20935680	24992
183	24.072287	100925440	68825088	25609280	24992
184	25.339495	100925440	68825088	30975104	24992
185	26.693216	100925440	68825088	20547832	24992
186	26.615045	100925440	68825088	27209608	24992
187	28.382414	100925440	68825088	18113536	24992
188	28.098898	100925440	68825088	26096272	24992
189	29.799	100925440	68825088	18321432	24992
190	29.65327	100925440	68825088	27625288	24992
191	31.232239	100925440	68825088	21175504	24992
192	31.637058	100925440	68825088	31800528	24992
193	32.794952	100925440	68825088	26673320	24992
194	33.38438	100925440	68825088	22181632	24992
195	33.667368	100925440	68825088	34788368	24992
196	35.061419	100925440	68825088	31622312	24992
197	35.810881	100925440	68825088	29128808	24992
198	36.292107	100925440	68825088	27283312	24992
199	38.204475	100925440	68825088	26103704	24992
200	38.048649	100925440	68825088	25578128	24992
201	38.638905	100925440	68825088	25714896	24992
202	0.816774	100925440	68825088	26322528	24992
203	1.500929	100925440	68825088	27660272	24992
204	2.418271	100925440	68825088	29657424	24992
205	2.955891	100925440	68825088	32313984	24992
206	4.110154	100925440	68825088	35630456	24992
207	5.770005	100925440	68825088	23152016	24992
208	5.063827	100925440	68825088	27787296	24992
209	6.019931	100925440	68825088	33081984	24992
210	7.920438	100925440	68825088	22611016	24992
211	7.291138	100925440	68825088	29225472	24992
212	9.438192	100925440	68825088	20064528	24992
213	8.869122	100925440	68825088	27997792	24992
214	10.642639	100925440	68825088	20154536	24992
215	10.309799	100925440	68825088	29406600	24992
216	12.273596	100925440	68825088	22890640	24992
217	11.428104	100925440	68825088	33461520	24992
218	13.761333	100925440	68825088	28274032	24992
219	14.386578	100925440	68825088	23732848	24992
220	15.247274	100925440	68825088	19835392	24992
221	14.511631	100925440	68825088	33046160	24992
222	16.623625	100925440	68825088	30492552	24992
223	17.236355	100925440	68825088	28601952	24992
224	17.974381	100925440	68825088	27349760	24992
225	18.696003	100925440	68825088	26759112	24992
226	19.97466	100925440	68825088	26830032	24992
227	20.502396	100925440	68825088	27562512	24992
228	20.87896	100925440	68825088	28956512	24992
229	21.87629	100925440	68825088	31017832	24992
230	22.573776	100925440	68825088	33737392	24992
231	24.674168	100925440	68825088	20657352	24992
232	24.459696	100925440	68825088	24667528	24992
233	24.728258	100925440	68825088	29373336	24992
234	25.828529	100925440	68825088	34745168	24992
235	27.684627	100925440	68825088	24325544	24992
236	30.162983	100925440	68825088	30987640	24992
237	29.37354	100925440	68825088	21899312	24992
238	28.337474	100925440	68825088	29882576	24992
239	30.57998	100925440	68825088	22115944	24992
240	29.738366	100925440	68825088	31420104	24992
241	32.371455	100925440	68825088	24978672	24992
242	31.383644	100925440	68825088	35604032	24992
243	33.472919	100925440	68825088	30485688	24992
244	34.288423	100925440	68825088	25994312	24992
245	34.92975	100925440	68825088	22161056	24992
246	34.010713	100925440	68825088	35428368	24992
247	36.297155	100925440	68825088	32960600	24992
248	37.126967	100925440	68825088	31113672	24992
249	37.564514	100925440	68825088	29930400	24992
250	38.41555	100925440	68825088	29404952	24992
251	39.13461	100925440	68825088	29541800	24992
252	0.845797	100925440	68825088	30149544	24992
253	1.584545	100925440	68825088	31487288	24992
254	2.300486	100925440	68825088	33484456	24992
255	3.163204	100925440	68825088	36141016	24992
256	5.711473	100925440	68825088	22995328	24992
257	4.413716	100925440	68825088	26971208	24992
258	5.061313	100925440	68825088	31606488	24992
259	5.735857	100925440	68825088	36901176	24992
260	8.221257	100925440	68825088	26430208	24992
261	7.767191	100925440	68825088	33044664	24992
262	9.765025	100925440	68825088	23891816	24992
263	8.643924	100925440	68825088	31825080	24992
264	11.239169	100925440	68825088	23981824	24992
265	10.326455	100925440	68825088	33233888	24992
266	12.772292	100925440	68825088	26717480	24992
267	11.743319	100925440	68825088	37288360	24992
268	14.100505	100925440	68825088	32100872	24992
269	15.107465	100925440	68825088	27559752	24992
270	15.338279	100925440	68825088	23661848	24992
271	14.500361	100925440	68825088	36872552	24992
272	17.254705	100925440	68825088	34318832	24992
273	17.533341	100925440	68825088	32427960	24992
274	18.698822	100925440	68825088	31175544	24992
275	19.163563	100925440	68825088	30585056	24992
276	19.954583	100925440	68825088	30656056	24992
277	20.880337	100925440	68825088	31388536	24992
278	21.346243	100925440	68825088	32782520	24992
279	22.119182	100925440	68825088	34837952	24992
280	23.541387	100925440	68825088	37554584	24992
281	25.546862	100925440	68825088	24474560	24992
282	24.536242	100925440	68825088	28484832	24992
283	25.498754	100925440	68825088	33189856	24992
284	25.801009	100925440	68825088	38561432	24992
285	28.821666	100925440	68825088	28141152	24992
286	27.463797	100925440	68825088	34802848	24992
287	30.208233	100925440	68825088	25711896	24992
288	28.846609	100925440	68825088	33695064	24992
289	31.618086	100925440	68825088	25931744	24992
290	30.391844	100925440	68825088	35235952	24992
291	32.996995	100925440	68825088	28792472	24992
292	31.968003	100925440	68825088	39417000	24992
293	34.570815	100925440	68825088	34273016	24992
294	35.426934	100925440	68825088	29798960	24992
295	36.281935	100925440	68825088	25967112	24992
296	34.641473	100925440	68825088	39234504	24992
297	38.8651	100925440	68825088	36778864	24992
298	39.134297	100925440	68825088	34940344	24992
299	39.27046	100925440	68825088	33755616	24992
300	39.816069	100925440	68825088	33231656	24992
301	40.231568	100925440	68825088	33368424	24992
302	0.798991	100925440	68825088	33976120	24992
303	1.487601	100925440	68825088	35313864	24992
304	2.190213	100925440	68825088	37311016	24992
305	3.118145	100925440	68825088	39967576	24992
306	5.685193	100925440	68825088	26818976	24992
307	4.763727	100925440	68825088	30794856	24992
308	5.569329	100925440	68825088	35431112	24992
309	7.86884	100925440	68825088	24284576	24992
310	6.671973	100925440	68825088	30239624	24992
311	7.152272	100925440	68825088	36854256	24992
312	10.019233	100925440	68825088	27698680	24992
313	9.448994	100925440	68825088	35642720	24992
314	11.627649	100925440	68825088	27808720	24992
315	10.028128	100925440	68825088	37060784	24992
316	13.080586	100925440	68825088	30542856	24992
317	13.759781	100925440	68825088	24673224	24992
318	12.16728	100925440	68825088	35905400	24992
319	15.585376	100925440	68825088	31362416	24992
320	15.994407	100925440	68825088	27482768	24992
321	14.49335	100925440	68825088	40693472	24992
322	17.478372	100925440	68825088	38129248	24992
323	18.075835	100925440	68825088	36236840	24992
324	18.887366	100925440	68825088	34991856	24992
325	19.476978	100925440	68825088	34400080	24992
326	20.461107	100925440	68825088	34470032	24992
327	21.188095	100925440	68825088	35201528	24992
328	21.70276	100925440	68825088	36594384	24992
329	22.77872	100925440	68825088	38648496	24992
330	26.487996	100925440	68825088	24904416	24992
331	24.210789	100925440	68825088	28253632	24992
332	25.311995	100925440	68825088	32294000	24992
333	26.099459	100925440	68825088	36997760	24992
334	28.288723	100925440	68825088	25914736	24992
335	27.019024	100925440	68825088	31916008	24992
336	28.031973	100925440	68825088	38614832	24992
337	31.250443	100925440	68825088	29519680	24992
338	29.60102	100925440	68825088	37502768	24992
339	32.300638	100925440	68825088	29737224	24992
340	31.22144	100925440	68825088	39041400	24992
341	33.630067	100925440	68825088	32601168	24992
342	34.433555	100925440	68825088	26786056	24992
343	33.434628	100925440	68825088	38071640	24992
344	36.137571	100925440	68825088	33615544	24992
345	36.648366	100925440	68825088	29785328	24992
346	37.369518	100925440	68825088	26613576	24992
347	35.996234	100925440	68825088	40541288	24992
348	39.708394	100925440	68825088	38735608	24992
349	40.388234	100925440	68825088	37549984	24992
350	40.385039	100925440	68825088	37026824	24992
351	41.70646	100925440	68825088	37165096	24992
352	0.802889	100925440	68825088	37772440	24992
353	1.487341	100925440	68825088	39110184	24992
354	2.190602	100925440	68825088	41107336	24992
355	5.553831	100925440	68825088	27292488	24992
356	3.82825	100925440	68825088	30608960	24992
357	4.525673	100925440	68825088	34584840	24992
358	5.245518	100925440	68825088	39220312	24992
359	8.466627	100925440	68825088	28073912	24992
360	6.48864	100925440	68825088	34033408	24992
361	7.391441	100925440	68825088	40648296	24992
362	10.621286	100925440	68825088	31503864	24992
363	8.662587	100925440	68825088	39437128	24992
364	12.034509	100925440	68825088	31607208	24992
365	10.024544	100925440	68825088	40859352	24992
366	13.443764	100925440	68825088	34340864	24992
367	14.248521	100925440	68825088	28471304	24992
368	12.372804	100925440	68825088	39703456	24992
369	15.666111	100925440	68825088	35160312	24992
370	16.155628	100925440	68825088	31280664	24992
371	17.507676	100925440	68825088	28043864	24992
372	15.059357	100925440	68825088	41914008	24992
373	18.727771	100925440	68825088	40021464	24992
374	19.103754	100925440	68825088	38791656	24992
375	20.200642	100925440	68825088	38199608	24992
376	21.299718	100925440	68825088	38269112	24992
377	21.579642	100925440	68825088	39000160	24992
378	22.228077	100925440	68825088	40392792	24992
379	23.272776	100925440	68825088	42447016	24992
380	26.459143	100925440	68825088	28702952	24992
381	24.58244	100925440	68825088	32052200	24992
382	25.336394	100925440	68825088	36092648	24992
383	26.518716	100925440	68825088	40796408	24992
384	29.157844	100925440	68825088	29713192	24992
385	27.872664	100925440	68825088	35714592	24992
386	28.345203	100925440	68825088	42413448	24992
387	31.764738	100925440	68825088	33318328	24992
388	30.074908	100925440	68825088	41300568	24992
389	32.938505	100925440	68825088	33534944	24992
390	31.283122	100925440	68825088	42838208	24992
391	34.702818	100925440	68825088	36398024	24992
392	35.507092	100925440	68825088	30583296	24992
393	33.319909	100925440	68825088	41868944	24992
394	36.948706	100925440	68825088	37412752	24992
395	37.842684	100925440	68825088	33582728	24992
396	38.939676	100925440	68825088	30410688	24992
397	35.842944	100925440	68825088	44338448	24992
398	39.99863	100925440	68825088	42515728	24992
399	40.248801	100925440	68825088	41336008	24992
400	41.094206	100925440	68825088	40812096	24992
401	41.739772	100925440	68825088	40950608	24992
402	0.808345	100925440	68825088	41559952	24992
403	1.481851	100925440	68825088	42897696	24992
404	2.198848	100925440	68825088	44894848	24992
405	5.789664	100925440	68825088	31079392	24992
406	3.757009	100925440	68825088	34395864	24992
407	4.369216	100925440	68825088	38371776	24992
408	5.293659	100925440	68825088	43007056	24992
409	8.885207	100925440	68825088	31864096	24992
410	6.48097	100925440	68825088	37819176	24992
411	7.173327	100925440	68825088	44433680	24992
412	11.321095	100925440	68825088	35284800	24992
413	8.64167	100925440	68825088	43218064	24992
414	12.416502	100925440	68825088	35383520	24992
415	10.085745	100925440	68825088	44635584	24992
416	13.855104	100925440	68825088	38116376	24992
417	14.586831	100925440	68825088	32246784	24992
418	12.416023	100925440	68825088	43478920	24992
419	16.165652	100925440	68825088	38935648	24992
420	16.758988	100925440	68825088	35055984	24992
421	17.952019	100925440	68825088	31818256	24992
422	18.010867	100925440	68825088	29242944	24992
423	16.299068	100925440	68825088	43772464	24992
424	19.739122	100925440	68825088	42542504	24992
425	20.886285	100925440	68825088	41975280	24992
426	21.356194	100925440	68825088	42044848	24992
427	22.017332	100925440	68825088	42775912	24992
428	22.952652	100925440	68825088	44168448	24992
429	26.535074	100925440	68825088	29761784	24992
430	23.980531	100925440	68825088	32450472	24992
431	24.818734	100925440	68825088	35829512	24992
432	25.647827	100925440	68825088	39868768	24992
433	26.430846	100925440	68825088	44572256	24992
434	30.270144	100925440	68825088	33488992	24992
435	27.688324	100925440	68825088	39490408	24992
436	28.791975	100925440	68825088	46189312	24992
437	32.626317	100925440	68825088	37067944	24992
438	30.0529	100925440	68825088	45069616	24992
439	33.563334	100925440	69349376	37300072	24992
440	31.738363	100925440	69349376	46603448	24992
441	35.670436	101195776	69349376	40116520	24992
442	36.41534	101195776	69349376	34336992	24992
443	33.941145	101195776	69349376	45622880	24992
444	37.862851	101195776	69349376	41166560	24992
445	38.163098	101466112	69349376	37336216	24992
446	39.284879	101466112	69349376	34163824	24992
447	39.665413	101466112	69873664	31653680	24992
448	37.43951	101466112	69873664	46242000	24992
449	41.182504	101736448	69873664	45098264	24992
450	42.055001	101736448	69873664	44574304	24992
451	43.273292	101736448	69873664	44712672	24992
452	0.800134	101736448	69873664	45321984	24992
453	1.498026	101736448	69873664	46659728	24992
454	5.392014	101736448	69873664	32179656	24992
455	3.330625	101736448	69873664	34836208	24992
456	3.842964	101736448	69873664	38152680	24992
457	4.599782	101736448	69873664	42128560	24992
458	5.243396	101736448	69873664	46763840	24992
459	9.270698	101736448	69873664	35620944	24992
460	6.677366	101736448	69873664	41575992	24992
461	10.758579	102006784	69873664	31760992	24992
462	7.993097	102006784	69873664	39034848	24992
463	8.802953	102006784	69873664	46968112	24992
464	12.929134	102006784	70397952	39132832	24992
465	13.620436	102006784	70397952	31951336	24992
466	10.774264	102006784	70397952	41862808	24992
467	15.184414	102006784	70397952	35992960	24992
468	12.220002	102006784	70397952	47225128	24992
469	16.441535	102006784	70397952	42698752	24992
470	17.091001	102006784	70397952	38818688	24992
471	18.079325	102277120	70397952	35580928	24992
472	18.638297	102277120	70397952	33005632	24992
473	16.168878	102277120	70397952	47535200	24992
474	20.260769	102277120	70397952	46304600	24992
475	21.143286	102277120	70397952	45737296	24992
476	22.074173	102277120	70397952	45806608	24992
477	22.474595	102277120	70397952	46537496	24992
478	23.041098	102277120	70397952	47929904	24992
479	27.094023	102547456	70397952	33516232	24992
480	24.664677	102547456	70922240	36206248	24992
481	25.383783	102547456	70922240	39585032	24992
482	26.560157	102547456	70922240	43624384	24992
483	26.617148	102547456	70922240	48327696	24992
484	31.154926	102817792	70922240	37224040	24992
485	28.314463	102817792	70922240	43239544	24992
486	32.626415	102817792	70922240	33484232	24992
487	30.044297	102817792	70922240	40806568	24992
488	30.608849	102817792	70922240	48824856	24992
489	34.940087	102817792	70922240	41010328	24992
490	35.808106	103088128	70922240	33905504	24992
491	32.854532	103088128	70922240	43869968	24992
492	36.793895	103088128	71446528	38089744	24992
493	37.348316	103088128	71446528	32934928	24992
494	35.179406	103358464	71446528	44881008	24992
495	39.323453	103358464	71446528	41087624	24992
496	39.796017	103358464	71446528	37919184	24992
497	40.645156	103358464	71446528	35408784	24992
498	41.189257	103628800	71446528	33560272	24992
499	39.714161	103628800	71970816	48809152	24992
500	43.109814	103628800	71970816	48328096	24992
501	43.694776	103899136	71970816	48466560	24992
502	0.813198	103899136	71970816	49075984	24992
503	5.097189	103899136	71970816	33931576	24992
504	2.204751	103899136	71970816	35928720	24992
505	3.179141	103899136	71970816	38585280	24992
506	3.827951	103899136	71970816	41901800	24992
507	4.531326	103899136	71970816	45877680	24992
508	8.792042	103899136	71970816	34065552	24992
509	6.042645	103899136	71970816	39360240	24992
510	6.441065	103899136	71970816	45315288	24992
511	10.926682	103899136	71970816	35504864	24992
512	8.129081	103899136	71970816	42778800	24992
513	12.465792	103899136	71970816	34280288	24992
514	9.372078	103899136	71970816	42872944	24992
515	13.928174	103899136	71970816	35691504	24992
516	10.957329	103899136	71970816	45602992	24992
517	15.175857	103899136	71970816	39748336	24992
518	16.577195	103899136	71970816	34543176	24992
519	12.937334	103899136	71970816	46434832	24992
520	17.482246	104169472	72495104	42554744	24992
521	18.084736	104169472	72495104	39337696	24992
522	19.386253	104169472	72495104	36762016	24992
523	19.824523	104169472	72495104	34848280	24992
524	16.986933	104169472	72495104	50037272	24992
525	21.585742	104169472	72495104	49469232	24992
526	22.063206	104439808	72495104	49563776	24992
527	22.757016	104439808	72495104	50293912	24992
528	27.073787	104439808	72495104	35216960	24992
529	24.259847	104439808	72495104	37249112	24992
530	25.559534	104439808	72495104	39966336	24992
531	26.047927	104439808	72495104	43344440	24992
532	26.275707	104439808	72495104	47383664	24992
533	31.679283	104710144	72495104	35630880	24992
534	27.742579	104710144	73019392	40970040	24992
535	29.487511	104710144	73019392	47004016	24992
536	33.334035	104710144	73019392	37246424	24992
537	30.294905	104710144	73019392	44569096	24992
538	34.955664	104980480	73019392	36143112	24992
539	31.996179	104980480	73019392	44786536	24992
540	35.585458	104980480	73019392	37682136	24992
541	33.143986	104980480	73019392	47646664	24992
542	37.486572	104980480	73019392	41865304	24992
543	38.048548	105250816	73543680	36711752	24992
544	34.769984	105250816	73543680	48657848	24992
545	39.557096	105250816	73543680	44864288	24992
546	40.642676	105250816	73543680	41695912	24992
547	41.218534	105521152	73543680	39185352	24992
548	41.994373	105521152	73543680	37336872	24992
549	42.90155	105521152	73543680	36149744	24992
550	39.210447	105521152	74067968	52059040	24992
551	44.037761	105791488	74067968	52183072	24992
552	4.85487	105791488	74067968	36344320	24992
553	1.775893	105791488	74067968	37682104	24992
554	2.228859	105791488	74067968	39679256	24992
555	2.944562	105791488	74067968	42335816	24992
556	3.641106	105791488	74067968	45659112	24992
557	4.597417	105791488	74067968	49634984	24992
558	9.115637	105791488	74067968	37826160	24992
559	6.049297	105791488	74067968	43120912	24992
560	6.634522	105791488	74067968	49075960	24992
561	11.413645	105791488	74067968	39277944	24992
562	8.268768	105791488	74067968	46551800	24992
563	13.753348	106061824	74067968	38054720	24992
564	19.103382	106061824	74067968	12752864	24992
565	10.169603	106061824	74067968	22005728	24992
566	11.474022	106061824	74067968	15442512	24992
567	11.681393	106061824	74067968	26013392	24992
568	12.622864	106061824	74067968	20781816	24992
569	13.576091	106061824	74067968	16206280	24992
570	14.135775	106061824	74067968	12286576	24992
571	14.331003	106061824	74067968	25497280	24992
572	15.731795	106061824	74067968	22903792	24992
573	16.223952	106061824	74067968	20970872	24992
574	17.064448	106061824	74067968	19691904	24992
575	18.814586	106061824	74067968	19073344	24992
576	18.953328	106061824	74067968	19115184	24992
577	19.045084	106061824	74067968	19817432	24992
578	19.902458	106061824	74067968	21180080	24992
579	21.178746	106061824	74067968	23203168	24992
580	21.546613	106061824	74067968	25886192	24992
581	22.574796	106061824	74067968	12760168	24992
582	23.025643	106061824	74067968	16758760	24992
583	24.101116	106061824	74067968	21426928	24992
584	24.381831	106061824	74067968	26759352	24992
585	25.821792	106061824	74067968	16285256	24992
586	25.873403	106061824	74067968	22933960	24992
587	27.108414	106061824	74067968	13787352	24992
588	27.139806	106061824	74067968	21756224	24992
589	28.877076	106061824	74067968	13931256	24992
590	28.56889	106061824	74067968	23220568	24992
591	30.084615	106061824	74067968	16714824	24992
592	30.414345	106061824	74067968	27324496	24992
593	31.482565	106061824	74067968	22141288	24992
594	32.158476	106061824	74067968	17617008	24992
595	33.069124	106061824	74592256	13750464	24992
596	32.991707	106061824	75116544	27000896	24992
597	34.184286	106061824	76165120	24461056	24992
598	34.797354	106061824	77213696	22578632	24992
599	35.360202	106332160	78262272	21358984	24992
600	35.8775	106332160	79310848	20796584	24992
601	36.943599	106332160	80359424	20895840	24992
602	0.811388	106332160	81408000	21487896	24992
603	1.507438	106332160	81408000	22825640	24992
604	2.190956	106332160	81408000	24822792	24992
605	3.138481	106332160	81408000	27479352	24992
606	3.940519	106332160	81932288	14320544	24992
607	4.377198	106332160	81932288	18296424	24992
608	5.449249	106332160	81932288	22931720	24992
609	5.761945	106332160	81932288	28226472	24992
610	7.003883	106332160	82456576	17717592	24992
611	7.243959	106332160	82456576	24332064	24992
612	8.197375	106602496	82980864	15139568	24992
613	8.900141	106602496	82980864	23072880	24992
614	9.877605	106602496	83505152	15196248	24992
615	10.254067	106602496	83505152	24448456	24992
616	11.091604	106602496	84029440	17893376	24992
617	11.681427	106602496	84029440	28464304	24992
618	12.694337	106602496	84553728	23231936	24992
619	13.211494	106602496	85078016	18656144	24992
620	14.483548	106602496	85602304	14736008	24992
621	14.355056	106602496	85602304	27946808	24992
622	15.53633	106602496	86126592	25353016	24992
623	16.260648	106602496	86650880	23420048	24992
624	17.236114	106602496	87175168	22140872	24992
625	17.846891	106602496	87699456	21522360	24992
626	18.924491	106602496	88223744	21564264	24992
627	19.684248	106602496	88223744	22271472	24992
628	19.881654	106602496	88223744	23634456	24992
629	20.759706	106602496	88223744	25657304	24992
630	21.716412	106602496	88223744	28340392	24992
631	22.434567	106872832	88223744	15214336	24992
632	22.692758	106872832	88223744	19212992	24992
633	23.670356	106872832	88223744	23880744	24992
634	24.593914	106872832	88223744	29213008	24992
635	25.423191	106872832	88223744	18735624	24992
636	25.891327	106872832	88223744	25382400	24992
637	26.523331	106872832	88223744	16230880	24992
638	28.291558	106872832	88223744	24209264	24992
639	28.312479	106872832	88223744	16415184	24992
640	28.867336	106872832	88223744	25719312	24992
641	29.702684	106872832	88223744	19267864	24992
642	29.872214	106872832	88223744	29892296	24992
643	31.410483	107143168	88223744	24738896	24992
644	31.855642	107143168	88223744	20266024	24992
645	32.758914	107143168	88223744	16434056	24992
646	33.128722	107143168	88223744	29701384	24992
647	34.118207	107413504	88223744	27224264	24992
648	35.389313	107413504	88223744	25368072	24992
649	35.455177	107413504	88223744	24183592	24992
650	36.324332	107413504	88223744	23659816	24992
651	37.179284	107413504	88223744	23796896	24992
652	0.798029	107683840	88223744	24404168	24992
653	1.47863	107683840	88223744	25741896	24992
654	2.205183	107683840	88223744	27739064	24992
655	2.903412	107683840	88223744	30395608	24992
656	4.073188	107683840	88223744	17250000	24992
657	4.396653	107683840	88223744	21225864	24992
658	5.270965	107683840	88223744	25861128	24992
659	6.430561	107683840	88223744	14719584	24992
660	6.650757	107683840	88223744	20674624	24992
661	7.383789	107683840	88223744	27289096	24992
662	8.390002	107683840	88223744	18137304	24992
663	8.689726	107683840	88223744	26070568	24992
664	10.113156	107683840	88223744	18239440	24992
665	10.454525	107683840	88223744	27491488	24992
666	11.294937	107683840	88223744	20975800	24992
667	12.17158	107683840	88223744	15108096	24992
668	12.386115	107683840	88223744	26340248	24992
669	13.430538	107683840	88223744	21799144	24992
670	14.372174	107683840	88223744	17921416	24992
671	14.557375	107683840	88223744	31132104	24992
672	15.81227	107954176	88223744	28567456	24992
673	16.451815	107954176	88223744	26676848	24992
674	17.473558	107954176	88223744	25434680	24992
675	17.883557	107954176	88223744	24844176	24992
676	19.058607	107954176	88223744	24915400	24992
677	19.31164	107954176	88223744	25648168	24992
678	20.318034	107954176	88223744	27042280	24992
679	21.059389	107954176	88223744	29097680	24992
680	22.17789	108224512	88223744	15355504	24992
681	22.54436	108224512	88223744	18705328	24992
682	23.754078	108224512	88223744	22746984	24992
683	23.909583	108224512	88223744	27451792	24992
684	25.662	108224512	88223744	16363216	24992
685	25.254466	108224512	88223744	22364520	24992
686	26.697436	108224512	88223744	29056584	24992
687	27.310406	108494848	88223744	19954584	24992
688	27.967564	108494848	88223744	27937704	24992
689	29.16159	108494848	88223744	20165008	24992
690	29.445067	108494848	88223744	29469880	24992
691	30.647337	108494848	88223744	23021952	24992
692	31.434156	108494848	88223744	17207008	24992
693	31.351138	108494848	88223744	28492672	24992
694	33.075454	108765184	88223744	24028624	24992
695	34.510511	108765184	88223744	20198912	24992
696	34.341221	108765184	88223744	17027392	24992
697	33.908659	108765184	88223744	30955136	24992
698	35.78054	109035520	88223744	29140896	24992
699	36.854948	109035520	88223744	27957896	24992
700	38.047278	109035520	88223744	27434968	24992
701	37.703047	109035520	88223744	27573488	24992
702	0.799355	109035520	88223744	28180856	24992
703	1.488397	109035520	88223744	29518584	24992
704	2.20547	109035520	88223744	31515720	24992
705	3.874642	109035520	88223744	17703272	24992
706	3.658141	109035520	88223744	21019728	24992
707	4.548431	109035520	88223744	24995592	24992
708	5.241389	109035520	88223744	29630920	24992
709	7.014693	109305856	88223744	18489448	24992
710	6.461529	109305856	88223744	24444592	24992
711	7.36768	109305856	88223744	31059048	24992
712	8.80104	109305856	88223744	21914856	24992
713	8.677225	109305856	88223744	29848152	24992
714	10.62914	109305856	88223744	22017008	24992
715	10.235418	109305856	88223744	31269104	24992
716	11.603459	109305856	88223744	24753176	24992
717	12.587552	109305856	88223744	18885472	24992
718	12.480321	109305856	88223744	30117592	24992
719	13.803344	109305856	88223744	25576376	24992
720	14.873551	109305856	88223744	21698664	24992
721	15.448236	109305856	88223744	18463152	24992
722	15.233553	109305856	88223744	32333296	24992
723	17.11153	109305856	88223744	30442696	24992
724	17.546125	109576192	88223744	29214840	24992
725	18.904837	109576192	88223744	28624080	24992
726	19.183545	109576192	88223744	28694904	24992
727	20.956073	109576192	88223744	29436656	24992
728	20.982649	109576192	88223744	30830512	24992
729	21.127548	109576192	88223744	32885832	24992
730	23.312096	109846528	88223744	19143784	24992
731	23.016856	109846528	88223744	22493656	24992
732	23.547358	109846528	88223744	26535296	24992
733	24.541145	109846528	88223744	31240104	24992
734	25.892276	109846528	88223744	20151192	24992
735	26.449261	109846528	88223744	26152624	24992
736	26.698667	110116864	88223744	32844832	24992
737	27.98307	110116864	88223744	23743104	24992
738	28.309348	110116864	88223744	31725376	24992
739	30.000371	110116864	88223744	23952584	24992
740	29.562202	110116864	88223744	33255944	24992
741	32.974658	110116864	88223744	26808336	24992
742	32.763684	110387200	88223744	20993520	24992
743	31.710831	110387200	88223744	32279384	24992
744	34.630888	110387200	88223744	27815200	24992
745	34.884319	110387200	88223744	23985536	24992
746	34.750242	110387200	88223744	20813664	24992
747	34.853784	110387200	88223744	34741536	24992
748	36.024396	110657536	88223744	32907496	24992
749	37.224561	110657536	88223744	31731232	24992
750	39.064128	110657536	88223744	31215816	24992
751	38.487408	110657536	88223744	31354904	24992
752	0.792919	110927872	88223744	31964536	24992
753	1.479281	110927872	88223744	33302264	24992
754	2.194121	110927872	88223744	35299400	24992
755	4.218145	110927872	88223744	21486344	24992
756	3.839039	110927872	88223744	24802800	24992
757	4.526011	110927872	88223744	28778696	24992
758	5.421584	110927872	88223744	33413960	24992
759	7.209663	110927872	88223744	22275992	24992
760	6.685296	110927872	88223744	28231088	24992
761	7.363885	110927872	88223744	34845528	24992
762	9.099121	110927872	88223744	25701160	24992
763	8.577574	110927872	88223744	33634408	24992
764	10.731569	110927872	88223744	25803056	24992
765	10.244446	110927872	88223744	35055184	24992
766	11.930622	110927872	88223744	28538568	24992
767	12.921496	110927872	88223744	22670896	24992
768	12.429472	110927872	88223744	33903016	24992
769	14.353446	110927872	88223744	29361672	24992
770	15.033327	110927872	88223744	25483944	24992
771	15.812452	111198208	88223744	22247488	24992
772	16.797805	111198208	88223744	19673456	24992
773	16.13568	111198208	88223744	34202952	24992
774	18.181535	111198208	88223744	32974936	24992
775	18.779327	111198208	88223744	32409632	24992
776	19.80376	111198208	88223744	32480472	24992
777	20.02643	111198208	88223744	33212856	24992
778	21.104538	111198208	88223744	34606600	24992
779	23.376195	111198208	88223744	20201904	24992
780	22.241551	111468544	88223744	22891264	24992
781	23.23654	111468544	88223744	26271352	24992
782	23.897107	111468544	88223744	30311816	24992
783	25.057702	111468544	88223744	35016736	24992
784	26.773103	111468544	88223744	23934360	24992
785	25.95902	111468544	88223744	29936144	24992
786	26.873097	111468544	88223744	36635736	24992
787	28.788331	111468544	88223744	27499984	24992
788	28.742989	111738880	88223744	35515288	24992
789	30.276824	111738880	88223744	27746640	24992
790	32.041184	111738880	88223744	20608992	24992
791	31.358315	111738880	88223744	30573712	24992
792	32.766131	112009216	88223744	24795472	24992
793	32.336148	112009216	88223744	36081584	24992
794	34.37466	112009216	88223744	31625712	24992
795	34.975695	112009216	88223744	27796088	24992
796	36.031698	112009216	88223744	24624384	24992
797	36.739616	112279552	88223744	22114912	24992
798	35.583958	112279552	88223744	36703616	24992
799	38.275935	112279552	88223744	35560872	24992
800	38.360325	112279552	88223744	35037536	24992
801	39.455568	112279552	88223744	35176480	24992
802	0.798354	112549888	88223744	35786688	24992
803	1.481598	112549888	88223744	37124416	24992
804	3.641679	112549888	88223744	22646048	24992
805	2.955931	112549888	88223744	25302592	24992
806	3.673325	112549888	88223744	28619048	24992
807	4.360236	112549888	88223744	32594912	24992
808	5.058756	112549888	88223744	37230176	24992
809	7.374723	112549888	88223744	26092264	24992
810	6.46224	112549888	88223744	32047344	24992
811	8.7164	112549888	88223744	22236864	24992
812	7.897521	112549888	88223744	29510704	24992
813	8.795459	112549888	88223744	37443952	24992
814	10.938616	112549888	88223744	29612032	24992
815	11.596045	112549888	88223744	22433104	24992
816	10.741235	112549888	88223744	32344560	24992
817	13.109602	112549888	88223744	26476656	24992
818	12.466431	112549888	88223744	37708776	24992
819	14.500143	112549888	88223744	33184960	24992
820	15.931607	112549888	88223744	29306784	24992
821	16.857481	112820224	88223744	26070328	24992
822	16.847	112820224	88223744	23496320	24992
823	16.123969	112820224	88223744	38025824	24992
824	18.565043	112820224	88223744	36797120	24992
825	19.311043	112820224	88223744	36231704	24992
826	19.798763	112820224	88223744	36302352	24992
827	21.000087	112820224	88223744	37034528	24992
828	21.630277	112820224	88223744	38428208	24992
829	23.432138	112820224	88223744	24011560	24992
830	22.727237	112820224	88223744	26708456	24992
831	24.114119	113090560	88223744	30088512	24992
832	24.576933	113090560	88223744	34129008	24992
833	25.356888	113090560	88223744	38833560	24992
834	27.468381	113090560	88223744	27716520	24992
835	26.379618	113090560	88223744	33743800	24992
836	29.331035	113090560	88223744	23988296	24992
837	28.113336	113090560	88223744	31311024	24992
838	30.45999	113360896	88223744	22884040	24992
839	29.782482	113360896	88223744	31527688	24992
840	31.889008	113360896	88223744	24424248	24992
841	30.904142	113360896	88223744	34389400	24992
842	33.390548	113360896	88223744	28609880	24992
843	34.046472	113631232	88223744	23455496	24992
844	33.616248	113631232	88223744	35401944	24992
845	35.539204	113631232	88223744	31609424	24992
846	36.563598	113631232	88223744	28441672	24992
847	36.84454	113631232	88223744	25931816	24992
848	37.80879	113901568	88223744	24083816	24992
849	36.498159	113901568	88223744	39332952	24992
850	41.158036	113901568	88223744	38905368	24992
851	39.939335	114171904	88223744	39043560	24992
852	0.807485	114171904	88223744	39653032	24992
853	3.279252	114171904	88223744	24508792	24992
854	2.279643	114171904	88223744	26505928	24992
855	3.125633	114171904	88223744	29162504	24992
856	3.652233	114171904	88223744	32478960	24992
857	4.383401	114171904	88223744	36454824	24992
858	7.333155	114171904	88223744	24643672	24992
859	5.983696	114171904	88223744	29938344	24992
860	6.435306	114171904	88223744	35893376	24992
861	9.318472	114171904	88223744	26084216	24992
862	8.11773	114171904	88223744	33358072	24992
863	10.746157	114171904	88223744	24860328	24992
864	9.689955	114171904	88223744	33452968	24992
865	12.098182	114171904	88223744	26272152	24992
866	10.736382	114171904	88223744	36183608	24992
867	13.724579	114171904	88223744	30329640	24992
868	14.599676	114442240	88223744	25125024	24992
869	13.138067	114442240	88223744	37016584	24992
870	15.786045	114442240	88223744	33136992	24992
871	16.84952	114442240	88223744	29921416	24992
872	17.076891	114442240	88223744	27346152	24992
873	18.183616	114442240	88223744	25432736	24992
874	16.441956	114442240	88223744	40621632	24992
875	19.676617	114442240	88223744	40048664	24992
876	19.845357	114442240	88223744	40143728	24992
877	21.378416	114442240	88223744	40879504	24992
878	24.030903	114442240	88223744	25794720	24992
879	22.604066	114712576	88223744	27835568	24992
880	23.428995	114712576	88223744	30553144	24992
881	23.665369	114712576	88223744	33931184	24992
882	24.59439	114712576	88223744	37970760	24992
883	27.580804	114712576	88223744	26218584	24992
884	26.034786	114712576	88223744	31557680	24992
885	27.047098	114712576	88223744	37591848	24992
886	29.758505	114982912	88223744	27834784	24992
887	29.046093	114982912	88223744	35165744	24992
888	31.526733	114982912	88223744	26739952	24992
889	29.832977	114982912	88223744	35383376	24992
890	32.584631	114982912	88223744	28278800	24992
891	31.514178	114982912	88223744	38243456	24992
892	34.035092	115253248	88223744	32462112	24992
893	35.329321	115253248	88223744	27308608	24992
894	33.227124	115253248	88223744	39254736	24992
895	36.800161	115253248	88223744	35461144	24992
896	37.011982	115253248	88223744	32294656	24992
897	37.476647	115523584	88223744	29784352	24992
898	38.754917	115523584	88223744	27936016	24992
899	39.092499	115523584	88223744	26748904	24992
900	40.002223	115523584	88223744	26223232	24992
901	40.585076	115793920	88223744	26359904	24992
902	3.001431	115793920	88223744	26966376	24992
903	1.515598	115793920	88223744	28304104	24992
904	2.178288	115793920	88223744	30301240	24992
905	2.943894	115793920	88223744	32957784	24992
906	3.816112	115793920	88223744	36274256	24992
907	4.351234	115793920	88223744	40250120	24992
908	7.406148	115793920	88223744	28433280	24992
909	5.893527	115793920	88223744	33727952	24992
910	6.504492	115793920	88223744	39682984	24992
911	9.897896	115793920	88223744	29876312	24992
912	7.957979	115793920	88223744	37150168	24992
913	11.103012	115793920	88223744	28651448	24992
914	9.463252	115793920	88223744	37244088	24992
915	12.512169	115793920	88223744	30062376	24992
916	11.282168	115793920	88223744	39973848	24992
917	13.978162	115793920	88223744	34119080	24992
918	14.792478	115793920	88223744	28913904	24992
919	13.096685	115793920	88223744	40805448	24992
920	16.213632	115793920	88223744	36925168	24992
921	17.004296	116064256	88223744	33708120	24992
922	17.652304	116064256	88223744	31131992	24992
923	18.423962	116064256	88223744	29218240	24992
924	19.494218	116064256	88223744	27965976	24992
925	20.166752	116064256	88223744	27375272	24992
926	20.674443	116064256	88223744	27446104	24992
927	21.254891	116064256	88223744	28178480	24992
928	22.356508	116064256	88223744	29572472	24992
929	22.860623	116064256	88223744	31627912	24992
930	23.748532	116064256	88223744	34345000	24992
931	24.276269	116334592	88223744	37722640	24992
932	24.859242	116334592	88223744	41761656	24992
933	27.878159	116334592	88223744	30008760	24992
934	26.718431	116334592	88223744	35347888	24992
935	27.147089	116334592	88223744	41381960	24992
936	30.636914	116334592	88223744	31624176	24992
937	28.491444	116334592	88223744	38946736	24992
938	32.186161	116604928	88223744	30519488	24992
939	30.162853	116604928	88223744	39162984	24992
940	33.504513	116604928	88223744	32059072	24992
941	31.577184	116604928	88223744	42023720	24992
942	34.708121	116604928	88223744	36244224	24992
943	35.68533	116875264	88223744	31090816	24992
944	33.556834	116875264	88223744	43037088	24992
945	37.791353	116875264	88223744	39243496	24992
946	37.883487	116875264	88223744	36073840	24992
947	38.49304	116875264	88223744	33566368	24992
948	39.145047	117145600	88223744	31717680	24992
949	40.466199	117145600	88223744	30530744	24992
950	40.589711	117145600	88223744	30005248	24992
951	41.426204	117145600	88223744	30142064	24992
952	0.796868	117415936	88223744	30750000	24992
953	1.495023	117415936	88223744	32087744	24992
954	2.193381	117415936	88223744	34084880	24992
955	2.940587	117415936	88223744	36741424	24992
956	3.63246	117415936	88223744	40057880	24992
957	4.361484	117415936	88223744	44033744	24992
958	8.10445	117415936	88223744	32221424	24992
959	5.758684	117415936	88223744	37516144	24992
960	6.684831	117415936	88223744	43471176	24992
961	9.775818	117415936	88223744	33667344	24992
962	7.893643	117415936	88223744	40941184	24992
963	11.416827	117415936	88223744	32442112	24992
964	9.52811	117415936	88223744	41034752	24992
965	12.630746	117415936	88223744	33852880	24992
966	10.998452	117415936	88223744	43764416	24992
967	14.482699	117415936	88223744	37909568	24992
968	14.844033	117415936	88223744	32704360	24992
969	13.088147	117415936	88223744	44595888	24992
970	16.504963	117415936	88223744	40714856	24992
971	17.11091	117415936	88223744	37497328	24992
972	17.819172	117415936	88223744	34921104	24992
973	18.566125	117415936	88223744	33006888	24992
974	19.869345	117415936	88223744	31754656	24992
975	20.750076	117415936	88223744	31163952	24992
976	20.794511	117415936	88223744	31234832	24992
977	21.619001	117415936	88223744	31967256	24992
978	22.617555	117686272	88223744	33361152	24992
979	23.548187	117686272	88223744	35416608	24992
980	24.04576	117686272	88223744	38132784	24992
981	24.811424	117686272	88223744	41510520	24992
982	25.397272	117686272	88223744	45549360	24992
983	28.683818	117686272	88223744	33795952	24992
984	26.332723	117686272	88223744	39135288	24992
985	27.532858	117956608	88223744	45169392	24992
986	31.027794	117956608	88223744	35410984	24992
987	29.21236	117956608	88223744	42733160	24992
988	32.58687	117956608	88223744	34304872	24992
989	30.93451	117956608	88223744	42948504	24992
990	33.714012	117956608	88223744	35845784	24992
991	32.111465	117956608	88223744	45809608	24992
992	35.178094	118226944	88223744	40031336	24992
993	36.28553	118226944	88223744	34878120	24992
994	33.828089	118226944	88223744	46824440	24992
995	38.235651	118226944	88223744	42984992	24992
996	38.372428	118497280	88223744	39854232	24992
997	39.179423	118497280	88223744	37347440	24992
998	40.266554	118497280	88223744	35498248	24992
999	40.440281	118497280	88223744	34311408	24992
1000	41.294961	118497280	88223744	33786120	24992
