x	Duration	RSS	HeapTotal	HeapUsed	External
0	NA	97415168	67252224	10981568	24992
1	0.973989	97415168	67252224	11661640	24992
2	1.633711	97415168	67252224	13000032	24992
3	2.350879	97415168	67252224	14997800	24992
4	3.319975	97415168	67252224	17655104	24992
5	4.023269	97415168	67252224	20972528	24992
6	4.602477	97415168	67252224	24949472	24992
7	5.802492	97415168	67252224	13120096	24992
8	6.125563	97415168	67252224	18416168	24992
9	7.145689	97415168	67252224	24372776	24992
10	7.804255	97415168	67252224	14529712	24992
11	8.344924	97415168	67252224	21805448	24992
12	9.521466	97415168	67252224	13273256	24992
13	10.194527	97415168	67252224	21868112	24992
14	11.109752	97415168	67252224	14654440	24992
15	12.043515	97415168	67252224	24568432	24992
16	12.583823	97415168	67252224	18676600	24992
17	13.301032	97415168	67252224	13443032	24992
18	13.854384	97415168	67252224	25337576	24992
19	14.910578	97415168	67252224	21426032	24992
20	15.560136	97415168	67252224	18175720	24992
21	17.509796	97415168	67252224	15593448	24992
22	17.150374	97415168	67252224	13658832	24992
23	18.079016	97415168	67252224	12384712	24992
24	18.445424	97415168	67252224	11771112	24992
25	19.229944	97415168	67252224	11818080	24992
26	20.17332	97415168	67252224	12525920	24992
27	20.626125	97415168	67252224	13894040	24992
28	22.361467	97415168	67252224	15929104	24992
29	22.782979	97415168	67252224	18618240	24992
30	23.106718	97415168	67252224	21966648	24992
31	23.764625	97415168	67252224	25975392	24992
32	25.544787	97415168	67252224	14182392	24992
33	25.285247	97415168	67252224	19514072	24992
34	26.69542	97415168	67252224	25513192	24992
35	27.750684	97415168	67252224	15711232	24992
36	27.930805	97415168	67252224	23024848	24992
37	28.866298	97415168	67252224	14542360	24992
38	29.88146	97415168	67252224	23174488	24992
39	30.204305	97415168	67252224	16012680	24992
40	31.37669	97415168	67252224	25967672	24992
41	31.771977	97415168	67252224	20127288	24992
42	32.412056	97415168	67252224	14945616	24992
43	33.254027	97415168	67252224	26879096	24992
44	34.042533	97415168	67252224	23020592	24992
45	34.994945	97415168	67252224	19823664	24992
46	35.613499	97415168	67252224	17282312	24992
47	36.225903	97415168	67252224	15403864	24992
48	37.080075	97415168	67252224	14184872	24992
49	37.806964	97415168	67252224	13626840	24992
50	38.37766	97415168	67252224	13730448	24992
51	39.194995	97415168	67252224	14495336	24992
52	1.02522	97415168	67252224	15749176	24992
53	1.594036	97415168	67252224	17087200	24992
54	2.330875	97415168	67252224	19084680	24992
55	3.107834	97415168	67252224	21741648	24992
56	3.812335	97415168	67252224	25058624	24992
57	4.555755	97415168	67252224	29035072	24992
58	5.792703	97415168	67252224	17202472	24992
59	6.205408	97415168	67252224	22497920	24992
60	6.778948	97415168	67252224	28453792	24992
61	7.978707	97415168	67252224	18609360	24992
62	8.46036	97415168	67252224	25884184	24992
63	9.215967	97415168	67252224	17351032	24992
64	9.713912	97415168	67252224	25944912	24992
65	10.913735	97415168	67252224	18730136	24992
66	11.591444	97415168	67252224	28642992	24992
67	12.434707	97415168	67252224	22749608	24992
68	13.306602	97415168	67252224	17514984	24992
69	14.29411	97415168	67252224	12937424	24992
70	14.419127	97415168	67252224	25489536	24992
71	15.635148	97415168	67252224	22237968	24992
72	15.929733	97415168	67252224	19645688	24992
73	17.18014	97415168	67252224	17707328	24992
74	17.432697	97415168	67252224	16430200	24992
75	18.745393	97415168	67252224	15813512	24992
76	19.474687	97415168	67252224	15857288	24992
77	20.206598	97415168	67252224	16561488	24992
78	21.067293	97415168	67252224	17926120	24992
79	21.658177	97415168	67252224	19951208	24992
80	22.127053	97415168	67252224	22636040	24992
81	24.006903	97415168	67252224	25990704	24992
82	24.132803	97415168	67252224	13551816	24992
83	24.874547	97415168	67252224	18228840	24992
84	25.433144	97415168	67252224	23597928	24992
85	26.406382	97415168	67252224	29625608	24992
86	27.480268	97415168	67252224	19838408	24992
87	28.260545	97415168	67252224	27178216	24992
88	28.635995	97415168	67252224	18739016	24992
89	29.730377	97415168	67252224	27382296	24992
90	30.627763	97415168	67252224	20271960	24992
91	31.428533	97415168	67252224	13795448	24992
92	31.301675	97415168	67252224	24420504	24992
93	32.583367	97415168	67252224	19296208	24992
94	33.681342	97415168	67252224	14801160	24992
95	34.110442	97415168	67252224	27407864	24992
96	34.945183	97415168	67252224	24268584	24992
97	35.808179	97415168	67252224	21761808	24992
98	36.758744	97415168	67252224	19913000	24992
99	37.633239	97415168	67252224	18725704	24992
100	37.883006	97415168	67252224	18200616	24992
101	38.990511	97415168	67252224	18337856	24992
102	0.856938	97415168	67252224	18945768	24992
103	1.575322	97415168	67252224	20283512	24992
104	2.291503	97415168	67252224	22280680	24992
105	3.00858	97415168	67252224	24937240	24992
106	3.99017	97415168	67252224	28253744	24992
107	5.259101	97415168	67252224	15776856	24992
108	5.449845	97415168	67252224	20412136	24992
109	5.977965	97415168	67252224	25706824	24992
110	7.228685	97415168	67252224	15237504	24992
111	7.687423	97415168	67252224	21851960	24992
112	8.46925	97415168	67252224	29125848	24992
113	9.483096	97415168	67252224	20639608	24992
114	9.681672	97415168	67252224	29232264	24992
115	11.196894	97415168	67252224	22065608	24992
116	12.227396	97415168	67252224	15535320	24992
117	11.980272	97415168	67252224	26106200	24992
118	13.488551	97415168	67252224	20902568	24992
119	14.018579	97415168	67252224	16361976	24992
120	14.214239	97415168	67252224	28913304	24992
121	15.581969	97415168	67252224	25697528	24992
122	16.416746	97415168	67252224	23144824	24992
123	17.03524	97415168	67252224	21231448	24992
124	17.762144	97415168	67252224	19979640	24992
125	18.740497	97415168	67252224	19390288	24992
126	19.322649	97415168	67252224	19462424	24992
127	19.994175	97415168	67252224	20196136	24992
128	21.486226	97415168	67252224	21591352	24992
129	22.066087	97415168	67252224	23647248	24992
130	22.688073	97415168	67252224	26364664	24992
131	23.374044	97415168	67252224	29743256	24992
132	24.756014	97415168	67252224	17326376	24992
133	25.008314	97415168	67252224	22000136	24992
134	25.634694	97415168	67252224	27366088	24992
135	27.581197	97415168	67252224	16941112	24992
136	27.140375	97415168	67252224	23603024	24992
137	28.69013	97415168	67252224	30957336	24992
138	29.235898	97415168	67252224	22517840	24992
139	29.622559	97415168	67252224	31160768	24992
140	31.387153	97685504	67252224	24049760	24992
141	31.464648	97685504	67252224	17573360	24992
142	31.973296	97685504	67252224	28202224	24992
143	33.256634	97685504	67252224	23077600	24992
144	34.45681	97685504	67252224	18585848	24992
145	33.849329	97685504	67252224	31192632	24992
146	36.410208	97685504	67252224	28057488	24992
147	37.284434	97685504	67252224	25549704	24992
148	39.40542	97685504	67252224	23702784	24992
149	37.75757	97685504	67252224	22515520	24992
150	39.263846	97685504	67252224	21989680	24992
151	39.273229	97685504	67252224	22126648	24992
152	0.82331	97685504	67252224	22734160	24992
153	1.54274	97685504	67252224	24071904	24992
154	2.33354	97685504	67252224	26069056	24992
155	3.072434	97685504	67252224	28725616	24992
156	3.975011	97685504	67252224	32042088	24992
157	5.408898	97685504	67252224	19565152	24992
158	5.241236	97685504	67252224	24200432	24992
159	5.973162	97685504	67252224	29495152	24992
160	7.621486	97685504	67252224	19025656	24992
161	7.949908	97685504	67252224	25640144	24992
162	8.190525	97685504	67252224	32914000	24992
163	10.069266	97685504	67252224	24427120	24992
164	9.703745	97685504	67252224	33019776	24992
165	11.556395	97685504	67252224	25852496	24992
166	12.285806	97685504	67252224	19322288	24992
167	11.930831	97685504	67252224	29893168	24992
168	13.884488	97685504	67252224	24689488	24992
169	14.569463	97685504	67252224	20148848	24992
170	14.967707	97685504	67252224	32708520	24992
171	16.451223	97685504	67252224	29492792	24992
172	16.790962	97685504	67252224	26939896	24992
173	17.694912	97685504	67252224	25026616	24992
174	18.454246	97685504	67252224	23774840	24992
175	19.349711	97685504	67252224	23184544	24992
176	19.844996	97685504	67252224	23256360	24992
177	20.829989	97685504	67252224	23989608	24992
178	22.012623	97685504	67252224	25384024	24992
179	22.148085	97685504	67252224	27439888	24992
180	23.473836	97685504	67252224	30157336	24992
181	23.965151	97685504	67252224	33535832	24992
182	25.544395	97685504	67252224	21118264	24992
183	25.89465	97685504	67252224	25792008	24992
184	26.309615	97685504	67252224	31157960	24992
185	27.644147	97685504	67252224	20731328	24992
186	27.85461	97685504	67252224	27393280	24992
187	29.439584	97685504	67252224	18297736	24992
188	29.41307	97685504	67252224	26280680	24992
189	30.802346	97685504	67252224	18506368	24992
190	30.551948	97685504	67252224	27810368	24992
191	32.776635	97685504	67252224	21361032	24992
192	32.466182	97685504	67252224	31986248	24992
193	34.260119	97685504	67252224	26859600	24992
194	35.058956	97685504	67252224	22368024	24992
195	35.029753	97685504	67252224	34974888	24992
196	36.521874	97685504	67252224	31802904	24992
197	37.133215	97685504	67252224	29315664	24992
198	38.198878	97685504	67252224	27470568	24992
199	39.794823	97685504	67252224	26291600	24992
200	39.473867	97685504	67252224	25766360	24992
201	40.428604	97685504	67252224	25903448	24992
202	0.823749	97685504	67252224	26511080	24992
203	1.547513	97685504	67252224	27848856	24992
204	2.282251	97685504	67252224	29846008	24992
205	3.013782	97685504	67252224	32502568	24992
206	3.791864	97685504	67252224	35819040	24992
207	6.03615	97685504	67252224	23330952	24992
208	5.453028	97685504	67252224	27966232	24992
209	6.395825	97685504	67252224	33260920	24992
210	8.063873	97685504	67252224	22791368	24992
211	7.671021	97685504	67252224	29405824	24992
212	9.581875	97685504	67252224	20253864	24992
213	8.966725	97685504	67252224	28187128	24992
214	11.099271	97685504	67252224	20344592	24992
215	10.708184	97685504	67252224	29596656	24992
216	12.796652	97685504	67252224	23081432	24992
217	12.20501	97685504	67252224	33652344	24992
218	14.309806	97685504	67252224	28465560	24992
219	15.043434	97685504	67252224	23924904	24992
220	15.735048	97685504	67252224	20027800	24992
221	14.974028	97685504	67252224	33238520	24992
222	17.57598	97685504	67252224	30685440	24992
223	17.766495	97685504	67252224	28795304	24992
224	19.133949	97685504	67252224	27543496	24992
225	19.557836	97685504	67252224	26953232	24992
226	20.27231	97685504	67252224	27024664	24992
227	21.189117	97685504	67252224	27757512	24992
228	22.450971	97685504	67252224	29151832	24992
229	22.823664	97685504	67252224	31213472	24992
230	23.652914	97685504	67252224	33933464	24992
231	25.97818	97685504	67252224	20853952	24992
232	24.733914	97685504	67252224	24864384	24992
233	25.565161	97685504	67252224	29570784	24992
234	26.496475	97685504	67252224	34942840	24992
235	29.140344	97685504	67252224	24523664	24992
236	28.055043	97685504	67252224	31185952	24992
237	30.649323	97685504	67252224	22098216	24992
238	29.473247	97685504	67252224	30081400	24992
239	32.394375	97685504	67252224	22315328	24992
240	30.890309	97685504	67252224	31619616	24992
241	33.696286	97685504	67252224	25178344	24992
242	32.73274	97685504	67252224	35804176	24992
243	35.198855	97685504	67252224	30686304	24992
244	36.015335	97955840	67252224	26195376	24992
245	36.306007	97955840	67252224	22362312	24992
246	35.859879	97955840	67252224	35629848	24992
247	37.995983	97955840	67252224	33162464	24992
248	38.748042	97955840	67252224	31315888	24992
249	39.649758	98226176	67252224	30132936	24992
250	40.564082	98226176	67252224	29607840	24992
251	41.14783	98226176	67252224	29745152	24992
252	0.840388	98226176	67252224	30353040	24992
253	1.585591	98226176	67252224	31690784	24992
254	2.320963	98226176	67252224	33687936	24992
255	3.295335	98226176	67252224	36344496	24992
256	6.198285	98226176	67252224	23199512	24992
257	4.521765	98226176	67252224	27175488	24992
258	5.243257	98226176	67252224	31810768	24992
259	5.978492	98226176	67252224	37105456	24992
260	8.541471	98226176	67252224	26635944	24992
261	7.780776	98226176	67252224	33250400	24992
262	10.225468	98226176	67252224	24098608	24992
263	9.184263	98226176	67252224	32031920	24992
264	11.801363	98496512	67252224	24189368	24992
265	10.601372	98496512	67252224	33441432	24992
266	13.229288	98496512	67252224	26925728	24992
267	12.141451	98496512	67252224	37496608	24992
268	14.768187	98496512	67252224	32309824	24992
269	15.51205	98496512	67252224	27769184	24992
270	16.14977	98496512	67252224	23871632	24992
271	15.117009	98496512	67252224	37082352	24992
272	17.797841	98496512	67252224	34529160	24992
273	18.467151	98496512	67252224	32638784	24992
274	19.324458	98496512	67252224	31386720	24992
275	20.034742	98496512	67252224	30796472	24992
276	21.724131	98766848	67252224	30867744	24992
277	21.792506	98766848	67252224	31600576	24992
278	22.077591	98766848	67252224	32995008	24992
279	23.072175	98766848	67252224	35050648	24992
280	24.276865	98766848	67252224	37767632	24992
281	26.811503	98766848	67252224	24688120	24992
282	25.315549	98766848	67252224	28698536	24992
283	26.293651	98766848	67252224	33403928	24992
284	26.848316	99037184	67252224	38775744	24992
285	29.675182	99037184	67252224	28349256	24992
286	28.537707	99037184	67252224	35012408	24992
287	31.216821	99037184	67252224	25918688	24992
288	30.676942	99037184	67252224	33902016	24992
289	32.934906	99037184	67252224	26139176	24992
290	32.242827	99037184	67252224	35443576	24992
291	34.309054	99307520	67252224	29000656	24992
292	33.511092	99307520	67252224	39625344	24992
293	36.116219	99307520	67252224	34461040	24992
294	36.849858	99307520	67252224	30006408	24992
295	36.923353	99307520	67252224	26174864	24992
296	36.43783	99577856	67252224	39442448	24992
297	41.108361	99577856	67252224	36981376	24992
298	41.065812	99577856	67252224	35140008	24992
299	40.58585	99577856	67252224	33955648	24992
300	41.237339	99577856	67252224	33432344	24992
301	41.95823	99577856	67252224	33569496	24992
302	0.827155	99577856	67252224	34177176	24992
303	1.56823	99577856	67252224	35514920	24992
304	2.27096	99577856	67252224	37512072	24992
305	3.067422	99577856	67252224	40168680	24992
306	6.349203	99577856	67252224	27020752	24992
307	4.71443	99577856	67252224	30996632	24992
308	5.301078	99577856	67252224	35631912	24992
309	8.318684	99577856	67252224	24486608	24992
310	6.952081	99577856	67252224	30441656	24992
311	7.4499	99577856	67252224	37056112	24992
312	10.508373	99577856	67252224	27902504	24992
313	10.217753	99577856	67252224	35846008	24992
314	12.143935	99577856	67252224	28012888	24992
315	10.575248	99577856	67252224	37264952	24992
316	13.619878	99577856	67252224	30747728	24992
317	14.320891	99577856	67252224	24878624	24992
318	12.981604	99577856	67252224	36110784	24992
319	16.238718	99577856	67252224	31568488	24992
320	16.466858	99577856	67252224	27689384	24992
321	15.18295	99577856	67252224	40900088	24992
322	18.306107	99577856	67252224	38325320	24992
323	19.049144	99577856	67252224	36433368	24992
324	19.531375	99577856	67252224	35197208	24992
325	20.560815	99577856	67252224	34605752	24992
326	21.724969	99577856	67252224	34676072	24992
327	21.749754	99577856	67252224	35407920	24992
328	22.871807	99577856	67252224	36801096	24992
329	23.719681	99577856	67252224	38855608	24992
330	26.594078	99577856	67252224	25112040	24992
331	25.570195	99577856	67252224	28461608	24992
332	25.997827	99577856	67252224	32502264	24992
333	27.491911	99577856	67252224	37215192	24992
334	29.852728	99577856	67252224	26132408	24992
335	28.472376	99577856	67252224	32133728	24992
336	29.361039	99577856	67252224	38832504	24992
337	31.945604	99577856	67252224	29737384	24992
338	30.248655	99577856	67252224	37720456	24992
339	34.140436	99577856	67252224	29955008	24992
340	32.311458	99577856	67252224	39259136	24992
341	35.109065	99577856	67252224	32818664	24992
342	35.932387	99577856	67252224	27003568	24992
343	34.241941	99577856	67252224	38289136	24992
344	37.547994	99577856	67252224	33833072	24992
345	37.87855	99577856	67252224	30002872	24992
346	39.253586	99577856	67252224	26831136	24992
347	37.064174	99577856	67252224	40758816	24992
348	40.244106	99577856	67252224	38953104	24992
349	40.881749	99577856	67252224	37767480	24992
350	41.708225	99577856	67252224	37244288	24992
351	43.088474	99577856	67252224	37382528	24992
352	0.824383	99577856	67252224	37989920	24992
353	1.538295	99577856	67252224	39327664	24992
354	2.286682	99577856	67252224	41324816	24992
355	5.528229	99577856	67252224	27509968	24992
356	3.817549	99577856	67252224	30826456	24992
357	4.499496	99577856	67252224	34802336	24992
358	5.233466	99577856	67252224	39437648	24992
359	8.616126	99577856	67252224	28291168	24992
360	6.800995	99577856	67252224	34250664	24992
361	7.438088	99577856	67252224	40865168	24992
362	10.818566	99577856	67252224	31720752	24992
363	8.951217	99577856	67252224	39654032	24992
364	12.369308	99577856	67252224	31824112	24992
365	10.528558	99577856	67252224	41076224	24992
366	13.946871	99577856	67252224	34557736	24992
367	14.718713	99577856	67252224	28688112	24992
368	13.062991	99577856	67252224	39920312	24992
369	16.047856	99577856	67252224	35377200	24992
370	16.842796	99577856	67252224	31497536	24992
371	17.540449	99577856	67252224	28260736	24992
372	16.081321	99577856	67252224	42130928	24992
373	19.239875	99577856	67252224	40238416	24992
374	20.094196	99577856	67252224	39008624	24992
375	20.77637	99577856	67252224	38416624	24992
376	21.451389	99577856	67252224	38486128	24992
377	22.227382	99577856	67252224	39217176	24992
378	22.987458	99577856	67252224	40609776	24992
379	23.676178	99577856	67252224	42663792	24992
380	27.281528	99577856	67252224	28919024	24992
381	25.813409	99577856	67252224	32268320	24992
382	26.738036	99577856	67252224	36308736	24992
383	27.023941	99577856	67252224	41012544	24992
384	30.641079	99577856	67252224	29929280	24992
385	28.648715	99577856	67252224	35930760	24992
386	29.701015	99577856	67252224	42629616	24992
387	32.791536	99577856	67252224	33534544	24992
388	30.968744	99577856	67252224	41516752	24992
389	34.717707	99577856	67252224	33751112	24992
390	32.243801	99577856	67252224	43054376	24992
391	36.309705	99577856	67252224	36614032	24992
392	36.475827	99577856	67252224	30799048	24992
393	34.642846	99577856	67252224	42084696	24992
394	38.163779	99577856	67252224	37628504	24992
395	38.770172	99577856	67252224	33798416	24992
396	40.251991	99577856	67252224	30626344	24992
397	37.678394	99577856	67252224	44554184	24992
398	41.584878	99577856	67252224	42724248	24992
399	42.084578	99577856	67252224	41552128	24992
400	42.760248	99577856	67252224	41028216	24992
401	43.798632	99577856	67252224	41166808	24992
402	0.842353	99848192	67252224	41776232	24992
403	1.542001	99848192	67252224	43114008	24992
404	2.282771	99848192	67252224	45111160	24992
405	5.922282	99848192	67252224	31295704	24992
406	3.816957	99848192	67252224	34612176	24992
407	4.707745	99848192	67252224	38588056	24992
408	5.474037	99848192	67252224	43223368	24992
409	9.02922	99848192	67252224	32080408	24992
410	6.846863	99848192	67252224	38035456	24992
411	7.455275	99848192	67252224	44649912	24992
412	11.314809	99848192	67252224	35500344	24992
413	9.093532	99848192	67252224	43433608	24992
414	12.827748	99848192	67252224	35599016	24992
415	10.492518	99848192	67252224	44851160	24992
416	14.440159	99848192	67252224	38331984	24992
417	15.060192	99848192	67252224	32462360	24992
418	12.679105	99848192	67252224	43694496	24992
419	16.617229	99848192	67252224	39151224	24992
420	17.553065	99848192	67252224	35271560	24992
421	17.995472	99848192	67252224	32033864	24992
422	19.041074	99848192	67252224	29458824	24992
423	17.00189	99848192	67252224	43988344	24992
424	20.707714	99848192	67252224	42758480	24992
425	20.966721	99848192	67252224	42191240	24992
426	22.312873	99848192	67252224	42260760	24992
427	23.40714	99848192	67252224	42991808	24992
428	23.523109	99848192	67252224	44384280	24992
429	27.961635	99848192	67252224	29977632	24992
430	24.875499	99848192	67252224	32666368	24992
431	25.977846	99848192	67252224	36045184	24992
432	26.673724	99848192	67252224	40084440	24992
433	27.369841	99848192	67252224	44788104	24992
434	31.481837	99848192	67252224	33704840	24992
435	29.052005	99848192	67252224	39706288	24992
436	29.553612	99848192	67252224	46405256	24992
437	33.936285	99848192	67252224	37266824	24992
438	31.293068	99848192	67252224	45284344	24992
439	35.087687	99848192	67252224	37514800	24992
440	35.508096	99848192	67252224	30376448	24992
441	33.93474	99848192	67252224	40340864	24992
442	37.467815	99848192	67252224	34561848	24992
443	35.465803	99848192	67252224	45847680	24992
444	39.427037	99848192	67252224	41390864	24992
445	39.742586	99848192	67252224	37560552	24992
446	40.540703	99848192	67252224	34388256	24992
447	41.151401	99848192	67252224	31878184	24992
448	38.973722	99848192	67252224	46466544	24992
449	42.941966	99848192	67776512	45322856	24992
450	43.609845	100118528	67776512	44798912	24992
451	44.51457	100118528	67776512	44937392	24992
452	0.828084	100118528	67776512	45546688	24992
453	1.540974	100118528	67776512	46884432	24992
454	5.6033	100118528	67776512	32404304	24992
455	3.085056	100118528	67776512	35060864	24992
456	3.777799	100118528	67776512	38377336	24992
457	4.553662	100118528	67776512	42353216	24992
458	5.227539	100118528	67776512	46988496	24992
459	9.454301	100118528	67776512	35845632	24992
460	7.147951	100118528	67776512	41800968	24992
461	10.931615	100118528	67776512	31985968	24992
462	8.605746	100118528	67776512	39259824	24992
463	9.092867	100118528	67776512	47193088	24992
464	13.521323	100118528	67776512	39357904	24992
465	14.132594	100388864	67776512	32176408	24992
466	11.553689	100388864	67776512	42087880	24992
467	15.813317	100388864	68300800	36218032	24992
468	12.992317	100388864	68300800	47450168	24992
469	17.249824	100388864	68300800	42923760	24992
470	18.009667	100388864	68300800	39043664	24992
471	18.588629	100388864	68300800	35805936	24992
472	19.370063	100388864	68300800	33230624	24992
473	16.715915	100388864	68300800	47760144	24992
474	21.103771	100659200	68300800	46529512	24992
475	21.530717	100659200	68300800	45962288	24992
476	22.782955	100659200	68300800	46031680	24992
477	23.205924	100659200	68300800	46762792	24992
478	24.128216	100659200	68300800	48155168	24992
479	28.219018	100659200	68300800	33735360	24992
480	25.632448	100659200	68300800	36432312	24992
481	26.632443	100659200	68300800	39811112	24992
482	27.138228	100929536	68825088	43850288	24992
483	27.776679	100929536	68825088	48553616	24992
484	32.403043	100929536	68825088	37433824	24992
485	29.745212	100929536	68825088	43462792	24992
486	33.682003	101199872	68825088	33706376	24992
487	31.14414	101199872	68825088	41028784	24992
488	35.513553	101199872	68825088	32600904	24992
489	32.947296	101199872	68825088	41244248	24992
490	36.730697	101199872	68825088	34139800	24992
491	34.0033	101199872	68825088	44104376	24992
492	38.450997	101470208	69349376	38323992	24992
493	39.570693	101470208	69349376	33168936	24992
494	36.003933	101470208	69349376	45115000	24992
495	40.721617	101740544	69349376	41321584	24992
496	41.568304	101740544	69349376	38153096	24992
497	42.753753	101740544	69349376	35642680	24992
498	43.104495	101740544	69349376	33793960	24992
499	40.421463	102010880	69873664	49042840	24992
500	44.410805	102010880	69873664	48561752	24992
501	45.331363	102010880	69873664	48699544	24992
502	0.825719	102281216	69873664	49308984	24992
503	5.21698	102281216	69873664	34164584	24992
504	2.355152	102281216	69873664	36161736	24992
505	3.064905	102281216	69873664	38818312	24992
506	3.970209	102281216	69873664	42134784	24992
507	4.704775	102281216	69873664	46110664	24992
508	8.956249	102281216	69873664	34298472	24992
509	6.22738	102281216	69873664	39593160	24992
510	6.704792	102281216	69873664	45548208	24992
511	11.353318	102281216	69873664	35737656	24992
512	8.477963	102281216	69873664	43011528	24992
513	12.931703	102281216	69873664	34512920	24992
514	9.890209	102281216	69873664	43105576	24992
515	14.672803	102281216	69873664	35924072	24992
516	11.400091	102281216	69873664	45835544	24992
517	16.066064	102281216	69873664	39980888	24992
518	16.670188	102281216	69873664	34775712	24992
519	13.670599	102281216	69873664	46667256	24992
520	18.517591	102281216	70397952	42787184	24992
521	18.824944	102551552	70397952	39570120	24992
522	20.217099	102551552	70397952	36994360	24992
523	20.717701	102551552	70397952	35080720	24992
524	17.432334	102551552	70397952	50269680	24992
525	22.098296	102551552	70397952	49696632	24992
526	22.68453	102551552	70397952	49791184	24992
527	23.488323	102821888	70397952	50525120	24992
528	28.2851	102821888	70397952	35441232	24992
529	25.810397	102821888	70397952	37480560	24992
530	26.235988	102821888	70397952	40197960	24992
531	27.149501	102821888	70397952	43575664	24992
532	27.769092	102821888	70397952	47615656	24992
533	32.260659	102821888	70397952	35862840	24992
534	29.098877	102821888	70397952	41201952	24992
535	30.327136	103092224	70397952	47235992	24992
536	34.212068	103092224	70922240	37478416	24992
537	31.850751	103092224	70922240	44800800	24992
538	36.077546	103092224	70922240	36374784	24992
539	33.097972	103092224	71446528	45018208	24992
540	38.277394	103362560	71446528	37913568	24992
541	34.14201	103362560	71446528	47878160	24992
542	39.382315	103362560	71446528	42096816	24992
543	39.818198	103632896	71446528	36943360	24992
544	36.60086	103632896	71446528	48889648	24992
545	41.658098	103632896	71446528	45096024	24992
546	42.366098	103903232	71446528	41927744	24992
547	43.069347	103903232	71446528	39416944	24992
548	43.999862	103903232	71970816	37568400	24992
549	44.682486	104173568	71970816	36381320	24992
550	45.606059	104173568	71970816	35855696	24992
551	46.241285	104173568	71970816	35993272	24992
552	5.220607	104443904	71970816	36602104	24992
553	2.5514	104443904	71970816	37939848	24992
554	3.812894	104443904	71970816	39937000	24992
555	5.765605	104443904	71970816	42593560	24992
556	8.721317	104443904	71970816	12744584	24992
557	4.677661	104443904	71970816	16721328	24992
558	5.481949	104443904	71970816	21356608	24992
559	6.268903	104443904	71970816	26651296	24992
560	7.424116	104443904	72495104	16140952	24992
561	7.688084	104443904	72495104	22755408	24992
562	8.751998	104443904	72495104	13562968	24992
563	9.023337	104443904	72495104	21496232	24992
564	10.949371	104443904	72495104	13628024	24992
565	10.66178	104443904	72495104	22880088	24992
566	11.671532	104443904	72495104	16357264	24992
567	12.424473	104443904	72495104	26928160	24992
568	12.991855	104443904	72495104	21765208	24992
569	13.932374	104443904	72495104	17245728	24992
570	14.736808	104443904	72495104	13366216	24992
571	15.270459	104443904	72495104	26576984	24992
572	16.918781	104443904	72495104	24049072	24992
573	17.82284	104443904	72495104	22185264	24992
574	18.280201	104443904	72495104	20955384	24992
575	18.943663	104443904	72495104	20388240	24992
576	19.471017	104443904	72495104	20483696	24992
577	20.324013	104443904	72495104	21241712	24992
578	21.065959	104443904	72495104	22662280	24992
579	22.213997	104443904	72495104	24745248	24992
580	22.448146	104714240	72495104	27490544	24992
581	23.580745	104714240	72495104	14460928	24992
582	23.930348	104714240	72495104	18493424	24992
583	25.1283	104714240	72495104	23229872	24992
584	25.397642	104714240	72495104	28631944	24992
585	26.943511	104714240	72495104	18207472	24992
586	27.748923	104984576	72495104	24928096	24992
587	28.314123	104984576	72495104	15890856	24992
588	29.202232	104984576	72495104	23899224	24992
589	30.05098	104984576	72495104	16195472	24992
590	30.723827	104984576	72495104	25526344	24992
591	31.491573	104984576	72495104	19148616	24992
592	32.416757	104984576	72495104	13390008	24992
593	32.655927	104984576	72495104	24704760	24992
594	33.961109	104984576	72495104	20318352	24992
595	34.951979	104984576	72495104	16549128	24992
596	35.245695	104984576	72495104	13439688	24992
597	36.09321	104984576	72495104	27399272	24992
598	37.101505	104984576	72495104	25670304	24992
599	37.77914	104984576	72495104	24551528	24992
600	38.460456	104984576	72495104	24097544	24992
601	39.409276	104984576	72495104	24303816	24992
602	0.838276	104984576	72495104	24955616	24992
603	1.556752	104984576	72495104	26293360	24992
604	2.297505	104984576	72495104	28290512	24992
605	3.866066	104984576	72495104	14480744	24992
606	3.82381	104984576	72495104	17797224	24992
607	4.563109	104984576	72495104	21773104	24992
608	5.283875	104984576	72495104	26408384	24992
609	6.908108	104984576	72495104	15276768	24992
610	6.741421	104984576	72495104	21231816	24992
611	7.524218	104984576	72495104	27846352	24992
612	9.451502	104984576	72495104	18719408	24992
613	8.978847	104984576	72495104	26652720	24992
614	10.648471	104984576	72495104	18840608	24992
615	10.501938	104984576	72495104	28092704	24992
616	12.142289	104984576	72495104	21596960	24992
617	13.124007	104984576	72495104	15747792	24992
618	12.801465	104984576	72495104	26980056	24992
619	14.714206	104984576	72495104	22460128	24992
620	15.364248	104984576	72495104	18604984	24992
621	16.051423	104984576	72495104	15388480	24992
622	16.388968	104984576	72495104	29258624	24992
623	17.528755	104984576	72495104	27394512	24992
624	18.826396	104984576	72495104	26195936	24992
625	19.098533	104984576	72495104	25611768	24992
626	20.264186	104984576	72495104	25686664	24992
627	21.063952	104984576	72495104	26419912	24992
628	21.582768	104984576	72495104	27814264	24992
629	22.253209	104984576	72495104	29870080	24992
630	24.147054	104984576	72495104	16128624	24992
631	23.985122	104984576	72495104	19478832	24992
632	24.763064	104984576	72495104	23520984	24992
633	25.2155	104984576	72495104	28226256	24992
634	27.305484	104984576	72495104	17137464	24992
635	27.447125	104984576	72495104	23138752	24992
636	27.63412	104984576	72495104	29830616	24992
637	29.603189	104984576	72495104	20728344	24992
638	29.811201	104984576	72495104	28710984	24992
639	31.026249	104984576	72495104	20938144	24992
640	30.67038	104984576	72495104	30241920	24992
641	32.900559	104984576	72495104	23793864	24992
642	33.677967	104984576	72495104	17978896	24992
643	33.588063	104984576	72495104	29264512	24992
644	34.70927	104984576	72495104	24800016	24992
645	35.645	104984576	72495104	20969896	24992
646	36.701899	104984576	72495104	17797808	24992
647	35.880146	104984576	72495104	31725584	24992
648	37.998899	104984576	72495104	29910384	24992
649	38.85431	104984576	72495104	28724760	24992
650	39.25118	104984576	72495104	28200848	24992
651	40.062912	104984576	72495104	28339312	24992
652	0.824321	104984576	72495104	28948248	24992
653	1.561526	104984576	72495104	30285976	24992
654	2.269915	104984576	72495104	32283112	24992
655	4.32366	104984576	72495104	18470744	24992
656	3.829049	104984576	72495104	21787232	24992
657	4.586228	104984576	72495104	25763096	24992
658	5.310892	104984576	72495104	30398376	24992
659	7.289957	104984576	72495104	19262104	24992
660	6.73307	104984576	72495104	25217136	24992
661	7.471967	104984576	72495104	31831656	24992
662	9.676859	104984576	72495104	22688984	24992
663	9.568217	104984576	72495104	30622264	24992
664	11.372087	104984576	72495104	22792096	24992
665	10.541832	104984576	72495104	32044144	24992
666	12.794816	104984576	72495104	25529176	24992
667	13.911213	104984576	72495104	19662192	24992
668	12.961287	104984576	72495104	30894376	24992
669	15.106739	104984576	72495104	26353768	24992
670	15.788748	104984576	72495104	22476776	24992
671	16.775341	104984576	72495104	19241264	24992
672	16.082868	104984576	72495104	33111504	24992
673	17.958742	104984576	72495104	31214072	24992
674	18.702204	104984576	72495104	29987128	24992
675	19.823092	104984576	72495104	29401232	24992
676	20.937285	104984576	72495104	29472488	24992
677	21.132733	104984576	72495104	30205288	24992
678	21.950437	104984576	72495104	31599528	24992
679	23.067034	104984576	72495104	33655184	24992
680	25.348109	104984576	72495104	19878424	24992
681	24.290986	104984576	72495104	23258336	24992
682	25.123401	104984576	72495104	27299528	24992
683	26.03049	104984576	72495104	32004880	24992
684	27.96464	104984576	72495104	20916008	24992
685	27.43575	104984576	72495104	26917440	24992
686	28.3478	104984576	72495104	33609464	24992
687	30.513112	104984576	72495104	24501888	24992
688	30.25411	104984576	72495104	32484704	24992
689	32.163054	104984576	72495104	24707672	24992
690	31.046145	104984576	72495104	34011000	24992
691	33.352103	104984576	72495104	27542096	24992
692	34.639975	104984576	72495104	21737992	24992
693	33.412608	104984576	72495104	33023688	24992
694	35.407876	104984576	72495104	28559240	24992
695	35.958081	104984576	72495104	24729184	24992
696	37.445352	104984576	72495104	21556776	24992
697	38.522472	104984576	72495104	19049168	24992
698	37.24139	104984576	72495104	33637360	24992
699	39.204347	104984576	72495104	32484784	24992
700	40.394488	104984576	72495104	31960752	24992
701	40.943698	104984576	72495104	32099088	24992
702	0.873221	104984576	72495104	32708344	24992
703	1.558125	104984576	72495104	34046344	24992
704	3.897643	104984576	72495104	19568424	24992
705	3.077334	104984576	72495104	22224968	24992
706	4.257448	104984576	72495104	25542440	24992
707	4.763954	104984576	72495104	29518304	24992
708	5.23607	104984576	72495104	34153568	24992
709	7.938446	104984576	72495104	23016616	24992
710	6.953783	104984576	72495104	28971648	24992
711	9.127223	104984576	72495104	19161640	24992
712	8.316849	104984576	72495104	26435472	24992
713	9.221475	104984576	72495104	34368720	24992
714	11.633971	104984576	72495104	26537344	24992
715	12.173013	104984576	72495104	19358456	24992
716	11.447884	104984576	72495104	29269920	24992
717	13.817906	104984576	72495104	23402224	24992
718	12.69454	104984576	72495104	34634344	24992
719	15.593348	104984576	72495104	30110512	24992
720	16.36567	104984576	72495104	26232560	24992
721	16.919659	104984576	72495104	22996120	24992
722	17.678306	104984576	72495104	20422240	24992
723	17.45402	104984576	72495104	34960072	24992
724	19.111005	104984576	72495104	33731504	24992
725	19.921424	104984576	72495104	33166080	24992
726	21.233575	104984576	72495104	33236664	24992
727	21.948458	104984576	72495104	33968808	24992
728	22.273027	104984576	72495104	35362440	24992
729	24.81934	104984576	72495104	20956944	24992
730	23.618018	104984576	72495104	23646352	24992
731	24.729346	104984576	72495104	27026744	24992
732	25.508033	104984576	72495104	31067304	24992
733	26.024747	104984576	72495104	35771648	24992
734	28.804612	104984576	72495104	24680072	24992
735	27.49461	104984576	72495104	30678680	24992
736	30.43742	104984576	72495104	20916472	24992
737	29.744306	104984576	72495104	28238920	24992
738	29.976859	104984576	72495104	36250112	24992
739	32.639798	104984576	72495104	28450184	24992
740	33.57853	104984576	72495104	21322632	24992
741	32.31558	104984576	72495104	31287272	24992
742	35.17438	104984576	72495104	25500280	24992
743	33.509629	104984576	72495104	36785752	24992
744	36.892727	104984576	72495104	32270776	24992
745	37.006414	104984576	72495104	28468792	24992
746	38.171453	104984576	72495104	25300344	24992
747	38.786354	104984576	72495104	22790680	24992
748	39.527783	104984576	72495104	20942280	24992
749	38.191865	104984576	72495104	36191096	24992
750	42.211647	104984576	72495104	35710448	24992
751	42.068843	104984576	72495104	35849552	24992
752	0.849012	104984576	72495104	36459152	24992
753	3.488818	104984576	72495104	21315848	24992
754	2.341911	104984576	72495104	23312976	24992
755	3.273265	104984576	72495104	25969520	24992
756	3.806859	104984576	72495104	29285976	24992
757	4.542878	104984576	72495104	33261840	24992
758	7.444854	104984576	72495104	21453952	24992
759	6.442566	104984576	72495104	26748624	24992
760	6.782733	104984576	72495104	32703720	24992
761	9.826683	104984576	72495104	22898344	24992
762	8.450316	104984576	72495104	30172184	24992
763	10.988196	104984576	72495104	21676808	24992
764	9.92197	104984576	72495104	30269504	24992
765	12.744969	104984576	72495104	23090576	24992
766	11.214226	104984576	72495104	33002032	24992
767	14.192	104984576	72495104	27149968	24992
768	14.994772	104984576	72495104	21947160	24992
769	13.460365	104984576	72495104	33838688	24992
770	16.908188	104984576	72495104	29960512	24992
771	16.980656	104984576	72495104	26745496	24992
772	18.195775	104984576	72495104	24171808	24992
773	18.490171	104984576	72495104	22259328	24992
774	17.654456	104984576	72495104	37448224	24992
775	20.474481	104984576	72495104	36882240	24992
776	21.221359	104984576	72495104	36979424	24992
777	22.405415	104984576	72495104	37711568	24992
778	24.746318	104984576	72495104	22643536	24992
779	23.458195	104984576	72495104	24672480	24992
780	24.433996	104984576	72495104	27391024	24992
781	24.938417	104984576	72495104	30770464	24992
782	25.814091	104984576	72495104	34811104	24992
783	28.828659	104984576	72495104	23060256	24992
784	27.401066	104984576	72495104	28399464	24992
785	28.378734	104984576	72495104	34433936	24992
786	31.05413	104984576	72495104	24677272	24992
787	29.582531	104984576	72495104	32000040	24992
788	32.448931	104984576	72495104	23574968	24992
789	31.347914	104984576	72495104	32218712	24992
790	34.204471	104984576	72495104	25115272	24992
791	32.867985	104984576	72495104	35080136	24992
792	35.272516	104984576	72495104	29299784	24992
793	36.528904	104984576	72495104	24146936	24992
794	35.288302	104984576	72495104	36093400	24992
795	37.565758	104984576	72495104	32300768	24992
796	38.570178	104984576	72495104	29132968	24992
797	39.478491	104984576	72495104	26622776	24992
798	40.332091	104984576	72495104	24774824	24992
799	41.03357	104984576	72495104	23588336	24992
800	39.519729	104984576	72495104	39497904	24992
801	42.700585	104984576	72495104	39649736	24992
802	3.137109	104984576	72495104	23785080	24992
803	1.565875	104984576	72495104	25122808	24992
804	2.269854	104984576	72495104	27119944	24992
805	3.05503	104984576	72495104	29776520	24992
806	3.977851	104984576	72495104	33092976	24992
807	4.710994	104984576	72495104	37068840	24992
808	8.038864	104984576	72495104	25256472	24992
809	6.207721	104984576	72495104	30551144	24992
810	6.755783	104984576	72495104	36506176	24992
811	9.851049	104984576	72495104	26705328	24992
812	8.42618	104984576	72495104	33979168	24992
813	11.5769	104984576	72495104	25483800	24992
814	9.805187	104984576	72495104	34076440	24992
815	13.067869	104984576	72495104	26897528	24992
816	11.440704	104984576	72495104	36808984	24992
817	14.401944	104984576	72495104	30956808	24992
818	15.40105	104984576	72495104	25753568	24992
819	13.673865	104984576	72495104	37645128	24992
820	17.140771	104984576	72495104	33766744	24992
821	17.520998	104984576	72495104	30551616	24992
822	18.611513	104984576	72495104	27976680	24992
823	19.185281	104984576	72495104	26064200	24992
824	19.823661	104984576	72495104	24813240	24992
825	20.689292	104984576	72495104	24223824	24992
826	21.988886	104984576	72495104	24295968	24992
827	22.048369	104984576	72495104	25029624	24992
828	22.876767	104984576	72495104	26424888	24992
829	23.6956	104984576	72495104	28481664	24992
830	25.071986	104984576	72495104	31199944	24992
831	25.70489	104984576	72495104	34578920	24992
832	26.438126	104984576	72495104	38619176	24992
833	29.084826	104984576	72495104	26868264	24992
834	27.983322	104984576	72495104	32207600	24992
835	28.167543	104984576	72495104	38242072	24992
836	31.960551	104984576	72495104	28485216	24992
837	29.898873	104984576	72495104	35808032	24992
838	33.311311	104984576	72495104	27382728	24992
839	31.689895	104984576	72495104	36026576	24992
840	34.856777	104984576	72495104	28921776	24992
841	33.036718	104984576	72495104	38886904	24992
842	36.298617	104984576	72495104	33108304	24992
843	37.521061	104984576	72495104	27955568	24992
844	35.113498	104984576	72495104	39902128	24992
845	38.433121	104984576	72495104	36109528	24992
846	39.183641	104984576	72495104	32941456	24992
847	40.553191	104984576	72495104	30431456	24992
848	41.051591	104984576	72495104	28583168	24992
849	43.914079	104984576	72495104	27418224	24992
850	42.446398	104984576	72495104	26924032	24992
851	44.07492	104984576	72495104	27061200	24992
852	0.818824	104984576	72495104	27668912	24992
853	1.542839	104984576	72495104	29006640	24992
854	2.430722	104984576	72495104	31003856	24992
855	3.023687	104984576	72495104	33660400	24992
856	3.96729	104984576	72495104	36976872	24992
857	4.499291	104984576	72495104	40952736	24992
858	8.204486	104984576	72495104	29141488	24992
859	5.987092	104984576	72495104	34436160	24992
860	6.766505	104984576	72495104	40391192	24992
861	10.444508	104984576	72495104	30588960	24992
862	8.242099	104984576	72495104	37862832	24992
863	12.089094	104984576	72495104	29364720	24992
864	10.018804	104984576	72495104	37957360	24992
865	13.505692	104984576	72495104	30776096	24992
866	11.409958	104984576	72495104	40687552	24992
867	15.277981	104984576	72495104	34834336	24992
868	15.815495	104984576	72495104	29629800	24992
869	13.681512	104984576	72495104	41521360	24992
870	17.168098	104984576	72495104	37641592	24992
871	18.025785	104984576	72495104	34424608	24992
872	18.683646	104984576	72495104	31848880	24992
873	19.500957	104984576	72495104	29935000	24992
874	20.512471	104984576	72495104	28683088	24992
875	20.953508	104984576	72495104	28092800	24992
876	22.199546	104984576	72495104	28163984	24992
877	22.750385	104984576	72495104	28896712	24992
878	23.571026	104984576	72495104	30290976	24992
879	24.408609	104984576	72495104	32346784	24992
880	24.997459	104984576	72495104	35063680	24992
881	25.917875	104984576	72495104	38441672	24992
882	26.434731	104984576	72495104	42480736	24992
883	30.001775	104984576	72495104	30727648	24992
884	28.279509	104984576	72495104	36066920	24992
885	29.731705	105254912	72495104	42109520	24992
886	32.282717	105254912	72495104	32351928	24992
887	30.588927	105254912	72495104	39674040	24992
888	34.131662	105254912	72495104	31245880	24992
889	32.145255	105254912	72495104	39889400	24992
890	35.611617	105254912	72495104	32786584	24992
891	33.287278	105254912	72495104	42750856	24992
892	36.933419	105254912	72495104	36972440	24992
893	37.374591	105254912	72495104	31819144	24992
894	35.488187	105254912	72495104	43765432	24992
895	39.147777	105254912	72495104	39947136	24992
896	40.02347	105254912	72495104	36788296	24992
897	40.86967	105254912	72495104	34283496	24992
898	41.572837	105254912	72495104	32434328	24992
899	43.964513	105254912	72495104	31247472	24992
900	43.614604	105254912	72495104	30722072	24992
901	44.128751	105254912	72495104	30859096	24992
902	0.821926	105254912	72495104	31466952	24992
903	1.551419	105254912	72495104	32804680	24992
904	2.269356	105254912	72495104	34801816	24992
905	3.066955	105254912	72495104	37458360	24992
906	3.97557	105254912	72495104	40774816	24992
907	4.529983	105254912	72495104	44750680	24992
908	8.369975	105254912	72495104	32934472	24992
909	6.030902	105254912	72495104	38229208	24992
910	6.759863	105254912	72495104	44184240	24992
911	10.782524	105254912	72495104	34379816	24992
912	8.429256	105254912	72495104	41653656	24992
913	12.306451	105254912	72495104	33155944	24992
914	9.973018	105254912	72495104	41748600	24992
915	13.787752	105254912	72495104	34566712	24992
916	11.447814	105254912	72495104	44478200	24992
917	15.091445	105254912	72495104	38622632	24992
918	15.991434	105254912	72495104	33417440	24992
919	16.840206	105254912	72495104	28857136	24992
920	14.536897	105254912	72495104	41408672	24992
921	18.44389	105254912	72495104	38191176	24992
922	19.168704	105254912	72495104	35636744	24992
923	19.82871	105254912	72495104	33722080	24992
924	20.58468	105254912	72495104	32469832	24992
925	21.455173	105254912	72495104	31879112	24992
926	22.64908	105254912	72495104	31949960	24992
927	23.257499	105254912	72495104	32682352	24992
928	24.377661	105254912	72495104	34076280	24992
929	24.419734	105254912	72495104	36131784	24992
930	25.529587	105254912	72495104	38847880	24992
931	26.396335	105254912	72495104	42225552	24992
932	30.024279	105254912	72495104	29806784	24992
933	28.410455	105254912	72495104	34479984	24992
934	28.107091	105254912	72495104	39851816	24992
935	32.331047	105254912	72495104	29434128	24992
936	30.09186	105254912	72495104	36095920	24992
937	30.722193	105254912	72495104	43452584	24992
938	34.398881	105254912	72495104	35020160	24992
939	31.971655	105254912	72495104	43663392	24992
940	36.012808	105254912	72495104	36560592	24992
941	37.004539	105254912	72495104	30083832	24992
942	34.134593	105254912	72495104	40709704	24992
943	38.212862	105254912	72495104	35592736	24992
944	39.149412	105254912	72495104	31097072	24992
945	36.590547	105254912	72495104	43703712	24992
946	41.240168	105254912	72495104	40572720	24992
947	41.786578	105254912	72495104	38065872	24992
948	42.200568	105254912	72495104	36216784	24992
949	42.712944	105254912	72495104	35029288	24992
950	43.928688	105254912	72495104	34504032	24992
951	44.397963	105254912	72495104	34641136	24992
952	0.834108	105254912	72495104	35249088	24992
953	1.578895	105254912	72495104	36586816	24992
954	2.307851	105254912	72495104	38583952	24992
955	3.086506	105254912	72495104	41240496	24992
956	3.808121	105254912	72495104	44556952	24992
957	8.444954	105254912	72495104	32076240	24992
958	5.452497	105254912	72495104	36711504	24992
959	5.970808	105254912	72495104	42006176	24992
960	10.426618	105254912	72495104	31531000	24992
961	7.66236	105254912	72495104	38145440	24992
962	8.407274	105254912	72495104	45419280	24992
963	12.612379	105254912	72495104	36929112	24992
964	9.703208	105254912	72495104	45521800	24992
965	14.159331	105254912	72495104	38351968	24992
966	15.008546	105254912	72495104	31819712	24992
967	12.111178	105254912	72495104	42390624	24992
968	16.997677	105254912	72495104	37185032	24992
969	17.299023	105254912	72495104	32642424	24992
970	14.767036	105254912	72495104	45193784	24992
971	18.640342	105254912	72495104	41976064	24992
972	19.322545	105254912	72495104	39421360	24992
973	20.608143	105254912	72495104	37506680	24992
974	21.52687	105254912	72495104	36253536	24992
975	21.896087	105254912	72495104	35662896	24992
976	22.727324	105254912	72495104	35733936	24992
977	23.450368	105254912	72495104	36466592	24992
978	24.184586	105254912	72495104	37860064	24992
979	24.745837	105254912	72495104	39914704	24992
980	25.896544	105254912	72495104	42630816	24992
981	26.444539	105254912	72495104	46008072	24992
982	30.518771	105254912	72495104	33589224	24992
983	27.917903	105254912	72495104	38262456	24992
984	28.632134	105254912	72495104	43633936	24992
985	33.026874	105254912	72495104	33214088	24992
986	30.048283	105254912	72495104	39875864	24992
987	31.071213	105254912	72495104	47236256	24992
988	35.523815	105254912	72495104	38803048	24992
989	32.47196	105254912	72495104	47445944	24992
990	36.764644	105254912	72495104	40342392	24992
991	38.144109	105254912	72495104	33865792	24992
992	34.872082	105254912	72495104	44491056	24992
993	38.833151	105254912	72495104	39372328	24992
994	39.937776	105254912	72495104	34880440	24992
995	37.560939	105254912	72495104	47491888	24992
996	41.156167	105254912	72495104	44361344	24992
997	42.412447	105254912	72495104	41852496	24992
998	42.916814	105254912	72495104	40007280	24992
999	44.099042	105254912	72495104	38819864	24992
1000	44.549877	105254912	72495104	38293920	24992
