Version	TotalOps	Time	Nodes	CommitInterval
TREE	10	96	10	10
TREE	10	109	10	10
TREE	10	88	10	10
TREE	10	112	10	10
TREE	10	103	10	10
TREE	10	95	10	10
TREE	10	85	10	10
TREE	10	77	10	10
TREE	10	106	10	10
TREE	10	127	10	10
TREE	10	104	10	10
TREE	10	116	10	10
TREE	10	86	10	10
TREE	10	78	10	10
TREE	10	108	10	10
TREE	10	106	10	10
TREE	10	106	10	10
TREE	10	90	10	10
TREE	10	108	10	10
TREE	10	104	10	10
TREE	10	96	10	10
TREE	10	104	10	10
TREE	10	79	10	10
TREE	10	99	10	10
TREE	10	96	10	10
TREE	10	95	10	10
TREE	10	103	10	10
TREE	10	85	10	10
TREE	10	92	10	10
TREE	10	79	10	10
TREE	50	418	10	10
TREE	50	388	10	10
TREE	50	407	10	10
TREE	50	400	10	10
TREE	50	405	10	10
TREE	50	454	10	10
TREE	50	408	10	10
TREE	50	404	10	10
TREE	50	413	10	10
TREE	50	414	10	10
TREE	50	390	10	10
TREE	50	404	10	10
TREE	50	403	10	10
TREE	50	402	10	10
TREE	50	414	10	10
TREE	50	416	10	10
TREE	50	398	10	10
TREE	50	421	10	10
TREE	50	475	10	10
TREE	50	397	10	10
TREE	50	415	10	10
TREE	50	383	10	10
TREE	50	431	10	10
TREE	50	428	10	10
TREE	50	399	10	10
TREE	50	434	10	10
TREE	50	396	10	10
TREE	50	414	10	10
TREE	50	387	10	10
TREE	50	406	10	10
TREE	100	235	10	10
TREE	100	236	10	10
TREE	100	228	10	10
TREE	100	239	10	10
TREE	100	215	10	10
TREE	100	233	10	10
TREE	100	529	10	10
TREE	100	216	10	10
TREE	100	229	10	10
TREE	100	235	10	10
TREE	100	229	10	10
TREE	100	222	10	10
TREE	100	231	10	10
TREE	100	251	10	10
TREE	100	231	10	10
TREE	100	244	10	10
TREE	100	222	10	10
TREE	100	238	10	10
TREE	100	228	10	10
TREE	100	248	10	10
TREE	100	208	10	10
TREE	100	247	10	10
TREE	100	219	10	10
TREE	100	247	10	10
TREE	100	223	10	10
TREE	100	211	10	10
TREE	100	227	10	10
TREE	100	550	10	10
TREE	100	236	10	10
TREE	100	228	10	10
TREE	150	280	10	10
TREE	150	291	10	10
TREE	150	284	10	10
TREE	150	286	10	10
TREE	150	290	10	10
TREE	150	278	10	10
TREE	150	283	10	10
TREE	150	345	10	10
TREE	150	299	10	10
TREE	150	283	10	10
TREE	150	293	10	10
TREE	150	283	10	10
TREE	150	328	10	10
TREE	150	330	10	10
TREE	150	282	10	10
TREE	150	316	10	10
TREE	150	319	10	10
TREE	150	1165	10	10
TREE	150	310	10	10
TREE	150	321	10	10
TREE	150	285	10	10
TREE	150	298	10	10
TREE	150	291	10	10
TREE	150	278	10	10
TREE	150	300	10	10
TREE	150	292	10	10
TREE	150	300	10	10
TREE	150	292	10	10
TREE	150	280	10	10
TREE	150	285	10	10
TREE	250	442	10	10
TREE	250	476	10	10
TREE	250	460	10	10
TREE	250	460	10	10
TREE	250	459	10	10
TREE	250	446	10	10
TREE	250	448	10	10
TREE	250	436	10	10
TREE	250	457	10	10
TREE	250	1590	10	10
TREE	250	446	10	10
TREE	250	435	10	10
TREE	250	455	10	10
TREE	250	1964	10	10
TREE	250	465	10	10
TREE	250	449	10	10
TREE	250	443	10	10
TREE	250	439	10	10
TREE	250	473	10	10
TREE	250	448	10	10
TREE	250	470	10	10
TREE	250	448	10	10
TREE	250	1470	10	10
TREE	250	441	10	10
TREE	250	441	10	10
TREE	250	466	10	10
TREE	250	459	10	10
TREE	250	448	10	10
TREE	250	449	10	10
TREE	250	462	10	10
TREE	300	513	10	10
TREE	300	513	10	10
TREE	300	524	10	10
TREE	300	524	10	10
TREE	300	524	10	10
TREE	300	524	10	10
TREE	300	524	10	10
TREE	300	524	10	10
TREE	300	527	10	10
TREE	300	516	10	10
TREE	300	1366	10	10
TREE	300	1366	10	10
TREE	300	1366	10	10
TREE	300	1366	10	10
TREE	300	1366	10	10
TREE	300	512	10	10
TREE	300	514	10	10
TREE	300	1405	10	10
TREE	300	514	10	10
TREE	300	514	10	10
TREE	300	514	10	10
TREE	300	522	10	10
TREE	300	507	10	10
TREE	300	507	10	10
TREE	300	507	10	10
TREE	300	507	10	10
TREE	300	514	10	10
TREE	300	524	10	10
TREE	300	524	10	10
TREE	300	517	10	10
TREE	300	504	10	10
TREE	300	504	10	10
TREE	300	504	10	10
TREE	300	504	10	10
TREE	300	505	10	10
TREE	300	505	10	10
TREE	300	505	10	10
TREE	300	505	10	10
TREE	300	505	10	10
TREE	300	504	10	10
TREE	300	504	10	10
TREE	300	504	10	10
TREE	300	504	10	10
TREE	300	523	10	10
TREE	300	526	10	10
TREE	300	514	10	10
TREE	300	514	10	10
TREE	300	514	10	10
TREE	300	514	10	10
TREE	300	501	10	10
TREE	300	501	10	10
TREE	300	501	10	10
TREE	300	501	10	10
TREE	300	529	10	10
TREE	300	529	10	10
TREE	300	530	10	10
TREE	300	530	10	10
TREE	300	530	10	10
TREE	300	530	10	10
TREE	300	530	10	10
TREE	300	1837	10	10
TREE	300	509	10	10
TREE	300	509	10	10
TREE	300	512	10	10
TREE	300	512	10	10
TREE	300	512	10	10
TREE	300	512	10	10
TREE	300	512	10	10
TREE	300	512	10	10
TREE	300	517	10	10
TREE	300	517	10	10
TREE	300	517	10	10
TREE	300	517	10	10
TREE	300	506	10	10
TREE	300	496	10	10
TREE	300	496	10	10
TREE	300	496	10	10
TREE	300	496	10	10
TREE	300	496	10	10
TREE	300	507	10	10
TREE	400	640	10	10
TREE	400	640	10	10
TREE	400	640	10	10
TREE	400	662	10	10
TREE	400	662	10	10
TREE	400	662	10	10
TREE	400	662	10	10
TREE	400	662	10	10
TREE	400	662	10	10
TREE	400	662	10	10
TREE	400	662	10	10
TREE	400	662	10	10
TREE	400	647	10	10
TREE	400	647	10	10
TREE	400	647	10	10
TREE	400	647	10	10
TREE	400	647	10	10
TREE	400	635	10	10
TREE	400	635	10	10
TREE	400	635	10	10
TREE	400	635	10	10
TREE	400	640	10	10
TREE	400	640	10	10
TREE	400	640	10	10
TREE	400	640	10	10
TREE	400	640	10	10
TREE	400	640	10	10
TREE	400	1989	10	10
TREE	400	618	10	10
TREE	400	618	10	10
TREE	400	618	10	10
TREE	400	618	10	10
TREE	400	618	10	10
TREE	400	618	10	10
TREE	400	618	10	10
TREE	400	627	10	10
TREE	400	627	10	10
TREE	400	627	10	10
TREE	400	627	10	10
TREE	400	627	10	10
TREE	400	627	10	10
TREE	400	627	10	10
TREE	400	627	10	10
TREE	400	627	10	10
TREE	400	633	10	10
TREE	400	633	10	10
TREE	400	646	10	10
TREE	400	646	10	10
TREE	400	646	10	10
TREE	400	646	10	10
TREE	400	646	10	10
TREE	400	646	10	10
TREE	400	667	10	10
TREE	400	667	10	10
TREE	400	667	10	10
TREE	400	667	10	10
TREE	400	667	10	10
TREE	400	667	10	10
TREE	400	667	10	10
TREE	400	667	10	10
TREE	400	667	10	10
TREE	400	1542	10	10
TREE	400	654	10	10
TREE	400	654	10	10
TREE	400	654	10	10
TREE	400	654	10	10
TREE	400	654	10	10
TREE	400	654	10	10
TREE	400	654	10	10
TREE	400	654	10	10
TREE	400	654	10	10
TREE	400	631	10	10
TREE	400	631	10	10
TREE	400	631	10	10
TREE	400	631	10	10
TREE	400	638	10	10
TREE	400	638	10	10
TREE	400	638	10	10
TREE	400	638	10	10
TREE	400	638	10	10
TREE	400	649	10	10
TREE	400	649	10	10
TREE	400	649	10	10
TREE	400	649	10	10
TREE	400	649	10	10
TREE	400	649	10	10
TREE	400	649	10	10
TREE	400	649	10	10
TREE	400	640	10	10
TREE	400	640	10	10
TREE	400	640	10	10
TREE	400	640	10	10
TREE	400	640	10	10
TREE	400	640	10	10
TREE	400	641	10	10
TREE	400	641	10	10
TREE	400	641	10	10
TREE	400	641	10	10
TREE	400	641	10	10
TREE	400	641	10	10
TREE	400	630	10	10
TREE	400	630	10	10
TREE	400	630	10	10
TREE	400	630	10	10
TREE	400	646	10	10
TREE	400	646	10	10
TREE	400	646	10	10
TREE	400	646	10	10
TREE	400	646	10	10
TREE	400	646	10	10
TREE	400	646	10	10
TREE	400	632	10	10
TREE	400	632	10	10
TREE	400	632	10	10
TREE	400	632	10	10
TREE	400	632	10	10
TREE	400	632	10	10
TREE	400	632	10	10
TREE	400	647	10	10
TREE	400	647	10	10
TREE	400	647	10	10
TREE	400	646	10	10
TREE	400	646	10	10
TREE	400	646	10	10
TREE	400	646	10	10
TREE	400	646	10	10
TREE	400	654	10	10
TREE	400	654	10	10
TREE	400	654	10	10
TREE	400	654	10	10
TREE	400	654	10	10
TREE	400	654	10	10
TREE	400	654	10	10
TREE	400	654	10	10
TREE	400	654	10	10
TREE	400	653	10	10
TREE	400	653	10	10
TREE	400	653	10	10
TREE	400	653	10	10
TREE	400	653	10	10
TREE	400	624	10	10
TREE	400	624	10	10
TREE	400	624	10	10
TREE	400	624	10	10
TREE	400	624	10	10
TREE	400	624	10	10
TREE	400	624	10	10
TREE	400	642	10	10
TREE	400	642	10	10
TREE	400	642	10	10
TREE	400	642	10	10
TREE	400	642	10	10
TREE	400	642	10	10
TREE	400	642	10	10
TREE	400	642	10	10
TREE	400	642	10	10
TREE	400	642	10	10
TREE	400	642	10	10
TREE	400	642	10	10
TREE	400	642	10	10
TREE	400	642	10	10
TREE	400	663	10	10
TREE	400	663	10	10
TREE	400	663	10	10
TREE	400	663	10	10
TREE	400	663	10	10
TREE	400	663	10	10
TREE	400	663	10	10
TREE	400	663	10	10
TREE	400	663	10	10
TREE	400	650	10	10
TREE	400	650	10	10
TREE	400	650	10	10
TREE	400	650	10	10
TREE	400	650	10	10
TREE	400	650	10	10
TREE	400	650	10	10
TREE	400	650	10	10
TREE	400	650	10	10
TREE	500	784	10	10
TREE	500	784	10	10
TREE	500	784	10	10
TREE	500	784	10	10
TREE	500	784	10	10
TREE	500	784	10	10
TREE	500	767	10	10
TREE	500	767	10	10
TREE	500	776	10	10
TREE	500	757	10	10
TREE	500	757	10	10
TREE	500	757	10	10
TREE	500	757	10	10
TREE	500	774	10	10
TREE	500	774	10	10
TREE	500	774	10	10
TREE	500	774	10	10
TREE	500	740	10	10
TREE	500	740	10	10
TREE	500	740	10	10
TREE	500	740	10	10
TREE	500	769	10	10
TREE	500	769	10	10
TREE	500	769	10	10
TREE	500	769	10	10
TREE	500	770	10	10
TREE	500	770	10	10
TREE	500	770	10	10
TREE	500	770	10	10
TREE	500	770	10	10
TREE	500	766	10	10
TREE	500	766	10	10
TREE	500	766	10	10
TREE	500	766	10	10
TREE	500	766	10	10
TREE	500	766	10	10
TREE	500	763	10	10
TREE	500	763	10	10
TREE	500	763	10	10
TREE	500	766	10	10
TREE	500	766	10	10
TREE	500	766	10	10
TREE	500	768	10	10
TREE	500	768	10	10
TREE	500	768	10	10
TREE	500	768	10	10
TREE	500	756	10	10
TREE	500	756	10	10
TREE	500	756	10	10
TREE	500	752	10	10
TREE	500	771	10	10
TREE	500	771	10	10
TREE	500	771	10	10
TREE	500	771	10	10
TREE	500	771	10	10
TREE	500	777	10	10
TREE	500	777	10	10
TREE	500	777	10	10
TREE	500	777	10	10
TREE	500	777	10	10
TREE	500	783	10	10
TREE	500	783	10	10
TREE	500	783	10	10
TREE	500	783	10	10
TREE	500	783	10	10
TREE	500	783	10	10
TREE	500	766	10	10
TREE	500	766	10	10
TREE	500	766	10	10
TREE	500	770	10	10
TREE	500	770	10	10
TREE	500	770	10	10
TREE	500	770	10	10
TREE	500	770	10	10
TREE	500	769	10	10
TREE	500	769	10	10
TREE	500	769	10	10
TREE	500	769	10	10
TREE	500	767	10	10
TREE	500	780	10	10
TREE	500	780	10	10
TREE	500	780	10	10
TREE	500	780	10	10
TREE	500	780	10	10
TREE	500	759	10	10
TREE	500	759	10	10
TREE	500	759	10	10
TREE	500	759	10	10
TREE	500	772	10	10
TREE	500	772	10	10
TREE	500	772	10	10
TREE	500	772	10	10
TREE	500	776	10	10
TREE	500	776	10	10
TREE	500	776	10	10
TREE	500	776	10	10
TREE	500	776	10	10
TREE	500	752	10	10
TREE	500	752	10	10
TREE	500	752	10	10
TREE	500	752	10	10
TREE	500	752	10	10
TREE	500	752	10	10
TREE	500	752	10	10
TREE	500	752	10	10
TREE	500	752	10	10
TREE	500	782	10	10
TREE	500	782	10	10
TREE	500	782	10	10
TREE	500	782	10	10
TREE	500	782	10	10
TREE	500	782	10	10
TREE	500	760	10	10
TREE	500	760	10	10
TREE	500	760	10	10
TREE	500	760	10	10
TREE	500	744	10	10
TREE	10	99	10	20
TREE	10	114	10	20
TREE	10	74	10	20
TREE	10	106	10	20
TREE	10	111	10	20
TREE	10	103	10	20
TREE	10	81	10	20
TREE	10	102	10	20
TREE	10	123	10	20
TREE	10	108	10	20
TREE	10	107	10	20
TREE	10	75	10	20
TREE	10	72	10	20
TREE	10	121	10	20
TREE	10	161	10	20
TREE	10	99	10	20
TREE	10	99	10	20
TREE	10	92	10	20
TREE	10	120	10	20
TREE	10	105	10	20
TREE	10	104	10	20
TREE	10	101	10	20
TREE	10	109	10	20
TREE	10	84	10	20
TREE	10	120	10	20
TREE	10	110	10	20
TREE	10	90	10	20
TREE	10	103	10	20
TREE	10	124	10	20
TREE	10	106	10	20
TREE	50	397	10	20
TREE	50	417	10	20
TREE	50	410	10	20
TREE	50	407	10	20
TREE	50	393	10	20
TREE	50	398	10	20
TREE	50	397	10	20
TREE	50	409	10	20
TREE	50	422	10	20
TREE	50	413	10	20
TREE	50	415	10	20
TREE	50	414	10	20
TREE	50	456	10	20
TREE	50	407	10	20
TREE	50	443	10	20
TREE	50	413	10	20
TREE	50	398	10	20
TREE	50	434	10	20
TREE	50	393	10	20
TREE	50	394	10	20
TREE	50	397	10	20
TREE	50	428	10	20
TREE	50	378	10	20
TREE	50	407	10	20
TREE	50	414	10	20
TREE	50	408	10	20
TREE	50	461	10	20
TREE	50	399	10	20
TREE	50	412	10	20
TREE	50	390	10	20
TREE	100	1622	10	20
TREE	100	1599	10	20
TREE	100	1716	10	20
TREE	100	1619	10	20
TREE	100	1709	10	20
TREE	100	1623	10	20
TREE	100	1607	10	20
TREE	100	1630	10	20
TREE	100	1615	10	20
TREE	100	1633	10	20
TREE	100	1571	10	20
TREE	100	1615	10	20
TREE	100	1590	10	20
TREE	100	1596	10	20
TREE	100	1595	10	20
TREE	100	1589	10	20
TREE	100	1577	10	20
TREE	100	1589	10	20
TREE	100	1587	10	20
TREE	100	1607	10	20
TREE	100	1610	10	20
TREE	100	1597	10	20
TREE	100	1622	10	20
TREE	100	1597	10	20
TREE	100	1618	10	20
TREE	100	1612	10	20
TREE	100	1626	10	20
TREE	100	1622	10	20
TREE	100	1619	10	20
TREE	100	1593	10	20
TREE	150	4489	10	20
TREE	150	4489	10	20
TREE	150	4489	10	20
TREE	150	4489	10	20
TREE	150	4489	10	20
TREE	150	4489	10	20
TREE	150	4489	10	20
TREE	150	4489	10	20
TREE	150	4442	10	20
TREE	150	4442	10	20
TREE	150	4442	10	20
TREE	150	4442	10	20
TREE	150	4442	10	20
TREE	150	4442	10	20
TREE	150	4442	10	20
TREE	150	4433	10	20
TREE	150	4433	10	20
TREE	150	4433	10	20
TREE	150	4433	10	20
TREE	150	4433	10	20
TREE	150	4433	10	20
TREE	150	4433	10	20
TREE	150	4433	10	20
TREE	150	4427	10	20
TREE	150	4427	10	20
TREE	150	4427	10	20
TREE	150	4427	10	20
TREE	150	4427	10	20
TREE	150	4427	10	20
TREE	150	4427	10	20
TREE	150	4427	10	20
TREE	150	4423	10	20
TREE	150	4423	10	20
TREE	150	4423	10	20
TREE	150	4423	10	20
TREE	150	4423	10	20
TREE	150	4423	10	20
TREE	150	4423	10	20
TREE	150	4423	10	20
TREE	150	4507	10	20
TREE	150	4507	10	20
TREE	150	4507	10	20
TREE	150	4507	10	20
TREE	150	4507	10	20
TREE	150	4507	10	20
TREE	150	4507	10	20
TREE	150	4507	10	20
TREE	150	4507	10	20
TREE	150	4540	10	20
TREE	150	4540	10	20
TREE	150	4540	10	20
TREE	150	4540	10	20
TREE	150	4540	10	20
TREE	150	4540	10	20
TREE	150	4540	10	20
TREE	150	4540	10	20
TREE	150	4540	10	20
TREE	150	4498	10	20
TREE	150	4498	10	20
TREE	150	4498	10	20
TREE	150	4498	10	20
TREE	150	4498	10	20
TREE	150	4498	10	20
TREE	150	4498	10	20
TREE	150	4498	10	20
TREE	150	4436	10	20
TREE	150	4436	10	20
TREE	150	4436	10	20
TREE	150	4436	10	20
TREE	150	4436	10	20
TREE	150	4436	10	20
TREE	150	4436	10	20
TREE	150	4486	10	20
TREE	150	4486	10	20
TREE	150	4486	10	20
TREE	150	4486	10	20
TREE	150	4486	10	20
TREE	150	4486	10	20
TREE	150	4486	10	20
TREE	150	4478	10	20
TREE	150	4478	10	20
TREE	150	4478	10	20
TREE	150	4478	10	20
TREE	150	4478	10	20
TREE	150	4478	10	20
TREE	150	4478	10	20
TREE	150	4478	10	20
TREE	150	4411	10	20
TREE	150	4411	10	20
TREE	150	4411	10	20
TREE	150	4411	10	20
TREE	150	4411	10	20
TREE	150	4411	10	20
TREE	150	4411	10	20
TREE	150	4411	10	20
TREE	150	4446	10	20
TREE	150	4446	10	20
TREE	150	4446	10	20
TREE	150	4446	10	20
TREE	150	4446	10	20
TREE	150	4446	10	20
TREE	150	4446	10	20
TREE	150	4482	10	20
TREE	150	4482	10	20
TREE	150	4482	10	20
TREE	150	4482	10	20
TREE	150	4482	10	20
TREE	150	4482	10	20
TREE	150	4482	10	20
TREE	150	4482	10	20
TREE	150	4444	10	20
TREE	150	4444	10	20
TREE	150	4444	10	20
TREE	150	4444	10	20
TREE	150	4444	10	20
TREE	150	4444	10	20
TREE	150	4444	10	20
TREE	150	4444	10	20
TREE	150	4444	10	20
TREE	150	4441	10	20
TREE	150	4441	10	20
TREE	150	4441	10	20
TREE	150	4441	10	20
TREE	150	4441	10	20
TREE	150	4441	10	20
TREE	150	4441	10	20
TREE	150	4441	10	20
TREE	150	4439	10	20
TREE	150	4439	10	20
TREE	150	4439	10	20
TREE	150	4439	10	20
TREE	150	4439	10	20
TREE	150	4439	10	20
TREE	150	4439	10	20
TREE	150	4439	10	20
TREE	150	4421	10	20
TREE	150	4421	10	20
TREE	150	4421	10	20
TREE	150	4421	10	20
TREE	150	4421	10	20
TREE	150	4421	10	20
TREE	150	4421	10	20
TREE	150	4473	10	20
TREE	150	4473	10	20
TREE	150	4473	10	20
TREE	150	4473	10	20
TREE	150	4473	10	20
TREE	150	4473	10	20
TREE	150	4456	10	20
TREE	150	4456	10	20
TREE	150	4456	10	20
TREE	150	4456	10	20
TREE	150	4456	10	20
TREE	150	4456	10	20
TREE	150	4456	10	20
TREE	150	4456	10	20
TREE	150	4456	10	20
TREE	150	4439	10	20
TREE	150	4439	10	20
TREE	150	4439	10	20
TREE	150	4439	10	20
TREE	150	4439	10	20
TREE	150	4439	10	20
TREE	150	4439	10	20
TREE	150	4439	10	20
TREE	150	4439	10	20
TREE	150	4440	10	20
TREE	150	4440	10	20
TREE	150	4440	10	20
TREE	150	4440	10	20
TREE	150	4440	10	20
TREE	150	4440	10	20
TREE	150	4440	10	20
TREE	150	4440	10	20
TREE	150	4447	10	20
TREE	150	4447	10	20
TREE	150	4447	10	20
TREE	150	4447	10	20
TREE	150	4447	10	20
TREE	150	4447	10	20
TREE	150	4447	10	20
TREE	150	4414	10	20
TREE	150	4414	10	20
TREE	150	4414	10	20
TREE	150	4414	10	20
TREE	150	4414	10	20
TREE	150	4414	10	20
TREE	150	4414	10	20
TREE	150	4406	10	20
TREE	150	4406	10	20
TREE	150	4406	10	20
TREE	150	4406	10	20
TREE	150	4406	10	20
TREE	150	4406	10	20
TREE	150	4406	10	20
TREE	150	4406	10	20
TREE	150	4426	10	20
TREE	150	4426	10	20
TREE	150	4426	10	20
TREE	150	4426	10	20
TREE	150	4426	10	20
TREE	150	4426	10	20
TREE	150	4426	10	20
TREE	150	4426	10	20
TREE	150	4426	10	20
TREE	150	4512	10	20
TREE	150	4512	10	20
TREE	150	4512	10	20
TREE	150	4512	10	20
TREE	150	4512	10	20
TREE	150	4512	10	20
TREE	150	4512	10	20
TREE	150	4512	10	20
TREE	150	4512	10	20
TREE	150	4428	10	20
TREE	150	4428	10	20
TREE	150	4428	10	20
TREE	150	4428	10	20
TREE	150	4428	10	20
TREE	150	4428	10	20
TREE	150	4428	10	20
TREE	150	4428	10	20
TREE	150	4427	10	20
TREE	150	4427	10	20
TREE	150	4427	10	20
TREE	150	4427	10	20
TREE	150	4427	10	20
TREE	150	4427	10	20
TREE	150	4427	10	20
TREE	150	4427	10	20
TREE	150	4478	10	20
TREE	150	4478	10	20
TREE	150	4478	10	20
TREE	150	4478	10	20
TREE	150	4478	10	20
TREE	150	4478	10	20
TREE	150	4478	10	20
TREE	150	4478	10	20
TREE	250	7470	10	20
TREE	250	7470	10	20
TREE	250	445	10	20
TREE	250	440	10	20
TREE	250	437	10	20
TREE	250	447	10	20
TREE	250	437	10	20
TREE	250	442	10	20
TREE	250	448	10	20
TREE	250	443	10	20
TREE	250	446	10	20
TREE	250	438	10	20
TREE	250	444	10	20
TREE	250	8090	10	20
TREE	250	8090	10	20
TREE	250	447	10	20
TREE	250	450	10	20
TREE	250	450	10	20
TREE	250	446	10	20
TREE	250	431	10	20
TREE	250	9021	10	20
TREE	250	9021	10	20
TREE	250	459	10	20
TREE	250	441	10	20
TREE	250	441	10	20
TREE	250	436	10	20
TREE	250	444	10	20
TREE	250	441	10	20
TREE	250	468	10	20
TREE	250	446	10	20
TREE	250	443	10	20
TREE	250	460	10	20
TREE	250	7566	10	20
TREE	250	7566	10	20
TREE	300	524	10	20
TREE	300	524	10	20
TREE	300	511	10	20
TREE	300	515	10	20
TREE	300	515	10	20
TREE	300	512	10	20
TREE	300	8787	10	20
TREE	300	8787	10	20
TREE	300	8787	10	20
TREE	300	7114	10	20
TREE	300	7114	10	20
TREE	300	553	10	20
TREE	300	547	10	20
TREE	300	556	10	20
TREE	300	541	10	20
TREE	300	538	10	20
TREE	300	514	10	20
TREE	300	525	10	20
TREE	300	532	10	20
TREE	300	532	10	20
TREE	300	532	10	20
TREE	300	526	10	20
TREE	300	534	10	20
TREE	300	532	10	20
TREE	300	531	10	20
TREE	300	531	10	20
TREE	300	531	10	20
TREE	300	527	10	20
TREE	300	9123	10	20
TREE	300	9123	10	20
TREE	300	9123	10	20
TREE	300	538	10	20
TREE	300	532	10	20
TREE	300	522	10	20
TREE	300	8241	10	20
TREE	300	8241	10	20
TREE	300	8241	10	20
TREE	300	519	10	20
TREE	300	544	10	20
TREE	300	545	10	20
TREE	300	539	10	20
TREE	300	531	10	20
TREE	400	652	10	20
TREE	400	652	10	20
TREE	400	652	10	20
TREE	400	652	10	20
TREE	400	652	10	20
TREE	400	652	10	20
TREE	400	652	10	20
TREE	400	616	10	20
TREE	400	616	10	20
TREE	400	616	10	20
TREE	400	616	10	20
TREE	400	616	10	20
TREE	400	616	10	20
TREE	400	616	10	20
TREE	400	7007	10	20
TREE	400	7007	10	20
TREE	400	7007	10	20
TREE	400	6883	10	20
TREE	400	6883	10	20
TREE	400	647	10	20
TREE	400	647	10	20
TREE	400	647	10	20
TREE	400	647	10	20
TREE	400	647	10	20
TREE	400	643	10	20
TREE	400	643	10	20
TREE	400	643	10	20
TREE	400	643	10	20
TREE	400	643	10	20
TREE	400	643	10	20
TREE	400	662	10	20
TREE	400	662	10	20
TREE	400	662	10	20
TREE	400	6654	10	20
TREE	400	6654	10	20
TREE	400	646	10	20
TREE	400	646	10	20
TREE	400	646	10	20
TREE	400	646	10	20
TREE	400	646	10	20
TREE	400	646	10	20
TREE	400	646	10	20
TREE	400	646	10	20
TREE	400	612	10	20
TREE	400	612	10	20
TREE	400	612	10	20
TREE	400	612	10	20
TREE	400	612	10	20
TREE	400	612	10	20
TREE	400	658	10	20
TREE	400	658	10	20
TREE	400	658	10	20
TREE	400	658	10	20
TREE	400	658	10	20
TREE	400	658	10	20
TREE	400	658	10	20
TREE	400	7227	10	20
TREE	400	7227	10	20
TREE	400	643	10	20
TREE	400	643	10	20
TREE	400	643	10	20
TREE	400	643	10	20
TREE	400	643	10	20
TREE	400	643	10	20
TREE	400	643	10	20
TREE	400	678	10	20
TREE	400	678	10	20
TREE	400	678	10	20
TREE	400	678	10	20
TREE	400	678	10	20
TREE	400	678	10	20
TREE	400	678	10	20
TREE	400	621	10	20
TREE	400	621	10	20
TREE	400	621	10	20
TREE	400	621	10	20
TREE	400	621	10	20
TREE	400	621	10	20
TREE	400	621	10	20
TREE	400	663	10	20
TREE	400	663	10	20
TREE	400	663	10	20
TREE	400	663	10	20
TREE	400	649	10	20
TREE	400	649	10	20
TREE	400	649	10	20
TREE	400	649	10	20
TREE	400	649	10	20
TREE	400	649	10	20
TREE	400	649	10	20
TREE	400	622	10	20
TREE	400	622	10	20
TREE	400	622	10	20
TREE	400	622	10	20
TREE	400	622	10	20
TREE	400	622	10	20
TREE	400	655	10	20
TREE	400	655	10	20
TREE	400	655	10	20
TREE	400	655	10	20
TREE	400	655	10	20
TREE	400	634	10	20
TREE	400	634	10	20
TREE	400	634	10	20
TREE	400	640	10	20
TREE	400	640	10	20
TREE	400	640	10	20
TREE	400	640	10	20
TREE	400	640	10	20
TREE	400	640	10	20
TREE	400	659	10	20
TREE	400	659	10	20
TREE	400	659	10	20
TREE	400	659	10	20
TREE	400	659	10	20
TREE	400	659	10	20
TREE	400	659	10	20
TREE	400	659	10	20
TREE	400	659	10	20
TREE	400	641	10	20
TREE	400	641	10	20
TREE	400	641	10	20
TREE	400	641	10	20
TREE	400	641	10	20
TREE	400	641	10	20
TREE	400	641	10	20
TREE	400	641	10	20
TREE	400	629	10	20
TREE	400	629	10	20
TREE	400	629	10	20
TREE	400	629	10	20
TREE	400	629	10	20
TREE	400	629	10	20
TREE	400	629	10	20
TREE	400	626	10	20
TREE	400	626	10	20
TREE	400	626	10	20
TREE	400	626	10	20
TREE	400	626	10	20
TREE	400	626	10	20
TREE	400	626	10	20
TREE	400	626	10	20
TREE	400	626	10	20
TREE	400	644	10	20
TREE	400	644	10	20
TREE	400	644	10	20
TREE	400	639	10	20
TREE	400	639	10	20
TREE	400	646	10	20
TREE	400	646	10	20
TREE	400	626	10	20
TREE	400	626	10	20
TREE	400	626	10	20
TREE	400	626	10	20
TREE	400	626	10	20
TREE	400	626	10	20
TREE	400	626	10	20
TREE	400	648	10	20
TREE	400	648	10	20
TREE	400	648	10	20
TREE	500	773	10	20
TREE	500	773	10	20
TREE	500	773	10	20
TREE	500	773	10	20
TREE	500	773	10	20
TREE	500	773	10	20
TREE	500	773	10	20
TREE	500	802	10	20
TREE	500	802	10	20
TREE	500	802	10	20
TREE	500	802	10	20
TREE	500	802	10	20
TREE	500	802	10	20
TREE	500	802	10	20
TREE	500	778	10	20
TREE	500	778	10	20
TREE	500	778	10	20
TREE	500	778	10	20
TREE	500	778	10	20
TREE	500	778	10	20
TREE	500	778	10	20
TREE	500	767	10	20
TREE	500	767	10	20
TREE	500	767	10	20
TREE	500	767	10	20
TREE	500	767	10	20
TREE	500	767	10	20
TREE	500	767	10	20
TREE	500	767	10	20
TREE	500	788	10	20
TREE	500	788	10	20
TREE	500	788	10	20
TREE	500	788	10	20
TREE	500	788	10	20
TREE	500	788	10	20
TREE	500	782	10	20
TREE	500	782	10	20
TREE	500	782	10	20
TREE	500	783	10	20
TREE	500	783	10	20
TREE	500	783	10	20
TREE	500	783	10	20
TREE	500	783	10	20
TREE	500	783	10	20
TREE	500	783	10	20
TREE	500	2101	10	20
TREE	500	2101	10	20
TREE	500	2101	10	20
TREE	500	2101	10	20
TREE	500	2101	10	20
TREE	500	2101	10	20
TREE	500	2101	10	20
TREE	500	2101	10	20
TREE	500	783	10	20
TREE	500	783	10	20
TREE	500	783	10	20
TREE	500	783	10	20
TREE	500	783	10	20
TREE	500	783	10	20
TREE	500	783	10	20
TREE	500	783	10	20
TREE	500	11556	10	20
TREE	500	11556	10	20
TREE	500	11556	10	20
TREE	500	776	10	20
TREE	500	776	10	20
TREE	500	776	10	20
TREE	500	776	10	20
TREE	500	776	10	20
TREE	500	776	10	20
TREE	500	768	10	20
TREE	500	768	10	20
TREE	500	768	10	20
TREE	500	768	10	20
TREE	500	768	10	20
TREE	500	768	10	20
TREE	500	768	10	20
TREE	500	8955	10	20
TREE	500	8955	10	20
TREE	500	8955	10	20
TREE	500	818	10	20
TREE	500	818	10	20
TREE	500	818	10	20
TREE	500	818	10	20
TREE	500	818	10	20
TREE	500	818	10	20
TREE	500	818	10	20
TREE	500	818	10	20
TREE	500	818	10	20
TREE	500	818	10	20
TREE	500	772	10	20
TREE	500	772	10	20
TREE	500	772	10	20
TREE	500	772	10	20
TREE	500	772	10	20
TREE	500	772	10	20
TREE	500	772	10	20
TREE	500	772	10	20
TREE	500	782	10	20
TREE	500	782	10	20
TREE	500	782	10	20
TREE	500	782	10	20
TREE	500	782	10	20
TREE	500	782	10	20
TREE	500	795	10	20
TREE	500	795	10	20
TREE	500	795	10	20
TREE	500	795	10	20
TREE	500	786	10	20
TREE	500	786	10	20
TREE	500	786	10	20
TREE	500	786	10	20
TREE	500	786	10	20
TREE	500	786	10	20
TREE	500	786	10	20
TREE	500	786	10	20
TREE	500	786	10	20
TREE	500	10253	10	20
TREE	500	10253	10	20
TREE	500	10253	10	20
TREE	500	798	10	20
TREE	500	798	10	20
TREE	500	11652	10	20
TREE	500	11652	10	20
TREE	500	11652	10	20
TREE	500	765	10	20
TREE	500	765	10	20
TREE	500	765	10	20
TREE	500	767	10	20
TREE	500	767	10	20
TREE	500	767	10	20
TREE	500	787	10	20
TREE	500	787	10	20
TREE	500	787	10	20
TREE	500	787	10	20
TREE	500	787	10	20
TREE	500	787	10	20
TREE	500	787	10	20
TREE	500	778	10	20
TREE	500	778	10	20
TREE	500	778	10	20
TREE	500	778	10	20
TREE	500	778	10	20
TREE	500	807	10	20
TREE	500	807	10	20
TREE	500	807	10	20
TREE	500	807	10	20
TREE	500	781	10	20
TREE	500	781	10	20
TREE	500	781	10	20
TREE	500	781	10	20
TREE	500	781	10	20
TREE	500	781	10	20
TREE	500	782	10	20
TREE	500	782	10	20
TREE	500	782	10	20
TREE	500	782	10	20
TREE	500	782	10	20
TREE	500	782	10	20
TREE	500	782	10	20
TREE	500	783	10	20
TREE	500	783	10	20
TREE	500	783	10	20
TREE	500	783	10	20
TREE	500	783	10	20
TREE	500	759	10	20
TREE	500	759	10	20
TREE	500	759	10	20
TREE	500	759	10	20
TREE	500	759	10	20
TREE	10	96	10	50
TREE	10	81	10	50
TREE	10	77	10	50
TREE	10	87	10	50
TREE	10	69	10	50
TREE	10	85	10	50
TREE	10	93	10	50
TREE	10	91	10	50
TREE	10	109	10	50
TREE	10	93	10	50
TREE	10	79	10	50
TREE	10	96	10	50
TREE	10	98	10	50
TREE	10	82	10	50
TREE	10	124	10	50
TREE	10	111	10	50
TREE	10	96	10	50
TREE	10	105	10	50
TREE	10	106	10	50
TREE	10	106	10	50
TREE	10	84	10	50
TREE	10	95	10	50
TREE	10	105	10	50
TREE	10	84	10	50
TREE	10	67	10	50
TREE	10	104	10	50
TREE	10	99	10	50
TREE	10	101	10	50
TREE	10	72	10	50
TREE	10	95	10	50
TREE	50	419	10	50
TREE	50	377	10	50
TREE	50	418	10	50
TREE	50	392	10	50
TREE	50	420	10	50
TREE	50	409	10	50
TREE	50	401	10	50
TREE	50	406	10	50
TREE	50	386	10	50
TREE	50	407	10	50
TREE	50	425	10	50
TREE	50	408	10	50
TREE	50	376	10	50
TREE	50	399	10	50
TREE	50	410	10	50
TREE	50	412	10	50
TREE	50	429	10	50
TREE	50	400	10	50
TREE	50	413	10	50
TREE	50	423	10	50
TREE	50	429	10	50
TREE	50	420	10	50
TREE	50	414	10	50
TREE	50	406	10	50
TREE	50	390	10	50
TREE	50	424	10	50
TREE	50	415	10	50
TREE	50	405	10	50
TREE	50	425	10	50
TREE	50	414	10	50
TREE	100	1609	10	50
TREE	100	1631	10	50
TREE	100	1717	10	50
TREE	100	1613	10	50
TREE	100	1635	10	50
TREE	100	1618	10	50
TREE	100	1658	10	50
TREE	100	1629	10	50
TREE	100	1589	10	50
TREE	100	1629	10	50
TREE	100	1620	10	50
TREE	100	1610	10	50
TREE	100	1618	10	50
TREE	100	1611	10	50
TREE	100	1606	10	50
TREE	100	1644	10	50
TREE	100	1606	10	50
TREE	100	1599	10	50
TREE	100	1611	10	50
TREE	100	1642	10	50
TREE	100	1628	10	50
TREE	100	1600	10	50
TREE	100	1757	10	50
TREE	100	1636	10	50
TREE	100	1615	10	50
TREE	100	1613	10	50
TREE	100	1614	10	50
TREE	100	1621	10	50
TREE	100	1630	10	50
TREE	100	1618	10	50
TREE	150	4483	10	50
TREE	150	4483	10	50
TREE	150	4483	10	50
TREE	150	4483	10	50
TREE	150	4483	10	50
TREE	150	4483	10	50
TREE	150	4483	10	50
TREE	150	4483	10	50
TREE	150	4483	10	50
TREE	150	4454	10	50
TREE	150	4454	10	50
TREE	150	4454	10	50
TREE	150	4454	10	50
TREE	150	4454	10	50
TREE	150	4454	10	50
TREE	150	4454	10	50
TREE	150	4454	10	50
TREE	150	4437	10	50
TREE	150	4437	10	50
TREE	150	4437	10	50
TREE	150	4437	10	50
TREE	150	4437	10	50
TREE	150	4437	10	50
TREE	150	4437	10	50
TREE	150	4437	10	50
TREE	150	4454	10	50
TREE	150	4454	10	50
TREE	150	4454	10	50
TREE	150	4454	10	50
TREE	150	4454	10	50
TREE	150	4454	10	50
TREE	150	4454	10	50
TREE	150	4454	10	50
TREE	150	4431	10	50
TREE	150	4431	10	50
TREE	150	4431	10	50
TREE	150	4431	10	50
TREE	150	4431	10	50
TREE	150	4431	10	50
TREE	150	4431	10	50
TREE	150	4431	10	50
TREE	150	4427	10	50
TREE	150	4427	10	50
TREE	150	4427	10	50
TREE	150	4427	10	50
TREE	150	4427	10	50
TREE	150	4427	10	50
TREE	150	4427	10	50
TREE	150	4472	10	50
TREE	150	4472	10	50
TREE	150	4472	10	50
TREE	150	4472	10	50
TREE	150	4472	10	50
TREE	150	4472	10	50
TREE	150	4472	10	50
TREE	150	4472	10	50
TREE	150	4472	10	50
TREE	150	4472	10	50
TREE	150	4472	10	50
TREE	150	4472	10	50
TREE	150	4472	10	50
TREE	150	4472	10	50
TREE	150	4472	10	50
TREE	150	4446	10	50
TREE	150	4446	10	50
TREE	150	4446	10	50
TREE	150	4446	10	50
TREE	150	4446	10	50
TREE	150	4446	10	50
TREE	150	4446	10	50
TREE	150	4446	10	50
TREE	150	4385	10	50
TREE	150	4385	10	50
TREE	150	4385	10	50
TREE	150	4385	10	50
TREE	150	4385	10	50
TREE	150	4385	10	50
TREE	150	4385	10	50
TREE	150	4481	10	50
TREE	150	4481	10	50
TREE	150	4481	10	50
TREE	150	4481	10	50
TREE	150	4481	10	50
TREE	150	4481	10	50
TREE	150	4481	10	50
TREE	150	4481	10	50
TREE	150	4481	10	50
TREE	150	4460	10	50
TREE	150	4460	10	50
TREE	150	4460	10	50
TREE	150	4460	10	50
TREE	150	4460	10	50
TREE	150	4460	10	50
TREE	150	4460	10	50
TREE	150	4460	10	50
TREE	150	4460	10	50
TREE	150	4416	10	50
TREE	150	4416	10	50
TREE	150	4416	10	50
TREE	150	4416	10	50
TREE	150	4416	10	50
TREE	150	4416	10	50
TREE	150	4416	10	50
TREE	150	4416	10	50
TREE	150	4416	10	50
TREE	150	4621	10	50
TREE	150	4621	10	50
TREE	150	4621	10	50
TREE	150	4621	10	50
TREE	150	4621	10	50
TREE	150	4621	10	50
TREE	150	4454	10	50
TREE	150	4454	10	50
TREE	150	4454	10	50
TREE	150	4454	10	50
TREE	150	4454	10	50
TREE	150	4454	10	50
TREE	150	4454	10	50
TREE	150	4454	10	50
TREE	150	4455	10	50
TREE	150	4455	10	50
TREE	150	4455	10	50
TREE	150	4455	10	50
TREE	150	4455	10	50
TREE	150	4455	10	50
TREE	150	4455	10	50
TREE	150	4455	10	50
TREE	150	4455	10	50
TREE	150	4576	10	50
TREE	150	4576	10	50
TREE	150	4576	10	50
TREE	150	4576	10	50
TREE	150	4576	10	50
TREE	150	4576	10	50
TREE	150	4576	10	50
TREE	150	4576	10	50
TREE	150	4464	10	50
TREE	150	4464	10	50
TREE	150	4464	10	50
TREE	150	4464	10	50
TREE	150	4464	10	50
TREE	150	4464	10	50
TREE	150	4464	10	50
TREE	150	4464	10	50
TREE	150	4454	10	50
TREE	150	4454	10	50
TREE	150	4454	10	50
TREE	150	4454	10	50
TREE	150	4454	10	50
TREE	150	4454	10	50
TREE	150	4454	10	50
TREE	150	4454	10	50
TREE	150	4454	10	50
TREE	150	4456	10	50
TREE	150	4456	10	50
TREE	150	4456	10	50
TREE	150	4456	10	50
TREE	150	4456	10	50
TREE	150	4456	10	50
TREE	150	4456	10	50
TREE	150	4456	10	50
TREE	150	4456	10	50
TREE	150	4489	10	50
TREE	150	4489	10	50
TREE	150	4489	10	50
TREE	150	4489	10	50
TREE	150	4489	10	50
TREE	150	4489	10	50
TREE	150	4489	10	50
TREE	150	4462	10	50
TREE	150	4462	10	50
TREE	150	4462	10	50
TREE	150	4462	10	50
TREE	150	4462	10	50
TREE	150	4462	10	50
TREE	150	4462	10	50
TREE	150	4462	10	50
TREE	150	4444	10	50
TREE	150	4444	10	50
TREE	150	4444	10	50
TREE	150	4444	10	50
TREE	150	4444	10	50
TREE	150	4444	10	50
TREE	150	4444	10	50
TREE	150	4444	10	50
TREE	150	4408	10	50
TREE	150	4408	10	50
TREE	150	4408	10	50
TREE	150	4408	10	50
TREE	150	4408	10	50
TREE	150	4408	10	50
TREE	150	4408	10	50
TREE	150	4408	10	50
TREE	150	4469	10	50
TREE	150	4469	10	50
TREE	150	4469	10	50
TREE	150	4469	10	50
TREE	150	4469	10	50
TREE	150	4469	10	50
TREE	150	4469	10	50
TREE	150	4469	10	50
TREE	150	4480	10	50
TREE	150	4480	10	50
TREE	150	4480	10	50
TREE	150	4480	10	50
TREE	150	4480	10	50
TREE	150	4480	10	50
TREE	150	4480	10	50
TREE	150	4480	10	50
TREE	150	4429	10	50
TREE	150	4429	10	50
TREE	150	4429	10	50
TREE	150	4429	10	50
TREE	150	4429	10	50
TREE	150	4429	10	50
TREE	150	4429	10	50
TREE	150	4429	10	50
TREE	150	4507	10	50
TREE	150	4507	10	50
TREE	150	4507	10	50
TREE	150	4507	10	50
TREE	150	4507	10	50
TREE	150	4507	10	50
TREE	150	4507	10	50
TREE	150	4507	10	50
TREE	150	4521	10	50
TREE	150	4521	10	50
TREE	150	4521	10	50
TREE	150	4521	10	50
TREE	150	4521	10	50
TREE	150	4521	10	50
TREE	150	4521	10	50
TREE	150	4521	10	50
TREE	150	4449	10	50
TREE	150	4449	10	50
TREE	150	4449	10	50
TREE	150	4449	10	50
TREE	150	4449	10	50
TREE	150	4449	10	50
TREE	150	4449	10	50
TREE	150	4449	10	50
TREE	250	19772	10	50
TREE	250	19772	10	50
TREE	250	19772	10	50
TREE	250	19628	10	50
TREE	250	19628	10	50
TREE	250	19628	10	50
TREE	250	19482	10	50
TREE	250	19482	10	50
TREE	250	19482	10	50
TREE	250	19530	10	50
TREE	250	19530	10	50
TREE	250	19530	10	50
TREE	250	19608	10	50
TREE	250	19608	10	50
TREE	250	19608	10	50
TREE	250	19608	10	50
TREE	250	19500	10	50
TREE	250	19500	10	50
TREE	250	19500	10	50
TREE	250	19500	10	50
TREE	250	19374	10	50
TREE	250	19374	10	50
TREE	250	19374	10	50
TREE	250	19499	10	50
TREE	250	19499	10	50
TREE	250	19499	10	50
TREE	250	19499	10	50
TREE	250	19491	10	50
TREE	250	19491	10	50
TREE	250	19491	10	50
TREE	250	19491	10	50
TREE	250	19644	10	50
TREE	250	19644	10	50
TREE	250	19644	10	50
TREE	250	19644	10	50
TREE	250	19501	10	50
TREE	250	19501	10	50
TREE	250	19345	10	50
TREE	250	19345	10	50
TREE	250	19345	10	50
TREE	250	19345	10	50
TREE	250	19869	10	50
TREE	250	19869	10	50
TREE	250	19869	10	50
TREE	250	19869	10	50
TREE	250	19869	10	50
TREE	250	19415	10	50
TREE	250	19415	10	50
TREE	250	19415	10	50
TREE	250	19415	10	50
TREE	250	19859	10	50
TREE	250	19859	10	50
TREE	250	19543	10	50
TREE	250	19543	10	50
TREE	250	19543	10	50
TREE	250	19368	10	50
TREE	250	19368	10	50
TREE	250	19971	10	50
TREE	250	19971	10	50
TREE	250	19971	10	50
TREE	250	19425	10	50
TREE	250	19425	10	50
TREE	250	19440	10	50
TREE	250	19440	10	50
TREE	250	19440	10	50
TREE	250	19440	10	50
TREE	250	19440	10	50
TREE	250	19439	10	50
TREE	250	19439	10	50
TREE	250	19439	10	50
TREE	250	19590	10	50
TREE	250	19590	10	50
TREE	250	19590	10	50
TREE	250	19437	10	50
TREE	250	19437	10	50
TREE	250	19437	10	50
TREE	250	19632	10	50
TREE	250	19632	10	50
TREE	250	19632	10	50
TREE	250	19398	10	50
TREE	250	19398	10	50
TREE	250	19398	10	50
TREE	250	19507	10	50
TREE	250	19507	10	50
TREE	250	19507	10	50
TREE	250	19338	10	50
TREE	250	19338	10	50
TREE	250	19338	10	50
TREE	250	19338	10	50
TREE	250	19338	10	50
TREE	250	19512	10	50
TREE	250	19512	10	50
TREE	250	19512	10	50
TREE	250	19613	10	50
TREE	250	19613	10	50
TREE	250	19613	10	50
TREE	250	19482	10	50
TREE	250	19482	10	50
SECRO	10	109	10	10
SECRO	10	88	10	10
SECRO	10	120	10	10
SECRO	10	357	10	10
SECRO	10	107	10	10
SECRO	10	100	10	10
SECRO	10	81	10	10
SECRO	10	83	10	10
SECRO	10	106	10	10
SECRO	10	97	10	10
SECRO	10	101	10	10
SECRO	10	108	10	10
SECRO	10	111	10	10
SECRO	10	116	10	10
SECRO	10	85	10	10
SECRO	10	111	10	10
SECRO	10	113	10	10
SECRO	10	92	10	10
SECRO	10	120	10	10
SECRO	10	92	10	10
SECRO	10	84	10	10
SECRO	10	106	10	10
SECRO	10	102	10	10
SECRO	10	102	10	10
SECRO	10	115	10	10
SECRO	10	104	10	10
SECRO	10	105	10	10
SECRO	10	105	10	10
SECRO	10	74	10	10
SECRO	10	88	10	10
SECRO	50	351	10	10
SECRO	50	379	10	10
SECRO	50	391	10	10
SECRO	50	363	10	10
SECRO	50	381	10	10
SECRO	50	362	10	10
SECRO	50	382	10	10
SECRO	50	365	10	10
SECRO	50	367	10	10
SECRO	50	381	10	10
SECRO	50	374	10	10
SECRO	50	364	10	10
SECRO	50	377	10	10
SECRO	50	346	10	10
SECRO	50	383	10	10
SECRO	50	373	10	10
SECRO	50	384	10	10
SECRO	50	389	10	10
SECRO	50	377	10	10
SECRO	50	373	10	10
SECRO	50	364	10	10
SECRO	50	378	10	10
SECRO	50	381	10	10
SECRO	50	388	10	10
SECRO	50	376	10	10
SECRO	50	373	10	10
SECRO	50	423	10	10
SECRO	50	408	10	10
SECRO	50	392	10	10
SECRO	50	368	10	10
SECRO	100	217	10	10
SECRO	100	242	10	10
SECRO	100	215	10	10
SECRO	100	213	10	10
SECRO	100	225	10	10
SECRO	100	231	10	10
SECRO	100	236	10	10
SECRO	100	211	10	10
SECRO	100	233	10	10
SECRO	100	632	10	10
SECRO	100	219	10	10
SECRO	100	248	10	10
SECRO	100	222	10	10
SECRO	100	234	10	10
SECRO	100	232	10	10
SECRO	100	211	10	10
SECRO	100	240	10	10
SECRO	100	221	10	10
SECRO	100	226	10	10
SECRO	100	250	10	10
SECRO	100	226	10	10
SECRO	100	240	10	10
SECRO	100	241	10	10
SECRO	100	217	10	10
SECRO	100	231	10	10
SECRO	100	232	10	10
SECRO	100	481	10	10
SECRO	100	233	10	10
SECRO	100	212	10	10
SECRO	100	234	10	10
SECRO	150	291	10	10
SECRO	150	296	10	10
SECRO	150	316	10	10
SECRO	150	284	10	10
SECRO	150	303	10	10
SECRO	150	298	10	10
SECRO	150	272	10	10
SECRO	150	297	10	10
SECRO	150	292	10	10
SECRO	150	290	10	10
SECRO	150	302	10	10
SECRO	150	298	10	10
SECRO	150	288	10	10
SECRO	150	291	10	10
SECRO	150	286	10	10
SECRO	150	304	10	10
SECRO	150	1153	10	10
SECRO	150	306	10	10
SECRO	150	292	10	10
SECRO	150	313	10	10
SECRO	150	297	10	10
SECRO	150	278	10	10
SECRO	150	291	10	10
SECRO	150	301	10	10
SECRO	150	297	10	10
SECRO	150	294	10	10
SECRO	150	302	10	10
SECRO	150	306	10	10
SECRO	150	283	10	10
SECRO	150	298	10	10
SECRO	250	413	10	10
SECRO	250	418	10	10
SECRO	250	432	10	10
SECRO	250	428	10	10
SECRO	250	436	10	10
SECRO	250	424	10	10
SECRO	250	438	10	10
SECRO	250	438	10	10
SECRO	250	438	10	10
SECRO	250	431	10	10
SECRO	250	425	10	10
SECRO	250	440	10	10
SECRO	250	421	10	10
SECRO	250	428	10	10
SECRO	250	431	10	10
SECRO	250	408	10	10
SECRO	250	422	10	10
SECRO	250	416	10	10
SECRO	250	428	10	10
SECRO	250	420	10	10
SECRO	250	437	10	10
SECRO	250	431	10	10
SECRO	250	435	10	10
SECRO	250	429	10	10
SECRO	250	418	10	10
SECRO	250	1273	10	10
SECRO	250	426	10	10
SECRO	250	424	10	10
SECRO	250	1384	10	10
SECRO	250	433	10	10
SECRO	300	476	10	10
SECRO	300	473	10	10
SECRO	300	473	10	10
SECRO	300	473	10	10
SECRO	300	471	10	10
SECRO	300	471	10	10
SECRO	300	471	10	10
SECRO	300	471	10	10
SECRO	300	471	10	10
SECRO	300	471	10	10
SECRO	300	471	10	10
SECRO	300	471	10	10
SECRO	300	486	10	10
SECRO	300	486	10	10
SECRO	300	486	10	10
SECRO	300	479	10	10
SECRO	300	479	10	10
SECRO	300	479	10	10
SECRO	300	513	10	10
SECRO	300	474	10	10
SECRO	300	474	10	10
SECRO	300	474	10	10
SECRO	300	497	10	10
SECRO	300	497	10	10
SECRO	300	497	10	10
SECRO	300	468	10	10
SECRO	300	478	10	10
SECRO	300	478	10	10
SECRO	300	478	10	10
SECRO	300	478	10	10
SECRO	300	489	10	10
SECRO	300	489	10	10
SECRO	300	485	10	10
SECRO	300	485	10	10
SECRO	300	485	10	10
SECRO	300	496	10	10
SECRO	300	478	10	10
SECRO	300	478	10	10
SECRO	300	478	10	10
SECRO	300	474	10	10
SECRO	300	474	10	10
SECRO	300	474	10	10
SECRO	300	1373	10	10
SECRO	300	477	10	10
SECRO	300	477	10	10
SECRO	300	477	10	10
SECRO	300	481	10	10
SECRO	300	515	10	10
SECRO	300	515	10	10
SECRO	300	515	10	10
SECRO	300	515	10	10
SECRO	300	515	10	10
SECRO	300	483	10	10
SECRO	300	1522	10	10
SECRO	300	475	10	10
SECRO	300	475	10	10
SECRO	300	475	10	10
SECRO	300	475	10	10
SECRO	300	1283	10	10
SECRO	300	501	10	10
SECRO	300	501	10	10
SECRO	300	501	10	10
SECRO	300	501	10	10
SECRO	300	484	10	10
SECRO	300	484	10	10
SECRO	300	484	10	10
SECRO	300	484	10	10
SECRO	300	488	10	10
SECRO	300	488	10	10
SECRO	300	488	10	10
SECRO	300	486	10	10
SECRO	300	486	10	10
SECRO	300	486	10	10
SECRO	300	486	10	10
SECRO	300	486	10	10
SECRO	300	478	10	10
SECRO	300	478	10	10
SECRO	300	478	10	10
SECRO	300	478	10	10
SECRO	300	498	10	10
SECRO	400	585	10	10
SECRO	400	585	10	10
SECRO	400	585	10	10
SECRO	400	585	10	10
SECRO	400	585	10	10
SECRO	400	585	10	10
SECRO	400	585	10	10
SECRO	400	594	10	10
SECRO	400	594	10	10
SECRO	400	594	10	10
SECRO	400	594	10	10
SECRO	400	594	10	10
SECRO	400	594	10	10
SECRO	400	594	10	10
SECRO	400	594	10	10
SECRO	400	622	10	10
SECRO	400	622	10	10
SECRO	400	622	10	10
SECRO	400	622	10	10
SECRO	400	622	10	10
SECRO	400	622	10	10
SECRO	400	592	10	10
SECRO	400	592	10	10
SECRO	400	592	10	10
SECRO	400	592	10	10
SECRO	400	592	10	10
SECRO	400	592	10	10
SECRO	400	602	10	10
SECRO	400	602	10	10
SECRO	400	602	10	10
SECRO	400	602	10	10
SECRO	400	602	10	10
SECRO	400	575	10	10
SECRO	400	575	10	10
SECRO	400	575	10	10
SECRO	400	602	10	10
SECRO	400	602	10	10
SECRO	400	602	10	10
SECRO	400	602	10	10
SECRO	400	602	10	10
SECRO	400	602	10	10
SECRO	400	617	10	10
SECRO	400	617	10	10
SECRO	400	617	10	10
SECRO	400	617	10	10
SECRO	400	617	10	10
SECRO	400	617	10	10
SECRO	400	599	10	10
SECRO	400	599	10	10
SECRO	400	599	10	10
SECRO	400	599	10	10
SECRO	400	600	10	10
SECRO	400	600	10	10
SECRO	400	600	10	10
SECRO	400	600	10	10
SECRO	400	600	10	10
SECRO	400	600	10	10
SECRO	400	612	10	10
SECRO	400	612	10	10
SECRO	400	612	10	10
SECRO	400	612	10	10
SECRO	400	612	10	10
SECRO	400	612	10	10
SECRO	400	599	10	10
SECRO	400	599	10	10
SECRO	400	599	10	10
SECRO	400	599	10	10
SECRO	400	599	10	10
SECRO	400	599	10	10
SECRO	400	599	10	10
SECRO	400	587	10	10
SECRO	400	587	10	10
SECRO	400	587	10	10
SECRO	400	587	10	10
SECRO	400	589	10	10
SECRO	400	589	10	10
SECRO	400	589	10	10
SECRO	400	606	10	10
SECRO	400	606	10	10
SECRO	400	606	10	10
SECRO	400	606	10	10
SECRO	400	606	10	10
SECRO	400	606	10	10
SECRO	400	1442	10	10
SECRO	400	601	10	10
SECRO	400	601	10	10
SECRO	400	601	10	10
SECRO	400	601	10	10
SECRO	400	601	10	10
SECRO	400	601	10	10
SECRO	400	601	10	10
SECRO	400	605	10	10
SECRO	400	605	10	10
SECRO	400	605	10	10
SECRO	400	589	10	10
SECRO	400	589	10	10
SECRO	400	589	10	10
SECRO	400	589	10	10
SECRO	400	589	10	10
SECRO	400	589	10	10
SECRO	400	583	10	10
SECRO	400	583	10	10
SECRO	400	583	10	10
SECRO	400	583	10	10
SECRO	400	583	10	10
SECRO	400	583	10	10
SECRO	400	610	10	10
SECRO	400	610	10	10
SECRO	400	610	10	10
SECRO	400	610	10	10
SECRO	400	610	10	10
SECRO	400	610	10	10
SECRO	400	610	10	10
SECRO	400	602	10	10
SECRO	400	602	10	10
SECRO	400	602	10	10
SECRO	400	602	10	10
SECRO	400	602	10	10
SECRO	400	602	10	10
SECRO	400	602	10	10
SECRO	400	602	10	10
SECRO	400	597	10	10
SECRO	400	597	10	10
SECRO	400	597	10	10
SECRO	400	597	10	10
SECRO	400	597	10	10
SECRO	400	618	10	10
SECRO	400	618	10	10
SECRO	400	618	10	10
SECRO	400	618	10	10
SECRO	400	603	10	10
SECRO	400	603	10	10
SECRO	400	603	10	10
SECRO	400	603	10	10
SECRO	400	603	10	10
SECRO	400	603	10	10
SECRO	400	603	10	10
SECRO	400	603	10	10
SECRO	400	582	10	10
SECRO	400	582	10	10
SECRO	400	582	10	10
SECRO	400	582	10	10
SECRO	400	582	10	10
SECRO	400	586	10	10
SECRO	400	586	10	10
SECRO	400	586	10	10
SECRO	400	586	10	10
SECRO	400	586	10	10
SECRO	400	586	10	10
SECRO	400	625	10	10
SECRO	400	625	10	10
SECRO	400	625	10	10
SECRO	400	625	10	10
SECRO	400	625	10	10
SECRO	400	625	10	10
SECRO	400	625	10	10
SECRO	400	625	10	10
SECRO	400	616	10	10
SECRO	400	616	10	10
SECRO	400	616	10	10
SECRO	400	616	10	10
SECRO	400	616	10	10
SECRO	400	616	10	10
SECRO	400	616	10	10
SECRO	400	602	10	10
SECRO	400	602	10	10
SECRO	400	602	10	10
SECRO	400	602	10	10
SECRO	400	602	10	10
SECRO	400	602	10	10
SECRO	400	602	10	10
SECRO	500	717	10	10
SECRO	500	717	10	10
SECRO	500	717	10	10
SECRO	500	717	10	10
SECRO	500	709	10	10
SECRO	500	709	10	10
SECRO	500	709	10	10
SECRO	500	709	10	10
SECRO	500	709	10	10
SECRO	500	711	10	10
SECRO	500	711	10	10
SECRO	500	711	10	10
SECRO	500	711	10	10
SECRO	500	711	10	10
SECRO	500	725	10	10
SECRO	500	725	10	10
SECRO	500	725	10	10
SECRO	500	725	10	10
SECRO	500	725	10	10
SECRO	500	703	10	10
SECRO	500	703	10	10
SECRO	500	703	10	10
SECRO	500	703	10	10
SECRO	500	733	10	10
SECRO	500	733	10	10
SECRO	500	733	10	10
SECRO	500	733	10	10
SECRO	500	733	10	10
SECRO	500	724	10	10
SECRO	500	724	10	10
SECRO	500	724	10	10
SECRO	500	724	10	10
SECRO	500	724	10	10
SECRO	500	1898	10	10
SECRO	500	1898	10	10
SECRO	500	729	10	10
SECRO	500	729	10	10
SECRO	500	729	10	10
SECRO	500	729	10	10
SECRO	500	729	10	10
SECRO	500	734	10	10
SECRO	500	734	10	10
SECRO	500	734	10	10
SECRO	500	734	10	10
SECRO	500	1507	10	10
SECRO	500	1507	10	10
SECRO	500	1507	10	10
SECRO	500	1507	10	10
SECRO	500	1507	10	10
SECRO	500	1507	10	10
SECRO	500	1507	10	10
SECRO	500	1507	10	10
SECRO	500	1507	10	10
SECRO	500	1507	10	10
SECRO	500	737	10	10
SECRO	500	737	10	10
SECRO	500	737	10	10
SECRO	500	737	10	10
SECRO	500	737	10	10
SECRO	500	719	10	10
SECRO	500	719	10	10
SECRO	500	719	10	10
SECRO	500	719	10	10
SECRO	500	719	10	10
SECRO	500	719	10	10
SECRO	500	2232	10	10
SECRO	500	2232	10	10
SECRO	500	2232	10	10
SECRO	500	2232	10	10
SECRO	500	2232	10	10
SECRO	500	2232	10	10
SECRO	500	2232	10	10
SECRO	500	2232	10	10
SECRO	500	2232	10	10
SECRO	500	729	10	10
SECRO	500	729	10	10
SECRO	500	729	10	10
SECRO	500	729	10	10
SECRO	500	725	10	10
SECRO	500	725	10	10
SECRO	500	725	10	10
SECRO	500	725	10	10
SECRO	500	725	10	10
SECRO	500	724	10	10
SECRO	500	724	10	10
SECRO	500	724	10	10
SECRO	500	724	10	10
SECRO	500	724	10	10
SECRO	500	724	10	10
SECRO	500	724	10	10
SECRO	500	724	10	10
SECRO	500	724	10	10
SECRO	500	724	10	10
SECRO	500	724	10	10
SECRO	500	694	10	10
SECRO	500	694	10	10
SECRO	500	694	10	10
SECRO	500	694	10	10
SECRO	500	694	10	10
SECRO	500	717	10	10
SECRO	500	717	10	10
SECRO	500	712	10	10
SECRO	500	712	10	10
SECRO	500	712	10	10
SECRO	500	712	10	10
SECRO	500	711	10	10
SECRO	500	711	10	10
SECRO	500	711	10	10
SECRO	500	711	10	10
SECRO	500	722	10	10
SECRO	500	722	10	10
SECRO	500	722	10	10
SECRO	500	722	10	10
SECRO	500	728	10	10
SECRO	500	728	10	10
SECRO	500	728	10	10
SECRO	500	728	10	10
SECRO	500	728	10	10
SECRO	500	703	10	10
SECRO	500	703	10	10
SECRO	500	703	10	10
SECRO	500	708	10	10
SECRO	500	708	10	10
SECRO	500	703	10	10
SECRO	500	703	10	10
SECRO	500	703	10	10
SECRO	500	703	10	10
SECRO	500	703	10	10
SECRO	500	703	10	10
SECRO	500	741	10	10
SECRO	500	741	10	10
SECRO	500	741	10	10
SECRO	500	741	10	10
SECRO	500	741	10	10
SECRO	500	741	10	10
SECRO	500	727	10	10
SECRO	500	727	10	10
SECRO	500	727	10	10
SECRO	500	727	10	10
SECRO	500	727	10	10
SECRO	500	727	10	10
SECRO	500	719	10	10
SECRO	500	719	10	10
SECRO	500	719	10	10
SECRO	500	719	10	10
SECRO	500	719	10	10
SECRO	500	719	10	10
SECRO	10	114	10	20
SECRO	10	102	10	20
SECRO	10	94	10	20
SECRO	10	84	10	20
SECRO	10	93	10	20
SECRO	10	87	10	20
SECRO	10	101	10	20
SECRO	10	101	10	20
SECRO	10	110	10	20
SECRO	10	106	10	20
SECRO	10	111	10	20
SECRO	10	109	10	20
SECRO	10	73	10	20
SECRO	10	113	10	20
SECRO	10	99	10	20
SECRO	10	107	10	20
SECRO	10	107	10	20
SECRO	10	112	10	20
SECRO	10	112	10	20
SECRO	10	114	10	20
SECRO	10	124	10	20
SECRO	10	81	10	20
SECRO	10	107	10	20
SECRO	10	87	10	20
SECRO	10	110	10	20
SECRO	10	113	10	20
SECRO	10	95	10	20
SECRO	10	91	10	20
SECRO	10	108	10	20
SECRO	10	98	10	20
SECRO	50	366	10	20
SECRO	50	353	10	20
SECRO	50	377	10	20
SECRO	50	377	10	20
SECRO	50	353	10	20
SECRO	50	347	10	20
SECRO	50	387	10	20
SECRO	50	375	10	20
SECRO	50	364	10	20
SECRO	50	371	10	20
SECRO	50	378	10	20
SECRO	50	392	10	20
SECRO	50	379	10	20
SECRO	50	380	10	20
SECRO	50	400	10	20
SECRO	50	352	10	20
SECRO	50	361	10	20
SECRO	50	376	10	20
SECRO	50	371	10	20
SECRO	50	396	10	20
SECRO	50	389	10	20
SECRO	50	361	10	20
SECRO	50	379	10	20
SECRO	50	388	10	20
SECRO	50	367	10	20
SECRO	50	362	10	20
SECRO	50	369	10	20
SECRO	50	375	10	20
SECRO	50	366	10	20
SECRO	50	390	10	20
SECRO	100	1337	10	20
SECRO	100	1279	10	20
SECRO	100	1275	10	20
SECRO	100	1303	10	20
SECRO	100	1284	10	20
SECRO	100	1330	10	20
SECRO	100	1273	10	20
SECRO	100	1300	10	20
SECRO	100	1298	10	20
SECRO	100	1299	10	20
SECRO	100	1251	10	20
SECRO	100	1310	10	20
SECRO	100	1316	10	20
SECRO	100	1272	10	20
SECRO	100	1294	10	20
SECRO	100	1273	10	20
SECRO	100	1300	10	20
SECRO	100	1309	10	20
SECRO	100	1282	10	20
SECRO	100	1317	10	20
SECRO	100	1310	10	20
SECRO	100	1272	10	20
SECRO	100	1388	10	20
SECRO	100	1255	10	20
SECRO	100	1708	10	20
SECRO	100	1301	10	20
SECRO	100	1269	10	20
SECRO	100	1297	10	20
SECRO	100	1376	10	20
SECRO	100	1282	10	20
SECRO	150	3382	10	20
SECRO	150	3382	10	20
SECRO	150	3382	10	20
SECRO	150	3382	10	20
SECRO	150	3382	10	20
SECRO	150	3382	10	20
SECRO	150	3382	10	20
SECRO	150	3296	10	20
SECRO	150	3296	10	20
SECRO	150	3296	10	20
SECRO	150	3296	10	20
SECRO	150	3296	10	20
SECRO	150	3296	10	20
SECRO	150	3296	10	20
SECRO	150	3445	10	20
SECRO	150	3445	10	20
SECRO	150	3445	10	20
SECRO	150	3445	10	20
SECRO	150	3445	10	20
SECRO	150	3445	10	20
SECRO	150	3445	10	20
SECRO	150	3445	10	20
SECRO	150	3349	10	20
SECRO	150	3349	10	20
SECRO	150	3349	10	20
SECRO	150	3349	10	20
SECRO	150	3349	10	20
SECRO	150	3349	10	20
SECRO	150	3349	10	20
SECRO	150	3349	10	20
SECRO	150	3401	10	20
SECRO	150	3401	10	20
SECRO	150	3401	10	20
SECRO	150	3401	10	20
SECRO	150	3401	10	20
SECRO	150	3401	10	20
SECRO	150	3504	10	20
SECRO	150	3504	10	20
SECRO	150	3504	10	20
SECRO	150	3504	10	20
SECRO	150	3504	10	20
SECRO	150	3504	10	20
SECRO	150	3377	10	20
SECRO	150	3377	10	20
SECRO	150	3377	10	20
SECRO	150	3377	10	20
SECRO	150	3377	10	20
SECRO	150	3377	10	20
SECRO	150	3377	10	20
SECRO	150	3377	10	20
SECRO	150	3322	10	20
SECRO	150	3322	10	20
SECRO	150	3322	10	20
SECRO	150	3322	10	20
SECRO	150	3322	10	20
SECRO	150	3322	10	20
SECRO	150	3322	10	20
SECRO	150	3322	10	20
SECRO	150	3322	10	20
SECRO	150	3322	10	20
SECRO	150	3322	10	20
SECRO	150	3322	10	20
SECRO	150	3322	10	20
SECRO	150	3322	10	20
SECRO	150	3343	10	20
SECRO	150	3343	10	20
SECRO	150	3343	10	20
SECRO	150	3343	10	20
SECRO	150	3343	10	20
SECRO	150	3343	10	20
SECRO	150	3343	10	20
SECRO	150	3339	10	20
SECRO	150	3339	10	20
SECRO	150	3339	10	20
SECRO	150	3339	10	20
SECRO	150	3339	10	20
SECRO	150	3339	10	20
SECRO	150	3339	10	20
SECRO	150	3319	10	20
SECRO	150	3319	10	20
SECRO	150	3319	10	20
SECRO	150	3319	10	20
SECRO	150	3319	10	20
SECRO	150	3319	10	20
SECRO	150	3319	10	20
SECRO	150	3307	10	20
SECRO	150	3307	10	20
SECRO	150	3307	10	20
SECRO	150	3307	10	20
SECRO	150	3307	10	20
SECRO	150	3307	10	20
SECRO	150	3307	10	20
SECRO	150	3307	10	20
SECRO	150	3322	10	20
SECRO	150	3322	10	20
SECRO	150	3322	10	20
SECRO	150	3322	10	20
SECRO	150	3322	10	20
SECRO	150	3322	10	20
SECRO	150	3322	10	20
SECRO	150	3337	10	20
SECRO	150	3337	10	20
SECRO	150	3337	10	20
SECRO	150	3337	10	20
SECRO	150	3337	10	20
SECRO	150	3337	10	20
SECRO	150	3332	10	20
SECRO	150	3332	10	20
SECRO	150	3332	10	20
SECRO	150	3332	10	20
SECRO	150	3332	10	20
SECRO	150	3332	10	20
SECRO	150	3332	10	20
SECRO	150	3353	10	20
SECRO	150	3353	10	20
SECRO	150	3353	10	20
SECRO	150	3353	10	20
SECRO	150	3353	10	20
SECRO	150	3353	10	20
SECRO	150	3353	10	20
SECRO	150	3331	10	20
SECRO	150	3331	10	20
SECRO	150	3331	10	20
SECRO	150	3331	10	20
SECRO	150	3331	10	20
SECRO	150	3331	10	20
SECRO	150	3331	10	20
SECRO	150	3331	10	20
SECRO	150	3316	10	20
SECRO	150	3316	10	20
SECRO	150	3316	10	20
SECRO	150	3316	10	20
SECRO	150	3316	10	20
SECRO	150	3316	10	20
SECRO	150	3316	10	20
SECRO	150	3486	10	20
SECRO	150	3486	10	20
SECRO	150	3486	10	20
SECRO	150	3303	10	20
SECRO	150	3303	10	20
SECRO	150	3303	10	20
SECRO	150	3303	10	20
SECRO	150	3303	10	20
SECRO	150	3303	10	20
SECRO	150	3303	10	20
SECRO	150	3302	10	20
SECRO	150	3302	10	20
SECRO	150	3302	10	20
SECRO	150	3302	10	20
SECRO	150	3302	10	20
SECRO	150	3302	10	20
SECRO	150	3302	10	20
SECRO	150	3302	10	20
SECRO	150	3329	10	20
SECRO	150	3329	10	20
SECRO	150	3329	10	20
SECRO	150	3329	10	20
SECRO	150	3329	10	20
SECRO	150	3329	10	20
SECRO	150	3329	10	20
SECRO	150	3320	10	20
SECRO	150	3320	10	20
SECRO	150	3320	10	20
SECRO	150	3320	10	20
SECRO	150	3320	10	20
SECRO	150	3320	10	20
SECRO	150	3320	10	20
SECRO	150	3345	10	20
SECRO	150	3345	10	20
SECRO	150	3345	10	20
SECRO	150	3345	10	20
SECRO	150	3345	10	20
SECRO	150	3345	10	20
SECRO	150	3345	10	20
SECRO	150	3394	10	20
SECRO	150	3394	10	20
SECRO	150	3394	10	20
SECRO	150	3394	10	20
SECRO	150	3394	10	20
SECRO	150	3394	10	20
SECRO	150	3394	10	20
SECRO	150	3394	10	20
SECRO	150	3394	10	20
SECRO	150	3384	10	20
SECRO	150	3384	10	20
SECRO	150	3384	10	20
SECRO	150	3384	10	20
SECRO	150	3384	10	20
SECRO	150	3384	10	20
SECRO	150	3367	10	20
SECRO	150	3367	10	20
SECRO	150	3367	10	20
SECRO	150	3367	10	20
SECRO	150	3367	10	20
SECRO	150	3367	10	20
SECRO	150	3350	10	20
SECRO	150	3350	10	20
SECRO	150	3350	10	20
SECRO	150	3350	10	20
SECRO	150	3350	10	20
SECRO	150	3350	10	20
SECRO	150	3350	10	20
SECRO	150	3350	10	20
SECRO	150	3670	10	20
SECRO	150	3670	10	20
SECRO	250	426	10	20
SECRO	250	426	10	20
SECRO	250	419	10	20
SECRO	250	5351	10	20
SECRO	250	5351	10	20
SECRO	250	443	10	20
SECRO	250	446	10	20
SECRO	250	423	10	20
SECRO	250	412	10	20
SECRO	250	447	10	20
SECRO	250	432	10	20
SECRO	250	450	10	20
SECRO	250	436	10	20
SECRO	250	410	10	20
SECRO	250	418	10	20
SECRO	250	427	10	20
SECRO	250	412	10	20
SECRO	250	432	10	20
SECRO	250	430	10	20
SECRO	250	435	10	20
SECRO	250	432	10	20
SECRO	250	420	10	20
SECRO	250	436	10	20
SECRO	250	438	10	20
SECRO	250	426	10	20
SECRO	250	437	10	20
SECRO	250	435	10	20
SECRO	250	432	10	20
SECRO	250	414	10	20
SECRO	250	435	10	20
SECRO	250	428	10	20
SECRO	300	511	10	20
SECRO	300	487	10	20
SECRO	300	499	10	20
SECRO	300	499	10	20
SECRO	300	479	10	20
SECRO	300	497	10	20
SECRO	300	501	10	20
SECRO	300	496	10	20
SECRO	300	502	10	20
SECRO	300	501	10	20
SECRO	300	500	10	20
SECRO	300	500	10	20
SECRO	300	495	10	20
SECRO	300	523	10	20
SECRO	300	512	10	20
SECRO	300	493	10	20
SECRO	300	511	10	20
SECRO	300	504	10	20
SECRO	300	486	10	20
SECRO	300	492	10	20
SECRO	300	488	10	20
SECRO	300	518	10	20
SECRO	300	550	10	20
SECRO	300	507	10	20
SECRO	300	504	10	20
SECRO	300	502	10	20
SECRO	300	6222	10	20
SECRO	300	6222	10	20
SECRO	300	507	10	20
SECRO	300	497	10	20
SECRO	300	502	10	20
SECRO	400	607	10	20
SECRO	400	607	10	20
SECRO	400	607	10	20
SECRO	400	623	10	20
SECRO	400	623	10	20
SECRO	400	623	10	20
SECRO	400	623	10	20
SECRO	400	623	10	20
SECRO	400	623	10	20
SECRO	400	623	10	20
SECRO	400	623	10	20
SECRO	400	598	10	20
SECRO	400	598	10	20
SECRO	400	598	10	20
SECRO	400	598	10	20
SECRO	400	598	10	20
SECRO	400	598	10	20
SECRO	400	598	10	20
SECRO	400	598	10	20
SECRO	400	605	10	20
SECRO	400	605	10	20
SECRO	400	605	10	20
SECRO	400	605	10	20
SECRO	400	605	10	20
SECRO	400	630	10	20
SECRO	400	630	10	20
SECRO	400	630	10	20
SECRO	400	630	10	20
SECRO	400	616	10	20
SECRO	400	616	10	20
SECRO	400	616	10	20
SECRO	400	616	10	20
SECRO	400	616	10	20
SECRO	400	616	10	20
SECRO	400	616	10	20
SECRO	400	616	10	20
SECRO	400	599	10	20
SECRO	400	599	10	20
SECRO	400	599	10	20
SECRO	400	599	10	20
SECRO	400	599	10	20
SECRO	400	599	10	20
SECRO	400	599	10	20
SECRO	400	612	10	20
SECRO	400	612	10	20
SECRO	400	612	10	20
SECRO	400	612	10	20
SECRO	400	612	10	20
SECRO	400	612	10	20
SECRO	400	612	10	20
SECRO	400	600	10	20
SECRO	400	600	10	20
SECRO	400	600	10	20
SECRO	400	600	10	20
SECRO	400	600	10	20
SECRO	400	635	10	20
SECRO	400	635	10	20
SECRO	400	635	10	20
SECRO	400	635	10	20
SECRO	400	635	10	20
SECRO	400	584	10	20
SECRO	400	584	10	20
SECRO	400	584	10	20
SECRO	400	584	10	20
SECRO	400	584	10	20
SECRO	400	584	10	20
SECRO	400	584	10	20
SECRO	400	584	10	20
SECRO	400	615	10	20
SECRO	400	615	10	20
SECRO	400	615	10	20
SECRO	400	615	10	20
SECRO	400	615	10	20
SECRO	400	615	10	20
SECRO	400	599	10	20
SECRO	400	599	10	20
SECRO	400	599	10	20
SECRO	400	599	10	20
SECRO	400	599	10	20
SECRO	400	620	10	20
SECRO	400	620	10	20
SECRO	400	620	10	20
SECRO	400	608	10	20
SECRO	400	608	10	20
SECRO	400	608	10	20
SECRO	400	608	10	20
SECRO	400	608	10	20
SECRO	400	608	10	20
SECRO	400	593	10	20
SECRO	400	593	10	20
SECRO	400	593	10	20
SECRO	400	593	10	20
SECRO	400	593	10	20
SECRO	400	593	10	20
SECRO	400	616	10	20
SECRO	400	616	10	20
SECRO	400	616	10	20
SECRO	400	616	10	20
SECRO	400	616	10	20
SECRO	400	616	10	20
SECRO	400	616	10	20
SECRO	400	616	10	20
SECRO	400	601	10	20
SECRO	400	601	10	20
SECRO	400	601	10	20
SECRO	400	601	10	20
SECRO	400	601	10	20
SECRO	400	601	10	20
SECRO	400	601	10	20
SECRO	400	599	10	20
SECRO	400	599	10	20
SECRO	400	599	10	20
SECRO	400	599	10	20
SECRO	400	599	10	20
SECRO	400	599	10	20
SECRO	400	599	10	20
SECRO	400	617	10	20
SECRO	400	617	10	20
SECRO	400	617	10	20
SECRO	400	617	10	20
SECRO	400	617	10	20
SECRO	400	617	10	20
SECRO	400	603	10	20
SECRO	400	603	10	20
SECRO	400	603	10	20
SECRO	400	603	10	20
SECRO	400	603	10	20
SECRO	400	603	10	20
SECRO	400	603	10	20
SECRO	400	603	10	20
SECRO	400	604	10	20
SECRO	400	604	10	20
SECRO	400	604	10	20
SECRO	400	604	10	20
SECRO	400	604	10	20
SECRO	400	604	10	20
SECRO	400	604	10	20
SECRO	400	593	10	20
SECRO	400	593	10	20
SECRO	400	593	10	20
SECRO	400	593	10	20
SECRO	400	593	10	20
SECRO	400	634	10	20
SECRO	400	634	10	20
SECRO	400	634	10	20
SECRO	400	634	10	20
SECRO	400	634	10	20
SECRO	400	634	10	20
SECRO	400	603	10	20
SECRO	400	603	10	20
SECRO	400	603	10	20
SECRO	400	603	10	20
SECRO	400	601	10	20
SECRO	400	601	10	20
SECRO	400	601	10	20
SECRO	400	601	10	20
SECRO	400	601	10	20
SECRO	400	601	10	20
SECRO	400	601	10	20
SECRO	400	609	10	20
SECRO	400	609	10	20
SECRO	400	609	10	20
SECRO	400	609	10	20
SECRO	400	612	10	20
SECRO	400	612	10	20
SECRO	400	612	10	20
SECRO	400	612	10	20
SECRO	400	612	10	20
SECRO	400	612	10	20
SECRO	400	627	10	20
SECRO	400	627	10	20
SECRO	400	627	10	20
SECRO	400	627	10	20
SECRO	400	627	10	20
SECRO	400	627	10	20
SECRO	400	619	10	20
SECRO	400	619	10	20
SECRO	400	619	10	20
SECRO	400	619	10	20
SECRO	400	619	10	20
SECRO	400	619	10	20
SECRO	400	619	10	20
SECRO	400	619	10	20
SECRO	400	619	10	20
SECRO	400	619	10	20
SECRO	500	724	10	20
SECRO	500	724	10	20
SECRO	500	724	10	20
SECRO	500	724	10	20
SECRO	500	724	10	20
SECRO	500	724	10	20
SECRO	500	724	10	20
SECRO	500	724	10	20
SECRO	500	729	10	20
SECRO	500	729	10	20
SECRO	500	729	10	20
SECRO	500	729	10	20
SECRO	500	729	10	20
SECRO	500	729	10	20
SECRO	500	729	10	20
SECRO	500	780	10	20
SECRO	500	780	10	20
SECRO	500	780	10	20
SECRO	500	780	10	20
SECRO	500	780	10	20
SECRO	500	780	10	20
SECRO	500	761	10	20
SECRO	500	761	10	20
SECRO	500	761	10	20
SECRO	500	761	10	20
SECRO	500	761	10	20
SECRO	500	761	10	20
SECRO	500	761	10	20
SECRO	500	735	10	20
SECRO	500	735	10	20
SECRO	500	735	10	20
SECRO	500	735	10	20
SECRO	500	735	10	20
SECRO	500	735	10	20
SECRO	500	735	10	20
SECRO	500	735	10	20
SECRO	500	735	10	20
SECRO	500	736	10	20
SECRO	500	736	10	20
SECRO	500	736	10	20
SECRO	500	736	10	20
SECRO	500	736	10	20
SECRO	500	736	10	20
SECRO	500	736	10	20
SECRO	500	723	10	20
SECRO	500	723	10	20
SECRO	500	723	10	20
SECRO	500	723	10	20
SECRO	500	723	10	20
SECRO	500	723	10	20
SECRO	500	753	10	20
SECRO	500	753	10	20
SECRO	500	753	10	20
SECRO	500	753	10	20
SECRO	500	753	10	20
SECRO	500	753	10	20
SECRO	500	753	10	20
SECRO	500	6348	10	20
SECRO	500	6348	10	20
SECRO	500	749	10	20
SECRO	500	749	10	20
SECRO	500	749	10	20
SECRO	500	749	10	20
SECRO	500	749	10	20
SECRO	500	749	10	20
SECRO	500	749	10	20
SECRO	500	751	10	20
SECRO	500	751	10	20
SECRO	500	751	10	20
SECRO	500	751	10	20
SECRO	500	751	10	20
SECRO	500	751	10	20
SECRO	500	751	10	20
SECRO	500	751	10	20
SECRO	500	751	10	20
SECRO	500	738	10	20
SECRO	500	738	10	20
SECRO	500	738	10	20
SECRO	500	738	10	20
SECRO	500	738	10	20
SECRO	500	738	10	20
SECRO	500	738	10	20
SECRO	500	738	10	20
SECRO	500	738	10	20
SECRO	500	724	10	20
SECRO	500	724	10	20
SECRO	500	724	10	20
SECRO	500	724	10	20
SECRO	500	724	10	20
SECRO	500	724	10	20
SECRO	500	724	10	20
SECRO	500	726	10	20
SECRO	500	726	10	20
SECRO	500	726	10	20
SECRO	500	726	10	20
SECRO	500	726	10	20
SECRO	500	726	10	20
SECRO	500	726	10	20
SECRO	500	726	10	20
SECRO	500	726	10	20
SECRO	500	761	10	20
SECRO	500	761	10	20
SECRO	500	761	10	20
SECRO	500	761	10	20
SECRO	500	761	10	20
SECRO	500	761	10	20
SECRO	500	761	10	20
SECRO	500	761	10	20
SECRO	500	761	10	20
SECRO	500	736	10	20
SECRO	500	736	10	20
SECRO	500	736	10	20
SECRO	500	736	10	20
SECRO	500	736	10	20
SECRO	500	736	10	20
SECRO	500	736	10	20
SECRO	500	736	10	20
SECRO	500	736	10	20
SECRO	500	728	10	20
SECRO	500	728	10	20
SECRO	500	728	10	20
SECRO	500	728	10	20
SECRO	500	728	10	20
SECRO	500	728	10	20
SECRO	500	728	10	20
SECRO	500	728	10	20
SECRO	500	733	10	20
SECRO	500	733	10	20
SECRO	500	733	10	20
SECRO	500	733	10	20
SECRO	500	733	10	20
SECRO	500	733	10	20
SECRO	500	733	10	20
SECRO	500	733	10	20
SECRO	500	729	10	20
SECRO	500	729	10	20
SECRO	500	729	10	20
SECRO	500	729	10	20
SECRO	500	729	10	20
SECRO	500	729	10	20
SECRO	500	729	10	20
SECRO	500	729	10	20
SECRO	500	740	10	20
SECRO	500	740	10	20
SECRO	500	740	10	20
SECRO	500	740	10	20
SECRO	500	740	10	20
SECRO	500	740	10	20
SECRO	500	729	10	20
SECRO	500	729	10	20
SECRO	500	729	10	20
SECRO	500	729	10	20
SECRO	500	729	10	20
SECRO	500	729	10	20
SECRO	500	729	10	20
SECRO	500	729	10	20
SECRO	500	750	10	20
SECRO	500	750	10	20
SECRO	500	750	10	20
SECRO	500	750	10	20
SECRO	500	750	10	20
SECRO	500	750	10	20
SECRO	500	750	10	20
SECRO	500	750	10	20
SECRO	500	2235	10	20
SECRO	500	2235	10	20
SECRO	500	2235	10	20
SECRO	500	2235	10	20
SECRO	500	2235	10	20
SECRO	500	2235	10	20
SECRO	500	2235	10	20
SECRO	500	2235	10	20
SECRO	500	2235	10	20
SECRO	500	2235	10	20
SECRO	500	2235	10	20
SECRO	500	2235	10	20
SECRO	500	2235	10	20
SECRO	500	2235	10	20
SECRO	500	749	10	20
SECRO	500	749	10	20
SECRO	500	749	10	20
SECRO	500	749	10	20
SECRO	500	749	10	20
SECRO	500	749	10	20
SECRO	500	749	10	20
SECRO	500	749	10	20
SECRO	500	733	10	20
SECRO	500	733	10	20
SECRO	500	733	10	20
SECRO	500	733	10	20
SECRO	500	733	10	20
SECRO	500	733	10	20
SECRO	500	733	10	20
SECRO	500	741	10	20
SECRO	500	741	10	20
SECRO	500	741	10	20
SECRO	500	741	10	20
SECRO	500	741	10	20
SECRO	500	741	10	20
SECRO	500	741	10	20
SECRO	500	750	10	20
SECRO	500	750	10	20
SECRO	500	750	10	20
SECRO	500	750	10	20
SECRO	500	750	10	20
SECRO	500	750	10	20
SECRO	500	750	10	20
SECRO	500	750	10	20
SECRO	500	717	10	20
SECRO	500	717	10	20
SECRO	500	717	10	20
SECRO	500	717	10	20
SECRO	500	717	10	20
SECRO	500	717	10	20
SECRO	500	717	10	20
SECRO	500	717	10	20
SECRO	500	717	10	20
SECRO	500	736	10	20
SECRO	500	736	10	20
SECRO	500	736	10	20
SECRO	500	736	10	20
SECRO	500	736	10	20
SECRO	500	736	10	20
SECRO	500	736	10	20
SECRO	500	736	10	20
SECRO	500	745	10	20
SECRO	500	745	10	20
SECRO	500	745	10	20
SECRO	500	745	10	20
SECRO	500	745	10	20
SECRO	500	745	10	20
SECRO	500	745	10	20
SECRO	10	98	10	50
SECRO	10	108	10	50
SECRO	10	102	10	50
SECRO	10	104	10	50
SECRO	10	92	10	50
SECRO	10	107	10	50
SECRO	10	90	10	50
SECRO	10	88	10	50
SECRO	10	116	10	50
SECRO	10	68	10	50
SECRO	10	108	10	50
SECRO	10	110	10	50
SECRO	10	78	10	50
SECRO	10	107	10	50
SECRO	10	72	10	50
SECRO	10	84	10	50
SECRO	10	109	10	50
SECRO	10	101	10	50
SECRO	10	102	10	50
SECRO	10	83	10	50
SECRO	10	106	10	50
SECRO	10	108	10	50
SECRO	10	90	10	50
SECRO	10	122	10	50
SECRO	10	92	10	50
SECRO	10	118	10	50
SECRO	10	103	10	50
SECRO	10	112	10	50
SECRO	10	102	10	50
SECRO	10	116	10	50
SECRO	50	386	10	50
SECRO	50	340	10	50
SECRO	50	367	10	50
SECRO	50	385	10	50
SECRO	50	360	10	50
SECRO	50	384	10	50
SECRO	50	364	10	50
SECRO	50	345	10	50
SECRO	50	365	10	50
SECRO	50	352	10	50
SECRO	50	372	10	50
SECRO	50	371	10	50
SECRO	50	372	10	50
SECRO	50	356	10	50
SECRO	50	366	10	50
SECRO	50	399	10	50
SECRO	50	359	10	50
SECRO	50	335	10	50
SECRO	50	390	10	50
SECRO	50	389	10	50
SECRO	50	385	10	50
SECRO	50	373	10	50
SECRO	50	349	10	50
SECRO	50	371	10	50
SECRO	50	384	10	50
SECRO	50	364	10	50
SECRO	50	344	10	50
SECRO	50	382	10	50
SECRO	50	389	10	50
SECRO	50	390	10	50
SECRO	100	1321	10	50
SECRO	100	1280	10	50
SECRO	100	1302	10	50
SECRO	100	1280	10	50
SECRO	100	1263	10	50
SECRO	100	1300	10	50
SECRO	100	1272	10	50
SECRO	100	1290	10	50
SECRO	100	1286	10	50
SECRO	100	1272	10	50
SECRO	100	1271	10	50
SECRO	100	1343	10	50
SECRO	100	1310	10	50
SECRO	100	1312	10	50
SECRO	100	1294	10	50
SECRO	100	1267	10	50
SECRO	100	1279	10	50
SECRO	100	1293	10	50
SECRO	100	1304	10	50
SECRO	100	1252	10	50
SECRO	100	1282	10	50
SECRO	100	1308	10	50
SECRO	100	1272	10	50
SECRO	100	1290	10	50
SECRO	100	1296	10	50
SECRO	100	1329	10	50
SECRO	100	1275	10	50
SECRO	100	1308	10	50
SECRO	100	1289	10	50
SECRO	100	1296	10	50
SECRO	150	3328	10	50
SECRO	150	3328	10	50
SECRO	150	3328	10	50
SECRO	150	3328	10	50
SECRO	150	3328	10	50
SECRO	150	3328	10	50
SECRO	150	3328	10	50
SECRO	150	3310	10	50
SECRO	150	3310	10	50
SECRO	150	3310	10	50
SECRO	150	3310	10	50
SECRO	150	3310	10	50
SECRO	150	3310	10	50
SECRO	150	3310	10	50
SECRO	150	3349	10	50
SECRO	150	3349	10	50
SECRO	150	3349	10	50
SECRO	150	3349	10	50
SECRO	150	3349	10	50
SECRO	150	3349	10	50
SECRO	150	3349	10	50
SECRO	150	3349	10	50
SECRO	150	3323	10	50
SECRO	150	3323	10	50
SECRO	150	3323	10	50
SECRO	150	3323	10	50
SECRO	150	3323	10	50
SECRO	150	3323	10	50
SECRO	150	3323	10	50
SECRO	150	3323	10	50
SECRO	150	3327	10	50
SECRO	150	3327	10	50
SECRO	150	3327	10	50
SECRO	150	3327	10	50
SECRO	150	3327	10	50
SECRO	150	3327	10	50
SECRO	150	3327	10	50
SECRO	150	3315	10	50
SECRO	150	3315	10	50
SECRO	150	3315	10	50
SECRO	150	3315	10	50
SECRO	150	3315	10	50
SECRO	150	3315	10	50
SECRO	150	3315	10	50
SECRO	150	3354	10	50
SECRO	150	3354	10	50
SECRO	150	3354	10	50
SECRO	150	3354	10	50
SECRO	150	3354	10	50
SECRO	150	3354	10	50
SECRO	150	3354	10	50
SECRO	150	3350	10	50
SECRO	150	3350	10	50
SECRO	150	3350	10	50
SECRO	150	3350	10	50
SECRO	150	3350	10	50
SECRO	150	3350	10	50
SECRO	150	3350	10	50
SECRO	150	3327	10	50
SECRO	150	3327	10	50
SECRO	150	3327	10	50
SECRO	150	3327	10	50
SECRO	150	3327	10	50
SECRO	150	3327	10	50
SECRO	150	3327	10	50
SECRO	150	3327	10	50
SECRO	150	3327	10	50
SECRO	150	3303	10	50
SECRO	150	3303	10	50
SECRO	150	3303	10	50
SECRO	150	3303	10	50
SECRO	150	3303	10	50
SECRO	150	3303	10	50
SECRO	150	3334	10	50
SECRO	150	3334	10	50
SECRO	150	3334	10	50
SECRO	150	3334	10	50
SECRO	150	3334	10	50
SECRO	150	3334	10	50
SECRO	150	3334	10	50
SECRO	150	3445	10	50
SECRO	150	3445	10	50
SECRO	150	3445	10	50
SECRO	150	3445	10	50
SECRO	150	3445	10	50
SECRO	150	3445	10	50
SECRO	150	3445	10	50
SECRO	150	3445	10	50
SECRO	150	3340	10	50
SECRO	150	3340	10	50
SECRO	150	3340	10	50
SECRO	150	3340	10	50
SECRO	150	3340	10	50
SECRO	150	3340	10	50
SECRO	150	3340	10	50
SECRO	150	3341	10	50
SECRO	150	3341	10	50
SECRO	150	3341	10	50
SECRO	150	3341	10	50
SECRO	150	3341	10	50
SECRO	150	3341	10	50
SECRO	150	3341	10	50
SECRO	150	3354	10	50
SECRO	150	3354	10	50
SECRO	150	3354	10	50
SECRO	150	3354	10	50
SECRO	150	3354	10	50
SECRO	150	3354	10	50
SECRO	150	3354	10	50
SECRO	150	3338	10	50
SECRO	150	3338	10	50
SECRO	150	3338	10	50
SECRO	150	3338	10	50
SECRO	150	3338	10	50
SECRO	150	3338	10	50
SECRO	150	3338	10	50
SECRO	150	3364	10	50
SECRO	150	3364	10	50
SECRO	150	3364	10	50
SECRO	150	3364	10	50
SECRO	150	3364	10	50
SECRO	150	3364	10	50
SECRO	150	3364	10	50
SECRO	150	3434	10	50
SECRO	150	3434	10	50
SECRO	150	3434	10	50
SECRO	150	3434	10	50
SECRO	150	3434	10	50
SECRO	150	3434	10	50
SECRO	150	3434	10	50
SECRO	150	3337	10	50
SECRO	150	3337	10	50
SECRO	150	3337	10	50
SECRO	150	3337	10	50
SECRO	150	3337	10	50
SECRO	150	3337	10	50
SECRO	150	3337	10	50
SECRO	150	3320	10	50
SECRO	150	3320	10	50
SECRO	150	3320	10	50
SECRO	150	3320	10	50
SECRO	150	3320	10	50
SECRO	150	3320	10	50
SECRO	150	3320	10	50
SECRO	150	3306	10	50
SECRO	150	3306	10	50
SECRO	150	3306	10	50
SECRO	150	3306	10	50
SECRO	150	3306	10	50
SECRO	150	3306	10	50
SECRO	150	3306	10	50
SECRO	150	3355	10	50
SECRO	150	3355	10	50
SECRO	150	3355	10	50
SECRO	150	3355	10	50
SECRO	150	3355	10	50
SECRO	150	3355	10	50
SECRO	150	3355	10	50
SECRO	150	3355	10	50
SECRO	150	3355	10	50
SECRO	150	4690	10	50
SECRO	150	3317	10	50
SECRO	150	3317	10	50
SECRO	150	3317	10	50
SECRO	150	3317	10	50
SECRO	150	3317	10	50
SECRO	150	3317	10	50
SECRO	150	3366	10	50
SECRO	150	3366	10	50
SECRO	150	3366	10	50
SECRO	150	3366	10	50
SECRO	150	3366	10	50
SECRO	150	3366	10	50
SECRO	150	3366	10	50
SECRO	150	3366	10	50
SECRO	150	3335	10	50
SECRO	150	3335	10	50
SECRO	150	3335	10	50
SECRO	150	3335	10	50
SECRO	150	3335	10	50
SECRO	150	3335	10	50
SECRO	150	3335	10	50
SECRO	150	3355	10	50
SECRO	150	3355	10	50
SECRO	150	3355	10	50
SECRO	150	3355	10	50
SECRO	150	3355	10	50
SECRO	150	3355	10	50
SECRO	150	3355	10	50
SECRO	150	3355	10	50
SECRO	150	3355	10	50
SECRO	150	3580	10	50
SECRO	150	3580	10	50
SECRO	150	3580	10	50
SECRO	150	3580	10	50
SECRO	150	3294	10	50
SECRO	150	3294	10	50
SECRO	150	3294	10	50
SECRO	150	3294	10	50
SECRO	150	3294	10	50
SECRO	150	3294	10	50
SECRO	150	3294	10	50
SECRO	150	3351	10	50
SECRO	150	3351	10	50
SECRO	150	3351	10	50
SECRO	150	3351	10	50
SECRO	150	3351	10	50
SECRO	150	3351	10	50
SECRO	150	3351	10	50
SECRO	250	13745	10	50
SECRO	250	13745	10	50
SECRO	250	13745	10	50
SECRO	250	13745	10	50
SECRO	250	13888	10	50
SECRO	250	13888	10	50
SECRO	250	13888	10	50
SECRO	250	13888	10	50
SECRO	250	13888	10	50
SECRO	250	14138	10	50
SECRO	250	14138	10	50
SECRO	250	14138	10	50
SECRO	250	14138	10	50
SECRO	250	14138	10	50
SECRO	250	14138	10	50
SECRO	250	14395	10	50
SECRO	250	14395	10	50
SECRO	250	14395	10	50
SECRO	250	14395	10	50
SECRO	250	14395	10	50
SECRO	250	13801	10	50
SECRO	250	13801	10	50
SECRO	250	13801	10	50
SECRO	250	13803	10	50
SECRO	250	13803	10	50
SECRO	250	13803	10	50
SECRO	250	14127	10	50
SECRO	250	14127	10	50
SECRO	250	14127	10	50
SECRO	250	14127	10	50
SECRO	250	13854	10	50
SECRO	250	13854	10	50
SECRO	250	13854	10	50
SECRO	250	13790	10	50
SECRO	250	13790	10	50
SECRO	250	13790	10	50
SECRO	250	13817	10	50
SECRO	250	13817	10	50
SECRO	250	13817	10	50
SECRO	250	13976	10	50
SECRO	250	13976	10	50
SECRO	250	13976	10	50
SECRO	250	13976	10	50
SECRO	250	13808	10	50
SECRO	250	13808	10	50
SECRO	250	13808	10	50
SECRO	250	13808	10	50
SECRO	250	13808	10	50
SECRO	250	13820	10	50
SECRO	250	13820	10	50
SECRO	250	13820	10	50
SECRO	250	13820	10	50
SECRO	250	13820	10	50
SECRO	250	13836	10	50
SECRO	250	13836	10	50
SECRO	250	13836	10	50
SECRO	250	13836	10	50
SECRO	250	14007	10	50
SECRO	250	14007	10	50
SECRO	250	14007	10	50
SECRO	250	14007	10	50
SECRO	250	13967	10	50
SECRO	250	13967	10	50
SECRO	250	13967	10	50
SECRO	250	13833	10	50
SECRO	250	13833	10	50
SECRO	250	13833	10	50
SECRO	250	13833	10	50
SECRO	250	14102	10	50
SECRO	250	14102	10	50
SECRO	250	14102	10	50
SECRO	250	13876	10	50
SECRO	250	13876	10	50
SECRO	250	13876	10	50
SECRO	250	22316	10	50
SECRO	250	13806	10	50
SECRO	250	13806	10	50
SECRO	250	13806	10	50
SECRO	250	13806	10	50
SECRO	250	13806	10	50
SECRO	250	13814	10	50
SECRO	250	13814	10	50
SECRO	250	13814	10	50
SECRO	250	13814	10	50
SECRO	250	13803	10	50
SECRO	250	13803	10	50
SECRO	250	13803	10	50
SECRO	250	13745	10	50
SECRO	250	13745	10	50
SECRO	250	13745	10	50
SECRO	250	13745	10	50
SECRO	250	13745	10	50
SECRO	250	13910	10	50
SECRO	250	13910	10	50
SECRO	250	13910	10	50
SECRO	250	13910	10	50
SECRO	250	13693	10	50
SECRO	250	13693	10	50
SECRO	250	13693	10	50
SECRO	250	13715	10	50
SECRO	250	13715	10	50
SECRO	250	13715	10	50
SECRO	250	13715	10	50
SECRO	250	13780	10	50
SECRO	250	13780	10	50
SECRO	250	13780	10	50
SECRO	250	13780	10	50
SECRO	250	13780	10	50
SECRO	250	13780	10	50
SECRO	250	13817	10	50
SECRO	250	13817	10	50
SECRO	250	13817	10	50
SECRO	250	13806	10	50
SECRO	250	13806	10	50
SECRO	250	13806	10	50
SECRO	250	13806	10	50
SECRO	250	13806	10	50
SECRO	300	24312	10	50
SECRO	300	24312	10	50
SECRO	300	24312	10	50
SECRO	300	23760	10	50
SECRO	300	23760	10	50
SECRO	300	23760	10	50
SECRO	300	23819	10	50
SECRO	300	23819	10	50
SECRO	300	23819	10	50
SECRO	300	24072	10	50
SECRO	300	24072	10	50
SECRO	300	24026	10	50
SECRO	300	24026	10	50
SECRO	300	23530	10	50
SECRO	300	23530	10	50
SECRO	300	23530	10	50
SECRO	300	23928	10	50
SECRO	300	23928	10	50
SECRO	300	23928	10	50
SECRO	300	23894	10	50
SECRO	300	23894	10	50
SECRO	300	23894	10	50
SECRO	300	23580	10	50
SECRO	300	23580	10	50
SECRO	300	23669	10	50
SECRO	300	23669	10	50
SECRO	300	23669	10	50
SECRO	300	23739	10	50
SECRO	300	23739	10	50
SECRO	300	23812	10	50
SECRO	300	23801	10	50
SECRO	300	23801	10	50
SECRO	300	24028	10	50
SECRO	300	23881	10	50
SECRO	300	23881	10	50
SECRO	300	24024	10	50
SECRO	300	24024	10	50
SECRO	300	24024	10	50
SECRO	300	23691	10	50
SECRO	300	23691	10	50
SECRO	300	23691	10	50
SECRO	300	23764	10	50
SECRO	300	23764	10	50
SECRO	300	23892	10	50
SECRO	300	23849	10	50
SECRO	300	23849	10	50
SECRO	300	23849	10	50
SECRO	300	23849	10	50
SECRO	300	23770	10	50
SECRO	300	23770	10	50
SECRO	300	23765	10	50
SECRO	300	23765	10	50
SECRO	300	23761	10	50
SECRO	300	23761	10	50
SECRO	300	24058	10	50
SECRO	300	24058	10	50
SECRO	300	23690	10	50
SECRO	300	23690	10	50
SECRO	300	23690	10	50
SECRO	300	24095	10	50
SECRO	300	24095	10	50
SECRO	300	23768	10	50
SECRO	300	23717	10	50
SECRO	300	23717	10	50
SECRO	300	23752	10	50
SECRO	300	23752	10	50
SECRO	300	23744	10	50
SECRO	10	126	10	100
SECRO	10	111	10	100
SECRO	10	119	10	100
SECRO	10	91	10	100
SECRO	10	104	10	100
SECRO	10	80	10	100
SECRO	10	121	10	100
SECRO	10	109	10	100
SECRO	10	99	10	100
SECRO	10	86	10	100
SECRO	10	94	10	100
SECRO	10	87	10	100
SECRO	10	118	10	100
SECRO	10	102	10	100
SECRO	10	104	10	100
SECRO	10	79	10	100
SECRO	10	81	10	100
SECRO	10	112	10	100
SECRO	10	121	10	100
SECRO	10	109	10	100
SECRO	10	102	10	100
SECRO	10	104	10	100
SECRO	10	74	10	100
SECRO	10	117	10	100
SECRO	10	94	10	100
SECRO	10	85	10	100
SECRO	10	113	10	100
SECRO	10	86	10	100
SECRO	10	93	10	100
SECRO	10	90	10	100
SECRO	50	377	10	100
SECRO	50	358	10	100
SECRO	50	366	10	100
SECRO	50	365	10	100
SECRO	50	367	10	100
SECRO	50	425	10	100
SECRO	50	343	10	100
SECRO	50	396	10	100
SECRO	50	390	10	100
SECRO	50	387	10	100
SECRO	50	379	10	100
SECRO	50	377	10	100
SECRO	50	364	10	100
SECRO	50	328	10	100
SECRO	50	385	10	100
SECRO	50	356	10	100
SECRO	50	373	10	100
SECRO	50	393	10	100
SECRO	50	381	10	100
SECRO	50	387	10	100
SECRO	50	346	10	100
SECRO	50	378	10	100
SECRO	50	397	10	100
SECRO	50	355	10	100
SECRO	50	375	10	100
SECRO	50	396	10	100
SECRO	50	387	10	100
SECRO	50	385	10	100
SECRO	50	370	10	100
SECRO	50	359	10	100
SECRO	100	1301	10	100
SECRO	100	1287	10	100
SECRO	100	1322	10	100
SECRO	100	1317	10	100
SECRO	100	1305	10	100
SECRO	100	1287	10	100
SECRO	100	1355	10	100
SECRO	100	1269	10	100
SECRO	100	1265	10	100
SECRO	100	1277	10	100
SECRO	100	1359	10	100
SECRO	100	1295	10	100
SECRO	100	1306	10	100
SECRO	100	1299	10	100
SECRO	100	1260	10	100
SECRO	100	1251	10	100
SECRO	100	1297	10	100
SECRO	100	1321	10	100
SECRO	100	1314	10	100
SECRO	100	1377	10	100
SECRO	100	1306	10	100
SECRO	100	1277	10	100
SECRO	100	1274	10	100
SECRO	100	1267	10	100
SECRO	100	1254	10	100
SECRO	100	1284	10	100
SECRO	100	1298	10	100
SECRO	100	1323	10	100
SECRO	100	1271	10	100
SECRO	100	1300	10	100
SECRO	150	3503	10	100
SECRO	150	3503	10	100
SECRO	150	3503	10	100
SECRO	150	3503	10	100
SECRO	150	3358	10	100
SECRO	150	3358	10	100
SECRO	150	3358	10	100
SECRO	150	3358	10	100
SECRO	150	3358	10	100
SECRO	150	3479	10	100
SECRO	150	3479	10	100
SECRO	150	3479	10	100
SECRO	150	3403	10	100
SECRO	150	3403	10	100
SECRO	150	3403	10	100
SECRO	150	3403	10	100
SECRO	150	3403	10	100
SECRO	150	3403	10	100
SECRO	150	3403	10	100
SECRO	150	3537	10	100
SECRO	150	3537	10	100
SECRO	150	3315	10	100
SECRO	150	3315	10	100
SECRO	150	3315	10	100
SECRO	150	3315	10	100
SECRO	150	3315	10	100
SECRO	150	3315	10	100
SECRO	150	3315	10	100
SECRO	150	3315	10	100
SECRO	150	3303	10	100
SECRO	150	3303	10	100
SECRO	150	3303	10	100
SECRO	150	3303	10	100
SECRO	150	3303	10	100
SECRO	150	3303	10	100
SECRO	150	3303	10	100
SECRO	150	3351	10	100
SECRO	150	3351	10	100
SECRO	150	3351	10	100
SECRO	150	3351	10	100
SECRO	150	3351	10	100
SECRO	150	3351	10	100
SECRO	150	3351	10	100
SECRO	150	3349	10	100
SECRO	150	3349	10	100
SECRO	150	3349	10	100
SECRO	150	3349	10	100
SECRO	150	3349	10	100
SECRO	150	3349	10	100
SECRO	150	3343	10	100
SECRO	150	3343	10	100
SECRO	150	3343	10	100
SECRO	150	3343	10	100
SECRO	150	3343	10	100
SECRO	150	3343	10	100
SECRO	150	3341	10	100
SECRO	150	3341	10	100
SECRO	150	3341	10	100
SECRO	150	3341	10	100
SECRO	150	3341	10	100
SECRO	150	3341	10	100
SECRO	150	3341	10	100
SECRO	150	3348	10	100
SECRO	150	3348	10	100
SECRO	150	3348	10	100
SECRO	150	3348	10	100
SECRO	150	3348	10	100
SECRO	150	3338	10	100
SECRO	150	3338	10	100
SECRO	150	3338	10	100
SECRO	150	3338	10	100
SECRO	150	3338	10	100
SECRO	150	3338	10	100
SECRO	150	3338	10	100
SECRO	150	3368	10	100
SECRO	150	3368	10	100
SECRO	150	3368	10	100
SECRO	150	3368	10	100
SECRO	150	3368	10	100
SECRO	150	3368	10	100
SECRO	150	3368	10	100
SECRO	150	3556	10	100
SECRO	150	3556	10	100
SECRO	150	3556	10	100
SECRO	150	3325	10	100
SECRO	150	3325	10	100
SECRO	150	3325	10	100
SECRO	150	3325	10	100
SECRO	150	3325	10	100
SECRO	150	3325	10	100
SECRO	150	3335	10	100
SECRO	150	3335	10	100
SECRO	150	3335	10	100
SECRO	150	3335	10	100
SECRO	150	3335	10	100
SECRO	150	3335	10	100
SECRO	150	3335	10	100
SECRO	150	3335	10	100
SECRO	150	3386	10	100
SECRO	150	3386	10	100
SECRO	150	3386	10	100
SECRO	150	3386	10	100
SECRO	150	3386	10	100
SECRO	150	3386	10	100
SECRO	150	3386	10	100
SECRO	150	3386	10	100
SECRO	150	3355	10	100
SECRO	150	3355	10	100
SECRO	150	3355	10	100
SECRO	150	3355	10	100
SECRO	150	3355	10	100
SECRO	150	3355	10	100
SECRO	150	3305	10	100
SECRO	150	3305	10	100
SECRO	150	3305	10	100
SECRO	150	3305	10	100
SECRO	150	3347	10	100
SECRO	150	3347	10	100
SECRO	150	3347	10	100
SECRO	150	3347	10	100
SECRO	150	3347	10	100
SECRO	150	3347	10	100
SECRO	150	3347	10	100
SECRO	150	3347	10	100
SECRO	150	3334	10	100
SECRO	150	3334	10	100
SECRO	150	3334	10	100
SECRO	150	3334	10	100
SECRO	150	3334	10	100
SECRO	150	3334	10	100
SECRO	150	3334	10	100
SECRO	150	3334	10	100
SECRO	150	3299	10	100
SECRO	150	3299	10	100
SECRO	150	3299	10	100
SECRO	150	3299	10	100
SECRO	150	3299	10	100
SECRO	150	3299	10	100
SECRO	150	3299	10	100
SECRO	150	3354	10	100
SECRO	150	3354	10	100
SECRO	150	3354	10	100
SECRO	150	3354	10	100
SECRO	150	3354	10	100
SECRO	150	3354	10	100
SECRO	150	3354	10	100
SECRO	150	3354	10	100
SECRO	150	3336	10	100
SECRO	150	3336	10	100
SECRO	150	3336	10	100
SECRO	150	3336	10	100
SECRO	150	3336	10	100
SECRO	150	3336	10	100
SECRO	150	3327	10	100
SECRO	150	3327	10	100
SECRO	150	3327	10	100
SECRO	150	3327	10	100
SECRO	150	3327	10	100
SECRO	150	3327	10	100
SECRO	150	3385	10	100
SECRO	150	3385	10	100
SECRO	150	3385	10	100
SECRO	150	3385	10	100
SECRO	150	3385	10	100
SECRO	150	3385	10	100
SECRO	150	3385	10	100
SECRO	150	3385	10	100
SECRO	150	3385	10	100
SECRO	150	3290	10	100
SECRO	150	3290	10	100
SECRO	150	3290	10	100
SECRO	150	3290	10	100
SECRO	150	3290	10	100
SECRO	150	3290	10	100
SECRO	150	3449	10	100
SECRO	150	3449	10	100
SECRO	150	3449	10	100
SECRO	150	3449	10	100
SECRO	150	3449	10	100
SECRO	150	3449	10	100
SECRO	150	3449	10	100
SECRO	150	3372	10	100
SECRO	150	3372	10	100
SECRO	150	3372	10	100
SECRO	150	3372	10	100
SECRO	150	3372	10	100
SECRO	150	3372	10	100
SECRO	150	3372	10	100
SECRO	250	14433	10	100
SECRO	250	14433	10	100
SECRO	250	14433	10	100
SECRO	250	14433	10	100
SECRO	250	14433	10	100
SECRO	250	13776	10	100
SECRO	250	13776	10	100
SECRO	250	13776	10	100
SECRO	250	13776	10	100
SECRO	250	13776	10	100
SECRO	250	13776	10	100
SECRO	250	13776	10	100
SECRO	250	13776	10	100
SECRO	250	13725	10	100
SECRO	250	13725	10	100
SECRO	250	13725	10	100
SECRO	250	13823	10	100
SECRO	250	13823	10	100
SECRO	250	13832	10	100
SECRO	250	13832	10	100
SECRO	250	13832	10	100
SECRO	250	13832	10	100
SECRO	250	13832	10	100
SECRO	250	13856	10	100
SECRO	250	13856	10	100
SECRO	250	13856	10	100
SECRO	250	13856	10	100
SECRO	250	13856	10	100
SECRO	250	13903	10	100
SECRO	250	13903	10	100
SECRO	250	13903	10	100
SECRO	250	13837	10	100
SECRO	250	13837	10	100
SECRO	250	13837	10	100
SECRO	250	13837	10	100
SECRO	250	13810	10	100
SECRO	250	13810	10	100
SECRO	250	13810	10	100
SECRO	250	13737	10	100
SECRO	250	13737	10	100
SECRO	250	13737	10	100
SECRO	250	13737	10	100
SECRO	250	13740	10	100
SECRO	250	13740	10	100
SECRO	250	13740	10	100
SECRO	250	13740	10	100
SECRO	250	13708	10	100
SECRO	250	13708	10	100
SECRO	250	13708	10	100
SECRO	250	13708	10	100
SECRO	250	14095	10	100
SECRO	250	14095	10	100
SECRO	250	14095	10	100
SECRO	250	13991	10	100
SECRO	250	13991	10	100
SECRO	250	13991	10	100
SECRO	250	13991	10	100
SECRO	250	13840	10	100
SECRO	250	13840	10	100
SECRO	250	13840	10	100
SECRO	250	14231	10	100
SECRO	250	14231	10	100
SECRO	250	14231	10	100
SECRO	250	14231	10	100
SECRO	250	13705	10	100
SECRO	250	13705	10	100
SECRO	250	13705	10	100
SECRO	250	13705	10	100
SECRO	250	13767	10	100
SECRO	250	13767	10	100
SECRO	250	13767	10	100
SECRO	250	13886	10	100
SECRO	250	13886	10	100
SECRO	250	13886	10	100
SECRO	250	13886	10	100
SECRO	250	13886	10	100
SECRO	250	13822	10	100
SECRO	250	13822	10	100
SECRO	250	13822	10	100
SECRO	250	13707	10	100
SECRO	250	13707	10	100
SECRO	250	13707	10	100
SECRO	250	13707	10	100
SECRO	250	13769	10	100
SECRO	250	13769	10	100
SECRO	250	13769	10	100
SECRO	250	13769	10	100
SECRO	250	13859	10	100
SECRO	250	13859	10	100
SECRO	250	13859	10	100
SECRO	250	13859	10	100
SECRO	250	13859	10	100
SECRO	250	13917	10	100
SECRO	250	13917	10	100
SECRO	250	13917	10	100
SECRO	250	13917	10	100
SECRO	250	13917	10	100
SECRO	250	13720	10	100
SECRO	250	13720	10	100
SECRO	250	13720	10	100
SECRO	250	13720	10	100
SECRO	250	13891	10	100
SECRO	250	13891	10	100
SECRO	250	13903	10	100
SECRO	250	13903	10	100
SECRO	250	13903	10	100
SECRO	250	13828	10	100
SECRO	250	13828	10	100
SECRO	250	13828	10	100
SECRO	250	13828	10	100
SECRO	250	13828	10	100
SECRO	250	13828	10	100
SECRO	250	13760	10	100
SECRO	250	13760	10	100
SECRO	250	13760	10	100
SECRO	250	13760	10	100
SECRO	300	23785	10	100
SECRO	300	23785	10	100
SECRO	300	23785	10	100
SECRO	300	23857	10	100
SECRO	300	23857	10	100
SECRO	300	23857	10	100
SECRO	300	24274	10	100
SECRO	300	24274	10	100
SECRO	300	24274	10	100
SECRO	300	24274	10	100
SECRO	300	23891	10	100
SECRO	300	23861	10	100
SECRO	300	23861	10	100
SECRO	300	23728	10	100
SECRO	300	23728	10	100
SECRO	300	23702	10	100
SECRO	300	23702	10	100
SECRO	300	23682	10	100
SECRO	300	23597	10	100
SECRO	300	23844	10	100
SECRO	300	23844	10	100
SECRO	300	23844	10	100
SECRO	300	24062	10	100
SECRO	300	24062	10	100
SECRO	300	24062	10	100
SECRO	300	23691	10	100
SECRO	300	23691	10	100
SECRO	300	23744	10	100
SECRO	300	23744	10	100
SECRO	300	23744	10	100
SECRO	300	24430	10	100
SECRO	300	23860	10	100
SECRO	300	23860	10	100
SECRO	300	23860	10	100
SECRO	300	23790	10	100
SECRO	300	23790	10	100
SECRO	300	23790	10	100
SECRO	300	23781	10	100
SECRO	300	23781	10	100
SECRO	300	23781	10	100
SECRO	300	23863	10	100
SECRO	300	23863	10	100
SECRO	300	23863	10	100
SECRO	300	23789	10	100
SECRO	300	23789	10	100
SECRO	300	23789	10	100
SECRO	300	23746	10	100
SECRO	300	23746	10	100
SECRO	300	23755	10	100
SECRO	300	23755	10	100
SECRO	300	23749	10	100
SECRO	300	23749	10	100
SECRO	300	23749	10	100
SECRO	300	23714	10	100
SECRO	300	23714	10	100
SECRO	300	23714	10	100
SECRO	300	23920	10	100
SECRO	300	23920	10	100
SECRO	300	23920	10	100
SECRO	300	23820	10	100
SECRO	300	23820	10	100
SECRO	300	23961	10	100
SECRO	300	23961	10	100
SECRO	300	23668	10	100
SECRO	300	23668	10	100
SECRO	300	23797	10	100
SECRO	300	23797	10	100
SECRO	300	23794	10	100
SECRO	300	23794	10	100
SECRO	300	23814	10	100
SECRO	300	23814	10	100
CJRDT	10	1192	10	20
CJRDT	10	154	10	20
CJRDT	10	129	10	20
CJRDT	10	106	10	20
CJRDT	10	133	10	20
CJRDT	10	1293	10	20
CJRDT	10	132	10	20
CJRDT	10	152	10	20
CJRDT	10	76	10	20
CJRDT	10	105	10	20
CJRDT	10	898	10	20
CJRDT	10	987	10	20
CJRDT	10	93	10	20
CJRDT	10	124	10	20
CJRDT	10	1145	10	20
CJRDT	10	1124	10	20
CJRDT	10	110	10	20
CJRDT	10	120	10	20
CJRDT	10	154	10	20
CJRDT	10	161	10	20
CJRDT	10	1144	10	20
CJRDT	10	63	10	20
CJRDT	10	107	10	20
CJRDT	10	90	10	20
CJRDT	10	171	10	20
CJRDT	10	453	10	20
CJRDT	10	79	10	20
CJRDT	10	1231	10	20
CJRDT	10	393	10	20
CJRDT	10	62	10	20
CJRDT	50	277	10	60
CJRDT	50	375	10	60
CJRDT	50	1501	10	60
CJRDT	50	179	10	60
CJRDT	50	1894	10	60
CJRDT	50	2017	10	60
CJRDT	50	1619	10	60
CJRDT	50	294	10	60
CJRDT	50	202	10	60
CJRDT	50	389	10	60
CJRDT	50	1409	10	60
CJRDT	50	1388	10	60
CJRDT	50	1668	10	60
CJRDT	50	1977	10	60
CJRDT	50	219	10	60
CJRDT	50	174	10	60
CJRDT	50	1609	10	60
CJRDT	50	1788	10	60
CJRDT	50	212	10	60
CJRDT	50	170	10	60
CJRDT	50	1606	10	60
CJRDT	50	210	10	60
CJRDT	50	440	10	60
CJRDT	50	201	10	60
CJRDT	50	209	10	60
CJRDT	50	1667	10	60
CJRDT	50	319	10	60
CJRDT	50	137	10	60
CJRDT	50	299	10	60
CJRDT	50	225	10	60
CJRDT	100	770	10	110
CJRDT	100	311	10	110
CJRDT	100	941	10	110
CJRDT	100	2107	10	110
CJRDT	100	395	10	110
CJRDT	100	372	10	110
CJRDT	100	4516	10	110
CJRDT	100	925	10	110
CJRDT	100	1764	10	110
CJRDT	100	263	10	110
CJRDT	100	3235	10	110
CJRDT	100	506	10	110
CJRDT	100	1038	10	110
CJRDT	100	345	10	110
CJRDT	100	391	10	110
CJRDT	100	305	10	110
CJRDT	100	1055	10	110
CJRDT	100	586	10	110
CJRDT	100	409	10	110
CJRDT	100	337	10	110
CJRDT	100	3135	10	110
CJRDT	100	693	10	110
CJRDT	100	976	10	110
CJRDT	100	639	10	110
CJRDT	100	907	10	110
CJRDT	100	879	10	110
CJRDT	100	2342	10	110
CJRDT	100	601	10	110
CJRDT	100	324	10	110
CJRDT	100	386	10	110
CJRDT	150	603	10	160
CJRDT	150	1354	10	160
CJRDT	150	1186	10	160
CJRDT	150	1139	10	160
CJRDT	150	6318	10	160
CJRDT	150	415	10	160
CJRDT	150	656	10	160
CJRDT	150	8593	10	160
CJRDT	150	674	10	160
CJRDT	150	868	10	160
CJRDT	150	792	10	160
CJRDT	150	8035	10	160
CJRDT	150	4812	10	160
CJRDT	150	528	10	160
CJRDT	150	1356	10	160
CJRDT	150	1094	10	160
CJRDT	150	1085	10	160
CJRDT	150	1270	10	160
CJRDT	150	688	10	160
CJRDT	150	11971	10	160
CJRDT	150	5288	10	160
CJRDT	150	951	10	160
CJRDT	150	870	10	160
CJRDT	150	1255	10	160
CJRDT	150	5733	10	160
CJRDT	150	1049	10	160
CJRDT	150	6659	10	160
CJRDT	150	439	10	160
CJRDT	150	4093	10	160
CJRDT	150	12349	10	160
CJRDT	250	2536	10	260
CJRDT	250	1398	10	260
CJRDT	250	3198	10	260
CJRDT	250	26158	10	260
CJRDT	250	3519	10	260
CJRDT	250	1565	10	260
CJRDT	250	863	10	260
CJRDT	250	4084	10	260
CJRDT	250	4757	10	260
CJRDT	250	29678	10	260
CJRDT	250	2077	10	260
CJRDT	250	1410	10	260
CJRDT	250	898	10	260
CJRDT	250	1321	10	260
CJRDT	250	2490	10	260
CJRDT	250	2162	10	260
CJRDT	250	930	10	260
CJRDT	250	991	10	260
CJRDT	250	18361	10	260
CJRDT	250	1818	10	260
CJRDT	250	3423	10	260
CJRDT	250	1678	10	260
CJRDT	250	1498	10	260
CJRDT	250	14468	10	260
CJRDT	250	2982	10	260
CJRDT	250	2876	10	260
CJRDT	250	23656	10	260
CJRDT	250	1305	10	260
CJRDT	250	3586	10	260
CJRDT	250	1433	10	260
CJRDT	300	3215	10	310
CJRDT	300	1727	10	310
CJRDT	300	1264	10	310
CJRDT	300	4046	10	310
CJRDT	300	2763	10	310
CJRDT	300	44037	10	310
CJRDT	300	3389	10	310
CJRDT	300	1609	10	310
CJRDT	300	3837	10	310
CJRDT	300	35747	10	310
CJRDT	300	1362	10	310
CJRDT	300	2615	10	310
CJRDT	300	2917	10	310
CJRDT	300	1242	10	310
CJRDT	300	5820	10	310
CJRDT	300	1433	10	310
CJRDT	300	1673	10	310
CJRDT	300	1224	10	310
CJRDT	300	1587	10	310
CJRDT	300	10614	10	310
CJRDT	300	4376	10	310
CJRDT	300	46814	10	310
CJRDT	300	1864	10	310
CJRDT	300	28591	10	310
CJRDT	300	4390	10	310
CJRDT	300	1208	10	310
CJRDT	300	49458	10	310
CJRDT	300	5072	10	310
CJRDT	300	48815	10	310
CJRDT	300	70974	10	310
CJRDT	400	3355	10	410
CJRDT	400	2238	10	410
CJRDT	400	211297	10	410
CJRDT	400	2665	10	410
CJRDT	400	2240	10	410
CJRDT	400	2132	10	410
CJRDT	400	3270	10	410
CJRDT	400	2493	10	410
CJRDT	400	3232	10	410
CJRDT	400	3172	10	410
CJRDT	400	2533	10	410
CJRDT	400	3337	10	410
CJRDT	400	4263	10	410
CJRDT	400	2353	10	410
CJRDT	400	2213	10	410
CJRDT	400	2415	10	410
CJRDT	400	2827	10	410
CJRDT	400	2326	10	410
CJRDT	400	2194	10	410
CJRDT	400	145490	10	410
CJRDT	400	2179	10	410
CJRDT	400	17404	10	410
CJRDT	400	2514	10	410
CJRDT	400	6170	10	410
CJRDT	400	93389	10	410
CJRDT	400	2215	10	410
CJRDT	400	2198	10	410
CJRDT	400	2206	10	410
CJRDT	400	3574	10	410
CJRDT	400	2239	10	410
CJRDT	500	3826	10	510
CJRDT	500	4043	10	510
CJRDT	500	3860	10	510
CJRDT	500	3949	10	510
CJRDT	500	3530	10	510
CJRDT	500	3639	10	510
CJRDT	500	3720	10	510
CJRDT	500	3558	10	510
CJRDT	500	3533	10	510
CJRDT	500	3633	10	510
CJRDT	500	3639	10	510
CJRDT	500	3625	10	510
CJRDT	500	3671	10	510
CJRDT	500	3699	10	510
CJRDT	500	4011	10	510
CJRDT	500	3677	10	510
CJRDT	500	4350	10	510
CJRDT	500	3779	10	510
CJRDT	500	3834	10	510
CJRDT	500	11938	10	510
CJRDT	500	3581	10	510
CJRDT	500	3714	10	510
CJRDT	500	3542	10	510
CJRDT	500	10401	10	510
CJRDT	500	192430	10	510
CJRDT	500	3412	10	510
CJRDT	500	3499	10	510
CJRDT	500	3861	10	510
CJRDT	500	22755	10	510
CJRDT	500	3773	10	510
SECRO	60	461	10	10
SECRO	60	471	10	10
SECRO	60	454	10	10
SECRO	60	479	10	10
SECRO	60	459	10	10
SECRO	60	457	10	10
SECRO	60	490	10	10
SECRO	60	473	10	10
SECRO	60	467	10	10
SECRO	60	490	10	10
SECRO	60	537	10	10
SECRO	60	540	10	10
SECRO	60	499	10	10
SECRO	60	459	10	10
SECRO	60	459	10	10
SECRO	60	457	10	10
SECRO	60	535	10	10
SECRO	60	461	10	10
SECRO	60	483	10	10
SECRO	60	461	10	10
SECRO	60	546	10	10
SECRO	60	467	10	10
SECRO	60	495	10	10
SECRO	60	545	10	10
SECRO	60	542	10	10
SECRO	60	452	10	10
SECRO	60	545	10	10
SECRO	60	459	10	10
SECRO	60	469	10	10
SECRO	60	467	10	10
SECRO	70	624	10	10
SECRO	70	681	10	10
SECRO	70	686	10	10
SECRO	70	683	10	10
SECRO	70	685	10	10
SECRO	70	692	10	10
SECRO	70	619	10	10
SECRO	70	622	10	10
SECRO	70	609	10	10
SECRO	70	618	10	10
SECRO	70	683	10	10
SECRO	70	696	10	10
SECRO	70	625	10	10
SECRO	70	596	10	10
SECRO	70	630	10	10
SECRO	70	642	10	10
SECRO	70	641	10	10
SECRO	70	615	10	10
SECRO	70	618	10	10
SECRO	70	718	10	10
SECRO	70	608	10	10
SECRO	70	628	10	10
SECRO	70	708	10	10
SECRO	70	607	10	10
SECRO	70	629	10	10
SECRO	70	603	10	10
SECRO	70	638	10	10
SECRO	70	695	10	10
SECRO	70	618	10	10
SECRO	70	651	10	10
SECRO	80	801	10	10
SECRO	80	912	10	10
SECRO	80	807	10	10
SECRO	80	912	10	10
SECRO	80	807	10	10
SECRO	80	811	10	10
SECRO	80	815	10	10
SECRO	80	793	10	10
SECRO	80	847	10	10
SECRO	80	826	10	10
SECRO	80	813	10	10
SECRO	80	870	10	10
SECRO	80	898	10	10
SECRO	80	810	10	10
SECRO	80	792	10	10
SECRO	80	815	10	10
SECRO	80	920	10	10
SECRO	80	813	10	10
SECRO	80	808	10	10
SECRO	80	886	10	10
SECRO	80	803	10	10
SECRO	80	807	10	10
SECRO	80	911	10	10
SECRO	80	795	10	10
SECRO	80	792	10	10
SECRO	80	797	10	10
SECRO	80	807	10	10
SECRO	80	801	10	10
SECRO	80	816	10	10
SECRO	80	817	10	10
SECRO	90	1055	10	10
SECRO	90	1036	10	10
SECRO	90	1020	10	10
SECRO	90	1037	10	10
SECRO	90	1132	10	10
SECRO	90	1142	10	10
SECRO	90	1016	10	10
SECRO	90	1023	10	10
SECRO	90	1039	10	10
SECRO	90	1155	10	10
SECRO	90	1026	10	10
SECRO	90	1012	10	10
SECRO	90	1174	10	10
SECRO	90	1363	10	10
SECRO	90	1044	10	10
SECRO	90	1026	10	10
SECRO	90	1144	10	10
SECRO	90	1013	10	10
SECRO	90	1041	10	10
SECRO	90	1136	10	10
SECRO	90	1036	10	10
SECRO	90	1033	10	10
SECRO	90	1127	10	10
SECRO	90	1018	10	10
SECRO	90	1046	10	10
SECRO	90	1039	10	10
SECRO	90	1138	10	10
SECRO	90	1137	10	10
SECRO	90	1034	10	10
SECRO	90	1187	10	10
SECRO	60	463	10	20
SECRO	60	475	10	20
SECRO	60	470	10	20
SECRO	60	687	10	20
SECRO	60	655	10	20
SECRO	60	480	10	20
SECRO	60	467	10	20
SECRO	60	471	10	20
SECRO	60	485	10	20
SECRO	60	468	10	20
SECRO	60	468	10	20
SECRO	60	538	10	20
SECRO	60	483	10	20
SECRO	60	465	10	20
SECRO	60	472	10	20
SECRO	60	482	10	20
SECRO	60	531	10	20
SECRO	60	463	10	20
SECRO	60	532	10	20
SECRO	60	467	10	20
SECRO	60	535	10	20
SECRO	60	474	10	20
SECRO	60	464	10	20
SECRO	60	468	10	20
SECRO	60	453	10	20
SECRO	60	531	10	20
SECRO	60	473	10	20
SECRO	60	529	10	20
SECRO	60	463	10	20
SECRO	60	458	10	20
SECRO	70	648	10	20
SECRO	70	687	10	20
SECRO	70	625	10	20
SECRO	70	693	10	20
SECRO	70	613	10	20
SECRO	70	700	10	20
SECRO	70	648	10	20
SECRO	70	602	10	20
SECRO	70	619	10	20
SECRO	70	694	10	20
SECRO	70	745	10	20
SECRO	70	615	10	20
SECRO	70	631	10	20
SECRO	70	599	10	20
SECRO	70	637	10	20
SECRO	70	604	10	20
SECRO	70	623	10	20
SECRO	70	634	10	20
SECRO	70	619	10	20
SECRO	70	622	10	20
SECRO	70	634	10	20
SECRO	70	621	10	20
SECRO	70	607	10	20
SECRO	70	679	10	20
SECRO	70	614	10	20
SECRO	70	609	10	20
SECRO	70	699	10	20
SECRO	70	612	10	20
SECRO	70	636	10	20
SECRO	70	612	10	20
SECRO	80	809	10	20
SECRO	80	836	10	20
SECRO	80	919	10	20
SECRO	80	888	10	20
SECRO	80	930	10	20
SECRO	80	790	10	20
SECRO	80	878	10	20
SECRO	80	943	10	20
SECRO	80	920	10	20
SECRO	80	807	10	20
SECRO	80	809	10	20
SECRO	80	824	10	20
SECRO	80	818	10	20
SECRO	80	788	10	20
SECRO	80	810	10	20
SECRO	80	923	10	20
SECRO	80	795	10	20
SECRO	80	810	10	20
SECRO	80	792	10	20
SECRO	80	803	10	20
SECRO	80	820	10	20
SECRO	80	825	10	20
SECRO	80	841	10	20
SECRO	80	833	10	20
SECRO	80	789	10	20
SECRO	80	836	10	20
SECRO	80	822	10	20
SECRO	80	825	10	20
SECRO	80	821	10	20
SECRO	80	827	10	20
SECRO	90	1021	10	20
SECRO	90	1043	10	20
SECRO	90	1040	10	20
SECRO	90	1038	10	20
SECRO	90	1038	10	20
SECRO	90	1055	10	20
SECRO	90	1045	10	20
SECRO	90	1123	10	20
SECRO	90	1018	10	20
SECRO	90	1062	10	20
SECRO	90	1165	10	20
SECRO	90	1029	10	20
SECRO	90	1024	10	20
SECRO	90	1037	10	20
SECRO	90	1012	10	20
SECRO	90	1071	10	20
SECRO	90	1026	10	20
SECRO	90	1039	10	20
SECRO	90	1039	10	20
SECRO	90	1050	10	20
SECRO	90	1027	10	20
SECRO	90	1055	10	20
SECRO	90	1049	10	20
SECRO	90	1011	10	20
SECRO	90	1027	10	20
SECRO	90	1069	10	20
SECRO	90	1034	10	20
SECRO	90	1036	10	20
SECRO	90	1006	10	20
SECRO	90	1050	10	20
SECRO	60	458	10	50
SECRO	60	507	10	50
SECRO	60	464	10	50
SECRO	60	506	10	50
SECRO	60	505	10	50
SECRO	60	517	10	50
SECRO	60	466	10	50
SECRO	60	483	10	50
SECRO	60	479	10	50
SECRO	60	458	10	50
SECRO	60	453	10	50
SECRO	60	475	10	50
SECRO	60	460	10	50
SECRO	60	463	10	50
SECRO	60	469	10	50
SECRO	60	496	10	50
SECRO	60	492	10	50
SECRO	60	501	10	50
SECRO	60	490	10	50
SECRO	60	492	10	50
SECRO	60	462	10	50
SECRO	60	496	10	50
SECRO	60	461	10	50
SECRO	60	490	10	50
SECRO	60	448	10	50
SECRO	60	498	10	50
SECRO	60	459	10	50
SECRO	60	483	10	50
SECRO	60	481	10	50
SECRO	60	464	10	50
SECRO	70	622	10	50
SECRO	70	622	10	50
SECRO	70	626	10	50
SECRO	70	600	10	50
SECRO	70	626	10	50
SECRO	70	592	10	50
SECRO	70	600	10	50
SECRO	70	600	10	50
SECRO	70	657	10	50
SECRO	70	678	10	50
SECRO	70	594	10	50
SECRO	70	714	10	50
SECRO	70	608	10	50
SECRO	70	626	10	50
SECRO	70	649	10	50
SECRO	70	693	10	50
SECRO	70	632	10	50
SECRO	70	630	10	50
SECRO	70	633	10	50
SECRO	70	643	10	50
SECRO	70	613	10	50
SECRO	70	637	10	50
SECRO	70	704	10	50
SECRO	70	645	10	50
SECRO	70	618	10	50
SECRO	70	607	10	50
SECRO	70	620	10	50
SECRO	70	632	10	50
SECRO	70	696	10	50
SECRO	70	627	10	50
SECRO	80	822	10	50
SECRO	80	822	10	50
SECRO	80	814	10	50
SECRO	80	812	10	50
SECRO	80	807	10	50
SECRO	80	794	10	50
SECRO	80	815	10	50
SECRO	80	1107	10	50
SECRO	80	833	10	50
SECRO	80	814	10	50
SECRO	80	814	10	50
SECRO	80	827	10	50
SECRO	80	819	10	50
SECRO	80	824	10	50
SECRO	80	825	10	50
SECRO	80	917	10	50
SECRO	80	902	10	50
SECRO	80	918	10	50
SECRO	80	862	10	50
SECRO	80	809	10	50
SECRO	80	809	10	50
SECRO	80	835	10	50
SECRO	80	963	10	50
SECRO	80	801	10	50
SECRO	80	816	10	50
SECRO	80	823	10	50
SECRO	80	816	10	50
SECRO	80	813	10	50
SECRO	80	852	10	50
SECRO	80	829	10	50
SECRO	90	1046	10	50
SECRO	90	1020	10	50
SECRO	90	1046	10	50
SECRO	90	1073	10	50
SECRO	90	1030	10	50
SECRO	90	1050	10	50
SECRO	90	1052	10	50
SECRO	90	1041	10	50
SECRO	90	1056	10	50
SECRO	90	1031	10	50
SECRO	90	1037	10	50
SECRO	90	1000	10	50
SECRO	90	1052	10	50
SECRO	90	1035	10	50
SECRO	90	1036	10	50
SECRO	90	1024	10	50
SECRO	90	1029	10	50
SECRO	90	1015	10	50
SECRO	90	1047	10	50
SECRO	90	1057	10	50
SECRO	90	1052	10	50
SECRO	90	1035	10	50
SECRO	90	1021	10	50
SECRO	90	1056	10	50
SECRO	90	1055	10	50
SECRO	90	1042	10	50
SECRO	90	1147	10	50
SECRO	90	1035	10	50
SECRO	90	1041	10	50
SECRO	90	1057	10	50
SECRO	60	472	10	100
SECRO	60	655	10	100
SECRO	60	490	10	100
SECRO	60	471	10	100
SECRO	60	491	10	100
SECRO	60	522	10	100
SECRO	60	506	10	100
SECRO	60	469	10	100
SECRO	60	481	10	100
SECRO	60	525	10	100
SECRO	60	481	10	100
SECRO	60	479	10	100
SECRO	60	471	10	100
SECRO	60	557	10	100
SECRO	60	502	10	100
SECRO	60	540	10	100
SECRO	60	484	10	100
SECRO	60	485	10	100
SECRO	60	479	10	100
SECRO	60	474	10	100
SECRO	60	479	10	100
SECRO	60	469	10	100
SECRO	60	508	10	100
SECRO	60	491	10	100
SECRO	60	457	10	100
SECRO	60	474	10	100
SECRO	60	490	10	100
SECRO	60	494	10	100
SECRO	60	531	10	100
SECRO	60	495	10	100
SECRO	70	609	10	100
SECRO	70	629	10	100
SECRO	70	804	10	100
SECRO	70	615	10	100
SECRO	70	639	10	100
SECRO	70	633	10	100
SECRO	70	613	10	100
SECRO	70	633	10	100
SECRO	70	628	10	100
SECRO	70	634	10	100
SECRO	70	621	10	100
SECRO	70	623	10	100
SECRO	70	644	10	100
SECRO	70	640	10	100
SECRO	70	608	10	100
SECRO	70	629	10	100
SECRO	70	625	10	100
SECRO	70	629	10	100
SECRO	70	643	10	100
SECRO	70	638	10	100
SECRO	70	643	10	100
SECRO	70	691	10	100
SECRO	70	624	10	100
SECRO	70	622	10	100
SECRO	70	625	10	100
SECRO	70	629	10	100
SECRO	70	636	10	100
SECRO	70	628	10	100
SECRO	70	636	10	100
SECRO	70	626	10	100
SECRO	80	825	10	100
SECRO	80	836	10	100
SECRO	80	824	10	100
SECRO	80	800	10	100
SECRO	80	817	10	100
SECRO	80	847	10	100
SECRO	80	840	10	100
SECRO	80	819	10	100
SECRO	80	815	10	100
SECRO	80	805	10	100
SECRO	80	832	10	100
SECRO	80	808	10	100
SECRO	80	917	10	100
SECRO	80	831	10	100
SECRO	80	844	10	100
SECRO	80	785	10	100
SECRO	80	807	10	100
SECRO	80	852	10	100
SECRO	80	824	10	100
SECRO	80	832	10	100
SECRO	80	828	10	100
SECRO	80	806	10	100
SECRO	80	853	10	100
SECRO	80	879	10	100
SECRO	80	844	10	100
SECRO	80	817	10	100
SECRO	80	814	10	100
SECRO	80	814	10	100
SECRO	80	837	10	100
SECRO	80	832	10	100
SECRO	90	1031	10	100
SECRO	90	1020	10	100
SECRO	90	1025	10	100
SECRO	90	1035	10	100
SECRO	90	1031	10	100
SECRO	90	1053	10	100
SECRO	90	1034	10	100
SECRO	90	1151	10	100
SECRO	90	1024	10	100
SECRO	90	1047	10	100
SECRO	90	1025	10	100
SECRO	90	1026	10	100
SECRO	90	1017	10	100
SECRO	90	1052	10	100
SECRO	90	1127	10	100
SECRO	90	1034	10	100
SECRO	90	1218	10	100
SECRO	90	1031	10	100
SECRO	90	1037	10	100
SECRO	90	1018	10	100
SECRO	90	1043	10	100
SECRO	90	1063	10	100
SECRO	90	1058	10	100
SECRO	90	1072	10	100
SECRO	90	1032	10	100
SECRO	90	1031	10	100
SECRO	90	1029	10	100
SECRO	90	1091	10	100
SECRO	90	1047	10	100
SECRO	90	1032	10	100
CJRDT	60	280	10	70
CJRDT	60	394	10	70
CJRDT	60	1488	10	70
CJRDT	60	320	10	70
CJRDT	60	1383	10	70
CJRDT	60	390	10	70
CJRDT	60	413	10	70
CJRDT	60	1898	10	70
CJRDT	60	1977	10	70
CJRDT	60	2389	10	70
CJRDT	60	1790	10	70
CJRDT	60	2249	10	70
CJRDT	60	1339	10	70
CJRDT	60	1650	10	70
CJRDT	60	1972	10	70
CJRDT	60	284	10	70
CJRDT	60	1304	10	70
CJRDT	60	1266	10	70
CJRDT	60	1628	10	70
CJRDT	60	1340	10	70
CJRDT	60	261	10	70
CJRDT	60	1733	10	70
CJRDT	60	304	10	70
CJRDT	60	1118	10	70
CJRDT	60	1752	10	70
CJRDT	60	1735	10	70
CJRDT	60	294	10	70
CJRDT	60	316	10	70
CJRDT	60	267	10	70
CJRDT	60	1505	10	70
CJRDT	70	2223	10	80
CJRDT	70	2077	10	80
CJRDT	70	456	10	80
CJRDT	70	312	10	80
CJRDT	70	405	10	80
CJRDT	70	566	10	80
CJRDT	70	2568	10	80
CJRDT	70	2431	10	80
CJRDT	70	2086	10	80
CJRDT	70	1821	10	80
CJRDT	70	2168	10	80
CJRDT	70	419	10	80
CJRDT	70	307	10	80
CJRDT	70	2151	10	80
CJRDT	70	1375	10	80
CJRDT	70	2941	10	80
CJRDT	70	2220	10	80
CJRDT	70	312	10	80
CJRDT	70	2252	10	80
CJRDT	70	1727	10	80
CJRDT	70	2822	10	80
CJRDT	70	617	10	80
CJRDT	70	2173	10	80
CJRDT	70	322	10	80
CJRDT	70	1774	10	80
CJRDT	70	263	10	80
CJRDT	70	1652	10	80
CJRDT	70	2302	10	80
CJRDT	70	3418	10	80
CJRDT	70	2381	10	80
CJRDT	80	2599	10	90
CJRDT	80	2085	10	90
CJRDT	80	467	10	90
CJRDT	80	2082	10	90
CJRDT	80	1877	10	90
CJRDT	80	2427	10	90
CJRDT	80	1931	10	90
CJRDT	80	2548	10	90
CJRDT	80	3424	10	90
CJRDT	80	2541	10	90
CJRDT	80	2008	10	90
CJRDT	80	436	10	90
CJRDT	80	259	10	90
CJRDT	80	484	10	90
CJRDT	80	2526	10	90
CJRDT	80	438	10	90
CJRDT	80	4316	10	90
CJRDT	80	4744	10	90
CJRDT	80	297	10	90
CJRDT	80	233	10	90
CJRDT	80	493	10	90
CJRDT	80	3360	10	90
CJRDT	80	3451	10	90
CJRDT	80	652	10	90
CJRDT	80	2255	10	90
CJRDT	80	2696	10	90
CJRDT	80	390	10	90
CJRDT	80	2040	10	90
CJRDT	80	305	10	90
CJRDT	80	1963	10	90
CJRDT	90	2665	10	100
CJRDT	90	382	10	100
CJRDT	90	2966	10	100
CJRDT	90	3600	10	100
CJRDT	90	470	10	100
CJRDT	90	2680	10	100
CJRDT	90	2518	10	100
CJRDT	90	4433	10	100
CJRDT	90	498	10	100
CJRDT	90	1804	10	100
CJRDT	90	1229	10	100
CJRDT	90	503	10	100
CJRDT	90	3224	10	100
CJRDT	90	457	10	100
CJRDT	90	551	10	100
CJRDT	90	2402	10	100
CJRDT	90	1903	10	100
CJRDT	90	2375	10	100
CJRDT	90	416	10	100
CJRDT	90	3464	10	100
CJRDT	90	2276	10	100
CJRDT	90	407	10	100
CJRDT	90	532	10	100
CJRDT	90	3355	10	100
CJRDT	90	635	10	100
CJRDT	90	2289	10	100
CJRDT	90	430	10	100
CJRDT	90	265	10	100
CJRDT	90	464	10	100
CJRDT	90	2721	10	100
