x	Duration	RSS	HeapTotal	HeapUsed	External
0	NA	101904384	67776512	11157344	24992
1	1.33314	101904384	67776512	11837432	24992
2	2.315618	101904384	67776512	13175776	24992
3	3.587746	101904384	67776512	15173536	24992
4	2.94442	101904384	67776512	17830768	24992
5	3.724851	101904384	67776512	21148120	24992
6	4.455324	101904384	67776512	25124960	24992
7	5.7646	101904384	67776512	13295472	24992
8	6.020236	101904384	67776512	18591408	24992
9	6.734305	101904384	67776512	24547848	24992
10	7.891614	101904384	67776512	14704688	24992
11	8.086476	101904384	67776512	21980240	24992
12	9.169078	101904384	67776512	13448008	24992
13	9.762115	101904384	67776512	22042632	24992
14	10.399561	101904384	67776512	14828712	24992
15	11.135489	101904384	67776512	24742488	24992
16	12.336624	101904384	67776512	18856096	24992
17	12.598282	101904384	67776512	13622200	24992
18	13.445916	101904384	67776512	25516640	24992
19	14.352747	101904384	67776512	21605104	24992
20	14.857466	101904384	67776512	18354368	24992
21	17.034708	101904384	67776512	15771784	24992
22	16.807033	101904384	67776512	13836744	24992
23	17.030825	101904384	67776512	12562280	24992
24	17.777159	101904384	67776512	11948272	24992
25	18.860932	101904384	67776512	11994832	24992
26	19.756996	101904384	67776512	12701976	24992
27	20.578349	101904384	67776512	14069640	24992
28	20.917771	101904384	67776512	16097840	24992
29	22.453773	101904384	67776512	18786568	24992
30	22.346513	101904384	67776512	22136640	24992
31	23.098581	101904384	67776512	26145424	24992
32	24.126314	101904384	67776512	14350240	24992
33	24.359281	101904384	67776512	19681896	24992
34	25.538931	101904384	67776512	25680560	24992
35	26.622115	101904384	67776512	15876512	24992
36	26.819188	101904384	67776512	23188160	24992
37	27.87543	101904384	67776512	14705744	24992
38	28.231486	101904384	67776512	23337848	24992
39	29.137354	101904384	67776512	16178096	24992
40	29.897058	101904384	67776512	26130888	24992
41	30.529761	101904384	67776512	20292784	24992
42	31.282805	101904384	67776512	15112056	24992
43	31.337747	101904384	67776512	27045560	24992
44	32.452437	101904384	67776512	23187048	24992
45	33.305937	101904384	67776512	19990128	24992
46	35.007544	101904384	67776512	17461688	24992
47	34.956703	101904384	67776512	15581432	24992
48	35.881168	101904384	67776512	14362528	24992
49	36.446074	101904384	67776512	13804360	24992
50	37.165425	101904384	67776512	13907864	24992
51	37.765443	101904384	67776512	14672744	24992
52	38.643072	101904384	67776512	16098832	24992
53	39.103545	101904384	67776512	18185896	24992
54	39.492007	101904384	67776512	20933928	24992
55	41.237616	101904384	67776512	24342520	24992
56	42.299536	101904384	67776512	28410480	24992
57	44.68304	101904384	67776512	16647856	24992
58	42.52579	101904384	67776512	22037152	24992
59	44.494016	101904384	67776512	28086960	24992
60	44.91766	101904384	67776512	18307400	24992
61	45.583143	101904384	67776512	25688088	24992
62	45.881695	101904384	67776512	17275160	24992
63	46.512936	101904384	67776512	26013832	24992
64	47.168682	101904384	67776512	18920800	24992
65	47.846912	101904384	67776512	28990528	24992
66	48.650254	101904384	67776512	23238328	24992
67	49.34575	101904384	67776512	18150120	24992
68	50.048071	101904384	67776512	30200800	24992
69	50.757303	101904384	67776512	26435272	24992
70	51.585304	101904384	67776512	23330024	24992
71	52.546896	101904384	67776512	20888296	24992
72	52.95744	101904384	67776512	19097056	24992
73	54.013109	101904384	67776512	17975416	24992
74	54.925966	101904384	67776512	17515128	24992
75	55.919203	101904384	67776512	17716568	24992
76	56.62747	101904384	67776512	18579536	24992
77	57.351031	101904384	67776512	20104312	24992
78	58.730972	101904384	67776512	22290488	24992
79	59.390461	101904384	67776512	25135912	24992
80	60.86882	101904384	67776512	28638328	24992
81	61.214054	102174720	68300800	16310920	24992
82	61.428556	102174720	68300800	21143928	24992
83	62.510555	102174720	68300800	26639000	24992
84	63.065594	102445056	68300800	32795328	24992
85	64.863315	102445056	68825088	23117408	24992
86	64.410656	102715392	68825088	30597136	24992
87	66.300018	102715392	68825088	22245216	24992
88	66.165659	102985728	68825088	31048152	24992
89	67.631543	102985728	68825088	24019440	24992
90	67.286286	102985728	68825088	34143616	24992
91	69.076177	102985728	68825088	28434312	24992
92	70.57685	102985728	68825088	23395992	24992
93	70.849534	102985728	68825088	19015544	24992
94	72.141855	102985728	68825088	31789280	24992
95	72.51591	102985728	68825088	28730728	24992
96	73.186772	102985728	68825088	26328664	24992
97	74.411351	102985728	68825088	24581712	24992
98	75.25905	102985728	68825088	23506072	24992
99	76.357298	102985728	68825088	23092672	24992
100	77.22638	102985728	68825088	23341392	24992
101	79.041931	102985728	68825088	24251472	24992
102	0.804348	102985728	68825088	25431984	24992
103	1.483964	102985728	68825088	26769768	24992
104	2.203665	102985728	68825088	28766912	24992
105	2.895004	102985728	68825088	31423464	24992
106	3.651452	102985728	68825088	34739944	24992
107	5.651761	102985728	68825088	22259384	24992
108	5.245076	102985728	68825088	26894656	24992
109	5.944017	102985728	68825088	32189400	24992
110	7.936229	102985728	68825088	21719928	24992
111	7.639793	102985728	68825088	28334376	24992
112	7.897743	102985728	68825088	35608224	24992
113	10.109893	102985728	68825088	27121272	24992
114	9.328928	102985728	68825088	35713952	24992
115	11.361647	102985728	68825088	28546648	24992
116	12.104987	102985728	68825088	22016400	24992
117	11.833385	102985728	68825088	32587320	24992
118	13.725377	102985728	68825088	27383632	24992
119	14.539245	102985728	68825088	22842968	24992
120	14.040466	102985728	68825088	35394272	24992
121	15.852162	102985728	68825088	32178536	24992
122	16.827188	102985728	68825088	29625552	24992
123	17.495086	102985728	68825088	27712168	24992
124	17.896987	102985728	68825088	26460336	24992
125	19.065649	102985728	68825088	25870064	24992
126	19.489659	102985728	68825088	25941792	24992
127	20.057896	102985728	68825088	26675032	24992
128	21.268534	102985728	68825088	28069360	24992
129	22.166567	102985728	68825088	30125264	24992
130	22.314764	102985728	68825088	32842768	24992
131	23.128632	102985728	68825088	36221288	24992
132	25.226916	102985728	68825088	23803792	24992
133	24.981944	102985728	68825088	28477736	24992
134	25.384281	102985728	68825088	33850048	24992
135	27.212275	102985728	68825088	23430928	24992
136	27.275101	102985728	68825088	30093320	24992
137	27.82584	102985728	68825088	37454584	24992
138	29.956238	102985728	68825088	28978064	24992
139	30.653508	102985728	68825088	21211560	24992
140	29.691661	102985728	68825088	30515792	24992
141	32.095117	102985728	68825088	24074976	24992
142	31.666852	102985728	68825088	34704056	24992
143	33.724228	102985728	68825088	29588048	24992
144	34.483956	102985728	68825088	25096984	24992
145	33.618235	102985728	68825088	37703600	24992
146	36.136547	102985728	68825088	34548608	24992
147	36.499225	102985728	68825088	32053872	24992
148	37.696676	102985728	68825088	30209144	24992
149	39.052577	102985728	68825088	29023544	24992
150	38.57795	102985728	68825088	28498312	24992
151	39.553005	102985728	68825088	28635584	24992
152	40.397903	102985728	68825088	29434712	24992
153	40.716589	102985728	68825088	30895448	24992
154	41.970248	102985728	68825088	33018024	24992
155	42.517885	102985728	68825088	35801984	24992
156	44.750068	102985728	68825088	22754376	24992
157	44.176292	102985728	68825088	26861784	24992
158	44.91335	102985728	68825088	31631192	24992
159	45.663257	102985728	68825088	37061760	24992
160	48.850717	102985728	68825088	26660872	24992
161	47.124271	102985728	68825088	33415048	24992
162	49.483598	102985728	68825088	24339032	24992
163	48.411536	102985728	68825088	32412576	24992
164	50.813964	102985728	68825088	24659880	24992
165	49.906178	102985728	68825088	34056888	24992
166	52.621775	102985728	68825088	27635224	24992
167	51.175886	102985728	68825088	38363104	24992
168	54.064189	102985728	68825088	33273448	24992
169	54.714004	102985728	68825088	28847352	24992
170	57.037337	102985728	68825088	25080696	24992
171	55.636905	102985728	68825088	38471240	24992
172	57.297248	102985728	68825088	36027664	24992
173	57.940486	102985728	68825088	34245760	24992
174	58.823553	102985728	68825088	33128192	24992
175	59.66815	102985728	68825088	32656968	24992
176	60.667536	102985728	68825088	32847232	24992
177	62.561581	102985728	68825088	33707056	24992
178	62.367191	102985728	68825088	35220128	24992
179	63.084294	102985728	68825088	37394968	24992
180	63.675695	102985728	68825088	40229600	24992
181	66.725474	102985728	68825088	27252480	24992
182	65.17664	102985728	68825088	31423184	24992
183	65.987102	102985728	68825088	36255832	24992
184	66.705255	102985728	68825088	41746912	24992
185	69.628215	102985728	68825088	31403408	24992
186	68.771199	102985728	68825088	38221136	24992
187	71.197355	102985728	68825088	29207592	24992
188	70.014709	102985728	68825088	37349104	24992
189	73.264436	102985728	68825088	29655792	24992
190	71.856268	102985728	68825088	39116936	24992
191	74.615816	102985728	68825088	32750096	24992
192	73.157238	102985728	68825088	43537624	24992
193	76.617127	102985728	68825088	38493144	24992
194	76.965979	102985728	68825088	34107960	24992
195	78.284531	102985728	68825088	30383472	24992
196	76.526536	102985728	68825088	43811112	24992
197	79.277929	102985728	68825088	41414504	24992
198	80.255328	102985728	68825088	39679744	24992
199	81.253428	102985728	68825088	38605768	24992
200	82.475661	102985728	68825088	38187904	24992
201	83.124796	102985728	68825088	38424592	24992
202	0.808389	102985728	68825088	38936392	24992
203	1.486166	102985728	68825088	40274144	24992
204	2.192334	102985728	68825088	42271288	24992
205	3.091811	102985728	68825088	44927840	24992
206	6.613452	102985728	68825088	31776208	24992
207	4.392068	102985728	68825088	35752080	24992
208	5.038573	102985728	68825088	40387352	24992
209	5.743872	102985728	68825088	45682032	24992
210	9.357517	102985728	68825088	35202936	24992
211	7.206859	102985728	68825088	41817384	24992
212	10.707238	102985728	68825088	32661696	24992
213	8.677207	102985728	68825088	40594952	24992
214	12.368015	102985728	68825088	32753144	24992
215	10.247244	102985728	68825088	42005216	24992
216	13.773192	102985728	68825088	35486912	24992
217	14.699978	102985728	68825088	29617272	24992
218	12.480509	102985728	68825088	40849408	24992
219	16.023451	102985728	68825088	36306368	24992
220	16.660412	102985728	68825088	32426712	24992
221	14.651648	102985728	68825088	45637472	24992
222	18.558771	102985728	68825088	43081656	24992
223	19.220008	102985728	68825088	41189224	24992
224	19.638815	102985728	68825088	39935688	24992
225	20.424639	102985728	68825088	39344160	24992
226	21.754865	102985728	68825088	39414120	24992
227	21.670763	102985728	68825088	40145624	24992
228	22.443428	102985728	68825088	41538456	24992
229	23.470563	102985728	68825088	43598416	24992
230	24.107066	102985728	68825088	46316792	24992
231	27.922025	102985728	68825088	33214672	24992
232	25.64618	102985728	68825088	37239712	24992
233	26.153217	102985728	68825088	41943664	24992
234	30.055052	102985728	68825088	30861560	24992
235	28.041513	102985728	68825088	36862800	24992
236	28.627261	102985728	68825088	43559768	24992
237	32.334007	102985728	68825088	34464720	24992
238	29.812678	102985728	68825088	42447720	24992
239	34.025009	102985728	68825088	34682264	24992
240	31.410208	102985728	68825088	43986432	24992
241	34.966637	102985728	68825088	37546304	24992
242	36.193199	102985728	68825088	31731152	24992
243	33.701234	102985728	68825088	43016760	24992
244	37.249501	102985728	68825088	38560672	24992
245	38.24273	102985728	68825088	34730512	24992
246	39.013938	102985728	68825088	31558752	24992
247	36.446272	102985728	68825088	45486440	24992
248	40.111432	102985728	68825088	43680784	24992
249	40.916178	102985728	68825088	42495216	24992
250	42.040332	102985728	68825088	41972112	24992
251	42.575665	102985728	68825088	42110552	24992
252	43.041531	102985728	68825088	42909104	24992
253	44.373217	102985728	68825088	44368384	24992
254	46.211793	102985728	68825088	46490160	24992
255	49.291466	102985728	68825088	32784104	24992
256	46.266519	102985728	68825088	36229856	24992
257	46.876911	102985728	68825088	40337056	24992
258	47.61174	102985728	68825088	45105312	24992
259	52.390966	102985728	68825088	34052808	24992
260	49.306511	102985728	68825088	40144656	24992
261	49.786046	102985728	68825088	46897712	24992
262	53.809038	102985728	68825088	37819232	24992
263	51.559826	102985728	68825088	45895720	24992
264	55.494131	102985728	68825088	38140304	24992
265	53.533475	102985728	68825088	47540512	24992
266	57.194637	102985728	69349376	41116920	24992
267	58.057548	103256064	69873664	35366744	24992
268	55.324833	103256064	69873664	46755440	24992
269	59.312573	103526400	69873664	42326576	24992
270	60.271173	103526400	69873664	38561328	24992
271	61.398122	103796736	69873664	35446856	24992
272	59.644766	103796736	70397952	49489216	24992
273	62.658229	104067072	70397952	47707152	24992
274	63.399198	104067072	70397952	46586368	24992
275	64.158999	104337408	70397952	46127176	24992
276	64.941502	104337408	70397952	46329872	24992
277	66.145755	104607744	70922240	47194096	24992
278	66.249815	104607744	70922240	48719792	24992
279	67.557784	104878080	70922240	50907064	24992
280	73.22043	104878080	71446528	37267344	24992
281	69.572461	105148416	71446528	40776576	24992
282	69.678546	105418752	71446528	44946736	24992
283	70.582374	105418752	71446528	49775912	24992
284	74.853996	105689088	71446528	38770288	24992
285	72.436923	105689088	72495104	44927040	24992
286	72.715353	105959424	72495104	51741536	24992
287	79.495942	106229760	72495104	42721304	24992
288	78.218961	106229760	72495104	17270304	24992
289	64.968222	106229760	72495104	26014104	24992
290	66.903336	106229760	72495104	18940592	24992
291	66.570399	106229760	72495104	12508432	24992
292	67.173651	106229760	72495104	23228976	24992
293	67.541497	106229760	72495104	18124008	24992
294	67.911993	106229760	72495104	13685296	24992
295	69.824006	106229760	72495104	26391144	24992
296	69.604911	106229760	72495104	23262968	24992
297	70.043437	106500096	72495104	20793184	24992
298	70.761594	106500096	72495104	18978776	24992
299	71.701251	106770432	72495104	17826352	24992
300	73.064291	106770432	72495104	17340112	24992
301	74.358477	106770432	72495104	17515080	24992
302	1.194473	106770432	72495104	18008752	24992
303	1.743028	106770432	72495104	19346504	24992
304	2.269223	106770432	72495104	21347472	24992
305	2.961225	106770432	72495104	24004024	24992
306	3.81655	106770432	72495104	27320504	24992
307	4.635244	106770432	72495104	14821144	24992
308	5.308076	106770432	72495104	19456480	24992
309	5.785594	106770432	72495104	24751192	24992
310	6.979862	106770432	72495104	14242712	24992
311	7.309217	106770432	72495104	20857336	24992
312	7.906796	106770432	72495104	28131184	24992
313	9.139738	106770432	72495104	19599936	24992
314	9.326116	106770432	72495104	28192600	24992
315	10.632139	106770432	72495104	20980520	24992
316	11.293786	106770432	72495104	14421152	24992
317	11.874144	106770432	72495104	24992104	24992
318	12.829911	106770432	72495104	19755416	24992
319	13.442778	106770432	72495104	15179840	24992
320	13.912467	106770432	72495104	27731144	24992
321	14.857351	106770432	72495104	24476632	24992
322	15.532173	106770432	72495104	21883200	24992
323	16.318929	106770432	72495104	19943824	24992
324	16.9621	106770432	72495104	18664864	24992
325	17.920399	106770432	72495104	18047208	24992
326	18.490629	106770432	72495104	18089984	24992
327	19.282386	106770432	72495104	18793120	24992
328	20.115544	106770432	72495104	20158104	24992
329	20.717252	106770432	72495104	22181152	24992
330	21.802704	106770432	72495104	24864632	24992
331	22.298032	106770432	72495104	28208896	24992
332	23.062717	106770432	72495104	15743960	24992
333	23.556236	106770432	72495104	20405504	24992
334	24.836741	106770432	72495104	25738216	24992
335	25.248856	106770432	72495104	15264352	24992
336	27.227519	106770432	72495104	21922192	24992
337	26.632547	106770432	72495104	29253808	24992
338	27.674955	106770432	72495104	20815400	24992
339	28.346293	106770432	72495104	29458328	24992
340	29.027665	106770432	72495104	22347328	24992
341	29.919534	106770432	72495104	15871080	24992
342	30.407133	106770432	72495104	26496224	24992
343	31.068829	106770432	72495104	21369728	24992
344	31.6044	106770432	72495104	16877968	24992
345	32.688429	106770432	72495104	29484760	24992
346	33.686322	106770432	72495104	26345552	24992
347	34.339458	106770432	72495104	23836944	24992
348	35.369197	106770432	72495104	21991872	24992
349	35.726765	106770432	72495104	20804664	24992
350	37.095374	106770432	72495104	20278880	24992
351	37.631728	106770432	72495104	20415840	24992
352	38.235977	106770432	72495104	21214912	24992
353	38.456153	106770432	72495104	22675304	24992
354	39.908894	106770432	72495104	24797232	24992
355	40.317123	106770432	72495104	27580992	24992
356	41.371821	106770432	72495104	31024368	24992
357	42.554546	106770432	72495104	18641128	24992
358	42.523377	106770432	72495104	23410000	24992
359	43.447537	106770432	72495104	28839984	24992
360	44.479511	106770432	72495104	18451776	24992
361	45.176624	106770432	72495104	25205512	24992
362	45.334429	106770432	72495104	32620560	24992
363	46.700663	106770432	72495104	24201872	24992
364	46.975707	106770432	72495104	32940000	24992
365	48.673891	106770432	72495104	25846056	24992
366	49.05399	106770432	72495104	19424240	24992
367	49.345513	106770432	72495104	30151536	24992
368	50.445798	106770432	72495104	25061344	24992
369	52.277268	106770432	72495104	20637040	24992
370	51.292316	106770432	72495104	33349208	24992
371	53.202741	106770432	72495104	30242808	24992
372	53.396931	106770432	72495104	27799096	24992
373	54.237873	106770432	72495104	26018656	24992
374	55.029585	106770432	72495104	24885528	24992
375	55.770485	106770432	72495104	24413960	24992
376	57.199466	106770432	72495104	24613952	24992
377	57.781808	106770432	72495104	25470912	24992
378	59.115489	106770432	72495104	26995912	24992
379	58.902575	106770432	72495104	29171392	24992
380	60.052029	106770432	72495104	32007240	24992
381	63.24233	106770432	72495104	19023456	24992
382	61.932918	106770432	72495104	23194560	24992
383	62.621777	106770432	72495104	28028520	24992
384	62.813769	106770432	72495104	33520368	24992
385	64.457816	106770432	72495104	23177120	24992
386	64.886889	106770432	72495104	29996144	24992
387	66.55328	106770432	72495104	20980344	24992
388	66.101659	106770432	72495104	29118728	24992
389	69.641752	106770432	72495104	21423800	24992
390	68.153779	106770432	72495104	30881880	24992
391	69.95565	106770432	72495104	24512672	24992
392	68.905615	106770432	72495104	35297904	24992
393	71.307209	106770432	72495104	30253920	24992
394	71.825635	106770432	72495104	25866912	24992
395	72.936537	106770432	72495104	22144808	24992
396	72.499631	106770432	72495104	35572640	24992
397	74.264111	106770432	72495104	33176080	24992
398	75.059829	106770432	72495104	31441768	24992
399	75.868866	106770432	72495104	30363136	24992
400	76.514675	106770432	72495104	29939128	24992
401	77.562335	106770432	72495104	30176472	24992
402	0.79824	106770432	72495104	30688544	24992
403	1.539089	106770432	72495104	32026296	24992
404	2.181303	106770432	72495104	34023440	24992
405	3.088112	106770432	72495104	36679992	24992
406	5.091292	106770432	72495104	23531368	24992
407	4.736621	106770432	72495104	27507240	24992
408	5.053643	106770432	72495104	32142512	24992
409	5.75513	106770432	72495104	37437192	24992
410	8.215073	106770432	72495104	26967608	24992
411	7.599052	106770432	72495104	33582088	24992
412	9.634226	106770432	72495104	24430336	24992
413	8.807216	106770432	72495104	32363688	24992
414	11.027291	106770432	72495104	24521144	24992
415	10.037798	106770432	72495104	33773216	24992
416	12.438894	106770432	72495104	27257552	24992
417	11.672818	106770432	72495104	37828488	24992
418	13.873538	106770432	72495104	32641728	24992
419	14.797101	106770432	72495104	28101080	24992
420	15.676459	106770432	72495104	24203536	24992
421	14.605647	106770432	72495104	37414248	24992
422	17.021721	106770432	72495104	34861080	24992
423	17.733665	106770432	72495104	32970792	24992
424	18.009115	106770432	72495104	31718960	24992
425	19.091442	106770432	72495104	31128704	24992
426	19.947458	106770432	72495104	31199952	24992
427	20.287475	106770432	72495104	31932744	24992
428	21.28129	106770432	72495104	33327072	24992
429	22.382171	106770432	72495104	35382720	24992
430	22.638437	106770432	72495104	38099664	24992
431	24.997386	106770432	72495104	25020176	24992
432	23.945297	106770432	72495104	29030568	24992
433	25.013794	106770432	72495104	33735872	24992
434	25.874806	106770432	72495104	39107616	24992
435	27.885239	106770432	72495104	28687712	24992
436	27.309861	106770432	72495104	35349672	24992
437	29.431507	106770432	72495104	26259848	24992
438	29.264365	106770432	72495104	34243168	24992
439	30.954761	106770432	72495104	26480624	24992
440	30.05999	106770432	72495104	35785000	24992
441	32.417275	106770432	72495104	29342056	24992
442	31.526985	106770432	72495104	39966752	24992
443	33.554902	106770432	72495104	34830664	24992
444	34.603485	106770432	72495104	30350696	24992
445	35.118909	106770432	72495104	26517352	24992
446	34.267574	106770432	72495104	39784944	24992
447	36.538814	106770432	72495104	37317040	24992
448	37.447912	106770432	72495104	35470504	24992
449	39.565913	106770432	72495104	34295136	24992
450	38.91163	106770432	72495104	33771968	24992
451	40.920204	106770432	72495104	33918656	24992
452	40.468243	106770432	72495104	34717688	24992
453	41.386108	106770432	72495104	36178184	24992
454	42.519222	106770432	72495104	38300248	24992
455	43.275743	106770432	72495104	41083968	24992
456	45.361856	106770432	72495104	28037992	24992
457	44.229499	106770432	72495104	32145464	24992
458	45.069864	106770432	72495104	36913960	24992
459	47.803491	106770432	72495104	25850976	24992
460	47.128338	106770432	72495104	31950920	24992
461	47.397128	106770432	72495104	38703896	24992
462	49.701487	106770432	72495104	29625384	24992
463	49.218079	106770432	72495104	37702240	24992
464	51.04299	106770432	72495104	29947000	24992
465	50.574069	106770432	72495104	39347416	24992
466	52.752324	106770432	72495104	32923808	24992
467	53.61704	106770432	72495104	27175296	24992
468	52.556544	106770432	72495104	38567392	24992
469	55.077854	106770432	72495104	34138592	24992
470	56.086186	106770432	72495104	30373248	24992
471	57.076204	106770432	72495104	27259208	24992
472	55.426825	106770432	72495104	41301376	24992
473	58.126911	106770432	72495104	39519072	24992
474	60.220546	106770432	72495104	38398352	24992
475	60.358729	106770432	72495104	37940056	24992
476	60.446441	106770432	72495104	38136056	24992
477	61.783084	106770432	72495104	38993696	24992
478	61.985349	106770432	72495104	40512152	24992
479	62.796388	106770432	72495104	42699472	24992
480	66.4137	106770432	72495104	29060040	24992
481	64.717737	106770432	72495104	32569336	24992
482	65.302982	106770432	72495104	36740360	24992
483	65.963975	106770432	72495104	41569568	24992
484	69.214748	106770432	72495104	30563768	24992
485	67.655322	106770432	72495104	36720360	24992
486	68.595339	106770432	72495104	43534680	24992
487	71.172332	106770432	72495104	34513888	24992
488	70.202259	106770432	72495104	42654744	24992
489	72.773585	106770432	72495104	34964360	24992
490	71.735131	106770432	72495104	44428616	24992
491	74.436157	106770432	72495104	38060848	24992
492	75.669023	106770432	72495104	32349960	24992
493	74.055814	106770432	72495104	43792296	24992
494	78.487391	106770432	72495104	39409880	24992
495	77.794676	106770432	72495104	35683904	24992
496	79.074576	106770432	72495104	32622728	24992
497	77.327152	106770432	72495104	46711848	24992
498	80.290158	106770432	72495104	44976448	24992
499	81.254315	106770432	72495104	43902440	24992
500	82.43076	106770432	72495104	43490048	24992
501	82.844599	106770432	72495104	43739264	24992
502	0.811905	106770432	72495104	44263592	24992
503	1.488055	106770432	72495104	45601344	24992
504	2.217335	106770432	72495104	47598520	24992
505	5.817625	106770432	72495104	33786608	24992
506	3.673704	106770432	72495104	37103088	24992
507	4.373631	106770432	72495104	41078960	24992
508	5.063623	106770432	72495104	45714232	24992
509	8.575564	106770432	72495104	34567600	24992
510	6.509815	106770432	72495104	40522728	24992
511	7.363637	106770432	72495104	47137184	24992
512	10.674053	106770432	72495104	37988312	24992
513	8.804153	106770432	72495104	45921584	24992
514	12.282792	106770432	72495104	38087000	24992
515	10.268828	106770432	72495104	47339128	24992
516	13.722074	106770432	72495104	40820608	24992
517	14.251541	106770432	72495104	34950960	24992
518	12.371462	106770432	72495104	46183104	24992
519	16.065653	106770432	72495104	41639904	24992
520	16.643901	106770432	72495104	37760280	24992
521	17.377002	106770432	72495104	34522992	24992
522	15.268948	106770432	72495104	48393128	24992
523	18.791001	106770432	72495104	46490272	24992
524	19.447604	106770432	72495104	45260328	24992
525	20.181545	106770432	72495104	44677696	24992
526	21.157506	106770432	72495104	44747192	24992
527	21.869476	106770432	72495104	45478232	24992
528	22.840662	106770432	72495104	46870904	24992
529	26.179134	106770432	72495104	32464168	24992
530	23.957389	106770432	72495104	35152832	24992
531	24.941617	106770432	72495104	38531656	24992
532	25.349942	106770432	72495104	42570856	24992
533	26.458111	106770432	72495104	47274592	24992
534	29.796214	106770432	72495104	36191368	24992
535	27.758216	106770432	72495104	42192728	24992
536	29.169855	106770432	72495104	48894168	24992
537	31.799393	106770432	72495104	39788648	24992
538	29.95965	106770432	72495104	47775752	24992
539	33.35429	106770432	72495104	40006136	24992
540	31.485758	106770432	72495104	49309504	24992
541	35.963766	106770432	72495104	42844216	24992
542	37.526256	106770432	72495104	37044272	24992
543	34.052712	106770432	72495104	48329976	24992
544	37.255793	106770432	72495104	43873840	24992
545	38.465365	106770432	72495104	40043824	24992
546	38.803113	106770432	72495104	36871488	24992
547	39.427368	106770432	72495104	34361320	24992
548	37.335862	106770432	72495104	48949616	24992
549	40.806304	106770432	72495104	47805920	24992
550	41.828349	106770432	72495104	47281920	24992
551	42.399406	106770432	72495104	47420248	24992
552	42.882997	106770432	72495104	48220528	24992
553	44.083403	106770432	72495104	49682480	24992
554	47.585549	106770432	72495104	35314256	24992
555	45.5824	106770432	72495104	38097912	24992
556	46.152627	106770432	72495104	41563744	24992
557	47.061519	106770432	72495104	45670272	24992
558	47.588806	106770432	72495104	50437600	24992
559	51.723362	106770432	72495104	39376408	24992
560	49.219865	106770432	72495104	45468384	24992
561	52.909936	106770432	72495104	35730144	24992
562	50.502687	106770432	72495104	43141488	24992
563	51.378611	106770432	72495104	51217928	24992
564	55.243669	106770432	72495104	43462512	24992
565	56.385336	106770432	72495104	36371008	24992
566	53.670933	106770432	72495104	46437288	24992
567	57.712205	106770432	72495104	40686168	24992
568	54.885828	106770432	72495104	52081896	24992
569	59.240778	106770432	72495104	47649784	24992
570	60.037683	106770432	72495104	43882568	24992
571	60.588104	106770432	72495104	40779136	24992
572	62.338694	106770432	72495104	38331136	24992
573	65.327949	106770432	72495104	27726008	24992
574	53.836823	106770432	72495104	26693320	24992
575	55.394283	106770432	72495104	26335872	24992
576	55.631631	106770432	72495104	26642208	24992
577	56.242345	106770432	72495104	27611792	24992
578	58.217497	106770432	72495104	12756504	24992
579	58.76824	106770432	72495104	15050288	24992
580	59.07395	106770432	72495104	18007568	24992
581	59.730364	106770432	72495104	21627104	24992
582	60.769725	106770432	72495104	25906520	24992
583	62.001486	107040768	74592256	14352768	24992
584	62.789233	107040768	76165120	19963088	24992
585	63.039504	107311104	77737984	26234256	24992
586	65.682996	107581440	79835136	16674584	24992
587	65.307164	107851776	81408000	24274392	24992
588	66.896099	107851776	83505152	16038152	24992
589	66.988352	108122112	85078016	24956648	24992
590	68.660209	108392448	87175168	18046384	24992
591	70.742758	108662784	88748032	28291192	24992
592	70.657398	108662784	90845184	22712520	24992
593	70.840452	108933120	92942336	17791576	24992
594	70.67426	109203456	94515200	30025376	24992
595	72.900322	109473792	94515200	26399584	24992
596	73.260992	109473792	94515200	23337744	24992
597	74.675551	109744128	94515200	20931728	24992
598	76.43977	109744128	94515200	19195200	24992
599	76.152187	110014464	94515200	18120080	24992
600	77.193354	110014464	94515200	17706624	24992
601	77.785003	110284800	94515200	17954584	24992
602	0.80849	110284800	94515200	18477584	24992
603	1.488574	110284800	94515200	19815336	24992
604	2.202309	110284800	94515200	21812480	24992
605	2.996229	110284800	94515200	24469032	24992
606	3.710164	110284800	94515200	27785576	24992
607	4.378823	110284800	94515200	31761448	24992
608	6.547521	110284800	94515200	19947968	24992
609	5.779268	110284800	94515200	25242648	24992
610	6.467667	110284800	94515200	31197704	24992
611	8.719245	110284800	94515200	21397592	24992
612	7.921079	110284800	94515200	28671488	24992
613	10.208065	110284800	94515200	20174552	24992
614	9.488306	110284800	94515200	28767216	24992
615	11.878673	110284800	94515200	21587016	24992
616	10.941472	110284800	94515200	31498496	24992
617	13.228769	110555136	94515200	25645288	24992
618	13.76074	110555136	94515200	20441416	24992
619	13.196273	110555136	94515200	32333000	24992
620	15.284837	110555136	94515200	28453928	24992
621	16.173975	110555136	94515200	25237944	24992
622	16.94131	110555136	94515200	22662576	24992
623	17.841838	110555136	94515200	20749712	24992
624	18.229896	110555136	94515200	19498336	24992
625	19.303467	110555136	94515200	18908584	24992
626	19.820162	110555136	94515200	18980256	24992
627	20.758135	110825472	94515200	19713472	24992
628	21.744835	110825472	94515200	21108432	24992
629	21.843438	110825472	94515200	23164744	24992
630	23.048934	110825472	94515200	25882176	24992
631	23.892151	110825472	94515200	29260672	24992
632	24.29905	110825472	94515200	33300400	24992
633	26.576782	110825472	94515200	21548744	24992
634	25.802863	110825472	94515200	26888008	24992
635	26.920755	111095808	94515200	32922288	24992
636	29.210489	111095808	94515200	23164720	24992
637	28.120049	111095808	94515200	30487320	24992
638	30.74134	111095808	94515200	22059408	24992
639	29.525591	111095808	94515200	30703032	24992
640	32.05106	111366144	94515200	23600400	24992
641	30.946582	111366144	94515200	33565192	24992
642	33.653122	111366144	94515200	27787680	24992
643	34.451112	111366144	94515200	22635368	24992
644	32.856286	111366144	94515200	34581904	24992
645	35.760337	111366144	94515200	30787952	24992
646	36.189906	111636480	94515200	27617656	24992
647	37.16077	111636480	94515200	25110952	24992
648	37.828594	111636480	94515200	23261944	24992
649	39.057538	111636480	94515200	22077608	24992
650	39.446993	111906816	94515200	21552320	24992
651	40.205732	111906816	94515200	21689408	24992
652	40.584454	111906816	94515200	22488464	24992
653	41.849608	111906816	94515200	23949192	24992
654	43.347589	112177152	94515200	26072712	24992
655	43.416769	112177152	94515200	28856384	24992
656	43.666636	112177152	94515200	32301800	24992
657	44.155118	112177152	94515200	36407032	24992
658	47.593548	112447488	94515200	24695584	24992
659	45.812187	112447488	94515200	30126552	24992
660	46.635845	112447488	94515200	36218528	24992
661	49.369316	112447488	94515200	26478400	24992
662	48.10806	112717824	94515200	33893200	24992
663	50.789791	112717824	94515200	25476616	24992
664	49.787473	112717824	94515200	34215520	24992
665	52.426716	112988160	94515200	27122352	24992
666	51.174897	112988160	94515200	37191704	24992
667	54.389245	112988160	94515200	31439848	24992
668	54.809029	112988160	94515200	26351664	24992
669	55.624193	113258496	94515200	21914320	24992
670	54.190192	113258496	94515200	34633552	24992
671	57.34994	113258496	94515200	31528312	24992
672	57.91983	113528832	94515200	29086576	24992
673	59.182447	113528832	94515200	27293664	24992
674	59.926311	113799168	94515200	26167992	24992
675	60.820463	113799168	94515200	25707904	24992
676	60.907929	113799168	94515200	25909400	24992
677	61.874261	114069504	94515200	26772456	24992
678	62.720558	114069504	94515200	28297352	24992
679	63.663566	114069504	94515200	30483200	24992
680	64.165588	114339840	94515200	33327272	24992
681	65.282297	114339840	94515200	36825768	24992
682	68.333296	114610176	94515200	24495960	24992
683	66.715181	114610176	94515200	29329296	24992
684	67.693015	114880512	94515200	34824184	24992
685	70.820375	114880512	94515200	24490944	24992
686	69.094763	114880512	94515200	31309424	24992
687	69.574697	115150848	94515200	38785800	24992
688	72.916031	115150848	94515200	30426240	24992
689	71.334887	115421184	94515200	39229440	24992
690	75.005271	115421184	94515200	32200416	24992
691	76.227453	115691520	94515200	25828216	24992
692	73.686881	115691520	94515200	36609008	24992
693	77.079792	115961856	94515200	31565328	24992
694	78.075046	115961856	94515200	27183336	24992
695	76.395505	116232192	94515200	39949408	24992
696	79.656938	116232192	94515200	36890824	24992
697	80.15399	116502528	94515200	34493864	24992
698	81.178819	116502528	94515200	32753920	24992
699	82.068742	116772864	94515200	31667128	24992
700	82.865612	116772864	94515200	31253040	24992
701	84.251853	117043200	94515200	31500544	24992
702	0.799437	117043200	94515200	32023320	24992
703	1.493063	117043200	94515200	33361056	24992
704	2.414374	117043200	94515200	35358184	24992
705	3.031582	117043200	94515200	38023496	24992
706	3.666974	117043200	94515200	41340136	24992
707	7.51679	117043200	94515200	28856632	24992
708	5.043744	117043200	94515200	33491888	24992
709	5.965868	117043200	94515200	38786552	24992
710	9.673601	117043200	94515200	28312776	24992
711	7.192651	117043200	94515200	34927272	24992
712	8.125173	117043200	94515200	42201376	24992
713	11.876784	117313536	94515200	33712304	24992
714	9.59754	117313536	94515200	42304952	24992
715	13.076397	117313536	94515200	35135976	24992
716	14.01079	117313536	94515200	28604288	24992
717	11.689648	117313536	94515200	39175144	24992
718	15.56813	117313536	94515200	33970136	24992
719	16.206984	117313536	94515200	29428080	24992
720	13.869961	117313536	94515200	41979448	24992
721	17.572477	117313536	94515200	38762280	24992
722	18.352346	117313536	94515200	36208816	24992
723	19.291166	117313536	94515200	34294544	24992
724	19.894766	117313536	94515200	33041824	24992
725	21.210159	117583872	94515200	32451032	24992
726	21.226824	117583872	94515200	32521760	24992
727	21.968764	117583872	94515200	33254032	24992
728	23.053294	117583872	94515200	34647408	24992
729	23.726117	117583872	94515200	36702312	24992
730	24.56961	117583872	94515200	39418816	24992
731	25.253073	117583872	94515200	42796432	24992
732	29.216518	117583872	94515200	30378216	24992
733	26.922814	117583872	94515200	35051808	24992
734	27.225886	117854208	94515200	40423584	24992
735	31.821369	117854208	94515200	30012584	24992
736	28.570552	117854208	94515200	36674416	24992
737	29.57771	117854208	94515200	44034848	24992
738	33.180562	117854208	94515200	35586632	24992
739	31.028224	117854208	94515200	44236664	24992
740	34.553128	118124544	94515200	37109256	24992
741	35.446644	118124544	94515200	30642816	24992
742	32.740922	118124544	94515200	41267896	24992
743	36.913349	118124544	94515200	36149128	24992
744	37.746286	118124544	94515200	31657312	24992
745	35.110936	118124544	94515200	44264024	24992
746	39.640729	118394880	94515200	41132416	24992
747	40.572164	118394880	94515200	38623816	24992
748	41.353339	118394880	94515200	36778752	24992
749	41.78337	118394880	94515200	35591408	24992
750	41.964819	118665216	94515200	35065424	24992
751	43.367155	118665216	94515200	35201864	24992
752	43.737801	118665216	94515200	36000304	24992
753	44.475831	118665216	94515200	37460320	24992
754	44.941367	118935552	94515200	39582192	24992
755	45.949422	118935552	94515200	42365592	24992
756	46.39079	118935552	94515200	45808704	24992
757	51.047954	118935552	94515200	33425264	24992
758	48.540552	119205888	94515200	38194080	24992
759	50.840221	119205888	94515200	43624008	24992
760	53.204857	119205888	94515200	33222288	24992
761	50.266273	119476224	94515200	39975872	24992
762	54.447678	119476224	94515200	30899136	24992
763	51.663996	119476224	94515200	38972024	24992
764	56.028683	119476224	94515200	31218672	24992
765	53.346252	119746560	94515200	40615024	24992
766	57.368874	119746560	94515200	34193280	24992
767	55.02989	119746560	94515200	44920472	24992
768	59.088856	120016896	94515200	39830080	24992
769	60.171351	120016896	94515200	35403280	24992
770	60.615425	120287232	94515200	31627552	24992
771	57.978075	120287232	94515200	45008024	24992
772	62.130934	120557568	94515200	42564144	24992
773	63.026152	120557568	94515200	40782576	24992
774	63.712311	120557568	94515200	39656568	24992
775	64.71276	120827904	94515200	39184944	24992
776	65.710048	120827904	94515200	39374968	24992
777	66.297063	120827904	94515200	40226440	24992
778	67.235348	121098240	94515200	41739560	24992
779	68.413801	121098240	94515200	43914432	24992
780	68.401405	121368576	94515200	46749112	24992
781	73.614733	121368576	94515200	33771928	24992
782	70.144292	121638912	94515200	37942472	24992
783	72.367992	121638912	94515200	42775072	24992
784	71.920205	121638912	94515200	48266200	24992
785	76.251	121909248	94515200	37921480	24992
786	73.822529	121909248	94515200	44739592	24992
787	78.041293	122179584	94515200	35726192	24992
788	74.784053	122179584	94515200	43867736	24992
789	81.056375	122449920	94515200	36171768	24992
790	76.546301	122449920	94515200	45629208	24992
791	82.159229	122720256	94515200	39262064	24992
792	78.328719	122720256	94515200	50049544	24992
793	83.259135	122990592	94515200	45006456	24992
794	83.810728	122990592	94515200	40621224	24992
795	84.749003	122990592	94515200	36902456	24992
796	83.351063	123260928	94515200	50329568	24992
797	86.488346	123260928	94515200	47933168	24992
798	86.908545	123531264	94515200	46198376	24992
799	88.213374	123531264	94515200	45121648	24992
800	88.418482	123801600	94515200	44700208	24992
801	89.634523	123801600	94515200	44937200	24992
802	0.81999	124071936	94515200	45448984	24992
803	1.484246	124071936	94515200	46786720	24992
804	2.190709	124071936	94515200	48783848	24992
805	2.893158	124071936	94515200	51440384	24992
806	8.080353	124071936	94515200	38288704	24992
807	4.573152	124071936	94515200	42264560	24992
808	5.235752	124071936	94515200	46899832	24992
809	5.73817	124071936	94515200	52194512	24992
810	10.921697	124071936	94515200	41718648	24992
811	7.255083	124071936	94515200	48333080	24992
812	12.493678	124071936	94515200	39177376	24992
813	8.771344	124071936	94515200	47110648	24992
814	14.186336	124071936	94515200	39265272	24992
815	10.073595	124071936	94515200	48517328	24992
816	15.870178	124071936	94515200	41999056	24992
817	11.672309	124071936	94515200	52570024	24992
818	17.165729	124342272	94515200	47380880	24992
819	18.046305	124342272	94515200	42839544	24992
820	18.524584	124342272	94515200	38941456	24992
821	14.626097	124342272	94515200	52152168	24992
822	31.196976	116596736	84553728	17649456	24992
823	16.878151	116596736	84553728	15715160	24992
824	17.068227	116596736	84553728	14466640	24992
825	17.729194	116596736	84553728	13877280	24992
826	18.591554	116596736	84553728	13949536	24992
827	19.42913	116596736	84553728	14683240	24992
828	19.956033	116596736	84553728	16078544	24992
829	21.055599	116596736	84553728	18135360	24992
830	21.913911	116596736	84553728	20852832	24992
831	22.011908	116596736	84553728	24231816	24992
832	23.26667	116596736	84553728	28271904	24992
833	24.074138	116596736	84553728	16481520	24992
834	24.69959	116596736	84553728	21847592	24992
835	25.182843	116596736	84553728	27874704	24992
836	26.409308	116596736	84553728	18109520	24992
837	26.639702	116596736	84553728	25431272	24992
838	28.237744	116596736	84553728	16996032	24992
839	28.515344	116596736	84553728	25639736	24992
840	29.302148	116596736	84553728	18529408	24992
841	29.627366	116596736	84553728	28493352	24992
842	31.303787	116596736	84553728	22689632	24992
843	31.776056	116596736	84553728	17542512	24992
844	32.59574	116596736	84553728	13047472	24992
845	32.441954	116596736	84553728	25654344	24992
846	34.278863	116596736	84553728	22515136	24992
847	34.905059	116596736	84553728	20008592	24992
848	35.651868	116596736	84553728	18159728	24992
849	36.56065	116596736	84553728	16972728	24992
850	37.166351	116596736	84553728	16478744	24992
851	37.811865	116596736	84553728	16616024	24992
852	38.483869	116596736	84553728	17415304	24992
853	38.917416	116596736	84553728	18876192	24992
854	40.083346	116596736	84553728	20997912	24992
855	40.378917	116596736	84553728	23781608	24992
856	40.907144	116596736	84553728	27226824	24992
857	42.705693	116596736	84553728	14840400	24992
858	42.536164	116867072	85078016	19609016	24992
859	43.439604	116867072	86126592	25038872	24992
860	45.262903	117137408	87699456	14638232	24992
861	44.954867	117137408	88748032	21389872	24992
862	45.696115	117137408	89796608	28804680	24992
863	47.324283	117407744	91369472	20388040	24992
864	47.517548	117407744	92418048	29126152	24992
865	48.868353	117407744	93990912	22032944	24992
866	49.771348	117678080	95563776	15611016	24992
867	49.358339	117678080	96612352	26338104	24992
868	51.061294	117948416	98185216	21247800	24992
869	51.855113	117948416	99758080	16824752	24992
870	51.928313	118218752	100806656	29544120	24992
871	54.43558	118218752	102379520	26438792	24992
872	54.735031	118218752	103952384	23995848	24992
873	54.890873	118489088	105525248	22208472	24992
874	55.648453	118489088	107098112	21076912	24992
875	56.849635	118759424	108670976	20612344	24992
876	57.374807	118759424	110243840	20813336	24992
877	58.231102	119029760	111816704	21676032	24992
878	58.82151	119029760	113389568	23199848	24992
879	59.953922	119300096	114962432	25383832	24992
880	60.511699	119300096	116535296	28224320	24992
881	61.780233	119570432	118108160	31720680	24992
882	62.962322	119570432	120205312	19404656	24992
883	63.390094	119840768	121778176	24237920	24992
884	63.555134	119840768	123351040	29729408	24992
885	65.993455	120111104	125448192	19385560	24992
886	65.4955	120111104	125448192	26204664	24992
887	66.095717	120381440	125448192	33681080	24992
888	70.698742	120381440	125448192	25321656	24992
889	67.795572	120381440	125448192	34123400	24992
890	69.9746	120651776	125448192	27090720	24992
891	70.721495	120922112	125448192	20718416	24992
892	69.998867	120922112	125448192	31499344	24992
893	71.756133	120922112	125448192	26455544	24992
894	72.941426	121192448	125448192	22067952	24992
895	72.715248	121192448	125448192	34842216	24992
896	75.820418	121462784	125448192	31794208	24992
897	75.346939	121462784	125448192	29397568	24992
898	76.496433	121733120	125448192	27657688	24992
899	77.072782	121733120	125448192	26571792	24992
900	77.920478	122003456	125448192	26147512	24992
901	78.92892	122273792	125448192	26390176	24992
902	0.82064	122273792	125448192	26912904	24992
903	1.515891	122273792	125448192	28250640	24992
904	2.207754	122273792	125448192	30247768	24992
905	3.108145	122273792	125448192	32904304	24992
906	3.656554	122273792	125448192	36220768	24992
907	6.031291	122273792	125448192	23739488	24992
908	5.429696	122273792	125448192	28374744	24992
909	5.750918	122273792	125448192	33669408	24992
910	8.156775	122273792	125448192	23199856	24992
911	7.24054	122273792	125448192	29814288	24992
912	9.796907	122544128	125448192	20654200	24992
913	8.79829	122544128	125448192	28587440	24992
914	11.054297	122544128	125448192	20744928	24992
915	10.243285	122544128	125448192	29996984	24992
916	12.885639	122544128	125448192	23481704	24992
917	11.707206	122544128	125448192	34052576	24992
918	14.294622	122544128	125448192	28865896	24992
919	14.84638	122544128	125448192	24325264	24992
920	13.631439	122544128	125448192	36876552	24992
921	16.264934	122544128	125448192	33660080	24992
922	17.13896	122544128	125448192	31107192	24992
923	17.696323	122544128	125448192	29193808	24992
924	18.89648	122544128	125448192	27941960	24992
925	19.302099	122814464	125448192	27351656	24992
926	20.027384	122814464	125448192	27422936	24992
927	20.772934	122814464	125448192	28155696	24992
928	21.511658	122814464	125448192	29550008	24992
929	22.057792	122814464	125448192	31605864	24992
930	23.055788	122814464	125448192	34323032	24992
931	25.482031	122814464	125448192	21243696	24992
932	24.672493	122814464	125448192	25253984	24992
933	25.51698	122814464	125448192	29960136	24992
934	26.032758	123084800	125448192	35332120	24992
935	28.832048	123084800	125448192	24912824	24992
936	27.555617	123084800	125448192	31575024	24992
937	29.912767	123084800	125448192	22487312	24992
938	28.985961	123084800	125448192	30470504	24992
939	31.603146	123355136	125448192	22704392	24992
940	30.427046	123355136	125448192	32008736	24992
941	32.973734	123355136	125448192	25567680	24992
942	32.202246	123355136	125448192	36193176	24992
943	34.627024	123355136	125448192	31075320	24992
944	35.069695	123625472	125448192	26584256	24992
945	36.256448	123625472	125448192	22751536	24992
946	34.706029	123625472	125448192	36018968	24992
947	37.50006	123625472	125448192	33551656	24992
948	38.474795	123625472	125448192	31705952	24992
949	39.416734	123895808	125448192	30521216	24992
950	39.740174	123895808	125448192	29996000	24992
951	40.350248	123895808	125448192	30133192	24992
952	41.00753	123895808	125448192	30933840	24992
953	41.698746	124166144	125448192	32394688	24992
954	42.239078	124166144	125448192	34517216	24992
955	42.875142	124166144	125448192	37299368	24992
956	46.014497	124166144	125448192	24255600	24992
957	44.58507	124436480	125448192	28363024	24992
958	45.252398	124436480	125448192	33132016	24992
959	46.010822	124436480	125448192	38562760	24992
960	48.912972	124436480	125448192	28161056	24992
961	47.762958	124706816	125448192	34915360	24992
962	50.513354	124706816	125448192	25838280	24992
963	49.334321	124706816	125448192	33913800	24992
964	52.23059	124706816	125448192	26160992	24992
965	50.428396	124977152	125448192	35558112	24992
966	53.598096	124977152	125448192	29134712	24992
967	52.021967	124977152	125448192	39876824	24992
968	55.165859	125247488	125448192	34786464	24992
969	56.351015	125247488	125448192	30360176	24992
970	56.886544	125247488	125448192	26584400	24992
971	55.675248	125517824	125448192	39965672	24992
972	58.147202	125517824	125448192	37521888	24992
973	59.745279	125517824	125448192	35740144	24992
974	61.016116	125788160	125448192	34630536	24992
975	60.671223	125788160	125448192	34159584	24992
976	62.439522	126058496	125448192	34359408	24992
977	62.166372	126058496	125448192	35211632	24992
978	63.310475	126328832	125448192	36726352	24992
979	63.526594	126328832	125448192	38900344	24992
980	64.054046	126599168	125448192	41742264	24992
981	68.257255	126599168	125448192	28772776	24992
982	65.939158	126599168	125448192	32943496	24992
983	66.725407	126869504	125448192	37774272	24992
984	67.593091	126869504	125448192	43259904	24992
985	72.097037	127139840	125448192	32928304	24992
986	69.610456	127139840	125448192	39746032	24992
987	72.51044	127410176	125448192	30732344	24992
988	70.602419	127410176	125448192	38874272	24992
989	73.678864	127680512	125448192	31183760	24992
990	72.216844	127680512	125448192	40648640	24992
991	75.228443	127680512	125448192	34282168	24992
992	77.411589	127950848	125448192	28576360	24992
993	75.350456	127950848	125448192	40018552	24992
994	77.916478	128221184	125448192	35636200	24992
995	79.437654	128221184	125448192	31910080	24992
996	79.746459	128491520	125448192	28849592	24992
997	80.193982	128491520	125448192	42938376	24992
998	82.379253	128761856	125448192	41203648	24992
999	82.445009	128761856	125448192	40129576	24992
1000	82.838635	129032192	125448192	39717200	24992
