x	Duration	RSS	HeapTotal	HeapUsed	External
0	NA	112824320	81408000	11164848	24992
1	1.760095	112824320	81408000	11844896	24992
2	3.084377	112824320	81408000	13183248	24992
3	4.725448	112824320	81408000	15180928	24992
4	4.256478	112824320	81408000	17838160	24992
5	3.799574	112824320	81408000	21155480	24992
6	4.730774	112824320	81408000	25132320	24992
7	5.712744	112824320	81408000	13302824	24992
8	6.075587	112824320	81408000	18598760	24992
9	6.820792	112824320	81408000	24555200	24992
10	7.994323	112824320	81408000	14712032	24992
11	8.201131	112824320	81408000	21987664	24992
12	9.332923	112824320	81408000	13455304	24992
13	9.675631	112824320	81408000	22049928	24992
14	10.790788	112824320	81408000	14836056	24992
15	12.304163	112824320	81408000	24763736	24992
16	12.344679	112824320	81408000	18872008	24992
17	13.310713	112824320	81408000	13638720	24992
18	13.46223	112824320	81408000	25533256	24992
19	14.543419	112824320	81408000	21621944	24992
20	15.397593	112824320	81408000	18371768	24992
21	15.94955	112824320	81408000	15775216	24992
22	16.760105	112824320	81408000	13840192	24992
23	18.025843	112824320	81408000	12570872	24992
24	18.159476	112824320	81408000	11956864	24992
25	19.355492	112824320	81408000	12003408	24992
26	20.029308	112824320	81408000	12710536	24992
27	20.695502	112824320	81408000	14078232	24992
28	21.683043	112824320	81408000	16106432	24992
29	23.178612	112824320	81408000	18808056	24992
30	22.839443	112824320	81408000	22156472	24992
31	23.863968	112824320	81408000	26165208	24992
32	24.743821	112824320	81408000	14372088	24992
33	25.615136	112824320	81408000	19706224	24992
34	25.773249	112824320	81408000	25704992	24992
35	27.605548	112824320	81408000	15900864	24992
36	27.670163	112824320	81408000	23214264	24992
37	28.36135	112824320	81408000	14731800	24992
38	28.671219	112824320	81408000	23363888	24992
39	29.409993	112824320	81408000	16202040	24992
40	30.563572	112824320	81408000	26157280	24992
41	30.977572	112824320	81408000	20316952	24992
42	32.146091	112824320	81408000	15135256	24992
43	32.260197	112824320	81408000	27068712	24992
44	33.739112	112824320	81408000	23210200	24992
45	34.249576	112824320	81408000	20013296	24992
46	35.269272	112824320	81408000	17472064	24992
47	36.037025	112824320	81408000	15591840	24992
48	36.615954	112824320	81408000	14372840	24992
49	37.693518	112824320	81408000	13814624	24992
50	38.128561	112824320	81408000	13919640	24992
51	38.793896	112824320	81408000	14680584	24992
52	39.470815	112824320	81408000	16102400	24992
53	40.072448	112824320	81408000	18185288	24992
54	41.046201	112824320	81408000	20928808	24992
55	41.423054	112824320	81408000	24334296	24992
56	42.294701	112824320	81408000	28398368	24992
57	43.84599	112824320	81408000	16633984	24992
58	43.571206	112824320	81408000	22021344	24992
59	44.569801	112824320	81408000	28069216	24992
60	45.484686	112824320	81408000	18284776	24992
61	46.364408	112824320	81408000	25655512	24992
62	47.832318	113094656	81408000	17201424	24992
63	47.479267	113094656	81408000	25940080	24992
64	48.242012	113094656	81408000	18847016	24992
65	48.896791	113364992	81408000	28916872	24992
66	49.790883	113364992	81408000	23165280	24992
67	51.164628	113364992	81408000	18077328	24992
68	51.892398	113364992	81408000	30127976	24992
69	52.464015	113635328	81408000	26362480	24992
70	53.303242	113635328	81408000	23257200	24992
71	54.300945	113635328	81408000	20815408	24992
72	55.063547	113905664	81408000	19024104	24992
73	55.982764	113905664	81408000	17902464	24992
74	56.738622	114176000	81408000	17442288	24992
75	56.825199	114176000	81408000	17643664	24992
76	58.122039	114176000	81408000	18506584	24992
77	58.448728	114446336	81408000	20031312	24992
78	59.813514	114446336	81408000	22217904	24992
79	60.908849	114446336	81932288	25063344	24992
80	61.00262	114716672	81932288	28565600	24992
81	62.050659	114716672	81932288	32724832	24992
82	63.87785	114987008	81932288	21071920	24992
83	63.600039	114987008	81932288	26566856	24992
84	64.346667	115257344	81932288	32723232	24992
85	65.886707	115257344	81932288	23040984	24992
86	66.958095	115257344	81932288	30523008	24992
87	67.846475	115257344	81932288	22171008	24992
88	67.813255	115257344	81932288	30973624	24992
89	69.287014	115257344	81932288	23944928	24992
90	69.744278	115257344	81932288	34069168	24992
91	71.778014	115257344	81932288	28368400	24992
92	72.478415	115257344	81932288	23321864	24992
93	72.884955	115257344	81932288	18941240	24992
94	73.862657	115257344	81932288	31714976	24992
95	74.351357	115257344	81932288	28656360	24992
96	74.901345	115257344	81932288	26254104	24992
97	75.948891	115257344	81932288	24506976	24992
98	76.663731	115257344	81932288	23431720	24992
99	77.964793	115257344	81932288	23018432	24992
100	79.074908	115257344	81932288	23266976	24992
101	79.25808	115257344	81932288	24177072	24992
102	0.822845	115257344	81932288	25357504	24992
103	1.52301	115257344	81932288	26695256	24992
104	2.277135	115257344	81932288	28692400	24992
105	2.983105	115257344	81932288	31348952	24992
106	3.762896	115257344	81932288	34665432	24992
107	5.882013	115257344	81932288	22184872	24992
108	5.231592	115257344	81932288	26820144	24992
109	5.973534	115257344	81932288	32114824	24992
110	8.071704	115257344	81932288	21645416	24992
111	7.445969	115257344	81932288	28259864	24992
112	8.211977	115257344	81932288	35533712	24992
113	10.291831	115257344	81932288	27046760	24992
114	9.831984	115257344	81932288	35639440	24992
115	11.797791	115257344	81932288	28472120	24992
116	12.406129	115257344	81932288	21941824	24992
117	11.962088	115257344	81932288	32512744	24992
118	14.01486	115257344	81932288	27309056	24992
119	14.946832	115257344	81932288	22768392	24992
120	14.330399	115257344	81932288	35319696	24992
121	16.487078	115257344	81932288	32103928	24992
122	16.902386	115257344	81932288	29550944	24992
123	18.105989	115257344	81932288	27637560	24992
124	18.33314	115257344	81932288	26385728	24992
125	19.518927	115257344	81932288	25795472	24992
126	20.293045	115257344	81932288	25867248	24992
127	20.747913	115257344	81932288	26600520	24992
128	21.854631	115257344	81932288	27994848	24992
129	22.687777	115257344	81932288	30050752	24992
130	23.082863	115257344	81932288	32768224	24992
131	23.877048	115257344	81932288	36146776	24992
132	25.898482	115257344	81932288	23729200	24992
133	25.185665	115257344	81932288	28403288	24992
134	26.444438	115257344	81932288	33775616	24992
135	28.102061	115257344	81932288	23356496	24992
136	27.722585	115257344	81932288	30018712	24992
137	28.290043	115257344	81932288	37379880	24992
138	30.584067	115257344	81932288	28903592	24992
139	31.089666	115257344	81932288	21137088	24992
140	30.391697	115257344	81932288	30441320	24992
141	32.776906	115257344	81932288	24000504	24992
142	32.121515	115257344	81932288	34629600	24992
143	34.109421	115257344	81932288	29513544	24992
144	34.929496	115257344	81932288	25022400	24992
145	34.266952	115257344	81932288	37629560	24992
146	36.977978	115257344	81932288	34479136	24992
147	37.095938	115257344	81932288	31980392	24992
148	38.093821	115257344	81932288	30135776	24992
149	39.632827	115257344	81932288	28949056	24992
150	39.410755	115257344	81932288	28423776	24992
151	40.349377	115257344	81932288	28560808	24992
152	41.508578	115257344	81932288	29359888	24992
153	41.856864	115257344	81932288	30820640	24992
154	42.55539	115257344	81932288	32943104	24992
155	43.715672	115257344	81932288	35726984	24992
156	45.585308	115257344	81932288	22679408	24992
157	45.48546	115257344	81932288	26786784	24992
158	46.09962	115257344	81932288	31556336	24992
159	46.606579	115257344	81932288	36986920	24992
160	48.863512	115257344	81932288	26586064	24992
161	48.595732	115257344	81932288	33340240	24992
162	50.498415	115257344	81932288	24264416	24992
163	49.787005	115257344	81932288	32338056	24992
164	52.190602	115257344	81932288	24585328	24992
165	51.579835	115257344	81932288	33982384	24992
166	54.614664	115257344	81932288	27560832	24992
167	53.299689	115257344	81932288	38288648	24992
168	55.437925	115257344	81932288	33198944	24992
169	56.532677	115257344	81932288	28772736	24992
170	58.340696	115257344	81932288	25006448	24992
171	56.477298	115257344	81932288	38396952	24992
172	58.902108	115257344	81932288	35953424	24992
173	59.214204	115257344	81932288	34171456	24992
174	60.73611	115257344	81932288	33054080	24992
175	60.992993	115257344	81932288	32582792	24992
176	62.233823	115257344	81932288	32773296	24992
177	63.575364	115257344	81932288	33633136	24992
178	63.360295	115257344	81932288	35146440	24992
179	64.004175	115257344	81932288	37321048	24992
180	66.452209	115257344	81932288	40155584	24992
181	69.898025	115257344	81932288	27178480	24992
182	67.793592	115257344	81932288	31349328	24992
183	69.866785	115257344	81932288	36181784	24992
184	68.653788	115257344	81932288	41672800	24992
185	71.403227	115257344	81932288	31329488	24992
186	70.252114	115257344	81932288	38147376	24992
187	73.181417	115257344	81932288	29133720	24992
188	72.041508	115257344	81932288	37275264	24992
189	74.824278	115257344	81932288	29582032	24992
190	72.988639	115257344	81932288	39043304	24992
191	77.183664	115257344	81932288	32676176	24992
192	75.064326	115257344	81932288	43463592	24992
193	78.078169	115257344	81932288	38419192	24992
194	79.002049	115257344	81932288	34034392	24992
195	80.250606	115257344	81932288	30309920	24992
196	79.11346	115257344	81932288	43737160	24992
197	81.918566	115257344	81932288	41340584	24992
198	82.269491	115257344	81932288	39605904	24992
199	83.44751	115257344	81932288	38531928	24992
200	84.022009	115257344	81932288	38114256	24992
201	84.557143	115257344	81932288	38350896	24992
202	0.814329	115257344	81932288	38862728	24992
203	1.517093	115257344	81932288	40200480	24992
204	2.288978	115257344	81932288	42197624	24992
205	3.010445	115257344	81932288	44854176	24992
206	6.663889	115257344	81932288	31702544	24992
207	4.515091	115257344	81932288	35678416	24992
208	5.438959	115257344	81932288	40313688	24992
209	5.961653	115257344	81932288	45608368	24992
210	9.638591	115257344	81932288	35132872	24992
211	7.697135	115257344	81932288	41747320	24992
212	11.083023	115257344	81932288	32591624	24992
213	8.99824	115257344	81932288	40524880	24992
214	12.571443	115257344	81932288	32679576	24992
215	10.462395	115257344	81932288	41931648	24992
216	14.291013	115257344	81932288	35413344	24992
217	14.814816	115257344	81932288	29543896	24992
218	12.736039	115257344	81932288	40776032	24992
219	16.440788	115257344	81932288	36233024	24992
220	17.176409	115257344	81932288	32353368	24992
221	15.079217	115257344	81932288	45564112	24992
222	18.61258	115257344	81932288	43008408	24992
223	19.376269	115257344	81932288	41116040	24992
224	20.038811	115257344	81932288	39862472	24992
225	21.008792	115257344	81932288	39270896	24992
226	21.657499	115257344	81932288	39340856	24992
227	22.806251	115257344	81932288	40072344	24992
228	23.341849	115257344	81932288	41465384	24992
229	23.550514	115257344	81932288	43525504	24992
230	24.588473	115257344	81932288	46243912	24992
231	28.777782	115257344	81932288	33145832	24992
232	26.337961	115257344	81932288	37167312	24992
233	27.11129	115257344	82456576	41871248	24992
234	31.551023	115257344	82456576	30789096	24992
235	28.845241	115257344	82456576	36790368	24992
236	29.617983	115527680	82456576	43487304	24992
237	33.315651	115527680	82456576	34392256	24992
238	30.805453	115527680	82456576	42375288	24992
239	34.524748	115527680	82456576	34609784	24992
240	32.488303	115527680	82456576	43913888	24992
241	35.924631	115798016	82456576	37473488	24992
242	36.947295	115798016	82980864	31658336	24992
243	34.570241	115798016	82980864	42943896	24992
244	38.420273	115798016	82980864	38487808	24992
245	39.071693	116068352	82980864	34657584	24992
246	39.66153	116068352	82980864	31485968	24992
247	37.298124	116068352	82980864	45413720	24992
248	41.742511	116068352	82980864	43608032	24992
249	42.494716	116338688	82980864	42422512	24992
250	43.003276	116338688	83505152	41899376	24992
251	43.702611	116338688	83505152	42037800	24992
252	44.170485	116609024	83505152	42836512	24992
253	45.411299	116609024	83505152	44295616	24992
254	45.684156	116609024	83505152	46417312	24992
255	49.876722	116609024	83505152	32711256	24992
256	47.322935	116879360	84029440	36156432	24992
257	48.03403	116879360	84029440	40263568	24992
258	49.185885	116879360	84029440	45031808	24992
259	53.852239	117149696	84029440	33979528	24992
260	50.879351	117149696	84029440	40071280	24992
261	51.184336	117149696	84029440	46824336	24992
262	55.304627	117420032	84553728	37745872	24992
263	52.620242	117420032	84553728	45822328	24992
264	56.33632	117690368	84553728	38067248	24992
265	54.60552	117690368	84553728	47467392	24992
266	58.105052	117690368	84553728	41043832	24992
267	59.698066	117960704	85078016	35293768	24992
268	57.602749	117960704	85078016	46682416	24992
269	60.985056	118231040	85078016	42253664	24992
270	62.103266	118231040	85078016	38488448	24992
271	62.602551	118231040	85078016	35373992	24992
272	59.617398	118501376	85602304	49416288	24992
273	64.087684	118501376	85602304	47634608	24992
274	64.597253	118771712	85602304	46513792	24992
275	65.287523	118771712	85602304	46054872	24992
276	66.964382	118771712	85602304	46257328	24992
277	67.581813	119042048	86126592	47121568	24992
278	67.880581	119042048	86126592	48647328	24992
279	68.521002	119312384	86126592	50834712	24992
280	73.064068	119312384	86126592	37194864	24992
281	70.470226	119582720	86650880	40703904	24992
282	71.104316	119582720	86650880	44874128	24992
283	71.719851	119853056	86650880	49703208	24992
284	76.52149	119853056	86650880	38697584	24992
285	73.200262	120123392	87175168	44854320	24992
286	74.276182	120123392	87175168	51669168	24992
287	80.025745	120393728	87175168	42649096	24992
288	80.615458	116908032	83505152	16850576	24992
289	67.298255	116908032	83505152	25589800	24992
290	68.614502	116908032	83505152	18496128	24992
291	67.710157	116908032	83505152	12063384	24992
292	67.973198	116908032	83505152	22778024	24992
293	69.599911	116908032	83505152	17664240	24992
294	69.467324	116908032	83505152	13215888	24992
295	70.392881	116908032	83505152	25912944	24992
296	71.438778	116908032	83505152	22784768	24992
297	73.76777	116908032	83505152	20315160	24992
298	73.24285	116908032	83505152	18500704	24992
299	73.702032	116908032	83505152	17353632	24992
300	74.812091	116908032	83505152	16867712	24992
301	75.100658	116908032	83505152	17043112	24992
302	0.831153	116908032	84553728	17536168	24992
303	1.553912	116908032	84553728	18873920	24992
304	2.243432	116908032	84553728	20871064	24992
305	3.024498	116908032	84553728	23527616	24992
306	3.759086	116908032	84553728	26844096	24992
307	4.812699	116908032	85078016	14344448	24992
308	5.263694	116908032	85078016	18979768	24992
309	5.927558	116908032	85078016	24274512	24992
310	6.955268	116908032	85602304	13765856	24992
311	7.922623	116908032	85602304	20380352	24992
312	8.273924	116908032	85602304	27654200	24992
313	9.754047	116908032	86126592	19127312	24992
314	9.806851	116908032	86126592	27719976	24992
315	10.856237	116908032	86126592	20508184	24992
316	11.520081	116908032	86126592	13948904	24992
317	12.491512	116908032	86126592	24519800	24992
318	13.335653	116908032	86126592	19283336	24992
319	13.852041	116908032	86126592	14708208	24992
320	14.262481	116908032	86126592	27259512	24992
321	15.347485	116908032	86126592	24005000	24992
322	16.287732	116908032	86126592	21411568	24992
323	16.881095	116908032	86126592	19472192	24992
324	17.481426	116908032	86126592	18193280	24992
325	18.327568	116908032	86126592	17575688	24992
326	19.009559	116908032	86126592	17618432	24992
327	20.10372	116908032	86126592	18321568	24992
328	20.96068	117178368	86126592	19686536	24992
329	21.230418	117178368	86126592	21709712	24992
330	22.082801	117178368	86126592	24393160	24992
331	22.99913	117178368	86126592	27736808	24992
332	23.808373	117178368	86126592	15271888	24992
333	24.311693	117178368	86126592	19933464	24992
334	25.12523	117178368	86126592	25266224	24992
335	26.860543	117178368	86126592	14802120	24992
336	26.368528	117178368	86126592	21463912	24992
337	27.425905	117178368	86126592	28816472	24992
338	28.437898	117178368	86126592	20376912	24992
339	28.975828	117178368	86126592	29019816	24992
340	29.909612	117448704	86126592	21909488	24992
341	31.213118	117448704	86126592	15433128	24992
342	30.852482	117448704	86126592	26058336	24992
343	32.290277	117448704	86126592	20932240	24992
344	32.917551	117448704	86126592	16440432	24992
345	33.35021	117448704	86126592	29047240	24992
346	34.581323	117719040	86126592	25908048	24992
347	35.193202	117719040	86126592	23400320	24992
348	35.910277	117719040	86126592	21553408	24992
349	36.593991	117719040	86126592	20366040	24992
350	37.927428	117989376	86126592	19841360	24992
351	38.084352	117989376	86126592	19978704	24992
352	39.017787	117989376	86126592	20777568	24992
353	40.043934	117989376	86126592	22237800	24992
354	40.675716	118259712	86126592	24359712	24992
355	41.733612	118259712	86126592	27143824	24992
356	42.459804	118259712	86126592	30587120	24992
357	43.3612	118259712	86126592	18206504	24992
358	43.241985	118530048	86126592	22975376	24992
359	44.591077	118530048	86126592	28405456	24992
360	45.24978	118530048	86126592	18017440	24992
361	45.624432	118530048	86126592	24771064	24992
362	46.533345	118800384	86126592	32186064	24992
363	47.513133	118800384	86126592	23769024	24992
364	47.985085	118800384	86126592	32507328	24992
365	49.888353	119070720	86126592	25412984	24992
366	50.230506	119070720	86126592	18991128	24992
367	50.33075	119070720	86126592	29718424	24992
368	52.100007	119070720	86126592	24630768	24992
369	52.755061	119070720	86126592	20203992	24992
370	52.516685	119341056	86126592	32916144	24992
371	54.421951	119341056	86126592	29811728	24992
372	55.024039	119341056	86126592	27367904	24992
373	55.641751	119611392	86126592	25587624	24992
374	56.604598	119611392	86126592	24454448	24992
375	57.02175	119611392	86126592	23984576	24992
376	58.227849	119611392	86126592	24181896	24992
377	59.433741	119611392	86126592	25052648	24992
378	60.391625	119611392	86126592	26583128	24992
379	61.345226	119611392	86126592	28762120	24992
380	61.432288	119611392	86126592	31598992	24992
381	61.970587	119611392	86126592	35095552	24992
382	63.983161	119611392	86126592	22777344	24992
383	63.969428	119611392	86126592	27611304	24992
384	65.060637	119611392	86126592	33103232	24992
385	66.121185	119611392	86126592	22759776	24992
386	66.373022	119611392	86126592	29578800	24992
387	67.689359	119611392	86126592	20560440	24992
388	68.127832	119611392	86126592	28695200	24992
389	69.963424	119611392	86126592	21000288	24992
390	69.972157	119611392	86126592	30458416	24992
391	71.54354	119611392	86126592	24086360	24992
392	71.061045	119611392	86126592	34868048	24992
393	72.884629	119611392	86126592	29824736	24992
394	73.140931	119611392	86126592	25437888	24992
395	74.537378	119611392	86126592	21716200	24992
396	74.297811	119611392	86126592	35143744	24992
397	75.652093	119611392	86126592	32747152	24992
398	77.499469	119611392	86126592	31012792	24992
399	77.649998	119611392	86126592	29934080	24992
400	78.916136	119611392	86126592	29509848	24992
401	79.621934	119611392	86126592	29747176	24992
402	0.813499	119611392	86126592	30259088	24992
403	1.536443	119611392	86126592	31596840	24992
404	2.245574	119611392	86126592	33593984	24992
405	3.010896	119611392	86126592	36250552	24992
406	5.229199	119611392	86126592	23101896	24992
407	4.667912	119611392	86126592	27077768	24992
408	5.514549	119611392	86126592	31713040	24992
409	6.013289	119611392	86126592	37007720	24992
410	8.548094	119611392	86126592	26538136	24992
411	7.36011	119611392	86126592	33152584	24992
412	9.742073	119611392	86126592	24001024	24992
413	9.067909	119611392	86126592	31934280	24992
414	11.339051	119611392	86126592	24091736	24992
415	10.739631	119611392	86126592	33343808	24992
416	13.320618	119611392	86126592	26828320	24992
417	12.067679	119611392	86126592	37399192	24992
418	14.139587	119611392	86126592	32212416	24992
419	15.041847	119611392	86126592	27671816	24992
420	15.92522	119611392	86126592	23774816	24992
421	15.022271	119611392	86126592	36985528	24992
422	17.208928	119611392	86126592	34432472	24992
423	17.910816	119611392	86126592	32542152	24992
424	18.844296	119611392	86126592	31290352	24992
425	19.524144	119611392	86126592	30700096	24992
426	20.330605	119611392	86126592	30771504	24992
427	21.29473	119611392	86126592	31504328	24992
428	21.659901	119611392	86126592	32898688	24992
429	22.719096	119611392	86126592	34954560	24992
430	23.464183	119611392	86126592	37671712	24992
431	25.413457	119611392	86126592	24592192	24992
432	25.165953	119611392	86126592	28602616	24992
433	25.485825	119611392	86126592	33308400	24992
434	26.438336	119611392	86126592	38680352	24992
435	28.47133	119611392	86126592	28260416	24992
436	27.901339	119611392	86126592	34922856	24992
437	30.199965	119611392	86126592	25833960	24992
438	29.101098	119611392	86126592	33817240	24992
439	31.481491	119611392	86126592	26052848	24992
440	30.936226	119611392	86126592	35357224	24992
441	33.011863	119611392	86126592	28915112	24992
442	32.133939	119611392	86126592	39540296	24992
443	34.458568	119611392	86126592	34423616	24992
444	35.374071	119611392	86126592	29932440	24992
445	36.279769	119611392	86126592	26099032	24992
446	35.432678	119611392	86126592	39366624	24992
447	37.843635	119611392	86126592	36899664	24992
448	38.400884	119611392	86126592	35053112	24992
449	39.289863	119611392	86126592	33869896	24992
450	40.66349	119611392	86126592	33353712	24992
451	42.74639	119611392	86126592	33500264	24992
452	41.318637	119611392	86126592	34299248	24992
453	42.368071	119611392	86126592	35760080	24992
454	43.359456	119611392	86126592	37882208	24992
455	43.673159	119611392	86126592	40665912	24992
456	46.453826	119611392	86126592	27621184	24992
457	45.437121	119611392	86126592	31728512	24992
458	46.142528	119611392	86126592	36497008	24992
459	46.553273	119611392	86126592	41926152	24992
460	50.233971	119611392	86126592	31533184	24992
461	48.235378	119611392	86126592	38286112	24992
462	50.864243	119611392	86126592	29207616	24992
463	49.643469	119611392	86126592	37284376	24992
464	52.977169	119611392	86126592	29529024	24992
465	51.615041	119611392	86126592	38929328	24992
466	54.507211	119611392	86126592	32505752	24992
467	55.42978	119611392	86126592	26759000	24992
468	53.983902	119611392	86126592	38154656	24992
469	56.572796	119611392	86126592	33726544	24992
470	57.026078	119611392	86126592	29962896	24992
471	56.533041	119611392	86126592	43340608	24992
472	58.765342	119611392	86126592	40896296	24992
473	60.004823	119611392	86126592	39113960	24992
474	60.061451	119611392	86126592	37993400	24992
475	62.014198	119611392	86126592	37535040	24992
476	61.710466	119611392	86126592	37732096	24992
477	62.416663	119611392	86126592	38583648	24992
478	63.235416	119611392	86126592	40095712	24992
479	63.943685	119611392	86126592	42275840	24992
480	66.7634	119611392	86126592	28637032	24992
481	66.079736	119611392	86126592	32146024	24992
482	66.552155	119611392	86126592	36317032	24992
483	67.704949	119611392	86126592	41146256	24992
484	70.245186	119611392	86126592	30140472	24992
485	69.384133	119611392	86126592	36297032	24992
486	70.026452	119611392	86126592	43111672	24992
487	73.096649	119611392	86126592	34090784	24992
488	71.565937	119611392	86126592	42232088	24992
489	74.739917	119611392	86126592	34541640	24992
490	73.293322	119611392	86126592	44005704	24992
491	75.93994	119611392	86126592	37638704	24992
492	77.612291	119611392	86126592	31927832	24992
493	75.706148	119611392	86126592	43370152	24992
494	78.719678	119611392	86126592	38987928	24992
495	80.268667	119611392	86126592	35261888	24992
496	81.378956	119611392	86126592	32201064	24992
497	79.299842	119611392	86126592	46290088	24992
498	82.036211	119611392	86126592	44555696	24992
499	83.683965	119611392	86126592	43481832	24992
500	84.205236	119611392	86126592	43069424	24992
501	84.577553	119611392	86126592	43318736	24992
502	0.820858	119611392	86126592	43843992	24992
503	1.536247	119611392	86126592	45181744	24992
504	2.237127	119611392	86126592	47178888	24992
505	5.940277	119611392	86126592	33367664	24992
506	3.774096	119611392	86126592	36684144	24992
507	4.481392	119611392	86126592	40660016	24992
508	5.153343	119611392	86126592	45295336	24992
509	8.70979	119611392	86126592	34148784	24992
510	6.68463	119611392	86126592	40103840	24992
511	7.376219	119611392	86126592	46718288	24992
512	11.040858	119611392	86126592	37569432	24992
513	9.080255	119611392	86126592	45502688	24992
514	12.524495	119611392	86126592	37668216	24992
515	10.51105	119611392	86126592	46920288	24992
516	13.931219	119611392	86126592	40401760	24992
517	14.992486	119611392	86126592	34532128	24992
518	12.508144	119611392	86126592	45764288	24992
519	16.490891	119611392	86126592	41221072	24992
520	17.118171	119611392	86126592	37341480	24992
521	17.853224	119611392	86126592	34104192	24992
522	15.742695	119611392	86126592	47974488	24992
523	19.371706	119611392	86126592	46081296	24992
524	20.081404	119611392	86126592	44851544	24992
525	20.904404	119611392	86126592	44259584	24992
526	21.4335	119611392	86126592	44329128	24992
527	22.584754	119611392	86126592	45060312	24992
528	23.25507	119611392	86126592	46452936	24992
529	23.598832	119611392	86126592	48506896	24992
530	27.343089	119611392	86126592	34761560	24992
531	25.464245	119611392	86126592	38108960	24992
532	26.43107	119611392	86126592	42148904	24992
533	26.717777	119611392	86126592	46852688	24992
534	30.799127	119611392	86126592	35769480	24992
535	28.789096	119611392	86126592	41770872	24992
536	29.250489	119611392	86126592	48469784	24992
537	33.44848	119611392	86126592	39376576	24992
538	30.315795	119611392	86126592	47358792	24992
539	34.462268	119611392	86126592	39593224	24992
540	31.982645	119611392	86126592	48896512	24992
541	35.670941	119611392	86126592	42455520	24992
542	36.711484	119611392	86126592	36640800	24992
543	34.588299	119611392	86126592	47926680	24992
544	38.067649	119611392	86126592	43470528	24992
545	38.727048	119611392	86126592	39640368	24992
546	39.796764	119611392	86126592	36467984	24992
547	39.801241	119611392	86126592	33957768	24992
548	37.999176	119611392	86126592	48546384	24992
549	41.82668	119611392	86126592	47403360	24992
550	42.833749	119611392	86126592	46879408	24992
551	43.679416	119611392	86126592	47017816	24992
552	44.014476	119611392	86126592	47818144	24992
553	44.948526	119611392	86126592	49280096	24992
554	48.534108	119611392	86126592	34912448	24992
555	46.803213	119611392	86126592	37696024	24992
556	48.360706	119611392	86126592	41161840	24992
557	48.664717	119611392	86126592	45268368	24992
558	48.521226	119611392	86126592	50036400	24992
559	53.524895	119611392	86126592	38972584	24992
560	49.994175	119611392	86126592	45064640	24992
561	54.233392	119881728	86126592	35326496	24992
562	51.841671	119881728	86126592	42737616	24992
563	52.639099	119881728	86126592	50813944	24992
564	56.432963	119881728	86126592	43058160	24992
565	57.222902	119881728	86126592	35966624	24992
566	55.124775	119881728	86126592	46032824	24992
567	59.00394	119881728	86126592	40282568	24992
568	56.375152	119881728	86126592	51671360	24992
569	60.64624	119881728	86126592	47243232	24992
570	61.184913	119881728	86126592	43476880	24992
571	62.54823	119881728	86126592	40366000	24992
572	63.898657	119881728	86126592	37915664	24992
573	64.659188	116736000	82980864	14079704	24992
574	55.304827	116736000	82980864	12958576	24992
575	56.450114	116736000	82980864	12498496	24992
576	56.803579	116736000	82980864	12699536	24992
577	58.091172	116736000	82980864	13562200	24992
578	58.320382	116736000	82980864	15086688	24992
579	59.28464	116736000	82980864	17273088	24992
580	60.09613	116736000	82980864	20120032	24992
581	60.687603	116736000	82980864	23625464	24992
582	62.164887	116736000	82980864	27784192	24992
583	62.901803	116736000	82980864	16123384	24992
584	63.544807	116736000	82980864	21618824	24992
585	64.050893	116736000	82980864	27771840	24992
586	65.225828	116736000	82980864	18088936	24992
587	65.603153	116736000	82980864	25568808	24992
588	67.023648	116736000	82980864	17216888	24992
589	67.221251	116736000	83505152	26020320	24992
590	68.215955	117006336	85602304	18991656	24992
591	68.986136	117006336	87175168	29117720	24992
592	70.285881	117276672	89272320	23411832	24992
593	71.537179	117276672	91369472	18362944	24992
594	71.997805	117547008	92942336	30467752	24992
595	73.551508	117547008	95039488	26747304	24992
596	74.150182	117817344	97136640	23688392	24992
597	74.48832	118087680	99233792	21286288	24992
598	75.715473	118087680	101330944	19544088	24992
599	76.508098	118358016	103428096	18468712	24992
600	76.975922	118358016	105525248	18055480	24992
601	78.231542	118628352	107622400	18303568	24992
602	0.822015	118898688	109719552	18826160	24992
603	1.548707	118898688	109719552	20163912	24992
604	2.247367	118898688	109719552	22161056	24992
605	3.018628	118898688	109719552	24817656	24992
606	3.791167	118898688	109719552	28134136	24992
607	4.745653	118898688	109719552	32110008	24992
608	6.319177	118898688	110243840	20297744	24992
609	6.093583	118898688	110243840	25592424	24992
610	6.679209	118898688	110243840	31547480	24992
611	8.634955	118898688	110768128	21750000	24992
612	8.106412	118898688	110768128	29023880	24992
613	10.117696	118898688	111292416	20528056	24992
614	9.701913	118898688	111292416	29120720	24992
615	11.860078	118898688	111816704	21941384	24992
616	11.255663	118898688	111816704	31852848	24992
617	13.012736	118898688	112340992	25999880	24992
618	14.176765	118898688	112865280	20796696	24992
619	13.345246	118898688	112865280	32688232	24992
620	15.48324	119169024	113389568	28797280	24992
621	16.087496	119169024	113913856	25581720	24992
622	16.729793	119169024	114438144	23018336	24992
623	17.919339	119169024	114962432	21104968	24992
624	18.499438	119169024	115486720	19854064	24992
625	19.268997	119169024	116011008	19264720	24992
626	20.034584	119169024	116535296	19336880	24992
627	20.932393	119439360	117059584	20070712	24992
628	21.616638	119439360	117583872	21465952	24992
629	22.135667	119439360	118108160	23522784	24992
630	23.163037	119439360	118632448	26240240	24992
631	23.808959	119439360	119156736	29619352	24992
632	25.803252	119709696	120205312	17202704	24992
633	25.273006	119709696	120729600	21876488	24992
634	25.855055	119709696	121253888	27243200	24992
635	26.5151	119709696	121778176	33269872	24992
636	28.526707	119709696	122826752	23487168	24992
637	28.080063	119709696	123351040	30821976	24992
638	30.630794	119980032	124399616	22382688	24992
639	29.798346	119980032	124923904	31026056	24992
640	31.654146	119980032	125972480	23915680	24992
641	31.686054	119980032	126496768	33879640	24992
642	33.45357	119980032	127021056	28047144	24992
643	34.034852	120250368	127021056	22922288	24992
644	35.043219	120250368	127021056	18427168	24992
645	34.257915	120250368	127021056	31033928	24992
646	36.300703	120250368	127021056	27894768	24992
647	36.822403	120250368	127021056	25388240	24992
648	37.849016	120520704	127021056	23539456	24992
649	38.721278	120520704	127021056	22354448	24992
650	39.500382	120520704	127021056	21829352	24992
651	40.153984	120520704	127021056	21966696	24992
652	41.076002	120791040	127021056	22765960	24992
653	41.53815	120791040	127021056	24226992	24992
654	42.714619	120791040	127021056	26348712	24992
655	43.490461	120791040	127021056	29132344	24992
656	44.019799	121061376	127021056	32577576	24992
657	45.927573	121061376	127021056	20191328	24992
658	45.814891	121061376	127021056	24968400	24992
659	46.214653	121331712	127021056	30398288	24992
660	48.470485	121331712	127021056	19997656	24992
661	49.308018	121331712	127021056	26749288	24992
662	50.3172	121602048	127021056	34172344	24992
663	50.568247	121602048	127021056	25756176	24992
664	50.78182	121602048	127021056	34494680	24992
665	52.821792	121872384	127021056	27402072	24992
666	53.290038	121872384	127021056	20980536	24992
667	52.237793	121872384	127021056	31708112	24992
668	54.288627	122142720	127021056	26618408	24992
669	55.294505	122142720	127021056	22195608	24992
670	54.509749	122142720	127021056	34915432	24992
671	56.516329	122413056	127021056	31810608	24992
672	57.836935	122413056	127021056	29367256	24992
673	58.681766	122413056	127021056	27587560	24992
674	59.750523	122683392	127021056	26456440	24992
675	60.049487	122683392	127021056	25992264	24992
676	61.258737	122953728	127021056	26193840	24992
677	61.721581	122953728	127021056	27056976	24992
678	62.502724	123224064	127021056	28581376	24992
679	63.058546	123224064	127021056	30763848	24992
680	64.067354	123494400	127021056	33600896	24992
681	64.755993	123494400	127021056	37097872	24992
682	67.678572	123494400	127021056	24782368	24992
683	66.162682	123764736	127021056	29616200	24992
684	67.487259	123764736	127021056	35108200	24992
685	69.756304	124035072	127021056	24768400	24992
686	68.949596	124035072	127021056	31587392	24992
687	69.69601	124305408	127021056	39064184	24992
688	73.901222	124305408	127021056	30702496	24992
689	71.459247	124575744	127021056	39502368	24992
690	73.906865	124575744	127021056	32464640	24992
691	74.708755	124846080	127021056	26093256	24992
692	98.152591	125116416	127021056	36874592	24992
693	123.556833	125116416	127021056	31831280	24992
694	124.837717	125386752	127021056	27444176	24992
695	124.229983	125386752	127021056	40210536	24992
696	127.479769	125657088	127021056	37151200	24992
697	128.728972	125657088	127021056	34754496	24992
698	106.303792	125657088	127021056	33017272	24992
699	81.524625	125927424	127021056	31935160	24992
700	82.715702	126197760	127021056	31510784	24992
701	83.607257	126197760	127021056	31753352	24992
702	0.820323	126468096	127021056	32270840	24992
703	1.579677	126468096	127021056	33608576	24992
704	2.244199	126468096	127021056	35605800	24992
705	3.04881	126468096	127021056	38271112	24992
706	3.757555	126468096	127021056	41587576	24992
707	7.037432	126468096	127021056	29106328	24992
708	5.467456	126468096	127021056	33741584	24992
709	5.885555	126468096	127021056	39036248	24992
710	9.024585	126468096	127021056	28566712	24992
711	7.697694	126468096	127021056	35181176	24992
712	10.644982	126468096	127021056	26021088	24992
713	8.833359	126468096	127021056	33954360	24992
714	13.004235	126468096	127021056	26121048	24992
715	10.573801	126468096	127021056	35373104	24992
716	13.45341	126468096	127021056	28856912	24992
717	12.019847	126468096	127021056	39427800	24992
718	15.171141	126468096	127021056	34239184	24992
719	16.061634	126738432	127021056	29697128	24992
720	16.552193	126738432	127021056	25799072	24992
721	15.26457	126738432	127021056	39010736	24992
722	17.837642	126738432	127021056	36456280	24992
723	19.017057	126738432	127021056	34564744	24992
724	19.316923	126738432	127021056	33311976	24992
725	20.486967	126738432	127021056	32720752	24992
726	21.204011	126738432	127021056	32791032	24992
727	21.919735	127008768	127021056	33522856	24992
728	22.464972	127008768	127021056	34916232	24992
729	23.389796	127008768	127021056	36971152	24992
730	24.088582	127008768	127021056	39687368	24992
731	27.370992	127008768	127021056	26606472	24992
732	25.727609	127008768	127021056	30616352	24992
733	26.253566	127008768	127021056	35321536	24992
734	27.047603	127008768	127021056	40692904	24992
735	31.302809	127279104	127021056	30281776	24992
736	29.166641	127279104	127021056	36943736	24992
737	32.003614	127279104	127021056	27854840	24992
738	30.37579	127279104	127021056	35837824	24992
739	33.50229	127279104	127021056	28070688	24992
740	32.120569	127279104	127021056	37374632	24992
741	35.244512	127549440	127021056	30932648	24992
742	33.353033	127549440	127021056	41557792	24992
743	36.604937	127549440	127021056	36438992	24992
744	36.992514	127549440	127021056	31947272	24992
745	38.021189	127819776	127021056	28113992	24992
746	36.240366	127819776	127021056	41381152	24992
747	39.676034	127819776	127021056	38912784	24992
748	40.120082	127819776	127021056	37066520	24992
749	40.907282	127819776	127021056	35881080	24992
750	41.884922	128090112	127021056	35355240	24992
751	42.359956	128090112	127021056	35491840	24992
752	43.533158	128090112	127021056	36290360	24992
753	44.091637	128090112	127021056	37750568	24992
754	44.730277	128360448	127021056	39872520	24992
755	45.362074	128360448	127021056	42654048	24992
756	49.161774	128360448	127021056	29609560	24992
757	46.912913	128360448	127021056	33716536	24992
758	48.711919	128630784	127021056	38484552	24992
759	48.571794	128630784	127021056	43914384	24992
760	51.837074	128630784	127021056	33512136	24992
761	50.590254	128630784	127021056	40265432	24992
762	54.128065	128901120	127021056	31186840	24992
763	52.337036	128901120	127021056	39263440	24992
764	55.076391	128901120	127021056	31510008	24992
765	53.737771	129171456	127021056	40906552	24992
766	56.783613	129171456	127021056	34483296	24992
767	55.103082	129171456	127021056	45224704	24992
768	58.297442	129441792	127021056	40132744	24992
769	59.143707	129441792	127021056	35705752	24992
770	60.013469	129441792	127021056	31930936	24992
771	57.927424	129712128	127021056	45311696	24992
772	61.398796	129712128	127021056	42867288	24992
773	62.318852	129982464	127021056	41084872	24992
774	63.110501	129982464	127021056	39965064	24992
775	63.365948	129982464	127021056	39500600	24992
776	64.537647	130252800	127021056	39690752	24992
777	65.077847	130252800	127021056	40542560	24992
778	66.040133	130523136	127021056	42055744	24992
779	66.755145	130523136	127021056	44229384	24992
780	67.624916	130793472	127021056	47070984	24992
781	71.481909	130793472	127021056	34093912	24992
782	69.105339	131063808	127021056	38264584	24992
783	70.089963	131063808	127021056	43095568	24992
784	73.944633	131334144	127021056	32093456	24992
785	71.826196	131334144	127021056	38249968	24992
786	72.610135	131334144	127021056	45065856	24992
787	76.379513	131604480	127021056	36048576	24992
788	74.21871	131604480	127021056	44190216	24992
789	77.767162	131874816	127021056	36499944	24992
790	75.658325	131874816	127021056	45964760	24992
791	79.567632	131874816	127021056	39597504	24992
792	81.451044	132145152	127021056	33891840	24992
793	78.456159	132145152	127021056	45334032	24992
794	82.004856	132415488	127021056	40951696	24992
795	82.990999	132415488	127021056	37225560	24992
796	83.761631	132685824	127021056	34165136	24992
797	81.643859	132685824	127021056	48256736	24992
798	86.447861	132956160	127021056	46522184	24992
799	86.414713	132956160	127021056	45448192	24992
800	87.20557	133226496	127021056	45036040	24992
801	87.681895	133226496	127021056	45282552	24992
802	0.807786	133226496	127021056	45800504	24992
803	1.530781	133226496	127021056	47138240	24992
804	2.255787	133226496	127021056	49135368	24992
805	6.550931	133226496	127021056	35320432	24992
806	3.785999	133226496	127021056	38636888	24992
807	4.496814	133496832	127021056	42612744	24992
808	5.186785	133496832	127021056	47248000	24992
809	9.51524	133496832	127021056	36101480	24992
810	6.650654	133496832	127021056	42056520	24992
811	7.355096	133496832	127021056	48671016	24992
812	11.748452	133496832	127021056	39522144	24992
813	8.902743	133496832	127021056	47455448	24992
814	13.346734	133496832	127021056	39621072	24992
815	10.371658	133496832	127021056	48873128	24992
816	14.696543	133496832	127021056	42354616	24992
817	15.400268	133496832	127021056	36484952	24992
818	12.886601	133496832	127021056	47717448	24992
819	17.193968	133496832	127021056	43174424	24992
820	17.814492	133767168	127021056	39294832	24992
821	18.627294	133767168	127021056	36057960	24992
822	15.959772	133767168	127021056	49928064	24992
823	20.083225	133767168	127021056	48035576	24992
824	20.907132	133767168	127021056	46805840	24992
825	22.05702	133767168	127021056	46213880	24992
826	22.558901	133767168	127021056	46283584	24992
827	23.144371	133767168	127021056	47014832	24992
828	23.820755	133767168	127021056	48407392	24992
829	24.519176	133767168	127021056	50461400	24992
830	29.006694	134037504	127021056	36717328	24992
831	26.091169	134037504	127021056	40066632	24992
832	27.449149	134037504	127021056	44106944	24992
833	27.756102	134037504	127021056	48810664	24992
834	32.151827	134037504	127021056	37727472	24992
835	29.196571	134037504	127021056	43728816	24992
836	29.635431	134037504	127021056	50427696	24992
837	34.723557	134307840	127021056	41332552	24992
838	31.609164	134307840	127021056	49315200	24992
839	36.054008	134307840	127021056	41549632	24992
840	33.014904	134307840	127021056	50853336	24992
841	37.852577	134307840	127021056	44412920	24992
842	38.752929	134578176	127021056	38599696	24992
843	47.337591	118525952	90845184	16634928	24992
844	32.811985	118525952	90845184	12109752	24992
845	33.213669	118525952	90845184	24702256	24992
846	35.641801	118525952	90845184	21518312	24992
847	35.22236	118525952	90845184	18980136	24992
848	35.703736	118525952	90845184	17098808	24992
849	36.303703	118525952	90845184	15878960	24992
850	37.18366	118525952	90845184	15351232	24992
851	37.841798	118525952	90845184	15454160	24992
852	38.754696	118796288	90845184	16218368	24992
853	39.478316	118796288	90845184	17643624	24992
854	40.248977	118796288	90845184	19729104	24992
855	40.727915	118796288	90845184	22475840	24992
856	42.003928	118796288	90845184	25886824	24992
857	42.412721	118796288	90845184	13458528	24992
858	43.079982	118796288	90845184	18184680	24992
859	44.121364	119066624	90845184	23571320	24992
860	45.045626	119066624	90845184	13126776	24992
861	45.02785	119066624	90845184	19833760	24992
862	46.156399	119066624	90845184	27203176	24992
863	47.049255	119066624	90845184	18740520	24992
864	47.576073	119066624	90845184	27431624	24992
865	48.553775	119066624	90845184	20291056	24992
866	49.141547	119336960	90845184	13822712	24992
867	49.725234	119336960	90845184	24504544	24992
868	50.743219	119336960	90845184	19365568	24992
869	51.285797	119336960	90845184	14885200	24992
870	52.10624	119336960	90845184	27553400	24992
871	52.971664	119607296	90845184	24396536	24992
872	53.677977	119607296	90845184	21901224	24992
873	54.31172	119607296	90845184	20060776	24992
874	55.682092	119877632	90845184	18878600	24992
875	55.923074	119877632	90845184	18363624	24992
876	57.69658	119877632	90845184	18519688	24992
877	57.525748	119877632	90845184	19382720	24992
878	58.376675	120147968	90845184	20907144	24992
879	58.87445	120147968	90845184	23092840	24992
880	59.616396	120147968	90845184	25936744	24992
881	60.466392	120418304	90845184	29433936	24992
882	61.541891	120418304	90845184	17111360	24992
883	62.369636	120418304	90845184	21944896	24992
884	62.868541	120418304	90845184	27437888	24992
885	64.016597	120688640	90845184	17097872	24992
886	64.441404	120688640	90845184	23916392	24992
887	65.620369	120958976	90845184	31392632	24992
888	66.113795	120958976	90845184	23033992	24992
889	66.919185	120958976	90845184	31833328	24992
890	68.033764	121229312	90845184	24798344	24992
891	68.964487	121229312	90845184	18425960	24992
892	69.829795	121229312	90845184	29206824	24992
893	70.283523	121229312	90845184	24163136	24992
894	72.212185	121229312	90845184	19776192	24992
895	71.446601	121229312	90845184	32542016	24992
896	73.970187	121229312	90845184	29488616	24992
897	76.276121	121229312	90845184	27091648	24992
898	74.730237	121499648	90845184	25351360	24992
899	76.200848	121499648	90845184	24265008	24992
900	76.183243	121499648	90845184	23845416	24992
901	78.361831	121769984	90845184	24101064	24992
902	0.829189	121769984	90845184	24623728	24992
903	1.531646	121769984	90845184	25961464	24992
904	2.269021	121769984	90845184	27958592	24992
905	3.21024	121769984	90845184	30623440	24992
906	3.888991	121769984	90845184	33939904	24992
907	5.387982	121769984	90845184	21459296	24992
908	5.218434	121769984	90845184	26094552	24992
909	6.120297	121769984	90845184	31389216	24992
910	7.792463	122040320	90845184	20919744	24992
911	7.620389	122040320	90845184	27534176	24992
912	8.107544	122040320	90845184	34808008	24992
913	9.89704	122040320	90845184	26321040	24992
914	9.7749	122040320	90845184	34913784	24992
915	11.450102	122040320	90845184	27746528	24992
916	12.039255	122040320	90845184	21216248	24992
917	12.150275	122040320	90845184	31787120	24992
918	13.624217	122040320	90845184	26582936	24992
919	14.686795	122040320	90845184	22042272	24992
920	14.492694	122040320	90845184	34594024	24992
921	15.735952	122040320	90845184	31377552	24992
922	16.716026	122040320	90845184	28824552	24992
923	17.534993	122310656	90845184	26911152	24992
924	17.877072	122310656	90845184	25659336	24992
925	19.077809	122310656	90845184	25069064	24992
926	19.922908	122310656	90845184	25140376	24992
927	20.303503	122310656	90845184	25873264	24992
928	21.369873	122310656	90845184	27267576	24992
929	21.911813	122310656	90845184	29323512	24992
930	22.43873	122310656	90845184	32040920	24992
931	23.147895	122310656	90845184	35419440	24992
932	25.468188	122580992	90845184	22999192	24992
933	25.058455	122580992	90845184	27672560	24992
934	25.936627	122580992	90845184	33044728	24992
935	27.409652	122580992	90845184	22625432	24992
936	27.569001	122580992	90845184	29287712	24992
937	29.090281	122580992	90845184	20200000	24992
938	28.616565	122580992	90845184	28183144	24992
939	30.611	122851328	90845184	20416936	24992
940	30.144263	122851328	90845184	29721152	24992
941	32.489554	122851328	90845184	23280240	24992
942	31.767955	122851328	90845184	33905640	24992
943	33.622067	122851328	90845184	28787848	24992
944	34.727022	123121664	90845184	24296752	24992
945	35.234932	123121664	90845184	20464016	24992
946	34.711449	123121664	90845184	33731400	24992
947	36.352708	123121664	90845184	31264040	24992
948	37.389517	123121664	90845184	29419296	24992
949	37.948932	123392000	90845184	28232624	24992
950	38.672926	123392000	90845184	27707440	24992
951	39.628812	123392000	90845184	27844520	24992
952	40.275316	123392000	90845184	28643568	24992
953	41.409598	123662336	91369472	30104512	24992
954	42.092549	123662336	91369472	32227216	24992
955	42.549925	123662336	91369472	35010296	24992
956	44.312882	123662336	91369472	21964560	24992
957	44.502916	123932672	91369472	26071984	24992
958	44.908239	123932672	91369472	30841456	24992
959	45.526442	123932672	91369472	36272056	24992
960	47.593885	123932672	91369472	25871072	24992
961	47.084164	124203008	91369472	32625392	24992
962	49.335656	124203008	91893760	23549216	24992
963	48.636934	124203008	91893760	31622712	24992
964	50.945677	124473344	91893760	23870256	24992
965	50.548891	124473344	91893760	33267376	24992
966	52.260551	124473344	91893760	26844792	24992
967	52.103242	124743680	92418048	37579872	24992
968	53.904113	124743680	92418048	32489432	24992
969	54.570073	125014016	92418048	28063048	24992
970	55.627251	125014016	92418048	24286584	24992
971	54.575017	125284352	92418048	37667840	24992
972	57.497713	125284352	92942336	35224728	24992
973	59.723811	125284352	92942336	33443128	24992
974	59.055112	125554688	92942336	32324856	24992
975	59.683626	125554688	92942336	31853952	24992
976	60.45791	125825024	92942336	32044760	24992
977	60.97006	125825024	92942336	32897128	24992
978	61.806281	126095360	93466624	34410456	24992
979	62.482764	126095360	93466624	36585680	24992
980	63.447518	126365696	93466624	39420856	24992
981	67.228548	126365696	93466624	26443816	24992
982	66.419944	126365696	93466624	30624288	24992
983	66.62567	126636032	93466624	35457736	24992
984	66.574539	126636032	93466624	40948656	24992
985	70.183013	126636032	93466624	30621752	24992
986	68.512797	126636032	93466624	37440808	24992
987	71.343401	126636032	93466624	28427408	24992
988	69.911884	126636032	93466624	36569400	24992
989	73.809657	126636032	93466624	28885144	24992
990	71.650447	126636032	93466624	38346368	24992
991	74.296051	126636032	93466624	31979208	24992
992	73.054168	126636032	93466624	42766592	24992
993	76.602797	126636032	93466624	37721392	24992
994	76.428425	126636032	93466624	33339560	24992
995	79.183831	126636032	93466624	29618720	24992
996	76.347126	126636032	93466624	43045976	24992
997	79.287552	126636032	93466624	40647736	24992
998	79.50886	126636032	93466624	38913200	24992
999	80.613904	126636032	93466624	37839416	24992
1000	81.256923	126636032	93466624	37424160	24992
