x	Duration	RSS	HeapTotal	HeapUsed	External
0	NA	106094592	73543680	11156928	24992
1	0.955921	106094592	73543680	11837048	24992
2	1.803824	106094592	73543680	13175440	24992
3	2.475034	106094592	73543680	15173248	24992
4	3.030876	106094592	73543680	17830560	24992
5	3.767531	106094592	73543680	21148040	24992
6	4.565356	106094592	73543680	25124992	24992
7	5.68732	106094592	73543680	13295632	24992
8	6.16247	106094592	73543680	18591712	24992
9	6.693149	106094592	73543680	24548312	24992
10	7.949987	106094592	73543680	14705312	24992
11	8.349326	106094592	73543680	21981056	24992
12	9.566314	106094592	73543680	13448856	24992
13	9.628092	106094592	73543680	22043704	24992
14	10.900207	106094592	73543680	14830008	24992
15	11.41074	106094592	73543680	24744024	24992
16	12.481523	106094592	73543680	18852200	24992
17	13.161742	106094592	73543680	13618576	24992
18	13.851352	106094592	73543680	25513192	24992
19	14.761548	106094592	73543680	21602472	24992
20	15.037015	106094592	73543680	18351800	24992
21	17.346913	106094592	73543680	15769240	24992
22	16.865588	106094592	73543680	13834136	24992
23	17.949237	106094592	73543680	12564896	24992
24	18.14313	106094592	73543680	11950888	24992
25	19.330231	106094592	73543680	11997448	24992
26	19.866775	106094592	73543680	12704640	24992
27	20.606267	106094592	73543680	14072336	24992
28	22.192216	106094592	73543680	16100536	24992
29	22.395026	106094592	73543680	18789328	24992
30	22.492896	106094592	73543680	22137728	24992
31	23.580422	106094592	73543680	26146448	24992
32	24.879072	106094592	73543680	14351376	24992
33	25.305476	106094592	73543680	19685304	24992
34	25.602198	106094592	73543680	25683976	24992
35	27.748008	106094592	73543680	15879912	24992
36	28.066413	106094592	73543680	23193232	24992
37	28.410279	106094592	73543680	14710864	24992
38	28.725911	106094592	73543680	23343000	24992
39	30.131203	106094592	73543680	16183312	24992
40	30.504936	106094592	73543680	26136104	24992
41	31.673731	106094592	73543680	20295696	24992
42	31.624577	106094592	73543680	15114064	24992
43	32.211191	106094592	73543680	27047552	24992
44	34.330964	106094592	73543680	23189024	24992
45	33.870595	106094592	73543680	19992392	24992
46	35.310624	106094592	73543680	17451128	24992
47	35.395559	106094592	73543680	15570872	24992
48	36.610931	106094592	73543680	14351808	24992
49	36.845958	106094592	73543680	13793640	24992
50	37.961885	106094592	73543680	13898640	24992
51	38.396072	106094592	73543680	14659536	24992
52	39.968418	106364928	73543680	16094264	24992
53	39.565352	106364928	73543680	18177056	24992
54	41.039675	106364928	73543680	20920528	24992
55	41.634762	106364928	73543680	24325104	24992
56	42.389796	106364928	73543680	28390608	24992
57	43.155363	106364928	73543680	16624776	24992
58	43.758677	106364928	73543680	22012152	24992
59	44.141555	106364928	73543680	28060152	24992
60	45.519535	106364928	73543680	18277872	24992
61	46.470928	106364928	73543680	25656384	24992
62	46.950942	106364928	73543680	17240880	24992
63	47.482879	106364928	73543680	25980192	24992
64	48.778591	106364928	73543680	18887112	24992
65	49.93495	106364928	73543680	28956792	24992
66	50.062775	106364928	73543680	23204560	24992
67	50.493049	106364928	73543680	18116448	24992
68	51.872274	106364928	73543680	30167224	24992
69	52.350936	106364928	73543680	26401168	24992
70	53.176555	106364928	73543680	23295936	24992
71	53.835284	106635264	73543680	20854224	24992
72	54.619524	106635264	73543680	19062904	24992
73	55.038508	106635264	73543680	17941216	24992
74	56.165587	106635264	73543680	17481392	24992
75	57.091311	106635264	73543680	17682768	24992
76	57.68024	106635264	73543680	18545752	24992
77	58.644548	106635264	73543680	20070544	24992
78	59.572813	106635264	73543680	22256496	24992
79	60.219853	106635264	73543680	25101984	24992
80	60.652518	106635264	73543680	28604176	24992
81	62.09451	106635264	73543680	32764560	24992
82	63.759151	106635264	73543680	21110776	24992
83	64.349225	106635264	73543680	26605704	24992
84	64.257067	106635264	73543680	32761952	24992
85	65.99948	106635264	73543680	23084208	24992
86	65.99966	106635264	73543680	30563824	24992
87	67.221534	106635264	73543680	22211792	24992
88	67.723163	106635264	73543680	31014680	24992
89	68.771306	106635264	73543680	23986000	24992
90	69.141159	106635264	73543680	34110192	24992
91	70.442835	106635264	73543680	28399032	24992
92	72.716292	106905600	73543680	23362408	24992
93	75.717316	106905600	73543680	18989936	24992
94	72.894198	106905600	73543680	31756024	24992
95	73.996279	106905600	73543680	28697376	24992
96	74.671944	106905600	73543680	26295104	24992
97	75.580648	106905600	73543680	24547944	24992
98	76.478631	106905600	73543680	23472576	24992
99	78.257471	106905600	73543680	23059032	24992
100	80.403073	106905600	73543680	23307576	24992
101	79.101169	106905600	73543680	24217720	24992
102	0.821967	106905600	73543680	25398360	24992
103	1.551336	106905600	73543680	26736112	24992
104	2.284511	106905600	73543680	28733256	24992
105	3.044927	106905600	73543680	31389808	24992
106	3.739362	106905600	73543680	34706288	24992
107	5.731347	106905600	73543680	22225680	24992
108	5.187783	106905600	73543680	26860952	24992
109	5.880779	106905600	73543680	32155632	24992
110	8.000528	106905600	73543680	21686192	24992
111	7.380853	106905600	73543680	28300640	24992
112	8.26938	106905600	73543680	35574488	24992
113	10.35627	106905600	73543680	27087536	24992
114	9.85521	106905600	73543680	35680216	24992
115	12.073941	106905600	73543680	28512928	24992
116	12.358183	106905600	73543680	21982712	24992
117	11.98677	106905600	73543680	32553648	24992
118	13.979191	106905600	73543680	27349960	24992
119	14.539899	106905600	73543680	22809360	24992
120	14.19172	106905600	73543680	35360664	24992
121	16.186298	106905600	73543680	32144992	24992
122	16.83924	106905600	73543680	29592008	24992
123	17.729835	106905600	73543680	27678624	24992
124	18.610036	106905600	73543680	26426888	24992
125	19.260641	106905600	73543680	25836616	24992
126	20.0405	106905600	73543680	25908408	24992
127	21.438502	106905600	73543680	26641920	24992
128	21.367919	106905600	73543680	28036248	24992
129	22.755493	106905600	73543680	30092232	24992
130	23.081339	106905600	73543680	32809704	24992
131	23.776968	106905600	73543680	36188224	24992
132	26.297679	106905600	73543680	23770632	24992
133	25.093797	106905600	73543680	28444592	24992
134	25.962764	106905600	73543680	33816888	24992
135	28.510535	106905600	73543680	23397736	24992
136	27.668664	106905600	73543680	30059920	24992
137	28.326588	106905600	73543680	37421056	24992
138	30.651714	106905600	73543680	28945768	24992
139	31.667913	106905600	73543680	21179344	24992
140	30.558482	106905600	73543680	30483592	24992
141	33.2466	106905600	73543680	24042776	24992
142	31.869588	106905600	73543680	34671872	24992
143	34.826106	106905600	73543680	29555864	24992
144	35.165029	106905600	73543680	25064688	24992
145	34.809579	106905600	73543680	37671800	24992
146	36.884987	106905600	73543680	34518336	24992
147	37.462582	106905600	73543680	32021480	24992
148	38.168889	106905600	73543680	30176720	24992
149	38.615039	106905600	73543680	28989968	24992
150	40.273913	106905600	73543680	28465024	24992
151	40.182266	106905600	73543680	28602072	24992
152	41.577522	106905600	73543680	29401200	24992
153	42.264815	106905600	73543680	30861920	24992
154	43.13767	106905600	73543680	32984416	24992
155	43.330772	106905600	73543680	35768440	24992
156	45.994057	106905600	73543680	22720800	24992
157	45.532285	106905600	73543680	26829856	24992
158	45.771222	106905600	73543680	31599232	24992
159	46.282637	106905600	73543680	37029880	24992
160	48.676817	106905600	73543680	26628864	24992
161	47.973841	106905600	73543680	33383392	24992
162	50.228464	106905600	73543680	24307344	24992
163	49.729917	106905600	73543680	32380968	24992
164	51.915342	106905600	73543680	24628304	24992
165	50.861398	106905600	73543680	34025504	24992
166	53.678262	106905600	73543680	27603904	24992
167	52.609049	106905600	73543680	38331720	24992
168	55.204588	106905600	73543680	33242128	24992
169	56.077416	106905600	73543680	28816096	24992
170	57.724441	106905600	73543680	25049520	24992
171	55.688852	106905600	73543680	38430744	24992
172	59.217368	106905600	73543680	35996656	24992
173	59.532298	106905600	73543680	34214640	24992
174	60.353469	106905600	73543680	33097216	24992
175	60.914883	106905600	73543680	32626008	24992
176	61.669558	106905600	73543680	32816304	24992
177	63.970824	106905600	73543680	33676080	24992
178	63.485548	106905600	73543680	35189184	24992
179	64.605109	106905600	73543680	37363992	24992
180	65.039876	106905600	73543680	40198752	24992
181	67.748387	106905600	73543680	27222800	24992
182	67.056943	106905600	73543680	31393440	24992
183	68.17156	106905600	73543680	36225944	24992
184	68.491965	106905600	73543680	41717024	24992
185	70.838167	106905600	73543680	31372976	24992
186	70.093435	106905600	73543680	38190800	24992
187	72.450841	106905600	73543680	29177528	24992
188	71.306431	106905600	73543680	37319360	24992
189	74.227338	106905600	73543680	29626408	24992
190	73.174992	106905600	73543680	39087512	24992
191	76.355114	106905600	73543680	32720416	24992
192	74.270983	106905600	73543680	43507864	24992
193	77.859327	106905600	73543680	38462984	24992
194	78.767623	106905600	73543680	34077800	24992
195	79.411155	106905600	73543680	30353296	24992
196	77.983931	106905600	73543680	43780680	24992
197	81.289319	106905600	73543680	41382312	24992
198	82.115542	106905600	73543680	39648080	24992
199	82.696041	106905600	73543680	38574024	24992
200	83.318274	106905600	73543680	38156336	24992
201	84.640574	106905600	73543680	38393088	24992
202	0.814566	106905600	73543680	38904952	24992
203	1.544441	106905600	73543680	40242704	24992
204	2.237397	106905600	73543680	42239848	24992
205	3.011708	106905600	73543680	44896400	24992
206	6.646018	106905600	73543680	31744768	24992
207	4.789937	106905600	73543680	35720704	24992
208	5.373226	106905600	73543680	40355976	24992
209	6.092415	106905600	73543680	45650656	24992
210	9.473939	106905600	73543680	35173144	24992
211	7.344239	106905600	73543680	41787592	24992
212	11.183714	106905600	73543680	32631904	24992
213	9.078947	106905600	73543680	40565160	24992
214	12.354712	106905600	73543680	32721272	24992
215	10.808512	106905600	73543680	41973344	24992
216	14.056806	106905600	73543680	35455040	24992
217	14.84195	106905600	73543680	29585416	24992
218	12.69202	106905600	73543680	40817552	24992
219	16.330509	106905600	73543680	36274544	24992
220	16.828207	106905600	73543680	32394888	24992
221	15.060993	106905600	73543680	45605648	24992
222	18.46997	106905600	73543680	43049832	24992
223	19.733942	106905600	73543680	41158104	24992
224	19.869312	106905600	73543680	39904680	24992
225	21.146452	106905600	73543680	39313120	24992
226	21.740058	106905600	73543680	39383080	24992
227	22.702776	106905600	73543680	40114616	24992
228	23.117067	106905600	73543680	41507672	24992
229	23.856145	106905600	73543680	43567568	24992
230	24.360752	106905600	73543680	46285928	24992
231	28.404246	106905600	73543680	33186760	24992
232	26.412939	106905600	73543680	37210256	24992
233	27.100395	106905600	73543680	41914336	24992
234	30.354875	106905600	73543680	30832184	24992
235	28.687164	106905600	73543680	36833440	24992
236	29.301248	106905600	73543680	43530424	24992
237	32.914331	106905600	73543680	34435584	24992
238	30.606788	106905600	73543680	42418600	24992
239	34.502583	106905600	73543680	34653144	24992
240	31.921794	106905600	73543680	43957264	24992
241	36.161871	106905600	73543680	37516816	24992
242	36.433532	106905600	73543680	31701808	24992
243	34.719165	106905600	74067968	42987400	24992
244	37.775006	107175936	74067968	38531344	24992
245	39.110592	107175936	74067968	34701104	24992
246	39.316961	107175936	74067968	31529360	24992
247	36.978363	107175936	74067968	45457144	24992
248	41.245875	107446272	74067968	43651568	24992
249	41.566771	107446272	74067968	42466000	24992
250	42.930296	107446272	74592256	41942832	24992
251	43.471631	107446272	74592256	42081400	24992
252	44.193777	107716608	74592256	42879952	24992
253	45.216348	107716608	74592256	44339216	24992
254	46.073018	107986944	74592256	46460944	24992
255	49.641392	107986944	74592256	32754920	24992
256	47.741976	107986944	75116544	36200288	24992
257	47.693038	108257280	75116544	40307392	24992
258	48.67117	108257280	75116544	45075616	24992
259	54.090153	108257280	75116544	34023872	24992
260	51.563635	108527616	75116544	40115656	24992
261	51.067187	108527616	75116544	46868712	24992
262	54.722427	108527616	75640832	37790328	24992
263	52.647595	108797952	75640832	45866912	24992
264	56.625263	108797952	75640832	38111576	24992
265	53.839318	108797952	75640832	47511640	24992
266	58.149486	109068288	75640832	41088048	24992
267	58.754639	109068288	76165120	35337920	24992
268	56.342523	109338624	76165120	46726584	24992
269	61.701217	109338624	76165120	42297912	24992
270	61.466844	109338624	76165120	38532712	24992
271	62.324519	109608960	76165120	35418176	24992
272	59.410028	109608960	76165120	49460488	24992
273	63.559649	109608960	76165120	47679272	24992
274	64.200181	109608960	76165120	46558568	24992
275	67.753617	109608960	76165120	46099376	24992
276	67.021483	109608960	76165120	46302152	24992
277	66.786055	109608960	76165120	47166216	24992
278	68.2573	109608960	76165120	48691896	24992
279	68.342234	109608960	76165120	50879568	24992
280	73.395855	109608960	76165120	37240472	24992
281	70.013193	109608960	76165120	40749576	24992
282	71.006643	109608960	76165120	44919800	24992
283	71.759773	109608960	76165120	49748928	24992
284	76.85327	109608960	76165120	38743552	24992
285	73.486281	109879296	76165120	44900232	24992
286	74.302906	109879296	76165120	51714792	24992
287	79.359063	109879296	76165120	42694528	24992
288	79.781514	108957696	75116544	16413536	24992
289	65.847316	108957696	75116544	25152792	24992
290	68.002245	108957696	75116544	18059168	24992
291	67.210752	108957696	75116544	28117664	24992
292	68.446974	108957696	75116544	22339944	24992
293	69.367135	108957696	75116544	17226416	24992
294	69.842261	108957696	75116544	12778064	24992
295	70.317005	108957696	75116544	25474992	24992
296	71.192681	108957696	75116544	22346784	24992
297	72.050752	108957696	75116544	19874408	24992
298	73.478331	108957696	75116544	18056248	24992
299	74.312432	109228032	77213696	16909080	24992
300	74.041258	109228032	79310848	16426376	24992
301	74.846372	109498368	81408000	16601792	24992
302	0.825246	109498368	83505152	17094816	24992
303	1.521211	109498368	83505152	18432568	24992
304	2.257809	109498368	83505152	20429712	24992
305	2.962505	109498368	83505152	23086264	24992
306	3.733604	109498368	83505152	26402808	24992
307	4.78323	109498368	84029440	13903272	24992
308	5.235356	109498368	84029440	18538544	24992
309	5.986012	109498368	84029440	23833224	24992
310	6.836466	109498368	84029440	29788280	24992
311	7.89435	109498368	84553728	19936504	24992
312	8.059248	109498368	84553728	27210416	24992
313	9.918975	109498368	84553728	18683648	24992
314	9.757759	109498368	84553728	27276312	24992
315	10.543847	109498368	84553728	20061488	24992
316	11.622663	109498368	84553728	13502080	24992
317	12.25011	109498368	84553728	24072960	24992
318	12.803976	109498368	84553728	18836512	24992
319	13.707951	109498368	84553728	14261384	24992
320	14.147966	109498368	84553728	26812720	24992
321	15.665643	109498368	84553728	23558368	24992
322	16.520027	109498368	84553728	20965240	24992
323	16.822245	109498368	84553728	19025896	24992
324	17.503762	109498368	84553728	17747464	24992
325	18.305382	109768704	84553728	17130016	24992
326	19.162412	109768704	84553728	17172744	24992
327	19.724501	109768704	84553728	17875896	24992
328	20.362331	109768704	84553728	19239448	24992
329	21.364541	109768704	84553728	21264408	24992
330	22.400606	109768704	84553728	23947920	24992
331	23.100408	109768704	84553728	27291808	24992
332	23.509874	109768704	84553728	14826904	24992
333	24.137246	109768704	84553728	19488400	24992
334	24.896345	109768704	84553728	24821560	24992
335	26.104365	109768704	84553728	14349504	24992
336	27.261109	109768704	84553728	21007376	24992
337	27.358747	109768704	84553728	28335248	24992
338	27.990228	109768704	84553728	19895744	24992
339	28.711965	109768704	84553728	28538760	24992
340	30.294361	110039040	84553728	21428496	24992
341	30.412843	110039040	84553728	14951960	24992
342	31.541814	110039040	84553728	25577120	24992
343	32.458419	110039040	84553728	20451488	24992
344	33.112727	110039040	84553728	15957920	24992
345	33.089313	110039040	84553728	28564696	24992
346	34.070673	110309376	84553728	25425504	24992
347	34.70702	110309376	84553728	22918576	24992
348	35.647344	110309376	84553728	21069776	24992
349	36.197024	110309376	84553728	19882456	24992
350	37.332307	110579712	84553728	19357056	24992
351	40.388212	110579712	84553728	19494368	24992
352	38.783377	110579712	84553728	20293664	24992
353	39.724822	110579712	84553728	21754168	24992
354	40.861715	110850048	84553728	23876032	24992
355	40.875324	110850048	84553728	26659664	24992
356	42.627486	110850048	84553728	30103904	24992
357	43.293621	110850048	84553728	17719352	24992
358	43.41006	111120384	84553728	22488080	24992
359	43.636445	111120384	84553728	27918112	24992
360	45.695474	111120384	84553728	17529920	24992
361	46.086762	111120384	84553728	24283512	24992
362	46.303567	111390720	84553728	31698736	24992
363	48.267187	111390720	84553728	23281472	24992
364	47.682374	111390720	84553728	32019456	24992
365	49.818014	111661056	84553728	24926416	24992
366	49.886278	111661056	84553728	18504504	24992
367	51.175022	111661056	84553728	29231736	24992
368	51.814379	111931392	84553728	24141512	24992
369	52.423536	111931392	84553728	19714832	24992
370	52.812452	112201728	84553728	32429376	24992
371	53.592359	112201728	84553728	29323488	24992
372	54.523283	112201728	84553728	26879776	24992
373	55.254338	112472064	84553728	25099688	24992
374	56.380463	112472064	84553728	23966496	24992
375	57.2514	112472064	84553728	23498432	24992
376	59.27767	112742400	84553728	23707528	24992
377	58.833319	112742400	84553728	24569776	24992
378	60.141175	112742400	84553728	26094432	24992
379	61.431552	113012736	84553728	28284736	24992
380	60.708151	113012736	84553728	31121624	24992
381	62.095271	113283072	84553728	34618296	24992
382	63.247473	113283072	84553728	22302264	24992
383	63.332525	113553408	84553728	27136032	24992
384	64.024288	113553408	84553728	32627960	24992
385	65.727691	113823744	84553728	22284552	24992
386	65.495796	113823744	84553728	29103576	24992
387	67.493118	113823744	84553728	20085248	24992
388	67.093464	114094080	84553728	28219992	24992
389	68.970357	114094080	84553728	20524872	24992
390	72.747781	114364416	84553728	29983192	24992
391	71.040288	114364416	84553728	23611552	24992
392	71.17987	114364416	84553728	34392984	24992
393	72.565492	114634752	84553728	29349752	24992
394	73.224129	114634752	84553728	24962792	24992
395	73.914291	114905088	84553728	21241456	24992
396	74.366403	114905088	84553728	34669032	24992
397	75.958488	115175424	84553728	32272424	24992
398	78.080059	115175424	84553728	30537904	24992
399	78.096858	115445760	84553728	29459384	24992
400	78.227852	115445760	84553728	29035312	24992
401	80.272618	115716096	84553728	29272672	24992
402	0.811466	115716096	84553728	29784552	24992
403	1.52442	115716096	84553728	31122304	24992
404	2.242249	115716096	84553728	33119448	24992
405	3.006103	115716096	84553728	35776000	24992
406	5.150221	115716096	84553728	22627448	24992
407	4.483967	115986432	84553728	26603328	24992
408	5.555759	115986432	84553728	31238600	24992
409	5.916967	115986432	84553728	36533280	24992
410	8.299787	115986432	84553728	26063680	24992
411	7.331641	115986432	84553728	32678128	24992
412	9.545989	115986432	84553728	23526776	24992
413	9.07799	115986432	84553728	31460032	24992
414	11.249358	115986432	84553728	23617488	24992
415	10.295915	115986432	84553728	32869560	24992
416	12.789755	115986432	84553728	26354296	24992
417	11.916199	115986432	84553728	36925256	24992
418	14.15322	115986432	84553728	31738472	24992
419	14.698016	115986432	84553728	27197840	24992
420	16.212105	115986432	84553728	23300760	24992
421	15.132729	115986432	84553728	36511472	24992
422	17.042208	115986432	84553728	33958288	24992
423	17.840032	116256768	84553728	32067968	24992
424	18.727796	116256768	84553728	30816136	24992
425	19.335793	116256768	84553728	30225896	24992
426	20.258639	116256768	84553728	30297224	24992
427	20.665569	116256768	84553728	31030000	24992
428	21.865662	116256768	84553728	32424360	24992
429	22.543706	116256768	84553728	34480232	24992
430	23.465264	116256768	84553728	37197240	24992
431	25.405358	116527104	84553728	24117752	24992
432	24.552562	116527104	84553728	28128176	24992
433	25.402742	116527104	84553728	32834456	24992
434	26.21436	116527104	84553728	38206600	24992
435	28.601029	116527104	84553728	27787304	24992
436	28.015383	116527104	84553728	34449632	24992
437	29.792919	116527104	84553728	25361520	24992
438	29.405293	116797440	84553728	33344760	24992
439	31.852839	116797440	84553728	25578632	24992
440	30.600663	116797440	84553728	34882928	24992
441	33.681961	116797440	84553728	28440784	24992
442	32.492133	116797440	84553728	39066272	24992
443	34.785356	117067776	84553728	33949864	24992
444	34.747195	117067776	84553728	29458944	24992
445	36.091311	117067776	84553728	25626040	24992
446	34.749725	117067776	84553728	38893544	24992
447	37.787019	117067776	84553728	36426296	24992
448	38.325223	117338112	84553728	34579712	24992
449	39.857594	117338112	84553728	33405432	24992
450	40.220048	117338112	84553728	32880376	24992
451	41.719097	117338112	85078016	33026896	24992
452	41.155705	117608448	85078016	33825848	24992
453	42.684354	117608448	85078016	35286616	24992
454	43.842048	117608448	85078016	37409928	24992
455	44.103706	117878784	85078016	40191776	24992
456	46.361397	117878784	85078016	27147080	24992
457	45.309241	117878784	85078016	31254344	24992
458	45.770465	117878784	85078016	36022840	24992
459	46.48329	118149120	85078016	41452848	24992
460	49.659253	118149120	85078016	31059400	24992
461	48.141029	118149120	85078016	37812328	24992
462	50.589674	118419456	85078016	28733992	24992
463	49.864695	118419456	85078016	36810720	24992
464	52.249823	118419456	85602304	29056272	24992
465	51.000903	118419456	85602304	38454744	24992
466	53.594359	118689792	85602304	32031248	24992
467	52.789303	118689792	85602304	42772176	24992
468	55.365309	118689792	85602304	37679064	24992
469	56.139746	118960128	85602304	33251096	24992
470	56.952978	118960128	86126592	29480176	24992
471	55.571133	118960128	86126592	42857408	24992
472	58.353601	119230464	86126592	40412328	24992
473	59.221407	119230464	86126592	38629992	24992
474	59.849824	119230464	86126592	37509176	24992
475	60.765251	119500800	86126592	37051888	24992
476	61.399933	119500800	86126592	37241656	24992
477	62.384008	119500800	86650880	38093112	24992
478	63.065179	119771136	86650880	39605976	24992
479	64.310944	120041472	86650880	41778816	24992
480	66.609841	120041472	86650880	28139432	24992
481	65.990453	120041472	86650880	31648328	24992
482	66.892043	120311808	87175168	35819144	24992
483	67.907741	120311808	87175168	40648656	24992
484	70.058558	120582144	87175168	29643368	24992
485	68.822636	120582144	87175168	35800024	24992
486	69.46137	120582144	87175168	42614280	24992
487	72.5632	120852480	87699456	33593344	24992
488	72.044281	120852480	87699456	41735136	24992
489	74.519426	121122816	87699456	34044728	24992
490	73.352635	121122816	87699456	43509320	24992
491	75.79366	121122816	87699456	37142176	24992
492	76.664558	121393152	88223744	31431272	24992
493	75.435238	121393152	88223744	42873496	24992
494	78.449433	121663488	88223744	38491080	24992
495	79.161469	121663488	88223744	34765152	24992
496	80.366999	121933824	88223744	31704376	24992
497	78.694902	121933824	88223744	45793560	24992
498	81.874856	122204160	88223744	44059440	24992
499	82.84654	122204160	88223744	42985544	24992
500	83.573976	122204160	88223744	42573200	24992
501	84.569481	122204160	88223744	42822544	24992
502	0.818378	122204160	88223744	43346808	24992
503	1.514689	122204160	88223744	44684560	24992
504	2.242958	122204160	88223744	46681704	24992
505	5.662838	122204160	88223744	32870432	24992
506	3.742465	122204160	88223744	36186912	24992
507	4.442911	122204160	88223744	40162784	24992
508	5.195663	122204160	88223744	44798056	24992
509	8.588153	122204160	88223744	33651584	24992
510	6.681808	122204160	88223744	39606640	24992
511	7.326286	122204160	88223744	46221088	24992
512	10.811879	122204160	88223744	37072184	24992
513	8.817004	122204160	88223744	45005440	24992
514	12.239569	122204160	88223744	37170968	24992
515	10.273697	122204160	88223744	46423040	24992
516	13.93939	122204160	88223744	39904528	24992
517	14.47617	122204160	88223744	34034912	24992
518	12.532547	122204160	88223744	45267056	24992
519	15.98936	122204160	88223744	40723920	24992
520	16.690643	122204160	88223744	36844264	24992
521	17.615624	122204160	88223744	33607408	24992
522	15.35357	122204160	88223744	47477608	24992
523	18.902331	122204160	88223744	45585136	24992
524	20.03221	122204160	88223744	44355304	24992
525	20.573007	122204160	88223744	43763328	24992
526	21.565087	122204160	88223744	43832872	24992
527	22.375227	122204160	88223744	44564088	24992
528	22.925461	122204160	88223744	45956696	24992
529	23.524571	122204160	88223744	48010720	24992
530	27.316941	122204160	88223744	34265912	24992
531	25.712032	122204160	88223744	37615312	24992
532	26.064678	122204160	88223744	41655272	24992
533	26.963497	122204160	88223744	46359072	24992
534	30.268699	122204160	88223744	35275832	24992
535	28.173052	122204160	88223744	41277192	24992
536	29.467662	122204160	88223744	47978584	24992
537	32.513531	122204160	88223744	38883504	24992
538	30.382298	122204160	88223744	46865784	24992
539	33.982431	122204160	88223744	39100248	24992
540	32.097344	122204160	88223744	48403616	24992
541	35.497534	122204160	88223744	41962560	24992
542	36.340867	122204160	88223744	36147600	24992
543	34.286147	122204160	88223744	47433224	24992
544	37.692811	122204160	88223744	42977072	24992
545	38.881556	122204160	88223744	39146992	24992
546	39.307399	122204160	88223744	35974528	24992
547	37.644918	122204160	88223744	49902456	24992
548	40.999127	122204160	88223744	48062160	24992
549	41.95022	122204160	88223744	46899744	24992
550	42.183749	122204160	88223744	46375872	24992
551	43.43384	122204160	88223744	46514680	24992
552	43.66167	122204160	88223744	47315120	24992
553	44.236556	122204160	88223744	48777184	24992
554	48.329824	122204160	88223744	34409488	24992
555	45.853075	122204160	88223744	37193080	24992
556	46.705575	122204160	88223744	40658864	24992
557	47.56701	122204160	88223744	44765360	24992
558	48.425566	122204160	88223744	49533584	24992
559	53.007386	122204160	88223744	38470312	24992
560	50.723671	122204160	88223744	44562272	24992
561	50.54027	122204160	88223744	51315536	24992
562	55.117787	122204160	88223744	42233712	24992
563	52.114599	122204160	88223744	50310008	24992
564	56.577352	122204160	88223744	42554272	24992
565	53.724012	122204160	88223744	51954016	24992
566	57.861286	122204160	88223744	45529704	24992
567	59.066894	122204160	88223744	39779528	24992
568	56.614192	122204160	88223744	51168320	24992
569	60.095018	122204160	88223744	46739072	24992
570	60.951144	122204160	88223744	42973008	24992
571	61.641241	122204160	88223744	39863744	24992
572	63.152789	122204160	88223744	37415712	24992
573	67.982169	120107008	86126592	16733952	24992
574	54.853389	120107008	86126592	15551184	24992
575	56.321459	120107008	86126592	15036560	24992
576	56.286914	120107008	86126592	15182688	24992
577	57.817067	120107008	86126592	15989768	24992
578	57.992787	120107008	86126592	17457808	24992
579	59.163075	120107008	86126592	19586064	24992
580	59.201965	120107008	86126592	22371824	24992
581	60.087867	120107008	86126592	25811192	24992
582	60.577184	120107008	86126592	13422032	24992
583	61.64738	120107008	86126592	18195152	24992
584	62.294939	120107008	86126592	23629168	24992
585	63.117914	120107008	86126592	13228224	24992
586	63.679436	120107008	86126592	19980616	24992
587	64.325741	120107008	86126592	27393768	24992
588	64.751237	120107008	86126592	18971096	24992
589	66.331201	120107008	86126592	27709520	24992
590	66.53861	120107008	86126592	20615832	24992
591	67.784154	120107008	88223744	14177688	24992
592	68.879959	120377344	89796608	24891896	24992
593	69.037215	120377344	91893760	19780896	24992
594	69.777802	120377344	93990912	15336680	24992
595	70.660319	120647680	93990912	28035184	24992
596	72.20557	120647680	93990912	24916800	24992
597	72.311059	120918016	93990912	22517064	24992
598	73.477983	120918016	93990912	20773424	24992
599	74.105462	121188352	93990912	19692376	24992
600	74.732972	121188352	93990912	19278216	24992
601	75.793788	121458688	93990912	19526096	24992
602	0.811954	121458688	93990912	20048960	24992
603	1.523123	121458688	93990912	21386712	24992
604	2.231096	121458688	93990912	23383856	24992
605	2.962855	121458688	93990912	26040408	24992
606	3.741804	121458688	93990912	29356888	24992
607	5.085932	121458688	93990912	16876216	24992
608	5.207049	121458688	93990912	21511504	24992
609	5.852691	121458688	93990912	26806216	24992
610	7.339783	121458688	93990912	16336712	24992
611	7.404939	121458688	93990912	22951192	24992
612	8.125145	121458688	93990912	30225040	24992
613	9.32518	121458688	93990912	21738792	24992
614	9.552719	121458688	93990912	30331456	24992
615	10.738226	121458688	93990912	23164840	24992
616	11.509606	121729024	93990912	16634592	24992
617	11.716229	121729024	93990912	27205464	24992
618	13.047868	121729024	93990912	22001824	24992
619	13.935871	121729024	93990912	17461912	24992
620	14.147473	121729024	93990912	30013232	24992
621	15.38872	121729024	93990912	26797480	24992
622	16.049997	121729024	93990912	24244544	24992
623	16.767014	121729024	93990912	22331240	24992
624	17.526311	121729024	93990912	21079456	24992
625	18.663518	121729024	93990912	20489616	24992
626	19.022138	121729024	93990912	20561824	24992
627	19.832734	121999360	93990912	21295496	24992
628	20.971797	121999360	93990912	22690272	24992
629	21.380248	121999360	93990912	24746240	24992
630	22.160724	121999360	93990912	27463648	24992
631	23.044221	121999360	93990912	30842152	24992
632	24.338982	121999360	93990912	18425232	24992
633	24.839978	121999360	93990912	23098952	24992
634	25.305831	121999360	93990912	28464848	24992
635	26.85919	122269696	93990912	18038384	24992
636	26.77352	122269696	93990912	24700344	24992
637	27.665404	122269696	93990912	32053808	24992
638	29.184811	122269696	93990912	23613744	24992
639	29.03659	122269696	93990912	32256744	24992
640	30.114965	122269696	93990912	25145744	24992
641	31.305834	122540032	93990912	18669336	24992
642	31.789971	122540032	93990912	29295160	24992
643	32.480509	122540032	93990912	24168760	24992
644	33.876275	122540032	93990912	19677048	24992
645	33.615499	122540032	93990912	32283904	24992
646	35.287222	122540032	93990912	29144104	24992
647	35.599011	122810368	93990912	26635528	24992
648	37.022321	122810368	93990912	24792912	24992
649	37.32387	122810368	93990912	23605672	24992
650	38.475628	122810368	93990912	23080016	24992
651	38.894616	123080704	93990912	23216608	24992
652	39.393244	123080704	93990912	24015264	24992
653	40.413499	123080704	93990912	25475768	24992
654	40.652293	123080704	93990912	27597696	24992
655	42.018047	123351040	93990912	30381648	24992
656	42.661276	123351040	93990912	33825168	24992
657	45.66353	123351040	93990912	21443560	24992
658	45.90017	123351040	93990912	26220792	24992
659	44.705162	123621376	93990912	31650824	24992
660	46.161877	123621376	93990912	21249416	24992
661	47.096186	123891712	93990912	28003232	24992
662	49.527927	123891712	93990912	18935104	24992
663	48.025671	123891712	93990912	27008760	24992
664	49.424708	123891712	93990912	19255984	24992
665	49.431782	124162048	93990912	28652960	24992
666	50.962086	124162048	93990912	22231632	24992
667	50.950863	124162048	93990912	32959448	24992
668	53.012331	124432384	93990912	27869840	24992
669	53.59663	124432384	93990912	23443632	24992
670	53.561793	124702720	93990912	36156256	24992
671	54.753418	124702720	93990912	33049208	24992
672	55.539012	124973056	93990912	30605808	24992
673	56.466821	124973056	93990912	28825056	24992
674	56.834334	125243392	93990912	27699688	24992
675	58.143949	125243392	93990912	27228560	24992
676	59.376017	125513728	93990912	27420696	24992
677	59.967565	125513728	93990912	28278112	24992
678	60.510804	125513728	93990912	29795368	24992
679	61.312299	125784064	93990912	31970912	24992
680	61.870632	125784064	93990912	34807080	24992
681	64.05326	126054400	93990912	21823752	24992
682	63.912739	126054400	93990912	25994960	24992
683	64.737206	126054400	93990912	30828504	24992
684	66.746989	126324736	93990912	36320632	24992
685	67.515112	126324736	93990912	25980392	24992
686	67.097012	126595072	93990912	32799768	24992
687	68.865913	126595072	93990912	23783784	24992
688	69.187171	126595072	93990912	31922256	24992
689	70.673341	126865408	93990912	24227040	24992
690	69.606042	126865408	93990912	33685168	24992
691	72.031468	127135744	93990912	27318536	24992
692	72.229272	127135744	93990912	38106832	24992
693	73.63779	127135744	93990912	33062880	24992
694	74.397914	127406080	94515200	28675984	24992
695	75.649166	127676416	94515200	24954200	24992
696	74.991195	127676416	94515200	38382048	24992
697	77.062969	127676416	94515200	35984864	24992
698	77.757531	127946752	94515200	34250456	24992
699	78.676401	127946752	95039488	33174288	24992
700	79.60719	128217088	95039488	32753776	24992
701	80.361602	128217088	95039488	32991328	24992
702	0.827767	128487424	95039488	33503352	24992
703	1.524374	128487424	95039488	34841248	24992
704	2.470274	128487424	95039488	36838376	24992
705	3.05391	128487424	95039488	39503688	24992
706	6.320167	128487424	95039488	26368728	24992
707	4.44494	128487424	95039488	30344584	24992
708	5.130011	128487424	95039488	34979840	24992
709	5.909142	128487424	95039488	40274744	24992
710	9.035796	128487424	95039488	29816384	24992
711	7.327429	128487424	95039488	36430816	24992
712	9.957554	128487424	95039488	27280408	24992
713	8.958567	128487424	95039488	35213648	24992
714	11.379291	128487424	95039488	27370768	24992
715	10.294091	128487424	95039488	36622840	24992
716	13.085533	128487424	95039488	30106824	24992
717	11.733291	128487424	95039488	40677712	24992
718	14.37414	128757760	95563776	35489912	24992
719	15.00556	128757760	95563776	30948784	24992
720	16.25053	128757760	95563776	27051064	24992
721	15.671974	128757760	95563776	40261792	24992
722	17.336728	128757760	95563776	37708336	24992
723	18.742513	128757760	95563776	35818752	24992
724	18.858432	128757760	95563776	34566696	24992
725	19.91802	128757760	95563776	33976248	24992
726	20.903629	128757760	95563776	34047400	24992
727	21.200677	128757760	95563776	34780048	24992
728	22.004457	129028096	95563776	36174200	24992
729	23.000297	129028096	95563776	38229688	24992
730	23.609425	129028096	95563776	40946504	24992
731	26.383389	129028096	95563776	27866744	24992
732	25.236454	129028096	95563776	31877056	24992
733	25.870965	129028096	95563776	36582280	24992
734	26.761163	129028096	95563776	41953672	24992
735	30.245714	129298432	95563776	31529504	24992
736	28.371595	129298432	95563776	38199720	24992
737	30.738813	129298432	95563776	29106376	24992
738	30.043441	129298432	95563776	37089744	24992
739	32.830334	129298432	95563776	29327120	24992
740	31.022333	129298432	95563776	38631560	24992
741	33.70386	129568768	96088064	32188760	24992
742	32.6935	129568768	96088064	42813696	24992
743	35.186801	129568768	96088064	37647616	24992
744	36.260844	129568768	96088064	33193744	24992
745	36.900902	129568768	96088064	29362360	24992
746	35.822399	129568768	96088064	42630000	24992
747	38.057408	129839104	96088064	40148784	24992
748	39.058228	129839104	96088064	38305984	24992
749	39.693352	129839104	96088064	37122056	24992
750	40.494241	130109440	96088064	36598880	24992
751	41.165393	130109440	96088064	36736464	24992
752	42.24627	130109440	96088064	37535952	24992
753	42.25998	130109440	96088064	38996936	24992
754	43.560021	130109440	96088064	41117616	24992
755	44.686757	130109440	96088064	43903600	24992
756	47.129619	130109440	96088064	30857072	24992
757	46.164092	130109440	96088064	34964936	24992
758	46.507773	130109440	96088064	39734000	24992
759	49.843254	130109440	96088064	28671472	24992
760	48.2698	130109440	96088064	34763968	24992
761	49.038309	130109440	96088064	41517704	24992
762	54.049334	130109440	96088064	32439856	24992
763	51.520897	130109440	96088064	40517424	24992
764	53.099185	130109440	96088064	32763008	24992
765	52.610257	130109440	96088064	42164216	24992
766	54.669081	130109440	96088064	35741320	24992
767	55.425682	130109440	96088064	29993600	24992
768	54.192875	130109440	96612352	41386520	24992
769	56.70149	130109440	96612352	36958656	24992
770	57.817652	130379776	96612352	33194104	24992
771	58.486025	130379776	96612352	30080776	24992
772	57.157929	130379776	96612352	44123720	24992
773	60.083374	130379776	96612352	42342256	24992
774	61.653763	130379776	96612352	41222248	24992
775	61.545474	130379776	96612352	40764136	24992
776	62.850156	130379776	96612352	40968200	24992
777	62.959592	130379776	96612352	41826696	24992
778	64.35375	130379776	96612352	43346664	24992
779	64.533297	130379776	96612352	45534696	24992
780	68.53661	130379776	96612352	31896072	24992
781	67.943565	130379776	96612352	35407056	24992
782	67.706147	130379776	96612352	39578600	24992
783	68.205293	130379776	96612352	44408648	24992
784	71.299323	130379776	96612352	33403592	24992
785	69.751268	130379776	96612352	39561024	24992
786	70.516427	130379776	96612352	46376216	24992
787	73.939956	130379776	96612352	37355688	24992
788	72.255234	130379776	96612352	45497464	24992
789	75.640701	130379776	96612352	37808000	24992
790	74.022845	130379776	96612352	47272936	24992
791	77.117631	130379776	96612352	40905976	24992
792	78.06766	130379776	96612352	35195848	24992
793	76.753734	130379776	96612352	46638912	24992
794	79.783908	130379776	96612352	42258744	24992
795	80.282534	130379776	96612352	38533432	24992
796	81.351459	130379776	96612352	35473000	24992
797	79.521756	130379776	96612352	49565440	24992
798	82.893706	130379776	96612352	47828304	24992
799	83.508893	130379776	96612352	46755328	24992
800	84.422994	130379776	96612352	46343760	24992
801	85.955419	130379776	96612352	46593752	24992
802	0.808403	130379776	96612352	47118160	24992
803	1.515804	130379776	96612352	48455896	24992
804	2.248914	130379776	96612352	50453040	24992
805	5.947943	130379776	96612352	36642456	24992
806	3.748207	130379776	96612352	39958920	24992
807	4.858181	130379776	96612352	43934776	24992
808	5.573449	130379776	96612352	48570064	24992
809	9.17164	130379776	96612352	37426336	24992
810	6.827307	130379776	96612352	43381376	24992
811	7.317466	130379776	96612352	49995808	24992
812	11.113646	130379776	96612352	40848952	24992
813	9.06666	130379776	96612352	48782240	24992
814	12.816743	130379776	96612352	40949600	24992
815	10.244779	130379776	96612352	50201688	24992
816	14.235122	130379776	96612352	43684056	24992
817	15.026229	130379776	96612352	37815624	24992
818	12.496249	130379776	96612352	49047832	24992
819	16.997422	130379776	96612352	44505712	24992
820	16.953795	130379776	96612352	40627224	24992
821	18.183377	130379776	96612352	37390296	24992
822	18.563381	130379776	96612352	34815808	24992
823	16.660241	130379776	96612352	49345328	24992
824	20.385274	130379776	96612352	48116568	24992
825	20.952001	130379776	96612352	47550488	24992
826	22.291969	130379776	96612352	47620776	24992
827	22.633269	130379776	96612352	48352688	24992
828	23.087081	130379776	96612352	49745816	24992
829	26.852747	130379776	96612352	35340408	24992
830	24.759687	130379776	96612352	38029520	24992
831	25.71752	130379776	96612352	41409072	24992
832	26.157135	130379776	96612352	45449032	24992
833	27.235743	130379776	96612352	50153304	24992
834	30.983156	130379776	96612352	39070600	24992
835	28.88762	130379776	96612352	45072360	24992
836	29.371618	130379776	96612352	51772064	24992
837	33.417456	130379776	96612352	42634152	24992
838	30.870675	130379776	96612352	50652648	24992
839	34.95047	130379776	96612352	42884168	24992
840	35.723625	130379776	96612352	35746600	24992
841	33.13689	130379776	96612352	45711664	24992
842	36.928569	130379776	96612352	39933720	24992
843	35.227932	130379776	96612352	51219904	24992
844	38.422936	130379776	96612352	46764248	24992
845	39.583543	130379776	96612352	42934752	24992
846	40.046899	130379776	96612352	39763224	24992
847	41.156745	130379776	96612352	37253928	24992
848	38.238433	130379776	96612352	51842528	24992
849	42.916355	130379776	96612352	50700064	24992
850	43.891448	130379776	96612352	50209048	24992
851	51.443268	118321152	84553728	15918616	24992
852	38.682413	118321152	84553728	16680464	24992
853	39.474766	118321152	84553728	18101976	24992
854	39.872858	118321152	84553728	20184112	24992
855	41.089088	118321152	84553728	22927472	24992
856	41.256402	118321152	84553728	26330576	24992
857	42.492921	118321152	84553728	13904264	24992
858	42.788367	118321152	84553728	18630528	24992
859	43.404758	118321152	84553728	24017504	24992
860	44.574673	118321152	84553728	13572032	24992
861	45.254353	118321152	84553728	20281064	24992
862	45.824439	118321152	84553728	27650688	24992
863	46.472146	118321152	84553728	19187392	24992
864	47.170686	118321152	84553728	27878608	24992
865	48.1632	118321152	84553728	20737496	24992
866	49.080356	118321152	84553728	14267456	24992
867	49.632913	118321152	84553728	24945696	24992
868	50.603431	118321152	84553728	19806000	24992
869	51.173457	118321152	84553728	15330696	24992
870	51.312145	118321152	84553728	27995448	24992
871	52.660381	118321152	84553728	24837912	24992
872	53.281868	118321152	84553728	22341736	24992
873	54.02183	118321152	84553728	20508464	24992
874	54.803921	118591488	86126592	19323672	24992
875	55.30708	118591488	87699456	18804560	24992
876	56.59065	118861824	89272320	18950016	24992
877	59.273161	118861824	90845184	19756456	24992
878	58.076721	118861824	90845184	21225128	24992
879	58.422207	118861824	90845184	23350008	24992
880	59.211123	119132160	90845184	26129664	24992
881	60.501209	119132160	90845184	29575648	24992
882	61.209986	119132160	90845184	17259672	24992
883	61.47134	119402496	90845184	22093000	24992
884	62.28172	119402496	90845184	27584296	24992
885	62.996175	119402496	90845184	17240272	24992
886	64.134564	119672832	90845184	24058776	24992
887	64.626853	119672832	90845184	31535112	24992
888	65.689073	119943168	90845184	23172872	24992
889	66.373169	119943168	90845184	31972256	24992
890	67.706989	120213504	90845184	24934248	24992
891	68.12788	120213504	90845184	18562264	24992
892	68.891456	120483840	90845184	29343304	24992
893	69.827134	120483840	90845184	24299600	24992
894	70.973485	120754176	90845184	19912168	24992
895	71.26633	120754176	90845184	32678008	24992
896	72.142304	120754176	90845184	29618888	24992
897	73.092146	121024512	90845184	27221824	24992
898	74.574832	121024512	90845184	25484888	24992
899	75.059306	121294848	90845184	24402208	24992
900	76.955392	121565184	90845184	23979864	24992
901	76.795544	121565184	90845184	24221960	24992
902	0.87434	121835520	90845184	24738896	24992
903	1.551657	121835520	90845184	26076632	24992
904	2.233599	121835520	90845184	28073840	24992
905	3.019761	121835520	90845184	30730376	24992
906	3.957441	121835520	90845184	34046840	24992
907	5.218534	121835520	90845184	21565592	24992
908	5.15134	121835520	90845184	26200848	24992
909	5.869617	121835520	90845184	31495512	24992
910	7.424974	121835520	90845184	21025976	24992
911	7.383055	121835520	90845184	27640472	24992
912	8.864877	121835520	90845184	18480432	24992
913	8.842733	121835520	90845184	26413704	24992
914	10.576965	121835520	90845184	18571144	24992
915	10.463481	121835520	90845184	27823200	24992
916	12.075718	121835520	90845184	21307984	24992
917	12.013816	121835520	90845184	31878920	24992
918	13.57001	121835520	90845184	26692144	24992
919	14.230518	121835520	90845184	22151464	24992
920	14.787091	121835520	90845184	18254448	24992
921	15.030203	121835520	90845184	31465144	24992
922	16.247174	121835520	90845184	28912056	24992
923	17.392861	122105856	90845184	27021912	24992
924	18.31644	122105856	90845184	25770064	24992
925	18.749995	122105856	90845184	25179776	24992
926	19.380966	122105856	90845184	25250992	24992
927	21.576822	122105856	90845184	25992080	24992
928	21.367857	122105856	90845184	27386408	24992
929	21.701435	122105856	90845184	29442264	24992
930	23.187681	122376192	90845184	32167600	24992
931	24.045061	122376192	90845184	19088064	24992
932	24.339596	122376192	90845184	23098392	24992
933	25.406008	122376192	90845184	27804528	24992
934	25.444101	122376192	90845184	33176576	24992
935	27.810594	122376192	90845184	22757280	24992
936	27.016282	122376192	90845184	29419512	24992
937	28.81703	122646528	90845184	20331640	24992
938	28.867307	122646528	90845184	28314816	24992
939	30.66363	122646528	90845184	20548608	24992
940	30.13286	122646528	90845184	29852872	24992
941	32.084717	122646528	90845184	23411848	24992
942	31.541705	122916864	90845184	34037312	24992
943	33.812828	122916864	90845184	28919440	24992
944	34.359504	122916864	90845184	24428360	24992
945	34.927855	122916864	90845184	20595720	24992
946	34.776064	122916864	90845184	33863200	24992
947	36.601998	123187200	90845184	31395856	24992
948	37.185872	123187200	90845184	29550104	24992
949	37.794593	123187200	90845184	28365288	24992
950	38.717319	123187200	90845184	27840152	24992
951	39.534267	123457536	90845184	27977392	24992
952	40.353198	123457536	90845184	28776584	24992
953	41.238435	123457536	90845184	30237560	24992
954	41.572239	123457536	90845184	32360280	24992
955	42.705227	123727872	90845184	35142480	24992
956	44.353969	123727872	90845184	22098664	24992
957	44.128939	123727872	90845184	26206184	24992
958	44.670008	123727872	90845184	30974952	24992
959	45.714604	123998208	90845184	36405536	24992
960	47.276327	123998208	90845184	26003832	24992
961	46.774617	123998208	90845184	32757736	24992
962	49.049811	123998208	90845184	23679896	24992
963	48.101226	124268544	90845184	31757408	24992
964	50.640573	124268544	90845184	24004712	24992
965	49.897692	124268544	90845184	33401832	24992
966	51.523155	124538880	90845184	26980424	24992
967	52.292868	124538880	90845184	37722336	24992
968	53.857135	124538880	90845184	32632152	24992
969	54.998018	124809216	90845184	28205624	24992
970	55.377646	124809216	91369472	24429784	24992
971	54.833892	124809216	91369472	37811072	24992
972	56.359818	125079552	91369472	35367256	24992
973	57.630235	125079552	91369472	33585560	24992
974	58.02187	125079552	91369472	32466424	24992
975	58.802791	125349888	91369472	32002504	24992
976	60.834331	125349888	91369472	32193152	24992
977	61.1535	125349888	91369472	33045536	24992
978	61.732301	125349888	91369472	34559184	24992
979	61.806312	125349888	91369472	36732680	24992
980	63.126957	125349888	91369472	39582368	24992
981	65.191448	125349888	91369472	26605680	24992
982	64.607554	125349888	91369472	30777072	24992
983	65.369034	125349888	91369472	35608616	24992
984	67.714645	125349888	91369472	24607112	24992
985	67.412312	125349888	91369472	30764360	24992
986	67.703083	125349888	91369472	37580888	24992
987	70.689323	125349888	91369472	28573088	24992
988	69.204455	125349888	91369472	36715336	24992
989	73.721949	125349888	91369472	29034840	24992
990	70.938015	125349888	91369472	38500056	24992
991	74.319796	125349888	91369472	32134176	24992
992	74.740575	125349888	91369472	26428928	24992
993	74.168453	125349888	91369472	37879456	24992
994	76.176209	125349888	91369472	33496992	24992
995	77.337982	125349888	91369472	29770960	24992
996	77.722475	125349888	91369472	26712560	24992
997	76.652846	125349888	91369472	40804000	24992
998	81.112642	125349888	91369472	39069336	24992
999	80.366096	125349888	91369472	37995248	24992
1000	80.92846	125349888	91369472	37582968	24992
