x	Duration	RSS	HeapTotal	HeapUsed	External
0	NA	110977024	78786560	11163000	24992
1	0.954005	110977024	78786560	11843048	24992
2	1.632345	110977024	78786560	13181400	24992
3	2.294345	110977024	78786560	15179080	24992
4	3.081192	110977024	78786560	17836312	24992
5	3.843075	110977024	78786560	21153632	24992
6	4.605685	110977024	78786560	25130472	24992
7	5.73366	110977024	78786560	13300976	24992
8	6.21877	110977024	78786560	18596912	24992
9	6.947878	110977024	78786560	24553352	24992
10	7.72726	110977024	78786560	14710184	24992
11	8.470865	110977024	78786560	21985816	24992
12	9.416433	110977024	78786560	13453456	24992
13	10.84727	110977024	78786560	22048096	24992
14	11.177797	110977024	78786560	14848496	24992
15	11.382108	110977024	78786560	24762272	24992
16	12.199341	110977024	78786560	18870544	24992
17	13.144637	110977024	78786560	13637128	24992
18	13.620335	110977024	78786560	25531408	24992
19	14.341779	110977024	78786560	21620096	24992
20	15.475868	110977024	78786560	18369920	24992
21	16.404089	110977024	78786560	15773368	24992
22	16.822479	110977024	78786560	13838344	24992
23	18.147248	110977024	78786560	12569024	24992
24	18.115151	110977024	78786560	11955016	24992
25	19.33579	110977024	78786560	12001560	24992
26	19.574085	110977024	78786560	12708688	24992
27	21.016829	110977024	78786560	14076384	24992
28	21.936321	110977024	78786560	16104584	24992
29	22.324499	110977024	78786560	18793312	24992
30	22.768989	110977024	78786560	22141696	24992
31	23.450942	110977024	78786560	26150464	24992
32	24.808852	110977024	78786560	14355328	24992
33	25.533486	110977024	78786560	19687240	24992
34	26.535863	110977024	78786560	25689632	24992
35	27.384966	110977024	78786560	15879464	24992
36	27.959228	110977024	78786560	23192752	24992
37	29.088613	110977024	78786560	14710304	24992
38	29.137424	110977024	78786560	23342472	24992
39	30.812874	110977024	78786560	16182704	24992
40	30.633489	110977024	78786560	26135448	24992
41	31.399915	110977024	78786560	20297280	24992
42	32.527748	110977024	78786560	15116552	24992
43	32.745284	110977024	78786560	27050056	24992
44	33.823805	110977024	78786560	23191512	24992
45	34.734923	110977024	78786560	19994640	24992
46	34.721909	110977024	78786560	17453376	24992
47	37.955262	110977024	78786560	15573184	24992
48	37.614802	110977024	78786560	14354200	24992
49	37.314363	110977024	78786560	13796016	24992
50	39.331419	110977024	78786560	13899840	24992
51	39.569965	110977024	78786560	14664672	24992
52	39.495138	110977024	78786560	16090808	24992
53	40.419028	110977024	78786560	18177824	24992
54	40.77398	110977024	78786560	20925808	24992
55	42.237572	110977024	78786560	24334384	24992
56	42.510769	110977024	78786560	28402160	24992
57	44.06559	110977024	78786560	16648408	24992
58	44.217486	110977024	78786560	22080896	24992
59	45.050129	110977024	78786560	28174456	24992
60	45.462789	110977024	78786560	18436536	24992
61	46.644905	110977024	78786560	25853816	24992
62	47.279066	110977024	78786560	17439936	24992
63	49.202795	110977024	78786560	26178472	24992
64	48.922349	110977024	78786560	19086616	24992
65	49.975394	110977024	78786560	29157112	24992
66	50.363217	110977024	78786560	23404752	24992
67	51.552794	110977024	78786560	18316656	24992
68	52.060035	110977024	78786560	30367352	24992
69	53.16879	110977024	78786560	26601056	24992
70	55.609447	110977024	78786560	23495808	24992
71	54.083631	110977024	78786560	21054128	24992
72	55.491828	110977024	78786560	19262904	24992
73	55.855968	110977024	78786560	18141168	24992
74	57.041789	111247360	78786560	17681008	24992
75	57.681899	111247360	78786560	17882320	24992
76	58.778225	111247360	78786560	18745288	24992
77	59.544043	111247360	78786560	20269888	24992
78	59.667914	111247360	78786560	22455968	24992
79	60.691976	111247360	78786560	25301504	24992
80	61.691154	111517696	78786560	28803824	24992
81	63.322727	111517696	78786560	16475224	24992
82	64.063778	111517696	78786560	21308848	24992
83	64.463145	111517696	78786560	26803776	24992
84	64.901934	111517696	78786560	32959880	24992
85	66.801323	111517696	78786560	23277248	24992
86	66.677438	111517696	78786560	30757608	24992
87	67.87259	111788032	79310848	22402064	24992
88	68.629057	111788032	79310848	31204744	24992
89	70.337557	111788032	79310848	24176016	24992
90	70.017988	112058368	79310848	17807816	24992
91	70.682548	112058368	79835136	28588216	24992
92	73.066382	112328704	79835136	23551656	24992
93	73.496029	112328704	79835136	19179344	24992
94	73.026481	112599040	79835136	31945336	24992
95	75.008127	112599040	79835136	28886704	24992
96	75.339732	112599040	79835136	26487296	24992
97	76.669373	112869376	79835136	24743840	24992
98	77.134168	112869376	79835136	23668440	24992
99	78.023086	113139712	79835136	23254800	24992
100	78.887297	113139712	79835136	23503360	24992
101	81.461769	113139712	79835136	24413600	24992
102	0.828985	113139712	79835136	25594176	24992
103	1.536389	113139712	79835136	26931928	24992
104	2.269727	113139712	79835136	28929072	24992
105	2.977962	113139712	79835136	31585624	24992
106	3.76342	113139712	79835136	34902104	24992
107	5.721391	113139712	79835136	22421496	24992
108	5.293603	113139712	79835136	27056768	24992
109	6.361887	113139712	79835136	32351528	24992
110	7.88392	113139712	79835136	21882056	24992
111	7.441047	113139712	79835136	28496568	24992
112	8.319996	113139712	79835136	35770416	24992
113	10.048542	113139712	79835136	27283528	24992
114	9.835894	113139712	79835136	35876192	24992
115	11.577989	113139712	79835136	28708920	24992
116	12.733279	113139712	79835136	22178704	24992
117	12.041611	113139712	79835136	32749576	24992
118	13.900151	113139712	79835136	27545888	24992
119	14.940378	113139712	79835136	23005224	24992
120	14.255146	113139712	79835136	35556592	24992
121	16.394218	113139712	79835136	32340968	24992
122	17.084952	113139712	79835136	29788000	24992
123	17.695887	113139712	79835136	27874648	24992
124	18.770184	113139712	79835136	26622848	24992
125	19.281706	113139712	79835136	26032560	24992
126	20.161097	113139712	79835136	26104288	24992
127	21.31771	113139712	79835136	26837592	24992
128	21.433227	113139712	79835136	28232016	24992
129	22.342907	113139712	79835136	30287920	24992
130	23.735656	113139712	79835136	33005408	24992
131	23.881954	113139712	79835136	36383912	24992
132	26.154851	113139712	79835136	23966304	24992
133	25.503307	113139712	79835136	28640280	24992
134	26.583965	113139712	79835136	34012640	24992
135	28.254871	113139712	79835136	23593488	24992
136	27.720051	113139712	79835136	30255888	24992
137	30.041407	113139712	79835136	21168264	24992
138	29.315713	113139712	79835136	29151424	24992
139	31.512539	113139712	79835136	21385248	24992
140	31.139519	113139712	79835136	30689512	24992
141	33.0905	113139712	79835136	24248376	24992
142	32.44326	113139712	79835136	34877536	24992
143	34.330267	113139712	79835136	29761688	24992
144	35.520069	113139712	79835136	25270528	24992
145	34.251963	113139712	79835136	37877640	24992
146	37.303178	113139712	79835136	34716344	24992
147	37.248291	113139712	79835136	32227240	24992
148	38.032775	113139712	79835136	30382608	24992
149	39.470491	113139712	79835136	29195888	24992
150	40.081858	113139712	79835136	28670640	24992
151	40.177925	113139712	79835136	28807800	24992
152	41.397534	113139712	79835136	29606864	24992
153	42.021256	113139712	79835136	31067760	24992
154	42.614492	113139712	79835136	33190240	24992
155	43.516204	113139712	79835136	35974200	24992
156	45.797947	113139712	79835136	22926544	24992
157	45.3409	113139712	79835136	27033952	24992
158	45.741369	113139712	79835136	31803424	24992
159	46.602324	113139712	79835136	37234120	24992
160	48.883122	113139712	79835136	26833088	24992
161	47.851605	113139712	79835136	33587232	24992
162	49.981056	113139712	79835136	24511312	24992
163	49.516873	113139712	79835136	32584808	24992
164	51.758179	113139712	79835136	24832128	24992
165	51.009721	113139712	79835136	34229104	24992
166	53.377734	113139712	79835136	27807600	24992
167	52.730447	113139712	79835136	38535432	24992
168	55.148306	113139712	79835136	33445728	24992
169	55.936421	113410048	79835136	29019632	24992
170	58.85056	113410048	79835136	25252968	24992
171	56.848607	113410048	79835136	38643424	24992
172	58.066347	113410048	79835136	36199640	24992
173	58.974946	113410048	79835136	34417656	24992
174	59.864983	113410048	79835136	33300104	24992
175	60.91176	113410048	79835136	32828784	24992
176	61.506704	113410048	79835136	33019064	24992
177	63.490904	113410048	79835136	33878888	24992
178	63.53429	113410048	79835136	35392024	24992
179	63.752361	113410048	79835136	37566816	24992
180	64.396033	113410048	79835136	40401224	24992
181	67.834295	113410048	79835136	27423448	24992
182	66.527465	113410048	79835136	31594120	24992
183	66.841449	113410048	79835136	36426768	24992
184	68.001211	113410048	79835136	41917736	24992
185	72.231304	113410048	79835136	31573992	24992
186	70.173621	113410048	79835136	38391624	24992
187	72.823731	113410048	79835136	29378016	24992
188	71.2352	113410048	79835136	37519512	24992
189	74.060091	113410048	79835136	29826472	24992
190	72.670271	113410048	79835136	39287632	24992
191	75.727074	113410048	79835136	32920408	24992
192	74.141914	113410048	79835136	43707904	24992
193	77.194168	113410048	79835136	38663632	24992
194	77.905947	113410048	79835136	34281232	24992
195	78.768396	113410048	79835136	30560432	24992
196	77.69414	113410048	79835136	43987624	24992
197	80.455351	113410048	79835136	41590616	24992
198	81.352893	113410048	79835136	39856112	24992
199	82.051329	113410048	79835136	38782152	24992
200	82.815343	113410048	79835136	38364272	24992
201	84.748468	113680384	79835136	38601264	24992
202	0.837632	113680384	79835136	39113272	24992
203	1.600598	113680384	79835136	40451024	24992
204	2.268	113680384	79835136	42448168	24992
205	3.033028	113680384	79835136	45104720	24992
206	6.249089	113680384	79835136	31952400	24992
207	4.508169	113680384	79835136	35928272	24992
208	5.249585	113680384	79835136	40563544	24992
209	8.434158	113680384	79835136	29417000	24992
210	6.676636	113680384	79835136	35372056	24992
211	7.39391	113680384	79835136	41986504	24992
212	10.645638	113680384	79835136	32830808	24992
213	8.890624	113680384	79835136	40764064	24992
214	12.141376	113680384	79835136	32929752	24992
215	10.605452	113680384	79835136	42181840	24992
216	14.051929	113680384	79835136	35663648	24992
217	14.384254	113680384	79835136	29794056	24992
218	12.808302	113680384	79835136	41026192	24992
219	16.337261	113680384	79835136	36483184	24992
220	17.250148	113680384	79835136	32603528	24992
221	15.239483	113680384	79835136	45814256	24992
222	18.976301	113680384	79835136	43258440	24992
223	19.055892	113680384	79835136	41366776	24992
224	19.922472	113680384	79835136	40113304	24992
225	20.639627	113680384	79835136	39521728	24992
226	21.740424	113680384	79835136	39591672	24992
227	22.156194	113680384	79835136	40323160	24992
228	22.476231	113680384	79835136	41715976	24992
229	23.763117	113680384	79835136	43775872	24992
230	24.477097	113680384	79835136	46494200	24992
231	27.671748	113680384	79835136	33377160	24992
232	26.200765	113680384	79835136	37416720	24992
233	26.81137	113680384	79835136	42120672	24992
234	30.301495	113680384	79835136	31037608	24992
235	28.358708	113680384	79835136	37038856	24992
236	29.253698	113680384	79835136	43737880	24992
237	32.211684	113680384	79835136	34644328	24992
238	30.938678	113680384	79835136	42627336	24992
239	33.772578	113680384	79835136	34861912	24992
240	31.781846	113680384	79835136	44166000	24992
241	35.353085	113680384	79835136	37725568	24992
242	36.748713	113680384	79835136	31910648	24992
243	34.12389	113680384	79835136	43196360	24992
244	37.926499	113680384	79835136	38740384	24992
245	39.025614	113680384	79835136	34910192	24992
246	39.253231	113680384	79835136	31738384	24992
247	37.136678	113680384	79835136	45666176	24992
248	40.89845	113680384	79835136	43860688	24992
249	41.222107	113680384	79835136	42675168	24992
250	42.111913	113680384	79835136	42152048	24992
251	42.929456	113680384	79835136	42290328	24992
252	43.81799	113680384	79835136	43088736	24992
253	44.83019	113680384	79835136	44547904	24992
254	45.066861	113680384	79835136	46669712	24992
255	49.068217	113680384	79835136	32963672	24992
256	46.773196	113680384	79835136	36408848	24992
257	48.266086	113680384	79835136	40516016	24992
258	48.931861	113680384	79835136	45284256	24992
259	53.051655	113680384	79835136	34231944	24992
260	50.180632	113680384	79835136	40323760	24992
261	52.569353	113680384	79835136	47076832	24992
262	56.49796	113680384	79835136	38000728	24992
263	52.434424	113680384	79835136	46077248	24992
264	56.19038	113680384	79835136	38321864	24992
265	53.706628	113680384	80359424	47721704	24992
266	57.642584	113680384	80359424	41298208	24992
267	58.268594	113950720	80359424	35548160	24992
268	56.258445	113950720	80359424	46936888	24992
269	59.589783	113950720	80359424	42508024	24992
270	61.044925	114221056	80883712	38742776	24992
271	61.550079	114221056	80883712	35628320	24992
272	59.268021	114491392	80883712	49670568	24992
273	63.132817	114491392	80883712	47889032	24992
274	63.930362	114491392	80883712	46768264	24992
275	64.678716	114761728	81408000	46309072	24992
276	65.495161	114761728	81408000	46511544	24992
277	65.897448	115032064	81408000	47375768	24992
278	67.059594	115032064	81408000	48901464	24992
279	67.606783	115032064	81408000	51088880	24992
280	71.78559	115302400	81932288	37449512	24992
281	69.258951	115302400	81932288	40961288	24992
282	70.104263	115572736	81932288	45131416	24992
283	70.972273	115572736	81932288	49960528	24992
284	75.143494	115843072	82456576	38955128	24992
285	73.003964	115843072	82456576	45111896	24992
286	75.591853	116113408	82456576	51926536	24992
287	82.72189	112697344	78786560	26138224	24992
288	66.001867	112697344	78786560	17715736	24992
289	66.74411	112697344	78786560	26454208	24992
290	68.287785	112697344	78786560	19368816	24992
291	68.650401	112697344	78786560	13122624	24992
292	69.847343	112697344	78786560	24031048	24992
293	71.419369	112697344	78786560	19116448	24992
294	70.967418	112697344	78786560	14864776	24992
295	71.427355	112697344	78786560	27762584	24992
296	72.491043	112697344	78786560	24836592	24992
297	73.970063	112697344	78786560	22574536	24992
298	75.081562	112697344	78786560	20969256	24992
299	75.576512	112697344	78786560	20019184	24992
300	76.770151	112697344	78786560	19737304	24992
301	77.565209	112697344	78786560	20124056	24992
302	0.829907	112697344	78786560	20735224	24992
303	1.533561	112697344	78786560	22072976	24992
304	2.275431	112697344	78786560	24070120	24992
305	3.217301	112697344	78786560	26726672	24992
306	3.775351	112697344	78786560	30043152	24992
307	5.305606	112697344	78786560	17568208	24992
308	5.412391	112697344	78786560	22203480	24992
309	5.936895	112697344	78786560	27498160	24992
310	7.818964	112697344	78786560	17041064	24992
311	7.535277	112697344	78786560	23655512	24992
312	8.202084	112697344	78786560	30929360	24992
313	10.396434	112697344	78786560	22465392	24992
314	9.898832	112697344	78786560	31058104	24992
315	11.41194	112697344	78786560	23911232	24992
316	12.028647	112697344	78786560	17398528	24992
317	12.207196	112697344	78786560	27969416	24992
318	14.211419	112697344	78786560	22785472	24992
319	14.254037	112697344	78786560	18265984	24992
320	14.499889	112697344	78786560	30817288	24992
321	15.853803	112697344	78786560	27624664	24992
322	16.667537	112697344	78786560	25096872	24992
323	17.347359	112697344	78786560	23204720	24992
324	18.265907	112697344	78786560	21975040	24992
325	19.479986	112697344	78786560	21407904	24992
326	20.754334	112697344	78786560	21504864	24992
327	20.513898	112697344	78786560	22244712	24992
328	21.627342	112697344	78786560	23639568	24992
329	22.227236	112697344	78786560	25695936	24992
330	23.330458	112697344	78786560	28413872	24992
331	23.592613	112697344	78786560	31792744	24992
332	25.353947	112697344	78786560	19360968	24992
333	24.954637	112697344	78786560	24046504	24992
334	25.85025	112697344	78786560	29412464	24992
335	27.783926	112697344	78786560	18985504	24992
336	28.160711	112697344	78786560	25647416	24992
337	28.980663	112697344	78786560	16551768	24992
338	29.661344	112697344	78786560	24534656	24992
339	30.675451	112697344	78786560	16760080	24992
340	30.710736	112697344	78786560	26064040	24992
341	32.489884	112697344	78786560	19614520	24992
342	31.885499	112697344	78786560	30239712	24992
343	33.979311	112697344	78786560	25112880	24992
344	34.880946	112697344	78786560	20621208	24992
345	35.623195	112697344	78786560	16787896	24992
346	35.108887	112697344	78786560	30055216	24992
347	37.015602	112697344	78786560	27578208	24992
348	37.841393	112697344	78786560	25732680	24992
349	38.586614	112697344	78786560	24545368	24992
350	39.306275	112697344	78786560	24019576	24992
351	40.200318	112697344	78786560	24156112	24992
352	41.06796	112697344	78786560	24954760	24992
353	41.305396	112697344	78786560	26414968	24992
354	42.371445	112697344	78786560	28536920	24992
355	42.912142	112697344	78786560	31319312	24992
356	44.647305	112697344	78786560	18273032	24992
357	45.010341	112697344	78786560	22379944	24992
358	45.404313	112697344	78786560	27148360	24992
359	46.262942	112697344	78786560	32578448	24992
360	47.7023	112697344	78786560	22190152	24992
361	47.18109	112697344	78786560	28943768	24992
362	49.538385	112697344	78786560	19866096	24992
363	48.850261	112697344	78786560	27940992	24992
364	50.829434	112697344	78786560	20188432	24992
365	50.813461	112697344	78786560	29584928	24992
366	52.204062	112697344	78786560	23161832	24992
367	52.399895	112697344	78786560	33898424	24992
368	55.415555	112697344	78786560	28808632	24992
369	55.388799	112697344	78786560	24381904	24992
370	56.103304	112697344	78786560	20605592	24992
371	55.021432	112697344	78786560	33986488	24992
372	57.374862	112697344	78786560	31542824	24992
373	58.057795	112697344	78786560	29760768	24992
374	59.05601	112697344	78786560	28641896	24992
375	60.748204	112697344	78786560	28179632	24992
376	60.558405	112697344	78786560	28369680	24992
377	61.272707	112697344	78786560	29221416	24992
378	62.922083	112697344	78786560	30743000	24992
379	62.772748	112697344	78786560	32917280	24992
380	63.541739	112697344	78786560	35759568	24992
381	66.390448	112697344	78786560	22782480	24992
382	65.506432	112697344	78786560	26953840	24992
383	65.881121	112697344	78786560	31787192	24992
384	67.796383	112697344	78786560	37277920	24992
385	69.939151	112697344	78786560	26938936	24992
386	68.2225	112697344	78786560	33757224	24992
387	71.15671	112697344	78786560	24744256	24992
388	69.976283	112697344	78786560	32886424	24992
389	72.471777	112697344	78786560	25196680	24992
390	71.899026	112697344	78786560	34662136	24992
391	75.041412	112697344	78786560	28295520	24992
392	75.805176	112697344	78786560	22595848	24992
393	73.923385	112697344	78786560	34038648	24992
394	77.252449	112697344	78786560	29656904	24992
395	77.712465	112697344	78786560	25931360	24992
396	76.472289	112697344	78786560	39359224	24992
397	79.81037	112697344	78786560	36960184	24992
398	80.168431	112697344	78786560	35225824	24992
399	81.537492	112697344	78786560	34152568	24992
400	81.801394	112697344	78786560	33738160	24992
401	82.594208	112697344	78786560	33978936	24992
402	0.817983	112697344	78786560	34490976	24992
403	1.526455	112697344	78786560	35828728	24992
404	2.31029	112697344	78786560	37825872	24992
405	3.02539	112697344	78786560	40482424	24992
406	6.102673	112697344	78786560	27333208	24992
407	4.506129	112697344	78786560	31309080	24992
408	5.4612	112697344	78786560	35944384	24992
409	8.344475	112697344	78786560	24802872	24992
410	6.85658	112697344	78786560	30758040	24992
411	7.393292	112697344	78786560	37372520	24992
412	10.730868	112697344	78786560	28220608	24992
413	9.315001	112697344	78786560	36153880	24992
414	11.839247	112697344	78786560	28322760	24992
415	10.650769	112697344	78786560	37574832	24992
416	13.581194	112697344	78786560	31059072	24992
417	14.309934	112697344	78786560	25191376	24992
418	12.905024	112697344	78786560	36423536	24992
419	15.955204	112697344	78786560	31882424	24992
420	16.556246	112697344	78786560	28004784	24992
421	17.256938	112697344	78786560	24769296	24992
422	15.964069	112697344	78786560	38639432	24992
423	18.703584	112697344	78786560	36748904	24992
424	19.743723	112697344	78786560	35521120	24992
425	20.52059	112697344	78786560	34930608	24992
426	20.867856	112697344	78786560	35001888	24992
427	22.18641	112697344	78786560	35734520	24992
428	22.880498	112697344	78786560	37128464	24992
429	23.705201	112697344	78786560	39183904	24992
430	26.347286	112697344	78786560	25442632	24992
431	25.029643	112697344	78786560	28792480	24992
432	25.734463	112697344	78786560	32834176	24992
433	27.179098	112697344	78786560	37539216	24992
434	30.092578	112697344	78786560	26457152	24992
435	27.845119	112697344	78786560	32458800	24992
436	28.953938	112697344	78786560	39158368	24992
437	32.049856	112697344	78786560	30064424	24992
438	30.423989	112697344	78786560	38047776	24992
439	33.189599	112697344	78786560	30283216	24992
440	31.72932	112697344	78786560	39587736	24992
441	34.946267	112697344	78786560	33148296	24992
442	35.73046	112697344	78786560	27333816	24992
443	34.458302	112697344	78786560	38619736	24992
444	37.273052	112697344	78786560	34164600	24992
445	38.092534	112697344	78786560	30335176	24992
446	39.254109	112697344	78786560	27164072	24992
447	36.649911	112697344	78786560	41092112	24992
448	41.371447	112697344	78786560	39296576	24992
449	41.859369	112697344	78786560	38120912	24992
450	41.772631	112697344	78786560	37597440	24992
451	42.844236	112697344	78786560	37737048	24992
452	44.514287	112697344	78786560	38537728	24992
453	44.417303	112697344	78786560	39998224	24992
454	45.028857	112697344	78786560	42122112	24992
455	47.880325	112697344	78786560	28416064	24992
456	46.725335	112697344	78786560	31861696	24992
457	47.204524	112697344	78786560	35969152	24992
458	47.560255	112697344	78786560	40737904	24992
459	52.234047	112697344	78786560	29683176	24992
460	49.227277	112697344	78786560	35775232	24992
461	49.913249	112697344	78786560	42528336	24992
462	53.42567	112697344	78786560	33449264	24992
463	51.466273	112697344	78786560	41525672	24992
464	54.949049	112697344	78786560	33770448	24992
465	53.10792	112697344	78786560	43170304	24992
466	56.580645	112697344	78786560	36746136	24992
467	57.497791	112697344	78786560	30996136	24992
468	55.892086	112697344	78786560	42385168	24992
469	59.634988	112697344	78786560	37956400	24992
470	60.046388	112697344	78786560	34191296	24992
471	60.250145	112697344	78786560	31076504	24992
472	58.754525	112697344	78786560	45118896	24992
473	61.969879	112697344	78786560	43333936	24992
474	62.783683	112697344	78786560	42213248	24992
475	63.579257	112697344	78786560	41754136	24992
476	64.32841	112697344	78786560	41956560	24992
477	65.388358	112697344	78786560	42821376	24992
478	66.152879	112697344	78786560	44347088	24992
479	69.491099	112697344	78786560	30046664	24992
480	67.687208	112967680	78786560	32894192	24992
481	68.318637	112967680	78786560	36403360	24992
482	69.301553	112967680	78786560	40573648	24992
483	69.801541	112967680	78786560	45402680	24992
484	73.71267	112967680	78786560	34396384	24992
485	71.75264	112967680	78786560	40553136	24992
486	74.123557	112967680	78786560	47367744	24992
487	76.454582	112967680	78786560	38345560	24992
488	73.926498	112967680	78786560	46483136	24992
489	78.200873	112967680	78786560	38786080	24992
490	78.874407	112967680	78786560	31751968	24992
491	76.624493	112967680	78786560	41870952	24992
492	80.640094	112967680	78786560	36159856	24992
493	78.327207	112967680	78786560	47602112	24992
494	82.606524	112967680	78786560	43220432	24992
495	82.697706	112967680	78786560	39499656	24992
496	84.019591	112967680	78786560	36435088	24992
497	86.484115	112967680	78786560	34036640	24992
498	83.543344	112967680	78786560	48788328	24992
499	86.390676	112967680	78786560	47714688	24992
500	87.361444	112967680	78786560	47301960	24992
501	87.628546	112967680	78786560	47551272	24992
502	0.819937	112967680	78786560	48075584	24992
503	1.528737	112967680	78786560	49413336	24992
504	5.732261	112967680	78786560	34936112	24992
505	3.039859	112967680	78786560	37592664	24992
506	3.765667	112967680	78786560	40909144	24992
507	4.492212	112967680	78786560	44885016	24992
508	5.218353	112967680	78786560	49520336	24992
509	9.442177	112967680	78786560	38373288	24992
510	6.684375	112967680	78786560	44328344	24992
511	11.14755	112967680	78786560	34513192	24992
512	8.134502	112967680	78786560	41787040	24992
513	9.062501	112967680	78786560	49720312	24992
514	13.170067	112967680	78786560	41885040	24992
515	14.062792	112967680	78786560	34703632	24992
516	11.340602	112967680	78786560	44615112	24992
517	15.819044	112967680	78786560	38745256	24992
518	12.752333	112967680	78786560	49977416	24992
519	16.860299	112967680	78786560	45451064	24992
520	18.009246	112967680	78786560	41570976	24992
521	18.312637	112967680	78786560	38333272	24992
522	19.37972	112967680	78786560	35757984	24992
523	16.445386	112967680	78786560	50287528	24992
524	20.946772	112967680	78786560	49046248	24992
525	22.105664	112967680	78786560	48478888	24992
526	22.295126	112967680	78786560	48558400	24992
527	23.145237	112967680	78786560	49289280	24992
528	24.306626	112967680	78786560	50681648	24992
529	28.27225	112967680	78786560	36240144	24992
530	25.47219	112967680	78786560	38956824	24992
531	26.071572	112967680	78786560	42335592	24992
532	27.384873	112967680	78786560	46374792	24992
533	31.068199	112967680	78786560	34622128	24992
534	28.652248	112967680	78786560	39961168	24992
535	29.202703	112967680	78786560	45998064	24992
536	33.715287	112967680	78786560	36241544	24992
537	31.117159	112967680	78786560	43563968	24992
538	35.888333	112967680	78786560	35136096	24992
539	32.182288	112967680	78786560	43779464	24992
540	36.781677	112967680	78786560	36674960	24992
541	33.652049	112967680	78786560	46639624	24992
542	38.111649	112967680	78786560	40859152	24992
543	38.592106	112967680	78786560	35703720	24992
544	36.165871	112967680	78786560	47649792	24992
545	40.396861	112967680	78786560	43856400	24992
546	41.204215	112967680	78786560	40687904	24992
547	41.768019	112967680	78786560	38177464	24992
548	42.781346	112967680	78786560	36328880	24992
549	39.434536	112967680	78786560	51577608	24992
550	43.965813	112967680	78786560	51084144	24992
551	45.041551	112967680	78786560	51224744	24992
552	45.588963	112967680	78786560	52024528	24992
553	50.658256	112967680	78786560	36994320	24992
554	48.247972	112967680	78786560	39116416	24992
555	47.90104	112967680	78786560	41900248	24992
556	49.418433	112967680	78786560	45365456	24992
557	50.175633	112967680	78786560	49474216	24992
558	57.361851	112967680	78786560	21061256	24992
559	43.869548	112967680	78786560	26449072	24992
560	45.224216	112967680	78786560	16003744	24992
561	46.337162	112967680	78786560	22712888	24992
562	47.712164	112967680	78786560	13590168	24992
563	47.243369	112967680	78786560	21619024	24992
564	48.066664	112967680	78786560	13818592	24992
565	48.664489	112967680	78786560	23167928	24992
566	49.577897	112967680	78786560	16696872	24992
567	49.565601	112967680	78786560	27382728	24992
568	50.329364	112967680	78786560	22242376	24992
569	51.603745	112967680	78786560	17765392	24992
570	52.418707	112967680	78786560	13938104	24992
571	53.300213	112967680	78786560	27267208	24992
572	53.813568	112967680	78786560	24771080	24992
573	54.96112	112967680	78786560	22936032	24992
574	54.877044	112967680	78786560	21763832	24992
575	55.88728	112967680	79310848	21237928	24992
576	56.665619	113238016	80883712	21372760	24992
577	57.366024	113238016	82456576	22168544	24992
578	58.028693	113508352	84029440	23625448	24992
579	58.779715	113508352	85602304	25742344	24992
580	60.370069	113508352	87175168	28518632	24992
581	60.714992	113778688	89272320	15482624	24992
582	61.697441	113778688	90845184	19594008	24992
583	63.098128	114049024	92418048	24366696	24992
584	63.762008	114049024	92418048	29798416	24992
585	64.830602	114049024	92418048	19404840	24992
586	64.578327	114049024	92418048	26222688	24992
587	65.282699	114319360	92418048	17209552	24992
588	65.746817	114319360	92418048	25351808	24992
589	67.094427	114589696	92418048	17658920	24992
590	67.667251	114589696	92418048	27120296	24992
591	68.082005	114860032	92418048	20753256	24992
592	69.216714	114860032	92418048	31541320	24992
593	70.875456	114860032	92418048	26496720	24992
594	70.85147	115130368	92418048	22114616	24992
595	72.249864	115130368	92418048	18394080	24992
596	72.232642	115400704	92418048	31821472	24992
597	73.65276	115400704	92418048	29424264	24992
598	74.224211	115671040	92418048	27689320	24992
599	74.697625	115671040	92418048	26615528	24992
600	76.077524	115941376	92418048	26197816	24992
601	76.584277	115941376	92418048	26434592	24992
602	0.870059	116211712	92418048	26946824	24992
603	1.602076	116211712	92418048	28284576	24992
604	2.250784	116211712	92418048	30281720	24992
605	3.033753	116211712	92418048	32938272	24992
606	4.429886	116211712	92418048	19789024	24992
607	4.503552	116211712	92418048	23764896	24992
608	5.236321	116211712	92418048	28400200	24992
609	6.688433	116211712	92418048	17258776	24992
610	6.794626	116211712	92418048	23213824	24992
611	7.52323	116211712	92418048	29828272	24992
612	8.875357	116211712	92418048	20676472	24992
613	8.905361	116211712	92418048	28609776	24992
614	10.584076	116211712	92418048	20778672	24992
615	10.342583	116211712	92418048	30030824	24992
616	11.883871	116211712	92418048	23515144	24992
617	13.023415	116211712	92418048	17649904	24992
618	12.757227	116211712	92418048	28882080	24992
619	14.109252	116211712	92418048	24340984	24992
620	15.044277	116211712	92418048	20463280	24992
621	14.951608	116211712	92418048	33673992	24992
622	16.468323	116482048	92418048	31118312	24992
623	17.46999	116482048	92418048	29227784	24992
624	17.936224	116482048	92418048	27975616	24992
625	18.761577	116482048	92418048	27385104	24992
626	19.592759	116482048	92418048	27456400	24992
627	20.58941	116482048	92418048	28189304	24992
628	20.78951	116482048	92418048	29583520	24992
629	22.02828	116482048	92418048	31638944	24992
630	22.909418	116482048	92418048	34355680	24992
631	24.525344	116752384	92418048	21239848	24992
632	24.418953	116752384	92418048	25280952	24992
633	25.10935	116752384	92418048	29986000	24992
634	27.132254	116752384	92418048	18897288	24992
635	26.535389	116752384	92418048	24898616	24992
636	28.093106	116752384	92418048	31590624	24992
637	30.00783	116752384	92418048	22498544	24992
638	28.655112	116752384	92418048	30481720	24992
639	30.711063	117022720	92418048	22709096	24992
640	30.142352	117022720	92418048	32013296	24992
641	31.804016	117022720	92418048	25565552	24992
642	33.706425	117022720	92418048	19758864	24992
643	32.696221	117022720	92418048	31044744	24992
644	34.390753	117293056	92418048	26589632	24992
645	34.944103	117293056	92418048	22760080	24992
646	36.185602	117293056	92418048	19588896	24992
647	35.305918	117293056	92418048	33516872	24992
648	37.439582	117563392	92418048	31712112	24992
649	38.007517	117563392	92418048	30527200	24992
650	39.176311	117563392	92418048	30004640	24992
651	40.055431	117563392	92418048	30143576	24992
652	40.457399	117563392	92418048	30942592	24992
653	40.900591	117833728	92418048	32403584	24992
654	42.118789	117833728	92418048	34525984	24992
655	43.109783	117833728	92418048	20820568	24992
656	43.730675	117833728	92418048	24266496	24992
657	44.370845	118104064	92418048	28374304	24992
658	44.798879	118104064	92418048	33143168	24992
659	47.611635	118104064	92418048	22080456	24992
660	46.282412	118374400	92418048	28172864	24992
661	47.454074	118374400	92418048	34926560	24992
662	49.863893	118374400	92418048	25848656	24992
663	48.871977	118374400	92418048	33925416	24992
664	50.651295	118644736	92418048	26170688	24992
665	50.324518	118644736	92418048	35570928	24992
666	52.182038	118644736	92418048	29147624	24992
667	52.888479	118915072	92418048	23398360	24992
668	52.40995	118915072	92418048	34787856	24992
669	54.726123	119185408	92418048	30359600	24992
670	54.96014	119185408	92418048	26595232	24992
671	56.099987	119185408	92418048	23481416	24992
672	55.784517	119455744	92418048	37524368	24992
673	57.701012	119455744	92418048	35740896	24992
674	58.363571	119726080	92418048	34620704	24992
675	59.369059	119726080	92418048	34162200	24992
676	59.895964	119726080	92418048	34365616	24992
677	60.679205	119996416	92418048	35230480	24992
678	61.186259	119996416	92418048	36756944	24992
679	62.279976	119996416	92418048	38944856	24992
680	64.66298	120266752	92418048	25306336	24992
681	64.382206	120266752	92418048	28816112	24992
682	64.634329	120266752	92418048	32986816	24992
683	65.482212	120537088	92418048	37816696	24992
684	67.836977	120537088	92418048	26811816	24992
685	68.146906	120807424	92418048	32973056	24992
686	68.261473	120807424	92418048	39788192	24992
687	70.498544	121077760	92418048	30766584	24992
688	70.046984	121077760	92418048	38906656	24992
689	72.286507	121348096	92418048	31212616	24992
690	71.50935	121348096	92418048	40673960	24992
691	73.576796	121618432	92418048	34296848	24992
692	76.223833	121888768	92418048	28595280	24992
693	74.847024	121888768	92418048	40047536	24992
694	76.369819	122159104	92418048	35664880	24992
695	77.237364	122159104	92418048	31942680	24992
696	77.686174	122429440	92418048	28880144	24992
697	80.01555	122429440	92418048	26490336	24992
698	77.441231	122699776	92418048	41242088	24992
699	80.954733	122699776	92418048	40168832	24992
700	80.967505	122970112	92418048	39756504	24992
701	82.335366	122970112	92418048	40005784	24992
702	0.818177	122970112	92418048	40530016	24992
703	1.535562	122970112	92418048	41867752	24992
704	4.201119	122970112	92418048	27391184	24992
705	3.065308	122970112	92418048	30047720	24992
706	3.767925	122970112	92418048	33364184	24992
707	4.676368	122970112	92418048	37340040	24992
708	5.398462	122970112	92418048	41975376	24992
709	8.186021	122970112	92418048	30828792	24992
710	6.656778	122970112	92418048	36783832	24992
711	9.698156	123240448	92418048	26968848	24992
712	8.39415	123240448	92418048	34242688	24992
713	9.08152	123240448	92418048	42176008	24992
714	11.832579	123240448	92418048	34341408	24992
715	12.434576	123240448	92418048	27159904	24992
716	11.503839	123240448	92418048	37071368	24992
717	14.048965	123240448	92418048	31201736	24992
718	12.735087	123240448	92418048	42433864	24992
719	15.883254	123240448	92418048	37907432	24992
720	16.508366	123240448	92418048	34027360	24992
721	16.997561	123240448	92418048	30789624	24992
722	17.958757	123240448	92418048	28214320	24992
723	16.432162	123240448	92418048	42743832	24992
724	19.487858	123240448	92418048	41513224	24992
725	20.003418	123510784	92418048	40945848	24992
726	20.970422	123510784	92418048	41015136	24992
727	21.77961	123510784	92418048	41746064	24992
728	23.139937	123510784	92418048	43138480	24992
729	25.310869	123510784	92418048	28731088	24992
730	24.492708	123510784	92418048	31419816	24992
731	24.890508	123510784	92418048	34798656	24992
732	25.543976	123510784	92418048	38837840	24992
733	26.634615	123781120	92418048	43541112	24992
734	29.104429	123781120	92418048	32451120	24992
735	27.949759	123781120	92418048	38451840	24992
736	30.86651	123781120	92418048	28696232	24992
737	29.318229	123781120	92418048	36018816	24992
738	30.2757	123781120	92418048	44037112	24992
739	33.025373	124051456	92418048	36244416	24992
740	33.957915	124051456	92418048	29119128	24992
741	32.464947	124051456	92418048	39083584	24992
742	35.130629	124051456	92418048	33303048	24992
743	34.004248	124051456	92418048	44588424	24992
744	36.743527	124051456	92418048	40082864	24992
745	37.049826	124321792	92418048	36288872	24992
746	38.379721	124321792	92418048	33120456	24992
747	38.984728	124321792	92418048	30610464	24992
748	40.140347	124321792	92418048	28761768	24992
749	37.904579	124321792	92418048	44010576	24992
750	40.886225	124592128	92418048	43529480	24992
751	42.136529	124592128	92418048	43667920	24992
752	42.415639	124592128	92418048	44468328	24992
753	45.402255	124862464	92418048	29438600	24992
754	44.416207	124862464	92418048	31560488	24992
755	44.782914	124862464	92418048	34344256	24992
756	46.002428	124862464	92418048	37789512	24992
757	46.25601	125132800	92418048	41896264	24992
758	49.344217	125132800	92418048	30171224	24992
759	47.893276	125132800	92418048	35601248	24992
760	48.769923	125132800	92418048	41692648	24992
761	51.49761	125403136	92418048	31952552	24992
762	50.545542	125403136	92418048	39367512	24992
763	53.141027	125403136	92418048	30952720	24992
764	51.772826	125673472	92418048	39687208	24992
765	54.775808	125673472	92418048	32595816	24992
766	53.403353	125673472	92418048	42662208	24992
767	57.273502	125673472	92418048	36910352	24992
768	57.724562	125943808	92942336	31825160	24992
769	55.568888	125943808	92942336	43882552	24992
770	58.788831	125943808	92942336	40115352	24992
771	60.20303	126214144	92942336	37011792	24992
772	61.010248	126214144	92942336	34558536	24992
773	61.333652	126484480	92942336	32774856	24992
774	62.463201	126484480	93466624	31652632	24992
775	60.884657	126484480	93466624	47679552	24992
776	63.964288	126754816	93466624	47882328	24992
777	66.969816	126754816	93466624	32258312	24992
778	65.342351	126754816	93466624	33782504	24992
779	66.511879	127025152	93990912	35968352	24992
780	67.358985	127025152	93990912	38816040	24992
781	67.456467	127295488	93990912	42322840	24992
782	68.546101	127295488	93990912	46485936	24992
783	71.845327	127565824	93990912	34818312	24992
784	70.636658	127565824	93990912	40313392	24992
785	70.744123	127836160	93990912	46466176	24992
786	74.787283	127836160	94515200	36786128	24992
787	72.300439	128106496	94515200	44266184	24992
788	76.175137	128106496	94515200	35911248	24992
789	74.14219	128376832	94515200	44710744	24992
790	77.913895	128376832	95039488	37681976	24992
791	75.86313	128647168	95039488	47808480	24992
792	79.407234	128647168	95039488	42102936	24992
793	80.123562	128917504	95039488	37053624	24992
794	78.558101	128917504	95039488	49157608	24992
795	81.864523	129187840	95563776	45436608	24992
796	82.991549	129187840	95563776	42374680	24992
797	83.682549	129458176	95563776	39968480	24992
798	84.563415	129728512	95563776	38231912	24992
799	85.433691	129728512	96088064	37156720	24992
800	86.449108	129998848	96088064	36742968	24992
801	87.206186	129998848	96088064	36990728	24992
802	1.064267	129998848	96088064	37513408	24992
803	1.52698	129998848	96088064	38851144	24992
804	2.306145	129998848	96088064	40848272	24992
805	2.969271	129998848	96088064	43504808	24992
806	3.760941	129998848	96088064	46821272	24992
807	4.536878	129998848	96088064	50797128	24992
808	8.515866	129998848	96088064	38981120	24992
809	6.172442	129998848	96088064	44275816	24992
810	6.652944	129998848	96088064	50230856	24992
811	10.702074	130269184	96088064	40427000	24992
812	8.219194	130269184	96088064	47700832	24992
813	12.249977	130269184	96088064	39201800	24992
814	9.624583	130269184	96088064	47794480	24992
815	13.884983	130269184	96088064	40612536	24992
816	11.162369	130269184	96088064	50524016	24992
817	15.268196	130269184	96088064	44669176	24992
818	16.097962	130269184	96088064	39463976	24992
819	13.463764	130269184	96088064	51355496	24992
820	17.703385	130269184	96088064	47475160	24992
821	18.46537	130269184	96088064	44257672	24992
822	19.23812	130269184	96088064	41681504	24992
823	20.116307	130269184	96088064	39768192	24992
824	21.288817	130269184	96088064	38517400	24992
825	22.633562	130269184	96088064	37928248	24992
826	29.428508	115175424	80883712	20569352	24992
827	20.193948	115175424	80883712	21267120	24992
828	21.124194	115175424	80883712	22631224	24992
829	21.530731	115175424	80883712	24655312	24992
830	22.683462	115175424	80883712	27354344	24992
831	23.570855	115175424	80883712	14229576	24992
832	23.758441	115175424	80883712	18230336	24992
833	24.57811	115175424	80883712	22900256	24992
834	25.764653	115175424	80883712	11768680	24992
835	26.223076	115175424	80883712	17759040	24992
836	27.039109	115175424	80883712	24416352	24992
837	28.012905	115175424	80883712	15266992	24992
838	28.284233	115175424	80883712	23238264	24992
839	29.23305	115175424	80883712	15416320	24992
840	29.839107	115175424	80883712	24708208	24992
841	30.673335	115175424	80883712	18205952	24992
842	31.852523	115175424	80883712	12362392	24992
843	31.894819	115175424	80883712	23634832	24992
844	33.678872	115175424	80883712	19115320	24992
845	33.975939	115175424	80883712	15256408	24992
846	34.253584	115175424	80883712	28506800	24992
847	35.342008	115175424	80883712	25939904	24992
848	35.776137	115175424	80883712	24073176	24992
849	36.814023	115175424	80883712	22851744	24992
850	37.175225	115175424	80883712	22324080	24992
851	38.447621	115175424	80883712	22423472	24992
852	38.641497	115175424	80883712	23184144	24992
853	39.817825	115175424	80883712	24607472	24992
854	40.542216	115175424	80883712	26687888	24992
855	41.347538	115175424	80883712	12941504	24992
856	41.90752	115175424	80883712	16345728	24992
857	42.088061	115175424	80883712	20411176	24992
858	43.004256	115175424	80883712	25138048	24992
859	44.075483	115175424	80883712	14031664	24992
860	44.722138	115175424	80883712	20079552	24992
861	45.037904	115175424	80883712	26788184	24992
862	46.883894	115175424	80883712	17664720	24992
863	46.982707	115175424	80883712	25695744	24992
864	48.224309	115175424	80883712	17895352	24992
865	48.305032	115175424	80883712	27248560	24992
866	49.627997	115175424	80883712	20776560	24992
867	50.386614	115175424	80883712	14980432	24992
868	52.047903	115445760	81408000	26333056	24992
869	51.282202	115445760	81408000	21904424	24992
870	52.585591	115445760	81408000	18139312	24992
871	53.700679	115716096	81408000	15025440	24992
872	54.538665	115716096	81408000	29067808	24992
873	54.891224	115716096	81408000	27285688	24992
874	55.550828	115716096	81408000	26165136	24992
875	56.260445	115716096	81408000	25706480	24992
876	56.877777	115716096	81408000	25909952	24992
877	58.157998	115716096	81408000	26768048	24992
878	58.640446	115716096	81408000	28286624	24992
879	60.187044	115716096	81408000	30474112	24992
880	60.528887	115716096	81408000	16834880	24992
881	61.709502	115716096	81408000	20344040	24992
882	61.827523	115716096	81408000	24514768	24992
883	63.41283	115716096	81408000	29344176	24992
884	63.80809	115716096	81408000	18338624	24992
885	64.902032	115716096	81408000	24495480	24992
886	64.736721	115716096	81408000	31310096	24992
887	66.811654	115716096	81408000	22289416	24992
888	66.71519	115716096	81408000	30430616	24992
889	68.058328	115716096	81408000	22740352	24992
890	68.227039	115716096	81408000	32207152	24992
891	70.049849	115716096	81408000	25839600	24992
892	70.821376	115716096	81408000	20128944	24992
893	70.755127	115716096	81408000	31572024	24992
894	71.907114	115716096	81408000	27189872	24992
895	72.749718	115716096	81408000	23464128	24992
896	75.414222	115716096	81408000	20419648	24992
897	73.743492	115716096	81408000	34509280	24992
898	75.617606	115716096	81408000	32773976	24992
899	76.127434	115716096	81408000	31700704	24992
900	76.923366	115716096	81408000	31288920	24992
901	77.986312	115716096	81408000	31538728	24992
902	0.831819	115716096	81408000	32063488	24992
903	1.556995	115716096	81408000	33401224	24992
904	2.247133	115716096	81408000	35398352	24992
905	3.965336	115716096	81408000	21588872	24992
906	3.959137	115716096	81408000	24905336	24992
907	4.496412	115716096	81408000	28881192	24992
908	5.263533	115716096	81408000	33516448	24992
909	7.135677	115716096	81408000	22374808	24992
910	6.648361	115716096	81408000	28329912	24992
911	7.656293	115716096	81408000	34944344	24992
912	9.269208	115716096	81408000	25799968	24992
913	9.22366	115716096	81408000	33733208	24992
914	10.732099	115716096	81408000	25901928	24992
915	10.575415	115716096	81408000	35153984	24992
916	12.259826	115716096	81408000	28637344	24992
917	13.162927	115716096	81408000	22769648	24992
918	13.019195	115716096	81408000	34001776	24992
919	14.772048	115716096	81408000	29460440	24992
920	15.325921	115716096	81408000	25582720	24992
921	15.81999	115716096	81408000	22346256	24992
922	15.918064	115716096	81408000	36216344	24992
923	17.332509	115716096	81408000	34298712	24992
924	18.333761	115716096	81408000	33070712	24992
925	19.065335	115716096	81408000	32504864	24992
926	20.283364	115716096	81408000	32575680	24992
927	20.777899	115716096	81408000	33308008	24992
928	21.051184	115716096	81408000	34701776	24992
929	23.150896	115716096	81408000	20296992	24992
930	22.949222	115716096	81408000	22986360	24992
931	23.673084	115716096	81408000	26366424	24992
932	24.753556	115716096	81408000	30406896	24992
933	25.137821	115716096	81408000	35112000	24992
934	27.778752	115716096	81408000	24029664	24992
935	26.757896	115716096	81408000	30031424	24992
936	27.630503	115716096	81408000	36730960	24992
937	29.560074	115716096	81408000	27612392	24992
938	29.459453	115716096	81408000	35612864	24992
939	30.840629	115716096	81408000	27844192	24992
940	30.218037	115716096	81408000	37147960	24992
941	32.461079	115716096	81408000	30660904	24992
942	33.32178	115716096	81408000	24882280	24992
943	32.965017	115716096	81408000	36168288	24992
944	34.524768	115716096	81408000	31712424	24992
945	35.809612	115716096	81408000	27883016	24992
946	36.070127	115716096	81408000	24711304	24992
947	37.053664	115716096	81408000	22201984	24992
948	37.274167	115716096	81408000	36790504	24992
949	38.600446	115716096	81408000	35647704	24992
950	39.268071	115716096	81408000	35124440	24992
951	41.080376	115716096	81408000	35263408	24992
952	40.759924	115716096	81408000	36064312	24992
953	41.1394	115716096	81408000	37527064	24992
954	43.662395	115716096	81408000	23159368	24992
955	42.86885	115716096	81408000	25943664	24992
956	43.617928	115716096	81408000	29389944	24992
957	44.947281	115716096	81408000	33497368	24992
958	45.159827	115716096	81408000	38265352	24992
959	47.212872	115716096	81408000	27204592	24992
960	46.760453	115716096	81408000	33296760	24992
961	48.967829	115716096	81408000	23558968	24992
962	48.396858	115716096	81408000	30970840	24992
963	48.956843	115716096	81408000	39047824	24992
964	51.249435	115716096	81408000	31292504	24992
965	52.172808	115716096	81408000	24201608	24992
966	51.76485	115716096	81408000	34268016	24992
967	54.032083	115716096	81408000	28517504	24992
968	53.316876	115716096	81408000	39913840	24992
969	56.307883	115716096	81408000	35483472	24992
970	56.528688	115716096	81408000	31717024	24992
971	57.372317	115716096	81408000	28613976	24992
972	57.808107	115716096	81408000	26161776	24992
973	58.716804	115716096	81408000	24378736	24992
974	57.985723	115716096	81408000	39744704	24992
975	60.95647	115716096	81408000	39295744	24992
976	60.796756	115716096	81408000	39498360	24992
977	62.689588	115716096	81408000	40371768	24992
978	64.458367	115716096	81408000	25408488	24992
979	63.996753	115716096	81408000	27595456	24992
980	64.177448	115716096	81408000	30443320	24992
981	65.054427	115716096	81408000	33951848	24992
982	66.957001	115716096	81408000	38127160	24992
983	68.642575	115716096	81408000	26459472	24992
984	68.394667	115716096	81408000	31954408	24992
985	70.463118	115716096	81408000	38110648	24992
986	70.54636	115716096	81408000	28435432	24992
987	70.714779	115716096	81408000	35915376	24992
988	72.114683	115716096	81408000	27557992	24992
989	71.912482	115716096	81408000	36355896	24992
990	74.410865	115716096	81408000	29321720	24992
991	73.554568	115716096	81408000	39441008	24992
992	76.011258	115716096	81408000	33735416	24992
993	76.562733	115716096	81408000	28691328	24992
994	75.723575	115716096	81408000	40795584	24992
995	78.597575	115716096	81408000	37074760	24992
996	78.992821	115716096	81408000	34010256	24992
997	80.546461	115716096	81408000	31605608	24992
998	81.085167	115716096	81408000	29869568	24992
999	82.557858	115716096	81408000	28794704	24992
1000	80.526391	115716096	81408000	44868416	24992
