x	Duration	RSS	HeapTotal	HeapUsed	External
0	NA	112807936	81408000	11163816	24992
1	0.938342	112807936	81408000	11843848	24992
2	1.665985	112807936	81408000	13182152	24992
3	2.266259	112807936	81408000	15179752	24992
4	3.114045	112807936	81408000	17836872	24992
5	3.992538	112807936	81408000	21154984	24992
6	4.693686	112807936	81408000	25131648	24992
7	5.731896	112807936	81408000	13301944	24992
8	5.970668	112807936	81408000	18597640	24992
9	6.905626	112807936	81408000	24553808	24992
10	7.73	112807936	81408000	14710384	24992
11	8.320103	112807936	81408000	21985664	24992
12	9.461986	112807936	81408000	13452920	24992
13	10.013558	112807936	81408000	22047144	24992
14	12.077065	112807936	81408000	14847352	24992
15	11.717257	112807936	81408000	24760648	24992
16	12.300056	112807936	81408000	18868424	24992
17	13.064409	112807936	81408000	13634416	24992
18	13.333875	112807936	81408000	25528136	24992
19	14.524496	112807936	81408000	21616056	24992
20	16.103319	113078272	81408000	18368912	24992
21	16.379404	113078272	81408000	15769912	24992
22	17.073696	113078272	81408000	13832248	24992
23	18.093687	113078272	81408000	12560256	24992
24	18.258639	113078272	81408000	11943464	24992
25	18.948184	113078272	81408000	11987128	24992
26	20.2406	113078272	81408000	12691312	24992
27	21.060573	113078272	81408000	14055872	24992
28	21.242941	113078272	81408000	16080840	24992
29	22.253962	113078272	81408000	18766256	24992
30	23.172473	113078272	81408000	22111216	24992
31	23.65115	113078272	81408000	26116368	24992
32	25.500382	113078272	81408000	14317472	24992
33	25.329821	113078272	81408000	19645384	24992
34	25.952666	113078272	81408000	25640152	24992
35	26.662132	113078272	81408000	15828432	24992
36	27.949126	113078272	81408000	23139992	24992
37	28.401964	113078272	81408000	14655768	24992
38	28.76597	113078272	81408000	23286064	24992
39	30.65417	113078272	81408000	16124440	24992
40	30.110613	113078272	81408000	26075232	24992
41	31.327516	113078272	81408000	20235112	24992
42	31.666812	113078272	81408000	15052352	24992
43	32.598754	113078272	81408000	26983712	24992
44	33.171827	113078272	81408000	23123200	24992
45	34.399214	113078272	81408000	19924104	24992
46	34.808294	113078272	81408000	17380488	24992
47	35.544321	113078272	81408000	15498120	24992
48	36.025584	113078272	81408000	14276832	24992
49	36.818396	113078272	81408000	13716264	24992
50	38.109832	113078272	81408000	13817352	24992
51	38.154279	113078272	81408000	14579752	24992
52	39.416506	113078272	81408000	16003312	24992
53	40.28157	113078272	81408000	18088064	24992
54	40.845761	113078272	81408000	20831856	24992
55	41.483413	113078272	81408000	24236032	24992
56	42.530892	113078272	81408000	28300184	24992
57	42.941558	113078272	81408000	16535688	24992
58	43.837185	113078272	81408000	21923272	24992
59	44.59654	113078272	81408000	27971192	24992
60	45.480364	113078272	81408000	18186832	24992
61	46.241218	113078272	81408000	25556632	24992
62	47.686419	113078272	81408000	17106536	24992
63	47.329353	113078272	81408000	25845208	24992
64	48.440482	113078272	81408000	18752160	24992
65	48.998773	113078272	81408000	28821872	24992
66	49.669692	113078272	81408000	23070280	24992
67	50.790974	113078272	81408000	17982216	24992
68	50.967364	113078272	81408000	30032864	24992
69	52.299334	113078272	81408000	26266312	24992
70	52.534317	113078272	81408000	23161048	24992
71	53.44579	113078272	81408000	20719256	24992
72	54.461516	113078272	81408000	18928064	24992
73	54.970568	113078272	81408000	17806344	24992
74	56.232137	113078272	81408000	17346120	24992
75	56.987047	113078272	81408000	17547384	24992
76	57.952461	113078272	81408000	18410240	24992
77	59.152648	113078272	81408000	19936280	24992
78	60.377653	113078272	81408000	22122680	24992
79	60.09261	113078272	81408000	24969928	24992
80	61.167211	113078272	81408000	28475984	24992
81	62.198036	113078272	81408000	32635176	24992
82	63.489442	113078272	81408000	20980768	24992
83	63.950035	113348608	81408000	26475728	24992
84	64.673897	113348608	81408000	32632024	24992
85	65.646788	113618944	81408000	22953832	24992
86	65.976678	113618944	81408000	30433416	24992
87	67.188506	113889280	81408000	22081448	24992
88	68.389772	113889280	81932288	30884416	24992
89	68.610632	114159616	81932288	23855960	24992
90	69.063044	114159616	81932288	33980200	24992
91	70.4437	114159616	81932288	28269264	24992
92	72.060862	114429952	81932288	23230944	24992
93	72.126698	114429952	81932288	18850512	24992
94	73.292411	114700288	81932288	31624344	24992
95	73.896828	114700288	81932288	28565744	24992
96	74.812553	114700288	81932288	26163728	24992
97	75.452497	114700288	81932288	24416568	24992
98	77.618235	114970624	81932288	23341456	24992
99	76.922757	114970624	81932288	22928120	24992
100	78.281937	114970624	81932288	23176856	24992
101	80.024106	114970624	81932288	24087000	24992
102	0.826911	114970624	81932288	25267480	24992
103	1.529303	114970624	81932288	26605232	24992
104	2.235004	114970624	81932288	28602376	24992
105	3.082627	114970624	81932288	31258928	24992
106	3.929393	114970624	81932288	34575408	24992
107	5.545102	114970624	81932288	22094768	24992
108	5.444181	114970624	81932288	26730040	24992
109	5.909862	114970624	81932288	32024720	24992
110	7.841518	114970624	81932288	21555232	24992
111	7.392128	114970624	81932288	28169680	24992
112	8.530544	114970624	81932288	35443528	24992
113	10.171063	114970624	81932288	26957264	24992
114	9.575673	114970624	81932288	35549992	24992
115	11.615683	114970624	81932288	28382672	24992
116	12.401576	114970624	81932288	21852376	24992
117	11.781881	114970624	81932288	32423360	24992
118	13.798072	114970624	81932288	27219672	24992
119	14.60393	114970624	81932288	22679040	24992
120	13.993781	114970624	81932288	35230344	24992
121	16.461686	114970624	81932288	32014560	24992
122	16.760922	114970624	81932288	29461576	24992
123	17.692021	114970624	81932288	27548192	24992
124	18.237124	114970624	81932288	26296360	24992
125	19.508426	114970624	81932288	25706152	24992
126	19.980654	114970624	81932288	25778248	24992
127	20.869217	114970624	81932288	26511504	24992
128	21.893562	114970624	81932288	27905928	24992
129	22.213489	114970624	81932288	29961832	24992
130	22.681378	114970624	81932288	32679256	24992
131	24.116027	114970624	81932288	36057872	24992
132	25.861309	114970624	81932288	23640264	24992
133	25.41776	114970624	81932288	28314224	24992
134	25.936398	114970624	81932288	33686616	24992
135	28.03107	114970624	81932288	23267560	24992
136	27.397823	114970624	81932288	29929856	24992
137	28.194779	114970624	81932288	37291040	24992
138	30.413097	114970624	81932288	28822600	24992
139	29.494435	114970624	81932288	37494168	24992
140	31.658243	114970624	81932288	30341480	24992
141	32.062304	114970624	81932288	23900256	24992
142	32.290183	114970624	81932288	34529336	24992
143	33.929607	114970624	81932288	29413408	24992
144	34.755856	114970624	81932288	24922200	24992
145	34.440612	114970624	81932288	37529312	24992
146	36.301744	114970624	81932288	34384384	24992
147	37.006162	114970624	81932288	31880576	24992
148	37.865223	114970624	81932288	30035944	24992
149	39.29363	114970624	81932288	28849288	24992
150	39.909275	114970624	81932288	28323976	24992
151	40.021162	114970624	81932288	28461072	24992
152	41.359155	114970624	81932288	29260456	24992
153	41.379782	114970624	81932288	30721208	24992
154	41.980626	114970624	81932288	32843672	24992
155	43.203577	114970624	81932288	35627712	24992
156	45.504732	114970624	81932288	22580088	24992
157	44.621822	114970624	81932288	26687480	24992
158	46.09066	114970624	81932288	31456936	24992
159	46.997344	114970624	81932288	36887472	24992
160	48.533535	115240960	81932288	26486344	24992
161	47.593811	115240960	81932288	33240536	24992
162	50.0009	115240960	81932288	24164552	24992
163	49.088545	115240960	81932288	32238016	24992
164	51.149835	115240960	81932288	24485368	24992
165	50.657267	115240960	81932288	33882328	24992
166	53.127883	115240960	81932288	27460872	24992
167	52.030958	115240960	81932288	38188736	24992
168	54.327559	115240960	81932288	33098984	24992
169	55.337918	115240960	81932288	28672792	24992
170	57.754756	115240960	81932288	24906224	24992
171	55.98348	115240960	81932288	38296696	24992
172	57.772817	115240960	81932288	35853184	24992
173	58.125686	115240960	81932288	34071200	24992
174	59.501611	115240960	81932288	32953824	24992
175	59.783386	115240960	82456576	32482696	24992
176	61.088976	115240960	82456576	32673088	24992
177	62.371372	115511296	82456576	33532960	24992
178	62.960991	115511296	82456576	35046048	24992
179	63.060897	115781632	82456576	37220808	24992
180	64.500796	115781632	82456576	40055296	24992
181	66.051036	115781632	82456576	27078176	24992
182	66.366013	115781632	82456576	31248800	24992
183	66.137984	115781632	82456576	36081320	24992
184	67.033778	115781632	82456576	41572496	24992
185	69.712083	115781632	82456576	31228928	24992
186	69.008951	115781632	82456576	38047120	24992
187	71.002204	115781632	82456576	29033560	24992
188	71.457203	115781632	82456576	37175040	24992
189	73.223793	115781632	82456576	29481792	24992
190	71.650291	115781632	82456576	38942936	24992
191	75.762262	115781632	82456576	32575824	24992
192	74.771849	115781632	82456576	43363144	24992
193	77.029369	115781632	82456576	38319288	24992
194	77.406095	115781632	82456576	33934104	24992
195	78.336813	115781632	82456576	30209584	24992
196	76.935145	115781632	82456576	43636936	24992
197	79.123259	115781632	82456576	41242456	24992
198	81.069308	115781632	82456576	39507648	24992
199	81.425849	115781632	82456576	38433640	24992
200	81.984265	115781632	82456576	38015920	24992
201	82.865585	115781632	82456576	38252912	24992
202	0.820576	115781632	82456576	38764696	24992
203	1.520153	115781632	82456576	40102448	24992
204	2.295445	115781632	82456576	42099728	24992
205	2.946163	115781632	82456576	44756288	24992
206	6.365163	115781632	82456576	31604656	24992
207	4.467627	115781632	82456576	35580528	24992
208	5.555043	115781632	82456576	40215800	24992
209	5.867524	115781632	82456576	45510480	24992
210	9.306581	115781632	82456576	35034632	24992
211	7.370114	115781632	82456576	41649080	24992
212	10.562682	115781632	82456576	32493392	24992
213	8.989947	115781632	82456576	40426648	24992
214	12.18805	115781632	82456576	32581288	24992
215	10.434364	115781632	82456576	41833360	24992
216	14.033443	115781632	82456576	35315056	24992
217	11.845606	115781632	82456576	45885928	24992
218	15.08404	115781632	82456576	40674384	24992
219	15.702964	115781632	82456576	36131368	24992
220	16.455035	115781632	82456576	32250984	24992
221	15.021331	115781632	82456576	45461696	24992
222	18.240492	115781632	82456576	42905864	24992
223	18.859653	115781632	82456576	41013464	24992
224	19.78346	115781632	82456576	39759896	24992
225	20.553506	115781632	82456576	39168432	24992
226	20.957069	115781632	82456576	39238424	24992
227	21.650335	115781632	82456576	39969944	24992
228	22.812248	115781632	82456576	41362984	24992
229	23.878173	115781632	82456576	43422928	24992
230	24.182865	115781632	82456576	46141304	24992
231	27.775518	115781632	82456576	33049752	24992
232	25.477302	115781632	82456576	37066144	24992
233	26.606532	115781632	82456576	41770096	24992
234	29.966634	115781632	82456576	30687960	24992
235	28.158946	115781632	82980864	36689248	24992
236	28.855009	115781632	82980864	43386216	24992
237	32.095937	115781632	82980864	34291216	24992
238	30.610193	115781632	82980864	42274408	24992
239	33.272567	116051968	82980864	34508984	24992
240	31.962058	116051968	82980864	43813040	24992
241	34.860319	116051968	82980864	37372784	24992
242	36.196946	116051968	82980864	31557632	24992
243	34.149302	116051968	82980864	42843176	24992
244	37.164099	116322304	82980864	38387120	24992
245	37.825964	116322304	83505152	34556864	24992
246	39.239522	116322304	83505152	31385504	24992
247	36.766086	116322304	83505152	45313176	24992
248	39.8773	116592640	83505152	43507536	24992
249	41.300433	116592640	83505152	42322032	24992
250	41.621547	116592640	83505152	41798880	24992
251	42.748464	116592640	83505152	41937352	24992
252	43.286011	116862976	84029440	42735952	24992
253	45.081033	116862976	84029440	44195152	24992
254	44.998649	116862976	84029440	46316864	24992
255	48.497188	117133312	84029440	32610776	24992
256	46.685437	117133312	84029440	36056144	24992
257	46.890156	117133312	84029440	40163312	24992
258	47.964288	117403648	84553728	44931616	24992
259	52.013104	117403648	84553728	33879376	24992
260	49.568203	117403648	84553728	39971200	24992
261	49.759061	117673984	84553728	46724304	24992
262	53.924572	117673984	84553728	37648472	24992
263	51.864503	117673984	84553728	45725200	24992
264	55.724744	117944320	85078016	37970056	24992
265	53.201531	117944320	85078016	47370424	24992
266	58.145631	118214656	85078016	40960328	24992
267	57.545146	118214656	85078016	35210184	24992
268	55.957596	118214656	85078016	46598880	24992
269	59.438498	118484992	85602304	42170000	24992
270	59.861229	118484992	85602304	38404800	24992
271	61.321919	118755328	85602304	35290360	24992
272	59.989044	118755328	85602304	49332640	24992
273	62.56064	118755328	85602304	47550832	24992
274	62.768236	119025664	86126592	46429888	24992
275	63.863728	119025664	86126592	45970696	24992
276	64.544169	119296000	86126592	46173216	24992
277	65.473159	119296000	86126592	47037440	24992
278	65.678986	119296000	86126592	48563088	24992
279	66.768402	119566336	86650880	50750408	24992
280	70.885303	119566336	86650880	37111120	24992
281	68.901001	119836672	86650880	40620224	24992
282	69.248317	119836672	86650880	44790368	24992
283	69.982679	120107008	87175168	49619576	24992
284	74.089336	120107008	87175168	38613808	24992
285	74.454451	120377344	87175168	44770656	24992
286	73.449546	120377344	87175168	51585056	24992
287	77.396926	120377344	87699456	42565000	24992
288	78.982204	113823744	79835136	15137944	24992
289	66.261143	113823744	79835136	23877840	24992
290	66.552808	113823744	79835136	16784168	24992
291	67.299974	113823744	79835136	26844408	24992
292	68.136997	113823744	79835136	21072184	24992
293	69.49873	113823744	79835136	15956096	24992
294	69.869871	113823744	79835136	27992536	24992
295	70.425319	113823744	79835136	24204424	24992
296	71.243022	113823744	79835136	21076200	24992
297	71.96407	113823744	79835136	18603952	24992
298	72.745849	113823744	79835136	16796528	24992
299	73.948358	113823744	79835136	15650128	24992
300	76.346396	113823744	79835136	15164496	24992
301	78.130722	113823744	81932288	15339720	24992
302	0.831724	114094080	84029440	15832712	24992
303	1.536344	114094080	84029440	17170464	24992
304	2.241925	114094080	84029440	19167608	24992
305	3.020847	114094080	84029440	21824160	24992
306	3.923121	114094080	84029440	25140640	24992
307	4.476456	114094080	84029440	29116576	24992
308	5.501566	114094080	84553728	17279288	24992
309	5.89925	114094080	84553728	22573968	24992
310	7.10136	114094080	84553728	28529072	24992
311	7.890535	114094080	85078016	18683920	24992
312	8.356673	114094080	85078016	25957768	24992
313	9.923345	114094080	85078016	17428040	24992
314	9.762285	114094080	85078016	26020736	24992
315	10.768865	114094080	85078016	18804968	24992
316	10.999274	114094080	85078016	28716432	24992
317	12.227102	114094080	85078016	22822024	24992
318	12.991786	114094080	85078016	17585784	24992
319	13.251566	114094080	85078016	29477352	24992
320	14.416165	114094080	85078016	25561464	24992
321	15.22185	114094080	85078016	22307808	24992
322	16.106368	114094080	85078016	19708032	24992
323	16.643338	114094080	85078016	17768720	24992
324	17.434464	114094080	85078016	16490640	24992
325	18.27183	114094080	85078016	15873064	24992
326	19.177227	114094080	85078016	15915888	24992
327	19.898946	114094080	85078016	16619072	24992
328	20.653115	114094080	85078016	17982608	24992
329	22.254324	114094080	85078016	20008320	24992
330	22.228828	114094080	85078016	22691800	24992
331	22.695726	114094080	85078016	26035688	24992
332	23.498882	114094080	85078016	30039608	24992
333	24.394017	114094080	85078016	18226504	24992
334	25.11294	114094080	85078016	23561976	24992
335	26.866567	114094080	85078016	29564416	24992
336	26.827465	114364416	85078016	19778000	24992
337	27.094398	114364416	85078016	27099768	24992
338	28.290263	114364416	85078016	18664512	24992
339	29.098507	114364416	85078016	27308280	24992
340	29.659341	114364416	85078016	20198080	24992
341	30.136735	114364416	85078016	30162024	24992
342	30.917774	114634752	85078016	24375136	24992
343	32.559938	114634752	85078016	19213888	24992
344	32.633147	114634752	85078016	14719376	24992
345	33.753902	114634752	85078016	27326072	24992
346	34.453071	114634752	85078016	24187024	24992
347	35.326576	114905088	85078016	21680400	24992
348	36.206911	114905088	85078016	19831424	24992
349	36.562607	114905088	85078016	18644376	24992
350	37.75547	114905088	85078016	18119248	24992
351	38.135881	114905088	85078016	18256448	24992
352	39.131453	115175424	85078016	19055680	24992
353	39.749085	115175424	85078016	20516584	24992
354	40.419969	115175424	85078016	22638752	24992
355	41.25897	115175424	85078016	25422288	24992
356	42.323414	115445760	85078016	28867664	24992
357	43.115231	115445760	85078016	16481288	24992
358	43.144664	115445760	85078016	21249968	24992
359	44.293237	115445760	85078016	26679824	24992
360	45.149403	115716096	85078016	16293440	24992
361	45.74976	115716096	85078016	23043160	24992
362	46.598597	115716096	85078016	30458080	24992
363	47.416842	115986432	85078016	22041520	24992
364	47.822412	115986432	85078016	30779408	24992
365	49.756592	115986432	85078016	23687056	24992
366	50.105147	115986432	85078016	17267216	24992
367	50.81236	116256768	85078016	27997840	24992
368	51.926481	116256768	85078016	22908480	24992
369	53.535263	116527104	85078016	18480344	24992
370	52.372881	116527104	85078016	31199664	24992
371	54.309749	116527104	85078016	28094320	24992
372	54.646581	116797440	85078016	25651440	24992
373	55.795869	116797440	85078016	23863920	24992
374	56.596404	116797440	85078016	22734200	24992
375	57.386163	117067776	85078016	22273784	24992
376	59.042356	117067776	85078016	22483552	24992
377	58.464582	117338112	85078016	23346408	24992
378	60.782193	117338112	85078016	24878424	24992
379	61.194154	117608448	85078016	27062688	24992
380	61.860425	117608448	85078016	29903376	24992
381	62.026072	117878784	85078016	33400048	24992
382	63.503218	117878784	85078016	21085344	24992
383	63.578374	118149120	85078016	25919096	24992
384	64.677816	118149120	85078016	31412560	24992
385	65.922564	118419456	85078016	21072760	24992
386	66.569326	118419456	85078016	27891672	24992
387	68.034268	118419456	85602304	35368336	24992
388	69.047219	118689792	85602304	27010008	24992
389	68.097096	118689792	85602304	35809848	24992
390	70.049915	118960128	85602304	28775400	24992
391	71.069917	118960128	86126592	22403504	24992
392	70.622901	119230464	86126592	33187240	24992
393	73.170585	119230464	86126592	28143768	24992
394	73.600764	119500800	86126592	23756568	24992
395	73.143256	119771136	86126592	36523136	24992
396	74.741558	119771136	86650880	33465112	24992
397	75.743965	120041472	86650880	31068792	24992
398	76.607619	120041472	86650880	29329008	24992
399	77.422255	120311808	87175168	28243048	24992
400	78.342024	120311808	87175168	27824040	24992
401	79.355648	120582144	87175168	28072200	24992
402	0.810685	120582144	87175168	28594800	24992
403	1.524551	120582144	87175168	29932552	24992
404	2.248921	120582144	87175168	31929696	24992
405	3.000666	120582144	87175168	34586248	24992
406	3.746625	120582144	87175168	37902840	24992
407	6.058348	120582144	87175168	25422264	24992
408	5.579848	120582144	87175168	30057536	24992
409	5.874715	120582144	87175168	35352216	24992
410	8.299333	120582144	87175168	24882776	24992
411	7.573345	120582144	87175168	31497256	24992
412	8.068545	120582144	87175168	38771104	24992
413	10.516106	120582144	87175168	30274616	24992
414	9.723133	120582144	87175168	38867280	24992
415	11.726651	120852480	87175168	31681944	24992
416	12.699326	120852480	87175168	25159000	24992
417	11.938635	120852480	87175168	35729872	24992
418	13.972483	120852480	87175168	30542688	24992
419	14.908938	120852480	87175168	26002056	24992
420	14.134332	120852480	87175168	38553392	24992
421	16.625579	120852480	87175168	35336968	24992
422	17.232439	120852480	87175168	32784000	24992
423	17.923676	120852480	87175168	30870632	24992
424	19.159635	120852480	87175168	29618848	24992
425	19.83223	120852480	87175168	29028624	24992
426	20.909131	121122816	87175168	29099872	24992
427	20.921909	121122816	87175168	29832664	24992
428	22.008571	121122816	87175168	31226992	24992
429	22.629539	121122816	87175168	33282864	24992
430	23.367163	121122816	87175168	36000096	24992
431	23.902582	121122816	87175168	39378504	24992
432	26.600771	121122816	87175168	26942208	24992
433	26.629705	121122816	87175168	31631256	24992
434	25.828929	121122816	87175168	37003440	24992
435	28.134026	121122816	87175168	26584160	24992
436	27.739971	121122816	87175168	33246440	24992
437	30.291776	121122816	87175168	24158760	24992
438	28.883664	121122816	87175168	32142016	24992
439	31.86585	121122816	87175168	24375840	24992
440	30.725731	121122816	87175168	33680088	24992
441	33.054216	121122816	87175168	27239320	24992
442	32.383569	121122816	87175168	37864800	24992
443	34.721665	121122816	87175168	32746928	24992
444	35.266473	121122816	87175168	28255816	24992
445	36.373734	121122816	87175168	24423176	24992
446	35.140233	121122816	87175168	37690704	24992
447	37.849843	121122816	87175168	35223312	24992
448	38.640366	121122816	87175168	33377560	24992
449	40.154532	121122816	87175168	32201536	24992
450	39.833446	121122816	87175168	31676352	24992
451	40.685739	121122816	87175168	31813560	24992
452	42.663537	121122816	87699456	32622128	24992
453	42.144784	121122816	87699456	34083008	24992
454	43.077959	121393152	87699456	36206192	24992
455	43.735935	121393152	87699456	38988968	24992
456	46.350051	121393152	87699456	25942912	24992
457	45.790782	121393152	87699456	30050144	24992
458	46.028555	121663488	87699456	34818912	24992
459	47.189175	121663488	87699456	40249272	24992
460	49.270672	121663488	87699456	29848064	24992
461	49.113006	121663488	87699456	36610048	24992
462	51.369584	121663488	87699456	27532376	24992
463	49.58181	121663488	87699456	35607192	24992
464	52.11055	121663488	87699456	27854304	24992
465	51.713649	121663488	87699456	37250848	24992
466	53.5512	121663488	87699456	30828056	24992
467	53.076318	121663488	87699456	41562112	24992
468	55.221538	121663488	87699456	36471080	24992
469	56.085554	121663488	87699456	32044408	24992
470	56.740588	121663488	87699456	28267928	24992
471	55.424373	121663488	87699456	41648640	24992
472	58.337973	121663488	87699456	39204088	24992
473	59.045153	121663488	87699456	37421656	24992
474	60.021306	121663488	87699456	36302632	24992
475	60.515454	121663488	87699456	35831328	24992
476	61.941731	121663488	87699456	36021224	24992
477	64.551223	121663488	87699456	36872792	24992
478	63.237678	121663488	87699456	38386024	24992
479	64.269202	121663488	87699456	40559680	24992
480	64.984783	121663488	87699456	43401440	24992
481	67.866351	121663488	87699456	30423744	24992
482	66.587372	121663488	87699456	34594352	24992
483	67.301163	121663488	87699456	39427048	24992
484	68.071903	121663488	87699456	44917168	24992
485	71.401519	121663488	87699456	34576920	24992
486	69.700259	121663488	87699456	41394760	24992
487	72.654682	121663488	87699456	32381152	24992
488	70.881882	121663488	87699456	40522824	24992
489	74.777605	121663488	87699456	32832472	24992
490	72.912044	121663488	87699456	42297448	24992
491	75.839289	121663488	87699456	35930224	24992
492	77.086003	121663488	87699456	30230200	24992
493	75.371306	121663488	87699456	41672440	24992
494	78.88664	121663488	87699456	37290504	24992
495	79.258511	121663488	87699456	33564384	24992
496	77.674617	121663488	87699456	46991672	24992
497	81.895354	121663488	87699456	44592456	24992
498	82.353392	121663488	87699456	42857744	24992
499	82.467987	121663488	87699456	41784024	24992
500	83.798486	121663488	87699456	41368864	24992
501	84.372241	121663488	87699456	41608984	24992
502	0.815675	121663488	87699456	42120624	24992
503	1.528026	121663488	87699456	43458376	24992
504	2.298254	121663488	87699456	45455520	24992
505	3.026537	121663488	87699456	48112072	24992
506	6.582747	121663488	87699456	34959800	24992
507	4.469623	121663488	87699456	38935672	24992
508	5.406722	121663488	87699456	43570992	24992
509	8.582435	121663488	87699456	32424512	24992
510	7.119871	121663488	87699456	38379568	24992
511	7.369659	121663488	87699456	44994048	24992
512	10.821586	121663488	87699456	35838256	24992
513	9.0141	121663488	87699456	43771576	24992
514	12.484842	121663488	87699456	35937216	24992
515	10.257211	121663488	87699456	45189368	24992
516	14.117681	121663488	87699456	38671000	24992
517	14.745682	121663488	87699456	32801352	24992
518	12.680905	121663488	87699456	44033656	24992
519	16.237324	121663488	87699456	39490600	24992
520	16.962611	121663488	87699456	35610944	24992
521	17.890118	121663488	87699456	32374096	24992
522	15.589905	121663488	87699456	46244240	24992
523	19.429147	121663488	87699456	44351752	24992
524	19.759144	121663488	87699456	43122112	24992
525	20.890183	121663488	87699456	42530312	24992
526	21.558101	121663488	87699456	42600320	24992
527	22.567346	121663488	87699456	43331584	24992
528	23.171322	121663488	87699456	44724256	24992
529	23.513934	121663488	87699456	46778376	24992
530	26.940906	121663488	87699456	33034304	24992
531	25.282105	121663488	87699456	36383512	24992
532	26.597991	121663488	87699456	40423872	24992
533	26.776021	121663488	87699456	45127608	24992
534	30.300496	121663488	87699456	34044880	24992
535	28.627558	121663488	87699456	40046208	24992
536	29.000055	121663488	87699456	46745088	24992
537	33.540065	121663488	87699456	37652488	24992
538	31.127921	121663488	87699456	45635536	24992
539	34.330155	121663488	87699456	37869920	24992
540	31.990186	121663488	87699456	47174072	24992
541	35.881306	121663488	87699456	40733688	24992
542	36.126069	121663488	87699456	34918664	24992
543	34.42182	121663488	87699456	46204288	24992
544	37.852118	121663488	87699456	41748136	24992
545	38.573318	121663488	87699456	37917976	24992
546	39.152934	121663488	87699456	34746328	24992
547	37.114564	121663488	87699456	48674112	24992
548	40.621951	121663488	87699456	46868456	24992
549	41.225231	121663488	87699456	45682856	24992
550	42.439417	121663488	87699456	45158920	24992
551	43.064798	121663488	87699456	45298144	24992
552	43.907117	121663488	87699456	46097896	24992
553	44.424247	121663488	87699456	47558040	24992
554	45.232627	121663488	87699456	49681624	24992
555	49.11262	121663488	87699456	35974880	24992
556	46.679651	121663488	87699456	39440616	24992
557	47.476289	121663488	87699456	43547496	24992
558	48.278236	121663488	87699456	48315880	24992
559	52.277598	121663488	87699456	37252480	24992
560	49.743378	121663488	87699456	43344280	24992
561	51.30818	121663488	87699456	50097480	24992
562	54.749965	121663488	87699456	41018424	24992
563	52.470178	121663488	87699456	49094512	24992
564	56.784858	121663488	87699456	41339160	24992
565	53.848881	121663488	87699456	50738728	24992
566	58.248757	121663488	87699456	44314608	24992
567	58.768661	121663488	87699456	38564608	24992
568	56.712801	121663488	87699456	49953272	24992
569	60.456739	121663488	87699456	45524456	24992
570	61.299754	121663488	87699456	41759448	24992
571	63.056943	121663488	87699456	38644592	24992
572	59.901051	121663488	87699456	52687720	24992
573	72.039532	115994624	81932288	15523944	24992
574	55.324277	115994624	81932288	14349144	24992
575	55.749938	115994624	81932288	13834456	24992
576	56.688028	115994624	81932288	13980504	24992
577	57.401926	115994624	81932288	14787440	24992
578	58.07819	115994624	81932288	16255336	24992
579	60.299109	115994624	81932288	18384440	24992
580	59.808912	115994624	81932288	21173656	24992
581	60.13089	115994624	81932288	24620592	24992
582	60.720443	115994624	81932288	28719080	24992
583	61.458393	115994624	81932288	17007128	24992
584	62.62738	115994624	81932288	22441272	24992
585	62.822054	115994624	81932288	28532880	24992
586	64.438365	115994624	81932288	18793464	24992
587	64.236872	115994624	81932288	26210328	24992
588	65.513997	115994624	81932288	17794744	24992
589	66.101597	115994624	81932288	26533472	24992
590	67.561484	115994624	84029440	19439768	24992
591	67.425068	116264960	85602304	29500040	24992
592	68.86628	116264960	87699456	23729416	24992
593	69.450647	116264960	89796608	18613024	24992
594	70.584868	116535296	89796608	14162832	24992
595	70.826933	116535296	89796608	26859792	24992
596	72.258764	116535296	89796608	23741200	24992
597	72.041203	116805632	89796608	21338840	24992
598	73.149668	116805632	89796608	19591368	24992
599	73.842672	117075968	89796608	18515624	24992
600	74.83384	117075968	89796608	18102392	24992
601	75.868955	117346304	89796608	18350608	24992
602	0.821807	117346304	89796608	18873248	24992
603	1.518475	117346304	89796608	20211000	24992
604	2.297524	117346304	89796608	22208144	24992
605	3.017344	117346304	89796608	24864696	24992
606	3.971552	117346304	89796608	28181176	24992
607	4.896594	117346304	89796608	15700736	24992
608	5.188459	117346304	89796608	20336016	24992
609	6.15298	117346304	89796608	25630696	24992
610	6.693609	117346304	89796608	31585848	24992
611	8.071959	117346304	89796608	21787720	24992
612	8.334249	117346304	89796608	29061568	24992
613	9.559045	117346304	89796608	20575416	24992
614	9.537472	117346304	89796608	29168112	24992
615	10.866228	117346304	89796608	21988664	24992
616	11.52141	117346304	89796608	31900208	24992
617	12.485874	117346304	89796608	26039048	24992
618	13.112644	117616640	89796608	20835584	24992
619	14.147993	117616640	89796608	16284440	24992
620	14.243091	117616640	89796608	28835744	24992
621	15.39668	117616640	89796608	25620232	24992
622	16.050523	117616640	89796608	23067696	24992
623	17.037813	117616640	89796608	21154312	24992
624	17.712865	117616640	89796608	19902976	24992
625	18.660116	117616640	89796608	19313616	24992
626	19.43845	117616640	89796608	19385760	24992
627	19.940591	117616640	89796608	20119576	24992
628	20.86666	117886976	89796608	21514800	24992
629	22.24474	117886976	89796608	23571152	24992
630	22.61998	117886976	89796608	26288656	24992
631	22.757052	117886976	89796608	29667624	24992
632	24.219602	117886976	89796608	17250720	24992
633	25.397474	117886976	89796608	21924408	24992
634	25.260182	117886976	89796608	27290720	24992
635	26.894167	118157312	89796608	16865968	24992
636	27.140334	118157312	89796608	23528040	24992
637	27.763176	118157312	89796608	30877792	24992
638	29.070202	118157312	89796608	22438304	24992
639	29.073622	118157312	89796608	31081176	24992
640	30.47593	118157312	89796608	23970848	24992
641	31.255099	118157312	89796608	17494456	24992
642	31.753113	118157312	89796608	28120264	24992
643	32.76465	118427648	89796608	22994664	24992
644	34.096819	118427648	89796608	18501048	24992
645	33.692221	118427648	89796608	31107776	24992
646	35.012356	118427648	89796608	27968616	24992
647	35.704468	118697984	89796608	25461880	24992
648	36.22582	118697984	89796608	23613256	24992
649	37.288943	118697984	89796608	22428312	24992
650	38.006758	118697984	89796608	21902896	24992
651	38.636305	118968320	89796608	22040208	24992
652	40.080392	118968320	89796608	22839552	24992
653	40.622719	118968320	89796608	24300088	24992
654	41.632699	118968320	89796608	26421936	24992
655	41.603669	118968320	89796608	29205728	24992
656	42.346795	119238656	89796608	32650032	24992
657	44.696506	119238656	89796608	20265736	24992
658	44.258179	119238656	89796608	25034576	24992
659	46.023303	119508992	89796608	30472792	24992
660	46.614978	119508992	89796608	20071352	24992
661	46.57879	119508992	89796608	26824928	24992
662	47.965568	119779328	89796608	34248080	24992
663	48.565698	119779328	89796608	25831288	24992
664	48.562649	120049664	89796608	34569824	24992
665	50.659072	120049664	89796608	27477216	24992
666	52.111112	120049664	89796608	21056192	24992
667	51.365888	120320000	89796608	31783800	24992
668	52.728096	120320000	89796608	26693968	24992
669	53.281361	120320000	89796608	22267584	24992
670	53.856833	120590336	89796608	34980080	24992
671	55.238755	120590336	89796608	31874584	24992
672	56.091034	120860672	89796608	29431376	24992
673	57.063116	120860672	89796608	27651760	24992
674	57.467237	121131008	89796608	26519040	24992
675	58.081411	121131008	89796608	26051544	24992
676	59.165445	121131008	89796608	26252816	24992
677	59.512081	121401344	89796608	27115600	24992
678	60.806284	121401344	89796608	28638160	24992
679	61.402037	121401344	89796608	30817184	24992
680	63.709622	121671680	89796608	33654136	24992
681	62.875184	121942016	89796608	37150824	24992
682	64.846768	121942016	89796608	24835752	24992
683	64.654962	122212352	89796608	29669552	24992
684	65.411489	122212352	89796608	35162072	24992
685	67.376235	122482688	89796608	24822528	24992
686	67.197627	122482688	89796608	31641504	24992
687	68.900159	122753024	89796608	22623064	24992
688	68.613529	122753024	89796608	30758016	24992
689	70.620597	123023360	89796608	23062976	24992
690	70.616169	123023360	89796608	32520864	24992
691	72.560641	123293696	89796608	26148920	24992
692	71.334739	123293696	90320896	36930608	24992
693	74.224135	123293696	90320896	31887280	24992
694	75.268361	123564032	90320896	27501072	24992
695	76.89125	123834368	90320896	23779768	24992
696	75.66675	123834368	90320896	37207568	24992
697	77.5755	123834368	90845184	34810880	24992
698	77.891419	124104704	90845184	33076616	24992
699	78.396157	124104704	90845184	31998432	24992
700	81.048866	124375040	90845184	31574104	24992
701	81.777309	124645376	91369472	31811400	24992
702	0.82589	124645376	91369472	32323312	24992
703	1.530132	124645376	91369472	33661048	24992
704	2.495725	124645376	91369472	35658176	24992
705	3.254978	124645376	91369472	38323488	24992
706	5.452086	124645376	91369472	25174920	24992
707	4.674077	124645376	91369472	29150784	24992
708	5.184814	124645376	91369472	33786040	24992
709	6.095859	124645376	91369472	39080704	24992
710	9.099074	124645376	91369472	28620368	24992
711	7.387347	124645376	91369472	35234800	24992
712	10.083416	124915712	91369472	26082504	24992
713	9.080344	124915712	91369472	34015744	24992
714	11.355157	124915712	91369472	26171328	24992
715	10.468632	124915712	91369472	35423384	24992
716	13.758353	124915712	91369472	28905992	24992
717	12.0174	124915712	91369472	39476864	24992
718	14.516517	124915712	91369472	34288184	24992
719	15.409204	124915712	91369472	29746176	24992
720	15.899631	124915712	91369472	25848112	24992
721	14.827558	124915712	91369472	39058808	24992
722	17.149438	124915712	91369472	36504208	24992
723	18.443085	124915712	91369472	34613408	24992
724	18.636302	125186048	91369472	33360608	24992
725	19.958461	125186048	91369472	32769416	24992
726	21.146444	125186048	91369472	32839792	24992
727	21.212366	125186048	91893760	33571696	24992
728	22.000209	125186048	91893760	34965072	24992
729	23.166077	125186048	91893760	37019992	24992
730	23.452189	125186048	91893760	39736000	24992
731	26.86181	125456384	91893760	26655040	24992
732	24.949342	125456384	91893760	30664936	24992
733	25.798483	125456384	91893760	35370136	24992
734	27.747125	125456384	91893760	40749808	24992
735	29.153167	125456384	91893760	30329712	24992
736	28.532254	125456384	91893760	36991688	24992
737	30.840117	125456384	91893760	27902648	24992
738	29.413846	125456384	91893760	35885568	24992
739	32.188511	125726720	91893760	28118480	24992
740	31.573029	125726720	91893760	37422472	24992
741	33.806717	125726720	91893760	30979448	24992
742	32.377572	125726720	91893760	41604616	24992
743	35.504411	125726720	91893760	36486976	24992
744	35.960122	125997056	91893760	31995160	24992
745	37.184003	125997056	91893760	28161496	24992
746	35.806885	125997056	91893760	41428704	24992
747	38.612844	125997056	91893760	38960384	24992
748	38.423435	125997056	91893760	37113160	24992
749	39.536171	125997056	91893760	35929480	24992
750	40.287535	125997056	91893760	35403720	24992
751	41.12642	125997056	91893760	35540368	24992
752	42.207675	125997056	91893760	36338936	24992
753	42.60708	125997056	91893760	37799272	24992
754	43.627365	125997056	91893760	39921080	24992
755	44.1234	125997056	91893760	42702864	24992
756	47.483059	125997056	91893760	29657936	24992
757	46.16949	125997056	91893760	33764888	24992
758	48.077985	125997056	91893760	38532904	24992
759	47.085542	125997056	91893760	43962576	24992
760	50.174166	125997056	91893760	33558792	24992
761	49.367804	125997056	91893760	40311704	24992
762	51.382777	125997056	91893760	31233160	24992
763	50.408475	125997056	91893760	39309920	24992
764	53.289286	125997056	91893760	31555504	24992
765	51.730072	125997056	91893760	40954008	24992
766	54.823152	125997056	91893760	34530336	24992
767	53.00191	125997056	91893760	45271360	24992
768	56.71722	125997056	91893760	40179976	24992
769	56.570251	125997056	91893760	35752168	24992
770	57.780346	125997056	91893760	31981232	24992
771	56.314074	125997056	91893760	45358368	24992
772	59.081238	125997056	91893760	42914392	24992
773	59.943685	125997056	91893760	41132024	24992
774	63.508463	125997056	91893760	40011272	24992
775	62.676107	125997056	91893760	39553824	24992
776	62.809866	125997056	91893760	39743688	24992
777	63.85744	125997056	92418048	40595416	24992
778	63.938146	125997056	92418048	42108360	24992
779	65.030255	126267392	92418048	44281248	24992
780	67.959753	126267392	92418048	30642408	24992
781	66.354919	126267392	92418048	34151384	24992
782	67.243853	126267392	92418048	38322120	24992
783	68.30229	126267392	92418048	43151344	24992
784	71.227348	126267392	92418048	32145496	24992
785	69.536404	126267392	92418048	38302136	24992
786	70.426991	126267392	92418048	45116408	24992
787	73.369054	126267392	92418048	36095488	24992
788	71.901041	126267392	92418048	44236744	24992
789	75.912623	126267392	92418048	36546312	24992
790	74.546135	126267392	92418048	46010824	24992
791	77.232964	126267392	92418048	39643680	24992
792	78.035477	126267392	92418048	33932712	24992
793	76.367485	126267392	92418048	45375144	24992
794	79.637544	126267392	92418048	40992824	24992
795	80.259988	126267392	92418048	37266864	24992
796	81.372972	126267392	92418048	34206328	24992
797	80.347865	126267392	92418048	48298080	24992
798	83.017345	126267392	92418048	46562776	24992
799	83.984497	126267392	92418048	45488720	24992
800	84.218411	126267392	92418048	45076280	24992
801	85.548693	126267392	92418048	45325576	24992
802	0.862414	126267392	92418048	45849936	24992
803	1.598271	126267392	92418048	47187672	24992
804	2.375231	126267392	92418048	49184800	24992
805	6.08388	126267392	92418048	35373528	24992
806	3.706885	126267392	92418048	38689992	24992
807	4.626254	126267392	92418048	42665848	24992
808	5.166801	126267392	92418048	47301104	24992
809	8.919554	126267392	92418048	36154616	24992
810	6.824888	126267392	92418048	42109672	24992
811	7.324514	126267392	92418048	48724104	24992
812	11.29371	126267392	92418048	39575184	24992
813	9.075784	126267392	92418048	47508424	24992
814	12.811772	126267392	92418048	39673952	24992
815	10.498341	126267392	92418048	48926008	24992
816	13.981718	126267392	92418048	42407464	24992
817	14.990607	126267392	92418048	36537816	24992
818	12.687574	126267392	92418048	47769944	24992
819	16.520401	126267392	92418048	43226824	24992
820	17.16154	126267392	92418048	39347152	24992
821	17.867959	126267392	92418048	36110280	24992
822	15.756233	126267392	92418048	49980368	24992
823	19.34954	126267392	92418048	48087864	24992
824	20.128274	126267392	92418048	46858016	24992
825	20.969145	126267392	92418048	46265976	24992
826	21.845233	126267392	92418048	46335488	24992
827	22.449449	126267392	92418048	47066480	24992
828	23.304566	126267392	92418048	48459040	24992
829	23.738942	126267392	92418048	50512968	24992
830	27.715223	126267392	92418048	36768160	24992
831	25.850448	126267392	92418048	40117464	24992
832	26.342627	126267392	92418048	44157392	24992
833	27.298683	126267392	92418048	48861192	24992
834	30.800335	126267392	92418048	37777488	24992
835	29.105906	126267392	92418048	43778896	24992
836	29.206529	126267392	92418048	50477776	24992
837	33.354293	126267392	92418048	41382696	24992
838	30.927103	126267392	92418048	49365104	24992
839	34.657058	126267392	92418048	41599440	24992
840	32.207331	126267392	92418048	50902760	24992
841	36.273248	126267392	92418048	44461720	24992
842	37.227625	126267392	92418048	38646776	24992
843	34.815484	126267392	92418048	49932448	24992
844	38.608164	126267392	92418048	45476264	24992
845	39.438166	126267392	92418048	41646432	24992
846	40.007056	126267392	92418048	38474184	24992
847	37.961081	126267392	92418048	52402000	24992
848	41.359309	126267392	92418048	50554176	24992
849	42.060357	126267392	92418048	49396712	24992
850	43.466538	126267392	92418048	48905456	24992
851	44.561506	126267392	92418048	49045296	24992
852	52.624841	116404224	82456576	15102152	24992
853	39.753934	116404224	82456576	16528328	24992
854	41.320685	116404224	82456576	18628992	24992
855	40.918912	116404224	82456576	21376464	24992
856	42.131748	116404224	82456576	24787120	24992
857	43.058006	116404224	82456576	12362648	24992
858	43.484589	116404224	82456576	17092368	24992
859	44.460833	116404224	82456576	22483200	24992
860	44.86536	116404224	82456576	28534832	24992
861	45.620178	116404224	82456576	18751688	24992
862	46.308192	116404224	82456576	26125136	24992
863	47.240704	116404224	82456576	17669832	24992
864	47.480941	116404224	82456576	26360968	24992
865	48.381932	116404224	82456576	19220288	24992
866	49.318256	116404224	82456576	12751872	24992
867	50.217686	116404224	82456576	23433584	24992
868	50.451662	116404224	82456576	18295600	24992
869	51.676033	116404224	82456576	13807448	24992
870	51.948352	116404224	82456576	26475600	24992
871	52.707243	116404224	82456576	23318560	24992
872	53.323272	116404224	82456576	20824240	24992
873	53.843772	116404224	82456576	18976328	24992
874	54.944001	116404224	82456576	17792976	24992
875	55.226875	116404224	82456576	17278368	24992
876	56.412093	116404224	82456576	17424512	24992
877	57.155054	116404224	82456576	18231576	24992
878	58.002561	116404224	82456576	19699632	24992
879	58.423303	116404224	82456576	21828024	24992
880	61.082537	116404224	82456576	24623904	24992
881	60.304074	116404224	82456576	28122664	24992
882	62.034601	116404224	82456576	15792848	24992
883	61.795321	116404224	82456576	20626160	24992
884	62.190007	116404224	82456576	26120976	24992
885	64.035998	116404224	82456576	15784264	24992
886	64.701913	116404224	82456576	22602704	24992
887	65.400166	116404224	82456576	30078976	24992
888	66.988489	116404224	82456576	21719456	24992
889	66.098298	116404224	82456576	30520536	24992
890	67.496684	116404224	82456576	23487912	24992
891	68.132094	116404224	82456576	17115640	24992
892	68.773852	116404224	82456576	27896536	24992
893	69.918649	116404224	82456576	22853264	24992
894	70.864874	116674560	82980864	18471152	24992
895	71.537197	116674560	82980864	31236928	24992
896	72.716778	116674560	82980864	28177392	24992
897	73.822432	116944896	82980864	25780408	24992
898	73.981959	116944896	83505152	24040264	24992
899	75.582214	117215232	83505152	22954624	24992
900	76.776905	117215232	83505152	22543272	24992
901	77.64209	117485568	83505152	22790752	24992
902	0.822255	117485568	83505152	23312960	24992
903	1.543139	117485568	83505152	24650696	24992
904	2.23812	117485568	83505152	26647824	24992
905	3.004928	117485568	83505152	29304360	24992
906	3.740635	117485568	83505152	32620824	24992
907	5.271212	117485568	83505152	20140152	24992
908	5.201454	117485568	83505152	24775408	24992
909	5.877246	117485568	83505152	30070072	24992
910	7.463584	117485568	83505152	19600680	24992
911	7.353639	117485568	83505152	26215112	24992
912	8.125126	117485568	83505152	33488944	24992
913	9.90147	117485568	83505152	25002664	24992
914	9.758151	117485568	83505152	33595376	24992
915	11.104208	117485568	83505152	26428040	24992
916	12.069415	117485568	83505152	19897728	24992
917	12.192908	117485568	83505152	30468584	24992
918	13.408109	117485568	83505152	25264880	24992
919	14.47682	117485568	83505152	20724296	24992
920	14.132962	117485568	83505152	33275584	24992
921	15.582389	117485568	83505152	30059784	24992
922	16.770682	117485568	83505152	27506784	24992
923	16.99697	117485568	83505152	25593480	24992
924	18.223019	117485568	83505152	24341632	24992
925	18.988634	117485568	83505152	23751408	24992
926	19.866997	117485568	83505152	23823104	24992
927	21.229195	117485568	83505152	24564656	24992
928	20.969897	117485568	83505152	25958968	24992
929	21.59159	117485568	83505152	28014824	24992
930	22.493509	117485568	83505152	30732216	24992
931	23.992943	117485568	83505152	34110784	24992
932	25.365768	117485568	83505152	21693256	24992
933	26.167688	117485568	83505152	26375160	24992
934	25.726554	117485568	83505152	31741376	24992
935	27.607073	117485568	83505152	21322224	24992
936	27.402515	117485568	83505152	27984392	24992
937	28.25676	117485568	83505152	35345448	24992
938	29.764328	117485568	83505152	26880384	24992
939	29.18295	117485568	83505152	35547520	24992
940	31.370866	117485568	83505152	28394688	24992
941	31.878053	117485568	83505152	21953368	24992
942	31.493199	117485568	83505152	32579024	24992
943	33.071952	117485568	83505152	27461264	24992
944	34.580453	117485568	83505152	22970120	24992
945	33.842299	117485568	83505152	35577184	24992
946	35.98413	117485568	83505152	32433488	24992
947	36.504674	117485568	83505152	29928368	24992
948	37.313069	117485568	83505152	28083640	24992
949	38.815949	117485568	83505152	26896856	24992
950	39.378458	117485568	83505152	26371800	24992
951	39.588344	117485568	83505152	26508832	24992
952	40.315073	117485568	83505152	27307880	24992
953	40.693959	117485568	83505152	28768584	24992
954	41.631928	117485568	83505152	30891032	24992
955	42.671345	117485568	83505152	33675584	24992
956	42.737352	117485568	83505152	37119272	24992
957	45.548601	117485568	83505152	24736008	24992
958	44.495085	117485568	83505152	29505544	24992
959	45.81318	117485568	83505152	34936032	24992
960	46.945403	117485568	83505152	24535832	24992
961	47.278603	117485568	83505152	31290152	24992
962	49.506967	117485568	83505152	22214184	24992
963	49.054128	117485568	83505152	30287984	24992
964	50.830262	117485568	83505152	22535352	24992
965	50.349273	117485568	83505152	31933400	24992
966	52.888428	117485568	83505152	25511880	24992
967	51.92357	117485568	83505152	36239664	24992
968	53.816287	117485568	83505152	31150456	24992
969	58.173279	117485568	83505152	26724344	24992
970	55.755783	117485568	83505152	22948856	24992
971	55.511657	117485568	83505152	36330096	24992
972	57.390741	117485568	83505152	33886760	24992
973	58.094542	117485568	83505152	32105000	24992
974	58.671315	117485568	83505152	30986968	24992
975	59.509537	117485568	83505152	30515952	24992
976	60.232748	117485568	83505152	30706408	24992
977	60.780436	117485568	83505152	31558488	24992
978	62.017555	117485568	83505152	33072200	24992
979	62.314684	117485568	83505152	35247664	24992
980	63.03993	117485568	83505152	38082728	24992
981	65.365918	117485568	83505152	25106584	24992
982	65.287804	117485568	83505152	29277720	24992
983	65.380334	117485568	83505152	34110800	24992
984	66.183087	117485568	83505152	39602680	24992
985	68.93129	117485568	83505152	29260168	24992
986	68.340327	117485568	83505152	36078920	24992
987	70.505618	117485568	83505152	27065952	24992
988	70.463393	117485568	83505152	35216680	24992
989	72.008841	117485568	83505152	27524272	24992
990	71.676063	117485568	83505152	36995368	24992
991	74.01585	117485568	83505152	30629568	24992
992	73.356058	117485568	83505152	41417544	24992
993	76.07994	117485568	83505152	36373576	24992
994	77.392611	117485568	83505152	31997112	24992
995	77.013426	117485568	83505152	28278376	24992
996	75.751285	117485568	83505152	41705600	24992
997	79.270342	117485568	83505152	39308240	24992
998	78.93012	117485568	83505152	37573416	24992
999	80.895105	117485568	83505152	36499360	24992
1000	80.978228	117485568	83505152	36081784	24992
