x	Duration	RSS	HeapTotal	HeapUsed	External
0	NA	113160192	79310848	11153224	24992
1	1.130978	113160192	79310848	11833312	24992
2	1.917237	113160192	79310848	13171656	24992
3	2.831744	113160192	79310848	15169416	24992
4	3.561536	113160192	79310848	17826648	24992
5	3.723856	113160192	79310848	21144000	24992
6	4.621469	113160192	79310848	25120840	24992
7	5.632781	113160192	79310848	13291104	24992
8	6.163397	113160192	79310848	18587040	24992
9	6.762242	113160192	79310848	24543480	24992
10	7.661238	113160192	79310848	14700320	24992
11	7.987858	113160192	79310848	21975872	24992
12	9.191387	113160192	79310848	13443640	24992
13	9.737875	113160192	79310848	22038264	24992
14	10.493635	113160192	79310848	14824344	24992
15	12.110747	113160192	79310848	24752056	24992
16	12.480272	113160192	79310848	18860328	24992
17	12.704793	113160192	79310848	13626848	24992
18	12.983791	113160192	79310848	25521384	24992
19	14.19578	113160192	79310848	21610072	24992
20	15.587489	113160192	79310848	18363728	24992
21	15.875725	113160192	79310848	15765784	24992
22	16.266907	113160192	79310848	13829208	24992
23	16.979609	113160192	79310848	12553112	24992
24	17.73898	113160192	79310848	11937472	24992
25	18.882406	113160192	79310848	11982352	24992
26	19.295792	113160192	79310848	12687688	24992
27	20.3729	113160192	79310848	14053496	24992
28	20.843521	113160192	79310848	16085032	24992
29	21.343527	113160192	79310848	18771936	24992
30	22.668647	113160192	79310848	22119944	24992
31	23.023345	113160192	79310848	26126616	24992
32	24.535016	113160192	79310848	14329304	24992
33	24.86175	113160192	79310848	19658752	24992
34	25.693358	113160192	79310848	25655288	24992
35	26.28544	113160192	79310848	15845120	24992
36	26.237834	113160192	79310848	23156784	24992
37	27.997023	113160192	79310848	14674320	24992
38	28.363685	113160192	79310848	23306472	24992
39	29.540917	113160192	79310848	16146720	24992
40	29.481941	113160192	79310848	26099416	24992
41	30.978064	113160192	79310848	20261280	24992
42	31.576156	113160192	79310848	15080648	24992
43	31.804829	113160192	79310848	27014088	24992
44	33.456777	113160192	79310848	23155656	24992
45	33.354725	113160192	79310848	19958736	24992
46	34.307681	113160192	79310848	17417312	24992
47	34.811386	113160192	79310848	15537008	24992
48	36.123825	113160192	79310848	14318248	24992
49	36.183301	113160192	79310848	13760048	24992
50	37.389671	113160192	79310848	13863808	24992
51	37.416025	113160192	79310848	14628656	24992
52	39.024092	113160192	79310848	16054600	24992
53	39.114266	113160192	79310848	18141632	24992
54	40.197004	113160192	79310848	20889408	24992
55	41.206083	113160192	79310848	24299264	24992
56	41.089912	113160192	79310848	28365960	24992
57	42.728023	113160192	79310848	16603384	24992
58	42.950275	113160192	79310848	21992776	24992
59	43.457662	113160192	79310848	28042552	24992
60	44.346405	113160192	79310848	18260192	24992
61	46.163453	113160192	79310848	25641736	24992
62	45.757197	113160192	79310848	17227816	24992
63	46.714932	113160192	79310848	25966696	24992
64	47.279862	113160192	79310848	18873664	24992
65	47.930461	113160192	79310848	28943424	24992
66	48.859145	113160192	79310848	23191080	24992
67	49.811618	113160192	79310848	18102872	24992
68	49.817613	113160192	79310848	30153648	24992
69	51.144071	113160192	79310848	26387640	24992
70	51.450365	113160192	79310848	23282472	24992
71	52.799474	113160192	79310848	20840776	24992
72	53.560694	113160192	79310848	19049488	24992
73	53.759041	113160192	79310848	17927784	24992
74	55.201328	113160192	79310848	17468552	24992
75	56.011445	113160192	79310848	17669912	24992
76	56.670546	113160192	79310848	18532832	24992
77	56.835856	113160192	79310848	20057496	24992
78	58.224591	113160192	79310848	22243480	24992
79	58.735177	113160192	79310848	25088984	24992
80	59.636008	113160192	79310848	28591224	24992
81	60.825225	113160192	79310848	32750248	24992
82	62.065068	113160192	79310848	21096816	24992
83	61.809201	113160192	79310848	26591920	24992
84	62.759842	113160192	79310848	32748392	24992
85	64.385176	113160192	79310848	23068200	24992
86	64.64033	113160192	79310848	30548424	24992
87	65.829225	113160192	79310848	22196424	24992
88	66.49346	113160192	79310848	30999088	24992
89	67.401482	113160192	79310848	23970584	24992
90	68.904617	113160192	79310848	34094760	24992
91	69.784288	113160192	79310848	28394040	24992
92	70.175964	113160192	79310848	23347360	24992
93	70.570502	113160192	79310848	18966688	24992
94	71.087931	113160192	79310848	31740440	24992
95	71.766709	113160192	79310848	28681776	24992
96	73.0266	113160192	79310848	26279520	24992
97	73.90893	113160192	79310848	24532376	24992
98	75.156675	113160192	79310848	23457152	24992
99	75.663588	113160192	79310848	23043704	24992
100	76.513268	113160192	79310848	23292280	24992
101	77.297531	113160192	79310848	24202360	24992
102	0.794861	113160192	79310848	25382872	24992
103	1.511922	113160192	79310848	26720624	24992
104	2.18372	113160192	79310848	28717768	24992
105	2.940189	113160192	79310848	31374320	24992
106	3.642788	113160192	79310848	34690800	24992
107	5.511767	113160192	79310848	22210240	24992
108	5.151179	113160192	79310848	26845512	24992
109	5.746994	113160192	79310848	32140192	24992
110	7.609072	113160192	79310848	21670736	24992
111	7.157618	113160192	79310848	28285184	24992
112	7.872484	113160192	79310848	35559032	24992
113	9.752826	113160192	79310848	27072080	24992
114	9.316447	113160192	79310848	35664760	24992
115	11.470463	113160192	79310848	28497456	24992
116	11.946431	113160192	79310848	21967192	24992
117	11.436271	113160192	79310848	32538096	24992
118	13.810001	113160192	79310848	27334408	24992
119	14.381071	113160192	79310848	22793744	24992
120	14.006412	113160192	79310848	35345048	24992
121	15.839224	113160192	79310848	32129328	24992
122	16.489933	113160192	79310848	29576344	24992
123	17.47626	113160192	79310848	27662960	24992
124	17.867206	113160192	79310848	26411144	24992
125	18.816088	113160192	79310848	25820856	24992
126	19.302989	113160192	79310848	25892584	24992
127	20.149017	113160192	79310848	26625824	24992
128	21.313607	113160192	79310848	28020152	24992
129	22.036982	113160192	79310848	30076136	24992
130	22.647221	113160192	79310848	32793592	24992
131	22.880608	113160192	79310848	36172144	24992
132	25.020352	113160192	79310848	23754552	24992
133	24.68781	113160192	79310848	28428544	24992
134	25.197141	113160192	79310848	33800856	24992
135	27.503259	113160192	79310848	23381720	24992
136	27.25676	113160192	79310848	30043936	24992
137	27.777233	113160192	79310848	37405040	24992
138	29.743251	113160192	79310848	28929864	24992
139	31.088765	113160192	79310848	21163392	24992
140	29.642424	113160192	79310848	30467848	24992
141	31.920009	113160192	79310848	24027016	24992
142	31.344495	113160192	79310848	34656096	24992
143	33.735784	113160192	79310848	29540024	24992
144	33.76069	113160192	79310848	25048880	24992
145	33.689196	113160192	79310848	37656040	24992
146	35.600935	113160192	79310848	34503248	24992
147	36.533165	113160192	79310848	32006984	24992
148	36.84284	113160192	79310848	30162272	24992
149	37.580457	113160192	79310848	28975504	24992
150	40.00909	113160192	79310848	28449840	24992
151	40.775833	113160192	79310848	28586904	24992
152	39.918347	113160192	79310848	29385968	24992
153	40.82669	113160192	79310848	30846816	24992
154	41.390196	113160192	79310848	32969280	24992
155	42.396218	113160192	79310848	35753512	24992
156	44.331062	113160192	79310848	22705936	24992
157	44.310233	113160192	79310848	26813480	24992
158	44.327601	113160192	79310848	31582848	24992
159	45.362525	113160192	79310848	37013384	24992
160	47.408676	113160192	79310848	26612480	24992
161	46.878028	113160192	79310848	33367440	24992
162	49.459239	113160192	79310848	24291392	24992
163	48.825418	113160192	79310848	32365256	24992
164	50.592625	113160192	79310848	24612688	24992
165	50.028906	113160192	79310848	34010096	24992
166	51.797598	113160192	79310848	27588464	24992
167	51.509809	113160192	79310848	38316424	24992
168	53.687813	113160192	79310848	33226872	24992
169	54.68811	113160192	79310848	28800688	24992
170	58.996849	113160192	79310848	25034120	24992
171	54.333003	113160192	79310848	38415312	24992
172	57.142469	113160192	79310848	35981336	24992
173	57.668075	113160192	79310848	34199368	24992
174	57.862225	113160192	79310848	33081992	24992
175	59.203841	113160192	79310848	32610720	24992
176	59.329033	113160192	79310848	32800920	24992
177	60.952835	113160192	79310848	33660744	24992
178	61.100177	113160192	79310848	35173880	24992
179	61.778154	113160192	79310848	37348864	24992
180	63.680492	113160192	79310848	40183400	24992
181	65.783166	113160192	79310848	27209528	24992
182	64.388291	113160192	79310848	31380088	24992
183	65.025698	113160192	79310848	36212592	24992
184	65.376894	113160192	79310848	41703016	24992
185	68.707469	113160192	79310848	31359288	24992
186	67.348831	113160192	79310848	38176936	24992
187	70.406257	113160192	79310848	29163344	24992
188	68.876094	113160192	79310848	37305144	24992
189	71.541089	113160192	79310848	29612136	24992
190	70.187878	113160192	79310848	39073280	24992
191	73.182149	113160192	79310848	32706120	24992
192	71.982063	113160192	79310848	43493680	24992
193	74.563653	113160192	79310848	38449440	24992
194	76.080994	113160192	79310848	34064272	24992
195	77.205855	113160192	79310848	30340008	24992
196	75.694512	113160192	79310848	43767136	24992
197	78.442555	113160192	79310848	41370736	24992
198	78.706254	113160192	79310848	39636264	24992
199	80.324584	113160192	79310848	38562336	24992
200	80.912993	113160192	79310848	38144600	24992
201	81.976113	113160192	79310848	38381432	24992
202	0.807916	113160192	79310848	38893216	24992
203	1.48633	113160192	79310848	40230968	24992
204	2.189751	113160192	79310848	42228112	24992
205	2.880612	113160192	79310848	44884664	24992
206	6.286931	113160192	79310848	31733032	24992
207	4.37114	113160192	79310848	35708952	24992
208	5.033162	113160192	79310848	40344224	24992
209	5.733934	113160192	79310848	45638904	24992
210	8.901992	113160192	79310848	35161280	24992
211	7.156898	113160192	79310848	41775728	24992
212	10.320167	113160192	79310848	32620040	24992
213	8.601667	113160192	79310848	40553424	24992
214	11.759607	113160192	79310848	32710192	24992
215	10.329725	113160192	79310848	41962264	24992
216	13.905335	113160192	79310848	35446552	24992
217	13.928936	113160192	79310848	29577120	24992
218	12.643797	113160192	79310848	40809256	24992
219	16.180938	113160192	79310848	36266216	24992
220	16.310196	113160192	79310848	32386560	24992
221	14.501513	113160192	79310848	45597336	24992
222	17.850482	113160192	79310848	43041520	24992
223	18.632652	113160192	79310848	41149088	24992
224	19.19586	113160192	79310848	39895520	24992
225	19.833419	113160192	79310848	39303944	24992
226	20.61614	113160192	79310848	39373888	24992
227	21.673944	113160192	79310848	40105472	24992
228	22.657861	113160192	79310848	41498512	24992
229	23.168348	113160192	79310848	43558408	24992
230	23.798381	113160192	79310848	46276768	24992
231	27.037648	113160192	79310848	33176824	24992
232	25.247742	113160192	79310848	37200440	24992
233	25.864882	113160192	79310848	41904440	24992
234	29.827299	113160192	79310848	30822320	24992
235	27.546919	113160192	79310848	36823576	24992
236	28.390093	113160192	79310848	43520512	24992
237	31.256644	113160192	79310848	34425480	24992
238	29.789638	113160192	79310848	42408480	24992
239	33.287883	113160192	79310848	34642944	24992
240	30.83833	113160192	79310848	43947080	24992
241	34.768792	113160192	79310848	37506680	24992
242	35.209771	113160192	79310848	31691560	24992
243	33.431109	113160192	79310848	42977280	24992
244	36.623422	113160192	79310848	38521224	24992
245	37.561371	113160192	79310848	34691112	24992
246	37.952964	113160192	79310848	31519352	24992
247	36.605221	113160192	79310848	45447088	24992
248	39.843279	113160192	79310848	43641464	24992
249	40.625554	113160192	79310848	42455944	24992
250	41.252135	113160192	79310848	41932792	24992
251	41.58303	113160192	79310848	42071216	24992
252	43.063197	113160192	79310848	42869784	24992
253	43.122769	113160192	79310848	44328920	24992
254	44.561463	113160192	79310848	46450760	24992
255	47.586517	113160192	79310848	32744672	24992
256	46.0782	113160192	79310848	36189848	24992
257	46.173314	113160192	79310848	40296984	24992
258	47.480819	113160192	79310848	45065224	24992
259	51.903805	113160192	79310848	34012736	24992
260	48.916698	113160192	79310848	40104456	24992
261	49.109573	113160192	79310848	46857480	24992
262	53.19818	113160192	79310848	37779048	24992
263	51.041794	113160192	79310848	45855552	24992
264	54.283074	113160192	79310848	38100152	24992
265	52.38283	113160192	79310848	47500200	24992
266	55.755669	113160192	79310848	41076592	24992
267	56.916292	113160192	79310848	35326464	24992
268	54.283528	113160192	79310848	46715080	24992
269	58.170096	113160192	79310848	42286552	24992
270	59.037771	113160192	79310848	38521432	24992
271	59.843211	113160192	79310848	35407184	24992
272	57.533585	113160192	79310848	49449496	24992
273	61.61076	113160192	79310848	47667592	24992
274	61.8086	113160192	79310848	46546904	24992
275	63.002437	113160192	79310848	46087840	24992
276	64.012421	113160192	79310848	46290328	24992
277	64.605282	113160192	79310848	47154600	24992
278	65.218957	113160192	79310848	48680296	24992
279	66.146966	113160192	79310848	50867680	24992
280	70.453591	113160192	79310848	37228296	24992
281	67.839894	113160192	79310848	40737384	24992
282	68.763526	113160192	79310848	44907528	24992
283	69.306573	113160192	79310848	49736688	24992
284	73.33445	113160192	79310848	38730928	24992
285	70.905964	113160192	79310848	44887624	24992
286	71.604582	113160192	79310848	51702152	24992
287	76.068111	113160192	79310848	42682032	24992
288	77.883982	111067136	77213696	13964504	24992
289	64.711113	111067136	77213696	22708960	24992
290	66.988304	111067136	77213696	15619496	24992
291	66.942134	111067136	77213696	25685128	24992
292	68.449481	111067136	77213696	19934152	24992
293	67.662458	111067136	77213696	14824080	24992
294	68.337506	111067136	77213696	26866440	24992
295	69.675479	111067136	77213696	23085472	24992
296	69.248508	111067136	77213696	19954672	24992
297	70.85863	111067136	77213696	17478688	24992
298	71.142246	111067136	77213696	15671040	24992
299	72.277044	111067136	77213696	14524544	24992
300	72.000094	111067136	77213696	14038912	24992
301	73.150734	111067136	77213696	14214152	24992
302	0.814292	111067136	77213696	14707016	24992
303	1.490425	111067136	77213696	16044768	24992
304	2.197647	111067136	77213696	18041912	24992
305	2.898014	111067136	77213696	20698464	24992
306	3.671122	111067136	77213696	24014944	24992
307	4.363376	111067136	77213696	27990816	24992
308	5.465938	111067136	77213696	16154136	24992
309	5.755804	111067136	77213696	21448816	24992
310	6.508209	111067136	77213696	27403872	24992
311	7.451086	111067136	77213696	17558640	24992
312	7.953319	111067136	77213696	24832488	24992
313	8.942473	111067136	77213696	16298112	24992
314	9.517342	111067136	77213696	24890776	24992
315	10.44716	111067136	77213696	17674672	24992
316	10.807752	111067136	77213696	27586136	24992
317	11.922922	111067136	77213696	21691664	24992
318	12.832899	111067136	77213696	16455568	24992
319	13.27353	111067136	77213696	28347136	24992
320	14.751488	111067136	77213696	24431936	24992
321	15.560715	111067136	77213696	21177856	24992
322	15.625502	111067136	77213696	18578136	24992
323	16.352803	111067136	77213696	16639656	24992
324	17.323347	111067136	77213696	15361576	24992
325	17.741965	111067136	77213696	14743920	24992
326	18.565868	111067136	77213696	14786648	24992
327	19.292896	111067136	77213696	15489864	24992
328	20.269215	111067136	77213696	16855152	24992
329	21.201514	111067136	77213696	18879112	24992
330	21.774938	111067136	77213696	21563008	24992
331	22.095646	111067136	77213696	24906928	24992
332	23.295163	111067136	77213696	28910752	24992
333	23.917391	111067136	77213696	17109856	24992
334	24.169014	111067136	77213696	22436176	24992
335	24.798613	111067136	77213696	28429376	24992
336	26.915356	111067136	77213696	18625648	24992
337	26.933771	111067136	77213696	25948648	24992
338	27.593553	111067136	77213696	17513504	24992
339	28.118039	111067136	77213696	26157320	24992
340	29.413194	111067136	77213696	19047088	24992
341	29.449786	111067136	77213696	29011864	24992
342	31.806044	111067136	77213696	23226432	24992
343	31.752861	111067136	77213696	18073264	24992
344	31.709974	111067136	77213696	30019576	24992
345	33.161602	111067136	77213696	26217240	24992
346	33.856426	111067136	77213696	23047920	24992
347	34.658706	111067136	77213696	20539344	24992
348	35.193979	111067136	77213696	18690272	24992
349	36.273733	111067136	77213696	17503608	24992
350	36.841247	111067136	77213696	16978464	24992
351	37.21669	111067136	77213696	17115648	24992
352	38.623223	111067136	77213696	17914784	24992
353	38.636441	111067136	77213696	19375512	24992
354	39.80252	111067136	77213696	21498048	24992
355	40.585778	111067136	77213696	24281504	24992
356	42.546969	111067136	77213696	27726848	24992
357	42.18512	111067136	77213696	31831976	24992
358	43.229142	111067136	77213696	20110400	24992
359	43.234673	111067136	77213696	25541040	24992
360	43.96115	111067136	77213696	31646240	24992
361	45.232882	111067136	77213696	21907352	24992
362	45.536122	111067136	77213696	29322016	24992
363	46.73268	111067136	77213696	20905232	24992
364	47.328259	111067136	77213696	29644032	24992
365	48.938267	111067136	77213696	22551392	24992
366	48.69346	111067136	77213696	32620608	24992
367	51.635355	111067136	77213696	26866872	24992
368	50.297395	111067136	77213696	21778536	24992
369	51.609154	111067136	77213696	17343640	24992
370	50.966741	111067136	77213696	30062720	24992
371	53.234507	111067136	77213696	26957360	24992
372	53.654465	111067136	77213696	24515648	24992
373	54.655987	111067136	77213696	22722552	24992
374	55.113908	111067136	77213696	21597224	24992
375	56.073861	111067136	77213696	21137160	24992
376	56.976107	111067136	77213696	21338696	24992
377	58.39991	111067136	77213696	22210040	24992
378	59.967182	111067136	77213696	23742824	24992
379	58.5673	111067136	77213696	25928688	24992
380	60.128576	111067136	77213696	28772920	24992
381	60.055449	111067136	77213696	32271640	24992
382	62.180667	111067136	77213696	19942072	24992
383	62.253208	111067136	77213696	24775680	24992
384	63.283629	111067136	77213696	30270840	24992
385	64.609136	111067136	77213696	19934568	24992
386	64.574842	111067136	77213696	26753272	24992
387	64.730164	111067136	77213696	34229872	24992
388	66.825991	111067136	77213696	25871224	24992
389	66.362809	111067136	77213696	34674552	24992
390	68.710865	111067136	77213696	27645832	24992
391	69.240062	111067136	77213696	21273968	24992
392	71.229717	111067136	77213696	32055240	24992
393	71.325377	111067136	77213696	27012040	24992
394	71.640186	111067136	77213696	22630128	24992
395	71.43096	111067136	77213696	35396392	24992
396	72.909142	111067136	77213696	32338000	24992
397	73.996566	111067136	77213696	29941392	24992
398	75.076685	111067136	77213696	28201800	24992
399	76.061523	111067136	77213696	27121160	24992
400	77.008847	111067136	77213696	26707392	24992
401	77.19977	111067136	77213696	26955456	24992
402	0.812113	111067136	77213696	27478376	24992
403	1.492333	111067136	77213696	28816128	24992
404	2.194475	111067136	77213696	30813272	24992
405	2.879347	111067136	77213696	33469824	24992
406	3.661661	111067136	77213696	36786304	24992
407	5.862925	111067136	77213696	24305648	24992
408	5.075526	111067136	77213696	28940968	24992
409	5.791798	111067136	77213696	34235712	24992
410	7.962686	111067136	77213696	23766192	24992
411	7.211028	111067136	77213696	30380640	24992
412	8.004194	111067136	77213696	37654680	24992
413	10.322938	111067136	77213696	29168432	24992
414	9.351413	111067136	77213696	37761096	24992
415	11.855184	111067136	77213696	30594448	24992
416	12.643002	111067136	77213696	24064168	24992
417	11.631395	111067136	77213696	34635040	24992
418	14.12774	111067136	77213696	29431448	24992
419	14.47282	111067136	77213696	24891072	24992
420	14.087897	111067136	77213696	37442392	24992
421	16.129259	111067136	77213696	34226640	24992
422	16.789158	111067136	77213696	31673816	24992
423	17.777007	111067136	77213696	29760496	24992
424	18.718015	111067136	77213696	28508680	24992
425	19.119927	111067136	77213696	27918840	24992
426	19.865446	111067136	77213696	27991000	24992
427	20.64313	111067136	77213696	28724240	24992
428	21.2228	111067136	77213696	30118648	24992
429	22.172157	111067136	77213696	32174552	24992
430	23.021155	111067136	77213696	34891992	24992
431	23.713702	111067136	77213696	38270480	24992
432	25.813245	111067136	77213696	25853784	24992
433	24.995525	111067136	77213696	30527696	24992
434	26.158853	111067136	77213696	35899992	24992
435	27.955583	111067136	77213696	25480952	24992
436	26.985144	111067136	77213696	32143120	24992
437	28.180345	111067136	77213696	39504272	24992
438	30.513747	111067136	77213696	31060424	24992
439	29.324872	111067136	77213696	39709832	24992
440	32.106604	111067136	77213696	32583120	24992
441	33.465971	111067136	77213696	26116032	24992
442	32.132976	111067136	77213696	36741416	24992
443	33.559075	111067136	77213696	31623624	24992
444	35.217207	111067136	77213696	27132432	24992
445	33.724171	111067136	77213696	39739544	24992
446	36.083595	111067136	77213696	36609152	24992
447	36.917497	111067136	77213696	34100984	24992
448	37.932293	111067136	77213696	32256464	24992
449	39.383687	111067136	77737984	31079336	24992
450	39.070416	111337472	77737984	30554088	24992
451	40.58091	111337472	77737984	30700608	24992
452	40.755727	111337472	77737984	31499592	24992
453	41.57491	111337472	77737984	32959992	24992
454	42.147759	111337472	77737984	35083144	24992
455	42.910918	111607808	77737984	37866864	24992
456	44.491336	111607808	77737984	41310376	24992
457	46.702325	111607808	77737984	28927000	24992
458	45.649295	111607808	77737984	33696008	24992
459	45.607388	111607808	77737984	39126288	24992
460	48.169207	111607808	77737984	28724840	24992
461	48.475942	111607808	77737984	35486712	24992
462	49.52502	111607808	77737984	26409976	24992
463	48.780208	111607808	77737984	34482944	24992
464	51.108872	111607808	77737984	26729768	24992
465	50.283617	111607808	77737984	36126184	24992
466	53.780138	111607808	77737984	29704584	24992
467	51.881154	111607808	77737984	40431824	24992
468	54.203002	111607808	77737984	35341416	24992
469	54.78393	111607808	77737984	30914712	24992
470	55.805723	111607808	77737984	27139096	24992
471	54.674206	111607808	77737984	40519680	24992
472	57.101008	111607808	77737984	38075688	24992
473	58.202068	111607808	77737984	36294152	24992
474	58.870339	111607808	77737984	35168288	24992
475	61.101152	111607808	78262272	34696520	24992
476	60.821224	111878144	78262272	34886272	24992
477	61.325326	111878144	78262272	35737712	24992
478	61.705599	111878144	78262272	37250896	24992
479	62.780457	112148480	78262272	39425784	24992
480	63.145592	112148480	78786560	42260288	24992
481	66.885138	112418816	78786560	29283184	24992
482	65.076468	112418816	78786560	33453760	24992
483	65.864073	112418816	78786560	38286248	24992
484	66.696136	112689152	78786560	43777392	24992
485	69.58275	112689152	78786560	33432736	24992
486	68.147927	112689152	78786560	40250800	24992
487	70.954615	112689152	78786560	31237096	24992
488	70.115866	112689152	78786560	39380304	24992
489	72.848276	112689152	78786560	31684400	24992
490	71.388749	112689152	78786560	41141936	24992
491	74.365148	112689152	78786560	34774632	24992
492	73.298722	112689152	78786560	45562128	24992
493	76.076545	112689152	78786560	40518944	24992
494	77.328547	112689152	78786560	36133696	24992
495	77.686811	112689152	78786560	32414656	24992
496	76.165656	112689152	78786560	45841720	24992
497	79.693914	112689152	78786560	43445048	24992
498	80.447383	112689152	78786560	41710384	24992
499	82.225532	112689152	78786560	40638728	24992
500	82.058155	112689152	78786560	40217384	24992
501	82.737241	112689152	78786560	40454440	24992
502	0.795463	112689152	78786560	40966224	24992
503	1.49742	112689152	78786560	42304072	24992
504	2.17683	112689152	78786560	44301216	24992
505	3.131324	112689152	78786560	46957768	24992
506	6.40584	112689152	78786560	33806104	24992
507	4.324632	112689152	78786560	37781976	24992
508	5.023028	112689152	78786560	42417312	24992
509	5.836091	112689152	78786560	47712008	24992
510	9.503334	112689152	78786560	37236160	24992
511	7.44253	112689152	78786560	43850608	24992
512	10.735083	112689152	78786560	34694920	24992
513	8.766773	112689152	78786560	42628176	24992
514	12.426512	112689152	78786560	34782832	24992
515	10.228819	112689152	78786560	44034968	24992
516	13.589961	112689152	78786560	37516696	24992
517	11.660313	112689152	78786560	48087584	24992
518	15.175578	112689152	78786560	42897672	24992
519	16.101254	112689152	78786560	38354848	24992
520	16.653214	112689152	78786560	34455568	24992
521	14.593876	112689152	78786560	47666312	24992
522	18.198791	112689152	78786560	45110480	24992
523	19.894206	112689152	78786560	43232208	24992
524	19.474463	112689152	78786560	41978792	24992
525	20.672717	112689152	78786560	41387192	24992
526	21.640014	112689152	78786560	41457152	24992
527	21.611036	112689152	78786560	42188640	24992
528	22.338174	112689152	78786560	43581664	24992
529	23.376145	112689152	78786560	45635864	24992
530	24.037692	112689152	78786560	48351440	24992
531	28.271255	112689152	78786560	35269392	24992
532	25.46969	112689152	78786560	39279176	24992
533	26.323421	112689152	78786560	43983256	24992
534	30.243916	112689152	78786560	32901136	24992
535	27.981702	112689152	78786560	38902376	24992
536	28.472247	112689152	78786560	45599424	24992
537	32.466213	112689152	78786560	36507016	24992
538	29.615509	112689152	78786560	44490144	24992
539	33.727873	112689152	78786560	36725488	24992
540	30.976727	112689152	78786560	46029584	24992
541	35.036363	112689152	78786560	39587368	24992
542	35.340338	112689152	78786560	33772272	24992
543	33.707035	112689152	78786560	45057888	24992
544	37.102954	112689152	78786560	40601800	24992
545	37.903292	112689152	78786560	36771560	24992
546	38.995876	112689152	78786560	33599720	24992
547	36.413911	112689152	78786560	47527488	24992
548	40.18005	112689152	78786560	45721944	24992
549	40.912601	112689152	78786560	44536328	24992
550	42.614332	112689152	78786560	44014056	24992
551	43.164643	112689152	78786560	44150688	24992
552	43.196416	112689152	78786560	44949208	24992
553	44.354933	112689152	78786560	46409192	24992
554	44.924035	112689152	78786560	48529160	24992
555	49.135448	112689152	78786560	34823040	24992
556	46.129197	112689152	78786560	38288600	24992
557	47.291064	112689152	78786560	42395656	24992
558	47.800093	112689152	78786560	47163880	24992
559	51.522276	112689152	78786560	36100528	24992
560	49.170256	112689152	78786560	42192280	24992
561	51.438173	112689152	78786560	48945304	24992
562	53.784853	112689152	78786560	39866888	24992
563	51.629955	112689152	78786560	47943280	24992
564	55.500138	112689152	78786560	40187944	24992
565	53.694121	112689152	78786560	49587976	24992
566	56.827249	112689152	78786560	43164464	24992
567	58.457534	112689152	78786560	37414256	24992
568	55.265884	112689152	78786560	48802856	24992
569	59.748275	112689152	78786560	44374120	24992
570	60.07885	112689152	78786560	40609192	24992
571	62.07285	112689152	78786560	37495072	24992
572	58.919159	112689152	78786560	51539760	24992
573	67.083441	112689152	78786560	12181368	24992
574	53.650844	112689152	78786560	27648496	24992
575	55.026147	112689152	78786560	27291176	24992
576	55.588293	112689152	78786560	27597416	24992
577	56.243557	112689152	78786560	28567144	24992
578	58.414841	112689152	78786560	13709776	24992
579	58.710349	112689152	78786560	16003768	24992
580	58.794774	112689152	78786560	18960888	24992
581	59.44529	112689152	78786560	22580872	24992
582	60.750972	112689152	78786560	26860144	24992
583	61.660028	112689152	78786560	15306344	24992
584	62.315003	112689152	78786560	20916712	24992
585	62.826264	112689152	78786560	27186376	24992
586	65.021235	112959488	80359424	17622064	24992
587	64.894764	113229824	81932288	25221992	24992
588	67.047012	113500160	84029440	16991240	24992
589	66.550999	113500160	85602304	25917064	24992
590	68.167386	113770496	87699456	19012416	24992
591	68.242613	114040832	89272320	29264568	24992
592	69.807719	114311168	91369472	23686448	24992
593	71.200253	114581504	93466624	18765704	24992
594	70.729867	114581504	95039488	30999648	24992
595	73.157703	114851840	95039488	27370880	24992
596	73.429704	114851840	95039488	24311984	24992
597	74.558052	115122176	95039488	21909592	24992
598	74.802648	115122176	95039488	20173080	24992
599	76.076067	115392512	95039488	19098056	24992
600	76.891476	115662848	95039488	18684840	24992
601	78.39411	115662848	95039488	18932832	24992
602	0.800911	115662848	95039488	19455496	24992
603	1.518038	115662848	95039488	20793248	24992
604	2.202492	115662848	95039488	22790392	24992
605	2.939867	115662848	95039488	25446944	24992
606	3.620322	115662848	95039488	28763424	24992
607	4.38386	115662848	95039488	32739296	24992
608	6.771677	115662848	95039488	20925912	24992
609	6.174354	115662848	95039488	26220624	24992
610	6.453739	115662848	95039488	32175680	24992
611	8.93334	115933184	95039488	22375616	24992
612	7.931762	115933184	95039488	29649528	24992
613	10.149499	115933184	95039488	21152576	24992
614	9.549518	115933184	95039488	29745240	24992
615	12.101192	115933184	95039488	22565040	24992
616	10.746733	115933184	95039488	32476504	24992
617	13.295157	115933184	95039488	26623280	24992
618	14.052439	115933184	95039488	21419344	24992
619	13.354947	115933184	95039488	33310880	24992
620	15.567045	115933184	95039488	29431200	24992
621	15.969744	115933184	95039488	26214976	24992
622	17.114108	115933184	95039488	23639640	24992
623	17.664801	115933184	95039488	21725896	24992
624	18.5329	116203520	95039488	20474520	24992
625	18.906292	116203520	95039488	19884656	24992
626	20.236673	116203520	95039488	19956360	24992
627	20.821874	116203520	95039488	20689576	24992
628	21.643102	116203520	95039488	22084344	24992
629	22.621292	116203520	95039488	24140640	24992
630	22.813266	116203520	95039488	26857592	24992
631	23.657758	116203520	95039488	30236184	24992
632	24.514789	116203520	95039488	34275832	24992
633	27.030717	116473856	95039488	22516896	24992
634	26.235775	116473856	95039488	27859168	24992
635	26.890307	116473856	95039488	33893096	24992
636	28.850438	116473856	95039488	24134888	24992
637	28.295131	116473856	95039488	31456640	24992
638	30.445055	116473856	95039488	23028696	24992
639	30.001062	116473856	95039488	31672336	24992
640	31.872414	116744192	95039488	24569736	24992
641	30.680158	116744192	95039488	34533680	24992
642	33.484063	116744192	95039488	28756576	24992
643	34.316587	116744192	95039488	23603536	24992
644	34.806167	117014528	95039488	19108784	24992
645	33.636186	117014528	95039488	31715480	24992
646	36.429673	117014528	95039488	28584832	24992
647	37.194458	117014528	95039488	26078208	24992
648	38.284561	117014528	95039488	24229216	24992
649	38.95675	117284864	95039488	23044512	24992
650	39.374978	117284864	95039488	22519368	24992
651	40.253152	117284864	95039488	22656840	24992
652	41.186946	117284864	95039488	23456024	24992
653	41.947109	117555200	95039488	24917848	24992
654	42.439523	117555200	95039488	27040104	24992
655	43.170935	117555200	95039488	29823920	24992
656	45.708446	117555200	95039488	33270840	24992
657	49.414545	117825536	95039488	20884552	24992
658	45.776283	117825536	95039488	25661792	24992
659	46.548056	117825536	95039488	31091832	24992
660	48.59916	118095872	95039488	20692240	24992
661	47.564597	118095872	95039488	27442288	24992
662	48.277463	118095872	95039488	34857168	24992
663	51.015425	118366208	95039488	26440696	24992
664	49.7231	118366208	95039488	35178896	24992
665	52.573301	118366208	95039488	28085904	24992
666	53.637218	118636544	95039488	21665880	24992
667	51.892282	118636544	95039488	32396752	24992
668	54.763147	118636544	95039488	27307528	24992
669	55.686911	118906880	95039488	22877056	24992
670	54.584662	118906880	95039488	35596336	24992
671	57.169471	119177216	95039488	32491112	24992
672	57.723352	119177216	95039488	30048288	24992
673	58.684493	119177216	95039488	28260984	24992
674	59.257746	119447552	95039488	27131528	24992
675	60.385598	119447552	95039488	26671200	24992
676	61.128699	119717888	95039488	26872712	24992
677	61.830051	119717888	95039488	27737864	24992
678	62.905564	119717888	95039488	29261864	24992
679	63.829917	119988224	95039488	31445760	24992
680	64.231867	119988224	95039488	34286080	24992
681	65.055607	120258560	95039488	37782384	24992
682	68.115183	120258560	95039488	25467264	24992
683	67.01885	120258560	95039488	30300680	24992
684	67.786743	120528896	95039488	35793920	24992
685	71.217212	120528896	95039488	25456704	24992
686	69.92535	120528896	95039488	32275408	24992
687	69.839512	120799232	95039488	39751912	24992
688	73.572229	120799232	95039488	31393712	24992
689	71.849577	121069568	95039488	40193264	24992
690	75.106351	121339904	95039488	33158240	24992
691	75.88668	121339904	95039488	26786312	24992
692	73.783722	121610240	95039488	37567264	24992
693	77.428288	121610240	95039488	32523536	24992
694	78.051381	121880576	95039488	28136192	24992
695	76.853306	122150912	95039488	40902216	24992
696	80.136506	122150912	95039488	37844032	24992
697	80.826463	122421248	95039488	35447168	24992
698	83.508482	122421248	95039488	33707208	24992
699	82.19603	122421248	95039488	32621184	24992
700	82.762809	122691584	95039488	32201888	24992
701	83.736866	122691584	95039488	32449568	24992
702	0.803473	122961920	95039488	32971800	24992
703	1.491001	122961920	95039488	34309536	24992
704	2.427817	122961920	95039488	36306664	24992
705	2.982809	122961920	95039488	38971976	24992
706	3.601899	122961920	95039488	42288440	24992
707	7.533008	122961920	95039488	29805000	24992
708	5.02687	122961920	95039488	34440304	24992
709	5.956384	122961920	95039488	39735080	24992
710	9.518652	122961920	95039488	29261384	24992
711	7.17189	122961920	95039488	35875832	24992
712	8.071752	122961920	95039488	43149664	24992
713	12.005214	122961920	95039488	34659392	24992
714	9.513762	122961920	95039488	43252040	24992
715	13.119269	122961920	95039488	36076040	24992
716	14.202199	122961920	95039488	29545216	24992
717	11.795702	122961920	95039488	40116136	24992
718	15.619488	122961920	95039488	34917448	24992
719	16.309965	122961920	95039488	30375360	24992
720	13.892777	122961920	95039488	42926648	24992
721	17.626765	123232256	95039488	39708808	24992
722	18.857396	123232256	95039488	37155440	24992
723	19.351745	123232256	95039488	35241120	24992
724	19.975751	123232256	95039488	33988320	24992
725	20.84505	123232256	95039488	33397064	24992
726	21.520776	123232256	95039488	33467376	24992
727	21.777774	123232256	95039488	34199264	24992
728	22.736994	123232256	95039488	35592640	24992
729	24.055639	123232256	95039488	37647576	24992
730	24.387137	123502592	95039488	40364064	24992
731	25.322907	123502592	95039488	43741520	24992
732	28.750774	123502592	95039488	31311512	24992
733	26.566957	123502592	95039488	35993120	24992
734	28.211553	123502592	95039488	41372904	24992
735	31.351705	123502592	95039488	30952888	24992
736	28.373437	123502592	95039488	37614768	24992
737	32.875293	123772928	95039488	28526208	24992
738	30.841592	123772928	95039488	36509016	24992
739	34.322183	123772928	95039488	28741816	24992
740	31.752422	123772928	95039488	38045808	24992
741	35.965164	123772928	95039488	31604016	24992
742	33.700945	123772928	95039488	42229304	24992
743	37.09883	124043264	95039488	37110440	24992
744	37.823248	124043264	95039488	32618720	24992
745	38.415392	124043264	95039488	28785392	24992
746	36.424925	124043264	95039488	42052488	24992
747	40.02524	124313600	95039488	39584120	24992
748	41.363813	124313600	95039488	37738608	24992
749	41.657467	124313600	95039488	36551264	24992
750	42.108862	124313600	95039488	36025440	24992
751	43.387089	124313600	95039488	36161960	24992
752	43.939708	124583936	95039488	36960432	24992
753	44.358975	124583936	95039488	38420576	24992
754	45.61679	124583936	95039488	40542496	24992
755	45.985647	124583936	95039488	43324904	24992
756	50.047826	124854272	95039488	30278544	24992
757	48.016893	124854272	95039488	34385472	24992
758	48.050778	124854272	95039488	39153776	24992
759	49.099261	124854272	95039488	44583784	24992
760	52.890187	125124608	95039488	34182096	24992
761	50.103493	125124608	95039488	40935712	24992
762	55.249326	125124608	95039488	31857976	24992
763	51.992267	125394944	95039488	39932776	24992
764	56.212872	125394944	95039488	32179456	24992
765	53.474149	125394944	95039488	41575952	24992
766	57.961093	125394944	95039488	35153448	24992
767	54.726212	125665280	95039488	45887968	24992
768	59.440744	125665280	95039488	40796904	24992
769	60.085565	125665280	95039488	36370024	24992
770	60.910875	125935616	95039488	32593672	24992
771	58.711807	125935616	95039488	45974288	24992
772	62.303199	126205952	95039488	43530616	24992
773	63.164584	126205952	95039488	41748568	24992
774	63.613805	126476288	95039488	40629624	24992
775	64.764712	126476288	95039488	40158000	24992
776	65.380419	126746624	95039488	40347880	24992
777	66.363072	126746624	95039488	41199368	24992
778	67.442066	126746624	95039488	42713544	24992
779	68.176831	127016960	95039488	44887984	24992
780	69.126559	127016960	95039488	47722408	24992
781	72.910638	127287296	95039488	34744664	24992
782	70.505449	127287296	95039488	38915352	24992
783	70.73071	127557632	95039488	43748064	24992
784	71.828192	127557632	95563776	49238120	24992
785	76.649031	127557632	95563776	38901232	24992
786	73.208146	127827968	95563776	45719072	24992
787	78.139281	127827968	95563776	36705368	24992
788	74.783895	128098304	95563776	44847040	24992
789	79.578206	128098304	96088064	37156672	24992
790	76.712818	128368640	96088064	46624576	24992
791	81.157782	128368640	96088064	40257352	24992
792	83.878412	128638976	96088064	34557040	24992
793	79.240813	128638976	96088064	45999136	24992
794	83.657919	128638976	96088064	41617424	24992
795	84.81752	128909312	96612352	37891288	24992
796	84.567618	128909312	96612352	51318480	24992
797	87.057286	129179648	96612352	48918176	24992
798	87.251905	129179648	96612352	47183512	24992
799	88.100626	129449984	96612352	46109616	24992
800	88.781216	129449984	96612352	45694424	24992
801	89.388355	129720320	96612352	45934800	24992
802	0.796668	129720320	96612352	46446792	24992
803	1.498744	129720320	96612352	47784544	24992
804	2.173555	129720320	96612352	49781672	24992
805	2.939222	129720320	96612352	52438208	24992
806	8.135217	129720320	96612352	39285920	24992
807	4.552542	129720320	96612352	43261776	24992
808	5.020303	129720320	96612352	47897032	24992
809	10.456766	129720320	96612352	36750472	24992
810	6.600532	129720320	96612352	42705512	24992
811	7.207359	129720320	96612352	49319944	24992
812	12.678024	129720320	97136640	40164136	24992
813	8.906924	129720320	97136640	48097376	24992
814	14.17117	129720320	97136640	40263016	24992
815	10.318391	129720320	97136640	49515104	24992
816	15.839126	129720320	97136640	42996704	24992
817	16.47274	129990656	97136640	37127072	24992
818	12.677742	129990656	97136640	48359200	24992
819	18.105443	129990656	97136640	43817056	24992
820	18.791704	129990656	97136640	39939112	24992
821	19.578503	129990656	97136640	36703616	24992
822	27.433183	118456320	85602304	17410512	24992
823	16.538765	118456320	85602304	15467496	24992
824	17.382012	118456320	85602304	14190720	24992
825	17.85203	118456320	85602304	13574264	24992
826	18.682818	118456320	85602304	13618272	24992
827	19.782949	118456320	85602304	14322752	24992
828	20.402256	118456320	85602304	15687744	24992
829	21.19185	118456320	85602304	17713160	24992
830	21.658453	118456320	85602304	20398256	24992
831	22.182867	118456320	85602304	23745600	24992
832	22.899318	118456320	85602304	27751896	24992
833	24.160083	118456320	85602304	15944992	24992
834	25.931084	118456320	85602304	21291248	24992
835	25.572224	118456320	85602304	27286496	24992
836	25.996455	118456320	85602304	17474960	24992
837	26.751257	118456320	85602304	24785240	24992
838	28.273718	118456320	85602304	16301104	24992
839	28.876787	118456320	85602304	24932728	24992
840	29.379267	118456320	85602304	17771040	24992
841	29.6329	118456320	85602304	27722328	24992
842	31.189584	118456320	85602304	21886104	24992
843	31.359301	118456320	85602304	16701064	24992
844	31.718754	118456320	85602304	28631152	24992
845	32.72888	118456320	85602304	24734936	24992
846	33.878403	118456320	85602304	21533688	24992
847	33.797093	118456320	85602304	18992360	24992
848	35.030718	118456320	85602304	17107992	24992
849	35.498718	118456320	85602304	15885216	24992
850	36.66093	118456320	85602304	15354192	24992
851	36.727731	118456320	85602304	15453760	24992
852	37.336653	118456320	85602304	16214656	24992
853	38.333624	118456320	85602304	17636552	24992
854	39.643506	118456320	85602304	19718944	24992
855	40.022175	118456320	85602304	22461968	24992
856	40.845757	118456320	85602304	25866224	24992
857	40.771004	118456320	85602304	13438056	24992
858	41.530121	118456320	85602304	18164192	24992
859	42.865953	118456320	85602304	23551216	24992
860	43.270867	118456320	85602304	29598928	24992
861	44.323611	118726656	85602304	19814680	24992
862	45.52642	118726656	85602304	27185448	24992
863	45.691382	118726656	85602304	18722712	24992
864	46.558676	118726656	85602304	27414216	24992
865	48.833506	118726656	85602304	20273728	24992
866	47.840597	118726656	85602304	30296184	24992
867	49.58503	118726656	85602304	24501704	24992
868	49.105031	118726656	85602304	19413160	24992
869	50.325131	118996992	86126592	14975584	24992
870	50.714297	118996992	86126592	27694856	24992
871	52.017779	119267328	86126592	24589416	24992
872	52.238049	119267328	86126592	22147576	24992
873	53.188227	119267328	86126592	20352768	24992
874	53.800722	119537664	86126592	19223384	24992
875	55.071723	119537664	86126592	18763320	24992
876	56.016059	119537664	86126592	18964696	24992
877	56.822358	119537664	86126592	19827712	24992
878	56.921382	119537664	86126592	21351880	24992
879	58.102211	119537664	86126592	23537336	24992
880	58.800414	119537664	86126592	26381288	24992
881	59.296691	119537664	86126592	29878384	24992
882	60.391703	119537664	86126592	17555712	24992
883	60.947629	119537664	86126592	22388992	24992
884	62.083323	119537664	86126592	27883936	24992
885	63.470955	119537664	86126592	17547192	24992
886	63.786462	119537664	86126592	24366216	24992
887	64.164483	119537664	86126592	31842392	24992
888	65.285555	119537664	86126592	23482968	24992
889	66.117636	119537664	86126592	32286520	24992
890	67.148873	119808000	86126592	25253816	24992
891	68.165709	119808000	86126592	18881480	24992
892	67.814392	119808000	86126592	29662328	24992
893	70.091869	119808000	86126592	24618512	24992
894	70.305306	119808000	86126592	20230712	24992
895	71.061188	119808000	86126592	33004896	24992
896	73.118983	119808000	86126592	29955432	24992
897	72.84603	119808000	86126592	27559176	24992
898	73.725069	119808000	86126592	25819504	24992
899	74.33336	119808000	86126592	24733624	24992
900	75.152275	119808000	86126592	24319984	24992
901	75.801126	119808000	86126592	24567872	24992
902	0.802866	119808000	86126592	25090856	24992
903	1.546586	119808000	86126592	26428592	24992
904	2.184339	119808000	86126592	28425720	24992
905	2.937835	119808000	86126592	31082256	24992
906	3.645909	119808000	86126592	34398720	24992
907	5.416596	119808000	86126592	21918096	24992
908	5.17324	119808000	86126592	26553400	24992
909	5.745519	119808000	86126592	31848176	24992
910	7.638645	119808000	86126592	21378688	24992
911	7.433769	119808000	86126592	27993120	24992
912	7.889436	119808000	86126592	35266952	24992
913	9.783144	119808000	86126592	26779984	24992
914	9.64621	119808000	86126592	35372632	24992
915	11.102662	119808000	86126592	28205296	24992
916	11.816709	119808000	86126592	21674984	24992
917	11.492904	119808000	86126592	32245872	24992
918	13.326252	119808000	86126592	27042168	24992
919	14.092019	119808000	86126592	22501488	24992
920	13.681416	119808000	86126592	35052776	24992
921	15.799005	119808000	86126592	31837056	24992
922	16.425845	119808000	86126592	29284104	24992
923	17.285964	119808000	86126592	27370704	24992
924	17.848622	119808000	86126592	26118856	24992
925	18.615774	119808000	86126592	25528648	24992
926	19.486053	119808000	86126592	25600360	24992
927	20.271908	119808000	86126592	26333632	24992
928	21.001779	119808000	86126592	27727992	24992
929	21.78212	119808000	86126592	29783912	24992
930	22.115661	119808000	86126592	32501304	24992
931	22.947052	119808000	86126592	35879776	24992
932	25.354453	119808000	86126592	23462232	24992
933	24.40399	119808000	86126592	28136160	24992
934	25.922858	119808000	86126592	33508440	24992
935	27.055016	119808000	86126592	23089352	24992
936	26.77076	119808000	86126592	29751520	24992
937	28.655175	119808000	86126592	20663760	24992
938	28.51431	119808000	86126592	28646952	24992
939	30.286349	119808000	86126592	20880712	24992
940	29.986767	119808000	86126592	30184992	24992
941	31.475181	119808000	86126592	23744080	24992
942	31.731133	119808000	86126592	34369496	24992
943	33.008719	119808000	86126592	29251608	24992
944	33.942349	119808000	86126592	24760544	24992
945	33.2389	119808000	86126592	37367592	24992
946	35.237151	119808000	86126592	34211256	24992
947	35.637958	119808000	86126592	31718488	24992
948	36.642122	119808000	86126592	29873776	24992
949	37.356225	119808000	86126592	28687120	24992
950	37.987071	119808000	86126592	28161904	24992
951	38.663146	119808000	86126592	28299096	24992
952	39.418273	119808000	86126592	29098096	24992
953	40.426596	119808000	86126592	30558800	24992
954	41.000147	119808000	86126592	32681296	24992
955	41.796833	119808000	86126592	35465192	24992
956	43.963779	119808000	86126592	22417568	24992
957	43.904388	119808000	86126592	26525008	24992
958	44.293192	119808000	86126592	31294336	24992
959	44.905088	119808000	86126592	36725032	24992
960	46.888979	119808000	86126592	26323936	24992
961	46.312574	119808000	86126592	33078336	24992
962	48.480858	119808000	86126592	24002288	24992
963	47.597728	119808000	86126592	32075720	24992
964	50.028319	119808000	86126592	24323120	24992
965	49.414088	119808000	86126592	33720240	24992
966	51.729777	119808000	86126592	27298672	24992
967	51.377596	119808000	86126592	38026568	24992
968	53.298713	119808000	86126592	32936800	24992
969	54.042404	119808000	86126592	28510960	24992
970	54.498524	119808000	86126592	24735504	24992
971	53.851274	119808000	86126592	38116712	24992
972	55.820614	119808000	86126592	35673376	24992
973	56.916013	119808000	86126592	33891792	24992
974	58.478739	119808000	86126592	32782600	24992
975	58.508016	119808000	86126592	32311488	24992
976	60.398807	119808000	86126592	32511272	24992
977	60.045388	119808000	86126592	33363096	24992
978	61.303275	119808000	86126592	34877560	24992
979	61.590345	119808000	86126592	37052656	24992
980	62.858857	119808000	86126592	39887448	24992
981	65.988416	119808000	86126592	26918888	24992
982	63.979179	119808000	86126592	31089880	24992
983	65.502849	119808000	86126592	35922512	24992
984	67.241461	119808000	86126592	41413512	24992
985	68.0803	119808000	86126592	31070648	24992
986	66.956859	119808000	86126592	37888296	24992
987	69.972925	119808000	86126592	28874736	24992
988	68.316656	119808000	86126592	37016296	24992
989	71.62769	119808000	86126592	29323032	24992
990	69.969471	119808000	86126592	38784160	24992
991	72.993757	119808000	86126592	32417176	24992
992	71.74458	119808000	86126592	43204512	24992
993	74.956222	119808000	86126592	38157616	24992
994	75.150635	119808000	86126592	33772448	24992
995	76.372938	119808000	86126592	30048040	24992
996	75.436086	119808000	86126592	43475136	24992
997	78.388022	119808000	86126592	41079056	24992
998	78.618062	120078336	86126592	39344280	24992
999	79.699048	120078336	86126592	38270320	24992
1000	80.417299	120078336	86126592	37852552	24992
