x	Duration	RSS	HeapTotal	HeapUsed	External
0	NA	108322816	74067968	11152984	24992
1	0.930947	108322816	74067968	11833072	24992
2	1.568973	108322816	74067968	13171416	24992
3	2.270525	108322816	74067968	15169176	24992
4	3.043197	108322816	74067968	17826408	24992
5	4.021675	108322816	74067968	21143760	24992
6	4.506645	108322816	74067968	25120600	24992
7	5.90758	108322816	74067968	13290864	24992
8	5.979824	108322816	74067968	18586800	24992
9	6.887358	108322816	74067968	24543240	24992
10	7.69675	108322816	74067968	14700080	24992
11	8.269383	108322816	74067968	21975632	24992
12	9.586573	108322816	74067968	13443400	24992
13	9.998821	108322816	74067968	22038024	24992
14	10.685316	108322816	74067968	14824104	24992
15	11.07504	108322816	74067968	24737880	24992
16	12.270434	108322816	74067968	18845784	24992
17	12.946397	108322816	74067968	13611920	24992
18	13.607617	108322816	74067968	25506264	24992
19	14.545944	108322816	74067968	21594424	24992
20	15.049884	108322816	74067968	18343704	24992
21	16.441389	108322816	74067968	15746832	24992
22	16.506965	108322816	74067968	13811408	24992
23	17.776411	108322816	74067968	12541688	24992
24	18.582924	108322816	74067968	11927312	24992
25	19.493431	108322816	74067968	11973584	24992
26	20.787884	108322816	74067968	12694680	24992
27	20.593232	108322816	74067968	14062328	24992
28	21.680684	108322816	74067968	16090576	24992
29	22.334069	108322816	74067968	18779336	24992
30	23.075014	108322816	74067968	22129360	24992
31	23.516432	108322816	74067968	26138160	24992
32	24.609633	108322816	74067968	14342992	24992
33	25.593859	108322816	74067968	19674744	24992
34	25.613045	108322816	74067968	25673392	24992
35	27.172839	108322816	74067968	15869296	24992
36	27.506606	108322816	74067968	23180944	24992
37	28.199221	108322816	74067968	14698544	24992
38	28.812848	108322816	74067968	23330632	24992
39	29.646741	108322816	74067968	16170464	24992
40	30.062163	108322816	74067968	26123176	24992
41	31.072742	108322816	74067968	20284992	24992
42	31.486849	108322816	74067968	15104328	24992
43	32.329675	108322816	74067968	27037784	24992
44	32.887933	108322816	74067968	23179352	24992
45	34.196933	108322816	74067968	19982432	24992
46	34.984624	108322816	74067968	17441120	24992
47	35.259299	108322816	74067968	15561024	24992
48	36.450339	108322816	74067968	14342072	24992
49	37.406741	108322816	74067968	13783856	24992
50	37.676224	108322816	74067968	13887440	24992
51	38.547935	108322816	74067968	14652288	24992
52	39.557197	108322816	74067968	16078376	24992
53	39.879647	108322816	74067968	18165424	24992
54	40.545041	108322816	74067968	20913376	24992
55	41.478059	108322816	74067968	24321968	24992
56	42.397434	108322816	74067968	28389344	24992
57	43.110816	108322816	74067968	16626704	24992
58	43.597573	108322816	74067968	22015936	24992
59	44.154418	108322816	74067968	28065824	24992
60	45.035987	108322816	74067968	18283528	24992
61	46.324586	108322816	74067968	25656328	24992
62	47.832378	108322816	74067968	17207648	24992
63	46.980974	108322816	74067968	25946384	24992
64	48.129264	108322816	74067968	18853352	24992
65	48.615261	108322816	74067968	28923096	24992
66	49.264403	108322816	74067968	23171008	24992
67	50.042856	108322816	74067968	18082848	24992
68	50.895483	108322816	74067968	30133528	24992
69	52.021326	108322816	74067968	26366848	24992
70	53.098183	108322816	74067968	23261552	24992
71	53.54806	108322816	74067968	20819808	24992
72	54.665569	108322816	74067968	19028520	24992
73	55.46181	108322816	74067968	17906880	24992
74	56.710269	108322816	74067968	17447456	24992
75	57.021092	108322816	74067968	17648816	24992
76	57.787151	108322816	74067968	18511736	24992
77	57.949391	108322816	74067968	20036400	24992
78	59.509944	108322816	74067968	22222384	24992
79	59.880325	108322816	74067968	25067888	24992
80	60.671955	108322816	74067968	28570128	24992
81	61.118489	108322816	74067968	32730448	24992
82	63.154581	108322816	74067968	21077016	24992
83	62.849234	108322816	74067968	26572152	24992
84	64.269093	108322816	74067968	32728432	24992
85	65.333195	108322816	74067968	23043768	24992
86	67.038447	108322816	74067968	30525904	24992
87	67.352648	108322816	74067968	22174016	24992
88	67.168799	108322816	74067968	30976696	24992
89	68.315366	108322816	74067968	23948192	24992
90	69.050402	108322816	74067968	34072416	24992
91	70.478195	108322816	74067968	28361400	24992
92	71.887745	108322816	74067968	23323032	24992
93	73.118637	108322816	74067968	18942392	24992
94	72.642337	108322816	74067968	31715824	24992
95	74.166959	108322816	74067968	28657224	24992
96	74.400517	108322816	74067968	26255032	24992
97	75.486008	108322816	74067968	24508080	24992
98	76.42749	108322816	74067968	23432776	24992
99	76.969808	108322816	74067968	23019344	24992
100	77.910554	108322816	74067968	23267888	24992
101	79.034703	108322816	74067968	24178032	24992
102	0.807562	108322816	74067968	25358672	24992
103	1.512508	108322816	74067968	26696424	24992
104	2.238905	108322816	74067968	28693568	24992
105	3.0203	108322816	74067968	31350120	24992
106	3.669442	108322816	74067968	34666600	24992
107	5.752235	108322816	74067968	22185992	24992
108	5.131865	108322816	74067968	26821264	24992
109	5.847988	108322816	74067968	32115944	24992
110	8.129327	108322816	74067968	21646504	24992
111	7.452592	108322816	74067968	28260952	24992
112	8.153704	108322816	74067968	35534800	24992
113	10.191383	108322816	74067968	27047848	24992
114	9.683966	108322816	74067968	35640528	24992
115	11.700977	108322816	74067968	28473240	24992
116	12.465662	108322816	74067968	21943024	24992
117	11.681476	108322816	74067968	32513960	24992
118	13.807124	108322816	74067968	27310272	24992
119	14.504389	108322816	74067968	22769672	24992
120	14.029224	108322816	74067968	35320976	24992
121	16.553708	108322816	74067968	32105304	24992
122	16.767275	108322816	74067968	29552320	24992
123	17.978789	108322816	74067968	27638936	24992
124	18.197625	108322816	74067968	26387200	24992
125	19.379631	108322816	74067968	25796928	24992
126	20.102436	108322816	74067968	25868720	24992
127	20.954061	108322816	74067968	26602232	24992
128	21.601664	108322816	74067968	27996560	24992
129	22.567719	108322816	74067968	30052544	24992
130	22.946402	108322816	74067968	32770016	24992
131	23.896264	108322816	74067968	36148536	24992
132	25.728921	108322816	74067968	23730944	24992
133	25.374182	108322816	74067968	28404904	24992
134	25.857936	108322816	74067968	33777200	24992
135	28.458552	108322816	74067968	23358048	24992
136	27.643332	108322816	74067968	30020232	24992
137	28.63559	108322816	74067968	37381368	24992
138	30.373983	108322816	74067968	28906080	24992
139	31.435222	108322816	74067968	21139656	24992
140	31.369529	108322816	74067968	30443904	24992
141	32.85388	108322816	74067968	24003088	24992
142	32.247197	108322816	74067968	34632184	24992
143	34.317703	108322816	74067968	29516176	24992
144	34.82038	108322816	74067968	25025000	24992
145	34.208247	108322816	74067968	37632112	24992
146	36.867181	108322816	74067968	34478648	24992
147	37.023296	108322816	74067968	31981792	24992
148	37.940864	108322816	74067968	30137032	24992
149	38.312616	108322816	74067968	28950280	24992
150	39.061099	108322816	74067968	28425336	24992
151	40.533129	108322816	74067968	28562384	24992
152	40.875137	108322816	74067968	29361512	24992
153	41.64491	108322816	74067968	30822232	24992
154	42.357394	108322816	74067968	32944728	24992
155	42.961212	108322816	74067968	35728752	24992
156	45.566147	108322816	74067968	22681112	24992
157	44.937808	108322816	74067968	26790168	24992
158	46.947482	108322816	74067968	31559544	24992
159	46.414393	108322816	74067968	36990192	24992
160	49.013495	108322816	74067968	26589176	24992
161	47.842018	108322816	74067968	33343704	24992
162	50.167801	108322816	74067968	24267656	24992
163	49.417618	108322816	74067968	32341280	24992
164	51.738457	108322816	74067968	24588616	24992
165	50.756251	108322816	74067968	33985816	24992
166	53.180835	108322816	74067968	27564216	24992
167	53.88615	108322816	74067968	38292032	24992
168	54.743929	108322816	74067968	33202440	24992
169	55.885826	108322816	74067968	28776408	24992
170	57.684896	108322816	74067968	25009472	24992
171	56.599609	108322816	74067968	38399944	24992
172	57.934907	108322816	74067968	35956304	24992
173	59.009075	108322816	74067968	34174320	24992
174	59.855015	108322816	74067968	33056912	24992
175	60.509029	108322816	74067968	32585544	24992
176	61.383697	108322816	74067968	32775808	24992
177	63.260669	108322816	74067968	33635712	24992
178	63.149735	108322816	74592256	35148832	24992
179	64.132061	108593152	74592256	37323688	24992
180	64.554194	108593152	74592256	40158128	24992
181	67.180784	108593152	74592256	27182608	24992
182	66.2034	108863488	74592256	31353248	24992
183	67.668726	108863488	74592256	36185752	24992
184	68.257904	108863488	74592256	41676832	24992
185	71.09395	108863488	74592256	31332784	24992
186	69.099629	108863488	74592256	38150608	24992
187	72.384122	108863488	74592256	29137336	24992
188	70.738772	108863488	74592256	37279168	24992
189	73.880122	108863488	74592256	29586216	24992
190	72.467569	108863488	74592256	39047320	24992
191	77.608812	108863488	74592256	32680224	24992
192	74.710273	108863488	74592256	43467672	24992
193	77.154682	108863488	74592256	38422792	24992
194	78.194454	108863488	74592256	34037608	24992
195	78.772056	108863488	74592256	30313104	24992
196	77.391875	108863488	74592256	43740488	24992
197	81.430767	108863488	74592256	41342120	24992
198	81.751138	108863488	74592256	39607888	24992
199	82.71531	108863488	74592256	38533832	24992
200	83.46691	108863488	74592256	38116144	24992
201	84.071355	108863488	74592256	38352896	24992
202	0.80975	108863488	74592256	38864760	24992
203	1.503919	108863488	74592256	40202512	24992
204	2.233877	108863488	74592256	42199656	24992
205	2.986037	108863488	74592256	44856208	24992
206	6.475977	108863488	74592256	31704576	24992
207	4.509166	108863488	74592256	35680512	24992
208	5.206138	108863488	74592256	40315784	24992
209	5.843633	108863488	74592256	45610464	24992
210	9.518696	108863488	74592256	35132952	24992
211	7.435441	108863488	74592256	41747400	24992
212	11.219987	108863488	74592256	32591712	24992
213	8.851391	108863488	74592256	40524968	24992
214	12.71602	108863488	74592256	32681080	24992
215	10.544557	108863488	74592256	41933152	24992
216	13.823455	108863488	74592256	35414848	24992
217	14.823991	108863488	74592256	29545224	24992
218	12.837223	108863488	74592256	40777360	24992
219	16.430412	108863488	74592256	36234352	24992
220	16.783094	108863488	74592256	32354696	24992
221	15.180515	108863488	74592256	45565456	24992
222	18.834669	108863488	74592256	43009640	24992
223	19.149327	108863488	74592256	41117912	24992
224	19.837108	108863488	74592256	39864488	24992
225	20.71266	108863488	74592256	39272928	24992
226	21.706609	108863488	74592256	39342888	24992
227	22.065473	108863488	74592256	40074424	24992
228	22.929236	108863488	74592256	41467480	24992
229	23.935205	108863488	74592256	43527376	24992
230	24.563642	108863488	74592256	46245736	24992
231	28.226032	108863488	74592256	33146568	24992
232	26.094415	108863488	74592256	37170064	24992
233	26.806481	108863488	74592256	41874144	24992
234	30.475523	108863488	74592256	30791992	24992
235	28.577716	108863488	74592256	36793248	24992
236	29.123193	108863488	74592256	43490232	24992
237	33.200017	108863488	74592256	34395392	24992
238	30.844961	108863488	74592256	42378408	24992
239	34.053959	108863488	74592256	34612952	24992
240	32.078049	108863488	74592256	43917072	24992
241	35.988795	108863488	74592256	37476624	24992
242	36.467022	108863488	74592256	31661616	24992
243	34.575753	108863488	74592256	42947208	24992
244	37.948221	108863488	74592256	38491152	24992
245	38.924863	108863488	74592256	34660912	24992
246	39.726456	108863488	74592256	31489168	24992
247	37.348859	108863488	74592256	45416952	24992
248	40.739505	108863488	74592256	43611376	24992
249	41.59838	108863488	74592256	42425808	24992
250	42.508942	108863488	74592256	41902640	24992
251	43.52718	108863488	74592256	42041208	24992
252	44.070661	108863488	74592256	42839760	24992
253	44.802268	108863488	74592256	44299024	24992
254	45.127488	108863488	74592256	46420752	24992
255	49.226208	108863488	74592256	32714728	24992
256	47.102875	108863488	74592256	36160096	24992
257	47.568045	108863488	74592256	40267200	24992
258	48.841325	108863488	74592256	45035424	24992
259	53.790319	108863488	74592256	33983384	24992
260	51.250842	108863488	74592256	40075168	24992
261	51.072245	108863488	74592256	46828224	24992
262	55.480723	108863488	74592256	37749840	24992
263	52.686163	108863488	74592256	45826424	24992
264	56.303859	108863488	74592256	38071088	24992
265	54.419526	108863488	74592256	47471152	24992
266	57.666786	108863488	74592256	41047560	24992
267	58.945168	108863488	74592256	35297432	24992
268	56.197612	108863488	74592256	46686096	24992
269	60.241829	108863488	74592256	42257424	24992
270	61.376594	108863488	74592256	38492224	24992
271	62.044497	108863488	74592256	35377688	24992
272	59.576704	108863488	74592256	49420000	24992
273	63.270413	108863488	74592256	47638784	24992
274	64.279613	108863488	74592256	46518080	24992
275	64.792383	108863488	74592256	46058888	24992
276	65.971582	108863488	74592256	46261664	24992
277	66.45701	108863488	74592256	47125728	24992
278	69.310498	108863488	74592256	48651408	24992
279	68.538498	108863488	74592256	50839080	24992
280	72.620376	108863488	74592256	37199984	24992
281	69.97393	108863488	74592256	40709088	24992
282	70.581129	108863488	75116544	44879312	24992
283	71.522223	109133824	75116544	49708440	24992
284	75.748042	109133824	75116544	38703064	24992
285	73.215756	109133824	75116544	44859744	24992
286	74.092381	109404160	75640832	51674304	24992
287	78.597393	109674496	75640832	42654040	24992
288	79.897863	108101632	74067968	15750384	24992
289	66.252262	108101632	74067968	24489912	24992
290	66.684926	108101632	74067968	17396160	24992
291	67.580134	108101632	74067968	27456496	24992
292	68.119191	108101632	74067968	21686032	24992
293	68.992712	108101632	74067968	16570008	24992
294	69.313755	108101632	74067968	28606304	24992
295	70.163583	108101632	74067968	24815104	24992
296	70.892347	108101632	74067968	21687040	24992
297	72.002598	108101632	74067968	19214968	24992
298	72.681474	108101632	76165120	17402320	24992
299	73.401047	108371968	78262272	16255616	24992
300	73.981609	108371968	80359424	15770384	24992
301	74.69007	108642304	82456576	15945688	24992
302	0.819977	108642304	84553728	16438696	24992
303	1.544988	108642304	84553728	17776448	24992
304	2.225188	108642304	84553728	19773592	24992
305	3.00384	108642304	84553728	22430144	24992
306	3.722445	108642304	84553728	25746624	24992
307	4.456429	108642304	84553728	29722496	24992
308	5.55263	108642304	85078016	17884680	24992
309	6.094587	108642304	85078016	23179456	24992
310	6.590803	108642304	85078016	29134512	24992
311	7.919113	108642304	85602304	19288688	24992
312	8.058382	108642304	85602304	26562536	24992
313	9.559948	108642304	85602304	18032696	24992
314	9.772159	108642304	85602304	26625360	24992
315	10.708509	108642304	85602304	19409528	24992
316	11.187591	108642304	85602304	29321040	24992
317	12.229833	108642304	85602304	23425912	24992
318	13.064152	108642304	85602304	18189672	24992
319	13.634679	108912640	85602304	13609216	24992
320	14.418775	108912640	85602304	26160520	24992
321	14.917652	108912640	85602304	22906296	24992
322	16.091651	108912640	85602304	20313088	24992
323	16.605766	108912640	85602304	18373712	24992
324	17.511623	108912640	85602304	17095760	24992
325	18.125056	108912640	85602304	16478200	24992
326	18.766158	108912640	85602304	16520976	24992
327	20.066624	108912640	85602304	17224160	24992
328	20.71231	108912640	85602304	18589176	24992
329	20.887451	108912640	85602304	20613152	24992
330	22.360991	108912640	85602304	23296696	24992
331	22.725316	108912640	85602304	26640616	24992
332	23.769152	108912640	85602304	14175856	24992
333	24.037901	108912640	85602304	18837336	24992
334	24.744387	108912640	85602304	24170880	24992
335	26.534725	108912640	85602304	30171880	24992
336	26.93399	108912640	85602304	20365544	24992
337	27.115971	108912640	85602304	27701872	24992
338	28.396864	109182976	85602304	19262792	24992
339	28.352573	109182976	85602304	27906064	24992
340	29.959384	109182976	85602304	20795704	24992
341	29.99314	109182976	85602304	30759840	24992
342	31.693618	109182976	85602304	24925192	24992
343	31.954265	109182976	85602304	19800304	24992
344	33.048512	109453312	85602304	15306320	24992
345	33.423215	109453312	85602304	27913048	24992
346	34.022291	109453312	85602304	24773808	24992
347	35.441219	109453312	85602304	22267088	24992
348	36.206315	109453312	85602304	20418240	24992
349	36.274167	109723648	85602304	19230824	24992
350	37.749783	109723648	85602304	18705728	24992
351	38.39444	109723648	85602304	18842976	24992
352	38.823341	109723648	85602304	19642336	24992
353	39.560284	109993984	85602304	21103400	24992
354	40.825501	109993984	85602304	23225120	24992
355	40.736229	109993984	85602304	26008912	24992
356	42.051453	109993984	85602304	29454112	24992
357	43.047124	110264320	85602304	17067704	24992
358	43.650029	110264320	85602304	21836432	24992
359	43.823602	110264320	85602304	27266560	24992
360	46.114353	110264320	85602304	16881768	24992
361	45.530197	110534656	85602304	23633416	24992
362	46.218245	110534656	85602304	31048256	24992
363	47.724797	110534656	85602304	22631712	24992
364	47.976891	110534656	85602304	31369744	24992
365	49.361086	110804992	85602304	24276720	24992
366	49.94328	110804992	85602304	17854888	24992
367	49.979284	111075328	85602304	28582184	24992
368	51.861128	111075328	85602304	23491992	24992
369	53.283141	111075328	85602304	19069368	24992
370	52.951788	111345664	85602304	31785016	24992
371	53.807337	111345664	85602304	28679736	24992
372	54.602117	111345664	85602304	26236088	24992
373	55.627254	111616000	85602304	24455936	24992
374	55.796135	111616000	85602304	23324584	24992
375	57.347928	111616000	85602304	22860064	24992
376	58.583423	111886336	85602304	23069448	24992
377	60.028027	111886336	85602304	23932096	24992
378	60.429716	111886336	85602304	25463856	24992
379	60.058586	112156672	85602304	27646456	24992
380	60.576944	112156672	85602304	30483568	24992
381	61.593284	112156672	85602304	33980352	24992
382	62.969438	112427008	85602304	21664800	24992
383	63.697046	112427008	85602304	26498584	24992
384	63.775482	112697344	85602304	31990336	24992
385	65.943445	112697344	85602304	21646928	24992
386	65.722415	112697344	85602304	28465856	24992
387	66.177248	112967680	85602304	35942968	24992
388	68.026088	112967680	85602304	27581168	24992
389	67.677045	113238016	85602304	36381024	24992
390	70.005031	113238016	85602304	29343856	24992
391	70.249655	113508352	85602304	22972088	24992
392	71.792612	113508352	85602304	33753408	24992
393	72.511413	113778688	85602304	28710048	24992
394	74.257824	113778688	85602304	24322384	24992
395	72.510172	114049024	85602304	37088776	24992
396	75.136352	114049024	85602304	34029296	24992
397	75.731387	114049024	85602304	31632832	24992
398	76.410501	114319360	85602304	29895672	24992
399	77.564817	114319360	85602304	28813432	24992
400	78.550726	114589696	85602304	28389088	24992
401	79.106694	114589696	85602304	28631720	24992
402	0.804266	114860032	85602304	29149080	24992
403	1.531351	114860032	85602304	30486832	24992
404	2.215753	114860032	85602304	32484008	24992
405	3.190153	114860032	85602304	35140560	24992
406	3.889619	114860032	85602304	38457072	24992
407	6.034909	114860032	85602304	25975840	24992
408	5.368109	114860032	85602304	30611112	24992
409	6.303843	114860032	85602304	35905792	24992
410	8.283132	114860032	85602304	25436272	24992
411	7.529561	114860032	85602304	32050720	24992
412	9.579959	114860032	85602304	22890680	24992
413	9.099502	114860032	85602304	30823936	24992
414	11.098886	114860032	85602304	22981392	24992
415	10.532236	114860032	85602304	32233464	24992
416	12.844801	114860032	85602304	25718680	24992
417	11.730366	114860032	85602304	36289552	24992
418	14.145455	115130368	85602304	31102824	24992
419	15.921264	115130368	85602304	26562160	24992
420	17.258816	115130368	85602304	22665160	24992
421	15.564658	115130368	85602304	35875872	24992
422	17.854823	115130368	85602304	33322896	24992
423	17.753573	115130368	85602304	31432832	24992
424	18.773476	115130368	85602304	30181016	24992
425	19.498087	115130368	85602304	29590744	24992
426	20.524142	115130368	85602304	29662008	24992
427	21.344182	115130368	85602304	30394816	24992
428	21.477803	115400704	85602304	31789224	24992
429	22.284707	115400704	85602304	33845224	24992
430	23.413317	115400704	85602304	36562408	24992
431	25.799157	115400704	85602304	23483080	24992
432	24.469373	115400704	85602304	27493440	24992
433	25.760234	115400704	85602304	32199624	24992
434	26.065006	115400704	85602304	37571592	24992
435	28.595531	115671040	85602304	27152296	24992
436	27.737426	115671040	85602304	33814544	24992
437	29.965381	115671040	85602304	24726624	24992
438	29.187657	115671040	85602304	32709800	24992
439	31.560741	115671040	85602304	24943800	24992
440	30.561281	115671040	85602304	34248144	24992
441	33.277584	115941376	85602304	27807088	24992
442	31.865878	115941376	85602304	38432536	24992
443	34.755252	115941376	85602304	33314696	24992
444	35.183823	115941376	85602304	28823696	24992
445	36.256971	115941376	85602304	24991088	24992
446	35.713786	115941376	85602304	38258712	24992
447	37.670942	116211712	85602304	35791384	24992
448	38.165209	116211712	85602304	33945632	24992
449	39.751162	116211712	85602304	32769640	24992
450	39.68637	116211712	85602304	32244456	24992
451	40.275952	116482048	85602304	32381824	24992
452	41.817809	116482048	85602304	33190328	24992
453	42.039338	116482048	85602304	34650920	24992
454	42.671355	116482048	85602304	36774184	24992
455	44.272902	116752384	85602304	39556336	24992
456	46.052444	116752384	85602304	26512728	24992
457	45.200397	116752384	85602304	30619976	24992
458	46.002185	116752384	85602304	35388312	24992
459	46.33728	117022720	85602304	40818576	24992
460	49.813592	117022720	85602304	30425176	24992
461	48.281503	117022720	85602304	37178424	24992
462	50.591863	117293056	85602304	28099880	24992
463	49.95632	117293056	85602304	36176552	24992
464	51.930381	117293056	85602304	28423192	24992
465	50.667984	117293056	85602304	37819848	24992
466	54.277524	117563392	85602304	31396192	24992
467	53.031216	117563392	85602304	42137680	24992
468	56.195153	117563392	85602304	37047656	24992
469	56.012021	117833728	85602304	32620584	24992
470	57.00318	117833728	85602304	28844120	24992
471	55.812142	117833728	85602304	42224896	24992
472	58.01391	118104064	85602304	39780488	24992
473	59.456757	118104064	85602304	37998152	24992
474	59.930396	118104064	85602304	36878280	24992
475	60.961859	118374400	86126592	36413912	24992
476	61.515621	118374400	86126592	36603840	24992
477	62.143504	118644736	86126592	37455472	24992
478	62.807503	118644736	86126592	38968496	24992
479	63.919655	118915072	86126592	41141208	24992
480	64.321034	118915072	86126592	43990064	24992
481	67.434707	119185408	86650880	31012800	24992
482	66.388119	119185408	86650880	35183504	24992
483	66.849097	119185408	86650880	40014392	24992
484	69.934984	119455744	86650880	29012248	24992
485	69.049977	119455744	86650880	35168744	24992
486	69.795098	119726080	86650880	41984680	24992
487	72.516097	119726080	87175168	32967288	24992
488	71.133561	119996416	87175168	41108944	24992
489	74.073921	119996416	87175168	33418656	24992
490	73.1736	119996416	87175168	42883648	24992
491	76.131633	120266752	87175168	36516600	24992
492	76.348675	120266752	87175168	30811016	24992
493	75.485538	120537088	87175168	42253272	24992
494	77.932346	120537088	87175168	37870984	24992
495	79.221525	120807424	87699456	34144864	24992
496	80.356687	120807424	87699456	31084456	24992
497	78.992362	121077760	87699456	45173352	24992
498	81.760071	121077760	87699456	43438752	24992
499	82.098251	121348096	87699456	42364760	24992
500	82.868057	121348096	87699456	41952896	24992
501	84.72168	121618432	88223744	42199280	24992
502	0.812341	121618432	88223744	42717216	24992
503	1.621706	121618432	88223744	44054968	24992
504	2.231151	121618432	88223744	46052176	24992
505	5.737405	121618432	88223744	32237264	24992
506	3.71508	121618432	88223744	35553744	24992
507	4.69635	121618432	88223744	39529616	24992
508	5.313177	121618432	88223744	44164888	24992
509	8.56479	121618432	88223744	33018384	24992
510	6.841799	121618432	88223744	38973440	24992
511	7.365205	121618432	88223744	45587888	24992
512	11.044449	121888768	88223744	36439048	24992
513	8.816371	121888768	88223744	44372304	24992
514	12.499492	121888768	88223744	36537944	24992
515	10.361336	121888768	88223744	45790016	24992
516	14.12173	121888768	88223744	39271488	24992
517	14.784185	121888768	88223744	33401840	24992
518	12.60986	121888768	88223744	44633984	24992
519	16.179866	121888768	88223744	40091008	24992
520	16.740956	121888768	88223744	36211352	24992
521	17.842641	121888768	88223744	32974496	24992
522	15.527771	121888768	88223744	46844600	24992
523	19.488397	121888768	88223744	44952080	24992
524	19.963728	122159104	88223744	43722392	24992
525	20.463166	122159104	88223744	43130448	24992
526	21.351354	122159104	88223744	43200168	24992
527	22.23826	122159104	88223744	43931240	24992
528	22.874773	122159104	88223744	45323912	24992
529	23.478576	122159104	88223744	47378016	24992
530	27.028539	122159104	88223744	33634056	24992
531	24.955382	122159104	88223744	36983312	24992
532	25.733117	122159104	88223744	41023640	24992
533	26.732783	122429440	88223744	45727392	24992
534	30.263722	122429440	88223744	34644232	24992
535	28.167367	122429440	88223744	40645560	24992
536	29.372972	122429440	88223744	47344536	24992
537	33.003411	122429440	88223744	38251920	24992
538	30.534739	122429440	88223744	46234728	24992
539	34.043772	122429440	88223744	38469144	24992
540	32.045085	122429440	88223744	47772880	24992
541	35.462063	122429440	88223744	41332704	24992
542	36.839552	122429440	88223744	35517712	24992
543	33.997974	122429440	88223744	46803352	24992
544	37.894399	122429440	88223744	42347104	24992
545	38.805571	122429440	88223744	38516976	24992
546	39.439685	122429440	88223744	35344944	24992
547	37.116237	122429440	88223744	49272712	24992
548	41.129687	122429440	88223744	47466384	24992
549	41.302302	122429440	88223744	46280752	24992
550	42.109195	122429440	88223744	45756800	24992
551	42.850362	122429440	88223744	45895208	24992
552	43.928466	122429440	88223744	46695600	24992
553	44.209276	122429440	88223744	48157568	24992
554	45.270935	122429440	88223744	50281416	24992
555	48.647895	122429440	88223744	36573832	24992
556	47.14233	122429440	88223744	40039520	24992
557	47.611185	122429440	88223744	44146064	24992
558	48.172556	122429440	88223744	48914464	24992
559	51.954378	122429440	88223744	37851224	24992
560	50.289086	122429440	88223744	43943296	24992
561	50.73661	122429440	88223744	50696480	24992
562	54.6832	122429440	88223744	41616064	24992
563	51.617463	122429440	88223744	49692392	24992
564	56.196803	122429440	88223744	41937280	24992
565	53.54417	122429440	88223744	51337248	24992
566	57.719367	122429440	88223744	44914040	24992
567	58.667517	122429440	88223744	39164024	24992
568	55.966964	122429440	88223744	50552960	24992
569	60.814493	122429440	88223744	46124240	24992
570	60.537534	122429440	88223744	42358896	24992
571	61.497186	122429440	88223744	39244152	24992
572	62.570164	122429440	88223744	36798808	24992
573	71.725179	118759424	84553728	15952304	24992
574	55.177237	118759424	84553728	14776928	24992
575	55.795346	118759424	84553728	14262304	24992
576	56.353469	118759424	84553728	14408352	24992
577	57.765168	118759424	84553728	15215336	24992
578	58.379412	118759424	84553728	16683216	24992
579	58.779822	118759424	84553728	18811808	24992
580	59.144144	118759424	84553728	21599376	24992
581	59.849817	118759424	84553728	25042608	24992
582	60.108621	118759424	84553728	12653640	24992
583	61.908227	118759424	84553728	17426712	24992
584	61.629489	118759424	84553728	22860888	24992
585	63.108191	118759424	84553728	28952416	24992
586	63.662086	118759424	84553728	19207256	24992
587	64.728612	118759424	84553728	26623976	24992
588	65.168068	118759424	84553728	18208440	24992
589	66.115621	118759424	84553728	26946800	24992
590	66.150076	119029760	86650880	19853128	24992
591	67.010596	119029760	88223744	29911640	24992
592	67.926685	119029760	90320896	24134048	24992
593	68.956066	119300096	92418048	19020264	24992
594	70.391796	119300096	94515200	14571848	24992
595	70.858458	119570432	94515200	27270240	24992
596	72.105015	119570432	94515200	24151696	24992
597	71.743756	119570432	94515200	21749272	24992
598	72.614178	119840768	94515200	20001816	24992
599	73.432816	119840768	94515200	18926024	24992
600	74.725427	120111104	94515200	18514024	24992
601	75.169248	120111104	94515200	18762224	24992
602	0.81282	120381440	94515200	19285040	24992
603	1.5229	120381440	94515200	20622792	24992
604	2.217185	120381440	94515200	22619936	24992
605	3.002574	120381440	94515200	25276488	24992
606	3.717531	120381440	94515200	28592968	24992
607	4.897657	120381440	94515200	16112376	24992
608	5.177696	120381440	94515200	20747648	24992
609	5.843633	120381440	94515200	26042328	24992
610	7.349941	120381440	94515200	15573104	24992
611	7.732424	120381440	94515200	22187560	24992
612	8.032752	120381440	94515200	29461424	24992
613	9.580137	120381440	94515200	20975160	24992
614	9.808131	120381440	94515200	29568000	24992
615	10.735087	120381440	94515200	22401368	24992
616	11.671	120381440	94515200	15871072	24992
617	11.879712	120381440	94515200	26442040	24992
618	13.003067	120381440	94515200	21238576	24992
619	13.896966	120381440	94515200	16698392	24992
620	14.214947	120381440	94515200	29249696	24992
621	15.413923	120381440	94515200	26034040	24992
622	16.27077	120651776	94515200	23481608	24992
623	16.662861	120651776	94515200	21568248	24992
624	17.766522	120651776	94515200	20316864	24992
625	18.123535	120651776	94515200	19727472	24992
626	19.359701	120651776	94515200	19799648	24992
627	19.788219	120651776	94515200	20533336	24992
628	20.458602	120651776	94515200	21928688	24992
629	21.380908	120651776	94515200	23984576	24992
630	22.391765	120651776	94515200	26702000	24992
631	22.890502	120651776	94515200	30080728	24992
632	24.194113	120922112	94515200	17663808	24992
633	24.116857	120922112	94515200	22337432	24992
634	25.119229	120922112	94515200	27703312	24992
635	26.546352	120922112	94515200	17277680	24992
636	26.494299	120922112	94515200	23939600	24992
637	27.504639	120922112	94515200	31291200	24992
638	28.954442	121192448	94515200	22851712	24992
639	29.28716	121192448	94515200	31494648	24992
640	30.085601	121192448	94515200	24384336	24992
641	31.322293	121192448	94515200	17908008	24992
642	31.117787	121192448	94515200	28533816	24992
643	32.977245	121192448	94515200	23407272	24992
644	33.187111	121462784	94515200	18915512	24992
645	33.169917	121462784	94515200	31522368	24992
646	35.267274	121462784	94515200	28383192	24992
647	35.170017	121462784	94515200	25875480	24992
648	36.59094	121462784	94515200	24031008	24992
649	37.106297	121733120	94515200	22843848	24992
650	38.252691	121733120	94515200	22318496	24992
651	38.623607	121733120	94515200	22455408	24992
652	39.399502	121733120	94515200	23254448	24992
653	39.938438	122003456	94515200	24714616	24992
654	40.949962	122003456	94515200	26836496	24992
655	41.655078	122003456	94515200	29620192	24992
656	42.562359	122003456	94515200	33063808	24992
657	43.844423	122273792	94515200	20681176	24992
658	43.67038	122273792	94515200	25450000	24992
659	45.723773	122273792	94515200	30888328	24992
660	46.507362	122273792	94515200	20486728	24992
661	46.444781	122544128	94515200	27240384	24992
662	47.710758	122544128	94515200	34663280	24992
663	48.477266	122544128	94515200	26245640	24992
664	48.379865	122814464	94515200	34984448	24992
665	49.725366	122814464	94515200	27891264	24992
666	50.977145	122814464	94515200	21469840	24992
667	50.865762	123084800	94515200	32197576	24992
668	52.318855	123084800	94515200	27107808	24992
669	53.206545	123084800	94515200	22681520	24992
670	52.673607	123355136	94515200	35394064	24992
671	55.051846	123355136	94515200	32289064	24992
672	55.301851	123355136	94515200	29845680	24992
673	56.007301	123625472	94515200	28065840	24992
674	57.134808	123625472	94515200	26933168	24992
675	57.884507	123625472	94515200	26463752	24992
676	58.908457	123895808	94515200	26661288	24992
677	59.180631	123895808	94515200	27524136	24992
678	60.645047	124166144	94515200	29046856	24992
679	61.100476	124166144	94515200	31225816	24992
680	61.906257	124436480	94515200	34062592	24992
681	62.133002	124436480	94515200	37559168	24992
682	64.56727	124706816	94515200	25241648	24992
683	63.89077	124706816	94515200	30075464	24992
684	65.028541	124977152	94515200	35567544	24992
685	67.265459	124977152	94515200	25228072	24992
686	67.039712	125247488	94515200	32047064	24992
687	68.684997	125247488	94515200	23028720	24992
688	67.86902	125517824	94515200	31163480	24992
689	70.628605	125517824	94515200	23468360	24992
690	69.638798	125788160	94515200	32926360	24992
691	72.273478	125788160	94515200	26554144	24992
692	71.484125	126058496	94515200	37335880	24992
693	73.936539	126058496	94515200	32292664	24992
694	74.552912	126328832	94515200	27905736	24992
695	75.153239	126328832	94515200	24183984	24992
696	74.825427	126599168	94515200	37611944	24992
697	76.998488	126599168	94515200	35215368	24992
698	77.567591	126869504	94515200	33481536	24992
699	78.83232	126869504	94515200	32402744	24992
700	81.689673	127139840	94515200	31978464	24992
701	80.418888	127139840	94515200	32215840	24992
702	0.814131	127410176	94515200	32727976	24992
703	1.51112	127410176	94515200	34065712	24992
704	2.465302	127410176	94515200	36062840	24992
705	3.096455	127410176	94515200	38727960	24992
706	5.442078	127410176	94515200	25579368	24992
707	4.463919	127410176	94515200	29555224	24992
708	5.119607	127410176	94515200	34190656	24992
709	5.843072	127410176	94515200	39485320	24992
710	8.472747	127410176	94515200	29015720	24992
711	8.334822	127410176	94515200	35639400	24992
712	10.328776	127410176	94515200	26487360	24992
713	8.769763	127410176	94515200	34420600	24992
714	11.602387	127410176	94515200	26576624	24992
715	10.318392	127410176	94515200	35828680	24992
716	12.974997	127410176	94515200	29311288	24992
717	11.951938	127410176	94515200	39882144	24992
718	14.659555	127410176	94515200	34693608	24992
719	15.166246	127680512	94515200	30151552	24992
720	15.764219	127680512	94515200	26253520	24992
721	14.824098	127680512	94515200	39464216	24992
722	17.390798	127680512	94515200	36909632	24992
723	18.329527	127680512	94515200	35018928	24992
724	18.863552	127680512	94515200	33766224	24992
725	19.750835	127680512	94515200	33174984	24992
726	20.329914	127680512	94515200	33245280	24992
727	21.561504	127680512	94515200	33977168	24992
728	22.476033	127680512	95039488	35370528	24992
729	22.538241	127950848	95039488	37425448	24992
730	23.484025	127950848	95039488	40141440	24992
731	26.226228	127950848	95039488	27060512	24992
732	24.96663	127950848	95039488	31070440	24992
733	25.464746	127950848	95039488	35775288	24992
734	27.24269	127950848	95039488	41154864	24992
735	29.286795	127950848	95039488	30734096	24992
736	28.135807	127950848	95039488	37396120	24992
737	30.742132	128221184	95039488	28306264	24992
738	29.238853	128221184	95039488	36289192	24992
739	32.346148	128221184	95039488	28523824	24992
740	30.903735	128221184	95039488	37827880	24992
741	33.62584	128491520	95563776	31384808	24992
742	32.522998	128491520	95563776	42009848	24992
743	35.472907	128491520	95563776	36892304	24992
744	36.151324	128491520	95563776	32400472	24992
745	36.813359	128491520	95563776	28566472	24992
746	35.536501	128491520	95563776	41833712	24992
747	37.986614	128761856	95563776	39365424	24992
748	39.149168	128761856	95563776	37519496	24992
749	39.357954	128761856	95563776	36335608	24992
750	40.891525	128761856	96088064	35810072	24992
751	41.078249	129032192	96088064	35946736	24992
752	41.514354	129032192	96088064	36745368	24992
753	42.99454	129032192	96088064	38205848	24992
754	43.24976	129032192	96088064	40326568	24992
755	44.030216	129302528	96088064	43109936	24992
756	47.079163	129302528	96088064	30064888	24992
757	45.778157	129302528	96088064	34171880	24992
758	46.432495	129302528	96612352	38940136	24992
759	47.813678	129572864	96612352	44368960	24992
760	49.888938	129572864	96612352	33967416	24992
761	49.235572	129572864	96612352	40720392	24992
762	51.414043	129843200	96612352	31641912	24992
763	50.293131	129843200	96612352	39718672	24992
764	53.866122	129843200	97136640	31963304	24992
765	51.806454	129843200	97136640	41363672	24992
766	55.085049	130113536	97136640	34940000	24992
767	55.392113	130113536	97136640	29193264	24992
768	54.251827	130113536	97136640	40589032	24992
769	57.084845	130383872	97136640	36160392	24992
770	57.884435	130383872	97136640	32396776	24992
771	56.07665	130654208	97660928	45774248	24992
772	60.12581	130654208	97660928	43329712	24992
773	60.105156	130924544	97660928	41547376	24992
774	61.087209	130924544	97660928	40426816	24992
775	61.536471	130924544	97660928	39968456	24992
776	62.681508	131194880	98185216	40165512	24992
777	63.214639	131194880	98185216	41017064	24992
778	63.696433	131465216	98185216	42529128	24992
779	65.099717	131465216	98185216	44709096	24992
780	68.142833	131465216	98185216	31070448	24992
781	66.170196	131735552	98709504	34579360	24992
782	67.252157	131735552	98709504	38750448	24992
783	68.031862	132005888	98709504	43579672	24992
784	71.15959	132005888	98709504	32573888	24992
785	69.562096	132276224	98709504	38730448	24992
786	70.899522	132276224	99233792	45545088	24992
787	73.661619	132546560	99233792	36524200	24992
788	71.822691	132546560	99233792	44665504	24992
789	75.713312	132816896	99233792	36975056	24992
790	73.786074	132816896	99233792	46439120	24992
791	76.989706	133087232	99758080	40072120	24992
792	78.114848	133087232	99758080	34361248	24992
793	76.230362	133357568	99758080	45803568	24992
794	79.376969	133357568	99758080	41421344	24992
795	80.2309	133627904	100282368	37695304	24992
796	81.277312	133627904	100282368	34634480	24992
797	79.940036	133898240	100282368	48725952	24992
798	82.452531	133898240	100282368	46991608	24992
799	84.006947	134168576	100282368	45917744	24992
800	84.467524	134168576	100806656	45505336	24992
801	85.38549	134438912	100806656	45754648	24992
802	0.847847	134438912	100806656	46279888	24992
803	1.587893	134438912	100806656	47617624	24992
804	2.344114	134438912	100806656	49614752	24992
805	6.027061	134438912	100806656	35803512	24992
806	3.725096	134438912	100806656	39119976	24992
807	4.414106	134438912	100806656	43095832	24992
808	5.102856	134438912	100806656	47731168	24992
809	8.936867	134438912	100806656	36584600	24992
810	6.631762	134438912	100806656	42539640	24992
811	7.503735	134438912	100806656	49154072	24992
812	11.360952	134438912	100806656	40005184	24992
813	8.989983	134438912	100806656	47938424	24992
814	12.763503	134438912	100806656	40103936	24992
815	10.420436	134438912	100806656	49355992	24992
816	14.102014	134438912	100806656	42837448	24992
817	14.979788	134438912	100806656	36967800	24992
818	12.610041	134438912	100806656	48199976	24992
819	16.22622	134709248	100806656	43656776	24992
820	17.40829	134709248	100806656	39777152	24992
821	17.74913	134709248	100806656	36539848	24992
822	15.909158	134709248	100806656	50410176	24992
823	19.279316	134709248	100806656	48516976	24992
824	20.373613	134709248	100806656	47287232	24992
825	21.452871	134709248	100806656	46695272	24992
826	21.728405	134709248	100806656	46764784	24992
827	22.176983	134709248	100806656	47495968	24992
828	23.341659	134979584	100806656	48888592	24992
829	24.264296	134979584	100806656	50942488	24992
830	27.773146	134979584	100806656	37197040	24992
831	25.993021	134979584	100806656	40544408	24992
832	26.152231	134979584	100806656	44584256	24992
833	27.239636	134979584	100806656	49288104	24992
834	31.387947	134979584	100806656	38204928	24992
835	28.497504	134979584	100806656	44206288	24992
836	29.593115	134979584	100806656	50905168	24992
837	33.315782	134979584	100806656	41809736	24992
838	30.742505	134979584	100806656	49791952	24992
839	34.624409	134979584	100806656	42026288	24992
840	32.627453	134979584	100806656	51329608	24992
841	36.463955	134979584	100806656	44888584	24992
842	37.033299	134979584	100806656	39073912	24992
843	34.2926	134979584	100806656	50359872	24992
844	38.890319	134979584	100806656	45903736	24992
845	38.950636	134979584	100806656	42073624	24992
846	40.224411	134979584	100806656	38901208	24992
847	41.184678	134979584	100806656	36391088	24992
848	39.31431	134979584	100806656	50979800	24992
849	42.871462	134979584	100806656	49836776	24992
850	43.313276	134979584	100806656	49343680	24992
851	44.685878	134979584	100806656	49483312	24992
852	52.202688	119775232	85602304	15884456	24992
853	39.58548	119775232	85602304	17307224	24992
854	39.709153	119775232	85602304	19389232	24992
855	40.626539	119775232	85602304	22132432	24992
856	41.639122	119775232	85602304	25536512	24992
857	42.602273	119775232	85602304	13108296	24992
858	43.022471	119775232	85602304	17834384	24992
859	44.045222	119775232	85602304	23220976	24992
860	44.851513	119775232	85602304	12776520	24992
861	44.700613	119775232	85602304	19483544	24992
862	46.110976	119775232	85602304	26853008	24992
863	46.456573	119775232	85602304	18390336	24992
864	47.462648	119775232	85602304	27081456	24992
865	47.983627	119775232	85602304	19940984	24992
866	48.660177	119775232	85602304	13470944	24992
867	49.670982	119775232	85602304	24149120	24992
868	50.058232	119775232	85602304	19009248	24992
869	51.644287	119775232	85602304	14535800	24992
870	51.539986	119775232	85602304	27203984	24992
871	53.304557	119775232	85602304	24046928	24992
872	53.562206	119775232	85602304	21551944	24992
873	54.25889	119775232	85602304	19711408	24992
874	54.737586	119775232	85602304	18527896	24992
875	55.448227	119775232	86126592	18014840	24992
876	56.122609	120045568	87699456	18161048	24992
877	56.628639	120045568	89272320	18967872	24992
878	58.961697	120045568	90845184	20435080	24992
879	60.118116	120315904	90845184	22562944	24992
880	59.228314	120315904	90845184	25345304	24992
881	60.871653	120315904	90845184	28792160	24992
882	60.628355	120586240	90845184	16476888	24992
883	61.220721	120586240	90845184	21310184	24992
884	61.722305	120586240	90845184	26803192	24992
885	63.622895	120856576	90845184	16462808	24992
886	63.487613	120856576	90845184	23281264	24992
887	64.655017	121126912	90845184	30757504	24992
888	66.23018	121126912	90845184	22398448	24992
889	66.290893	121126912	90845184	31197848	24992
890	67.538141	121397248	90845184	24160448	24992
891	68.118229	121397248	90845184	17788160	24992
892	68.358848	121667584	90845184	28569232	24992
893	73.028197	121667584	90845184	23525656	24992
894	70.765154	121937920	90845184	19138000	24992
895	70.864559	121937920	90845184	31903792	24992
896	72.458591	122208256	90845184	28845920	24992
897	72.952475	122208256	90845184	26448968	24992
898	73.816004	122478592	90845184	24708792	24992
899	74.97134	122748928	90845184	23623136	24992
900	75.630623	122748928	90845184	23206384	24992
901	76.563411	123019264	90845184	23453912	24992
902	0.81345	123019264	90845184	23976280	24992
903	1.509386	123019264	90845184	25314016	24992
904	2.240878	123019264	90845184	27311144	24992
905	2.969346	123019264	90845184	29967680	24992
906	3.683697	123019264	90845184	33284144	24992
907	5.261526	123019264	90845184	20803536	24992
908	5.172193	123019264	90845184	25438872	24992
909	5.942918	123019264	90845184	30733552	24992
910	7.418117	123019264	90845184	20264080	24992
911	7.438195	123019264	90845184	26878576	24992
912	8.032125	123019264	90845184	34152408	24992
913	9.575991	123019264	90845184	25665440	24992
914	9.519689	123019264	90845184	34258088	24992
915	11.064295	123019264	90845184	27086464	24992
916	11.83044	123019264	90845184	20556232	24992
917	11.857091	123019264	90845184	31127120	24992
918	13.253908	123289600	90845184	25927592	24992
919	14.296511	123289600	90845184	21386912	24992
920	14.134462	123289600	90845184	33938200	24992
921	15.662525	123289600	90845184	30721728	24992
922	16.44126	123289600	90845184	28168792	24992
923	17.186236	123289600	90845184	26255600	24992
924	17.66842	123289600	90845184	25003800	24992
925	18.366096	123289600	90845184	24413496	24992
926	19.390309	123289600	90845184	24484744	24992
927	21.001323	123289600	90845184	25225864	24992
928	20.767217	123559936	90845184	26620192	24992
929	21.708623	123559936	90845184	28676096	24992
930	22.784089	123559936	90845184	31393504	24992
931	23.425284	123559936	90845184	34771928	24992
932	25.239802	123559936	90845184	22344384	24992
933	25.665465	123559936	90845184	27031968	24992
934	25.841041	123559936	90845184	32397976	24992
935	27.227478	123830272	90845184	21978776	24992
936	26.652342	123830272	90845184	28640960	24992
937	29.28316	123830272	90845184	19553264	24992
938	28.865081	123830272	90845184	27536552	24992
939	30.274892	124100608	90845184	19770392	24992
940	29.991003	124100608	90845184	29074608	24992
941	31.971361	124100608	90845184	22633808	24992
942	31.477904	124100608	90845184	33259256	24992
943	33.156535	124100608	90845184	28141384	24992
944	33.94083	124370944	90845184	23650304	24992
945	34.767904	124370944	90845184	19817568	24992
946	34.199922	124370944	90845184	33085688	24992
947	36.068375	124370944	90845184	30618360	24992
948	37.051252	124370944	90845184	28773472	24992
949	37.694396	124641280	90845184	27586768	24992
950	38.554251	124641280	90845184	27061536	24992
951	39.488616	124641280	90845184	27198744	24992
952	39.777191	124641280	90845184	27997808	24992
953	40.422345	124911616	90845184	29458624	24992
954	41.74678	124911616	90845184	31581200	24992
955	42.125088	124911616	90845184	34364216	24992
956	44.184533	124911616	91369472	21318480	24992
957	43.916021	125181952	91369472	25425984	24992
958	44.507496	125181952	91369472	30195104	24992
959	45.520961	125181952	91369472	35625848	24992
960	47.327284	125181952	91369472	25224848	24992
961	46.944974	125452288	91369472	31979088	24992
962	48.522599	125452288	91369472	22901944	24992
963	48.44689	125452288	91369472	30977304	24992
964	50.189761	125452288	91369472	23224720	24992
965	50.274911	125722624	91893760	32622000	24992
966	52.083602	125722624	91893760	26199528	24992
967	50.997108	125722624	91893760	36937344	24992
968	53.272026	125992960	91893760	31846968	24992
969	53.818859	125992960	91893760	27420600	24992
970	54.966964	125992960	91893760	23644792	24992
971	54.220847	126263296	91893760	37026128	24992
972	56.318621	126263296	91893760	34582920	24992
973	56.813153	126263296	91893760	32801192	24992
974	57.894336	126263296	91893760	31683000	24992
975	58.485918	126263296	91893760	31211936	24992
976	59.460429	126263296	91893760	31402440	24992
977	60.657892	126263296	91893760	32254568	24992
978	63.682729	126263296	91893760	33768360	24992
979	62.078462	126263296	91893760	35943632	24992
980	62.978458	126263296	91893760	38778696	24992
981	64.570359	126263296	91893760	25801512	24992
982	64.631591	126263296	91893760	29972872	24992
983	64.73393	126263296	91893760	34806080	24992
984	65.955169	126263296	91893760	40296952	24992
985	68.018087	126263296	91893760	29960016	24992
986	67.357114	126263296	91893760	36778400	24992
987	70.27613	126263296	91893760	27765464	24992
988	69.954051	126263296	91893760	35916184	24992
989	71.219468	126263296	91893760	28226408	24992
990	72.197983	126263296	91893760	37701288	24992
991	73.092319	126263296	91893760	31335328	24992
992	74.158975	126263296	91893760	25635400	24992
993	73.781805	126263296	91893760	37077880	24992
994	76.43635	126263296	91893760	32704872	24992
995	76.437077	126263296	92418048	28978800	24992
996	75.417355	126263296	92418048	42406024	24992
997	78.049479	126263296	92418048	40005496	24992
998	78.600785	126533632	92418048	38270848	24992
999	79.760872	126533632	92418048	37197224	24992
1000	80.35657	126803968	92418048	36782016	24992
