x	Duration	RSS	HeapTotal	HeapUsed	External
0	NA	114827264	81932288	11173200	24992
1	0.9437	114827264	81932288	11853248	24992
2	1.604872	114827264	81932288	13191600	24992
3	2.400939	114827264	81932288	15189280	24992
4	3.118206	114827264	81932288	17846512	24992
5	3.857338	114827264	81932288	21163832	24992
6	4.729996	114827264	81932288	25140672	24992
7	5.785393	114827264	81932288	13310928	24992
8	6.204603	114827264	81932288	18606864	24992
9	6.95281	114827264	81932288	24563304	24992
10	8.007279	114827264	81932288	14720136	24992
11	8.45563	114827264	81932288	21995768	24992
12	9.669286	114827264	81932288	13463408	24992
13	9.826089	114827264	81932288	22058032	24992
14	10.986308	114827264	81932288	14844160	24992
15	12.646756	114827264	81932288	24771840	24992
16	12.481999	114827264	81932288	18880112	24992
17	13.174198	114827264	81932288	13646824	24992
18	13.625458	114827264	81932288	25541360	24992
19	14.627913	114827264	81932288	21630048	24992
20	15.389765	114827264	81932288	18379872	24992
21	16.074311	114827264	81932288	15783320	24992
22	16.913378	114827264	81932288	13850392	24992
23	18.07617	114827264	81932288	12581072	24992
24	18.916318	114827264	81932288	11967064	24992
25	19.519443	114827264	81932288	12013608	24992
26	19.984617	114827264	81932288	12720736	24992
27	20.876373	114827264	81932288	14088432	24992
28	22.367717	114827264	81932288	16120544	24992
29	22.184614	114827264	81932288	18807320	24992
30	22.764275	114827264	81932288	22153720	24992
31	23.450259	114827264	81932288	26160392	24992
32	25.505543	114827264	81932288	14363224	24992
33	24.736795	114827264	81932288	19692736	24992
34	25.769643	114827264	81932288	25689120	24992
35	26.82246	114827264	81932288	15879112	24992
36	28.06717	114827264	81932288	23192480	24992
37	28.656254	114827264	81932288	14710160	24992
38	29.038334	114827264	81932288	23342280	24992
39	30.901475	114827264	81932288	16182928	24992
40	30.580751	114827264	81932288	26135624	24992
41	31.352797	114827264	81932288	20297440	24992
42	32.564331	114827264	81932288	15116920	24992
43	32.495628	114827264	81932288	27050536	24992
44	33.677339	114827264	81932288	23192008	24992
45	34.81865	114827264	81932288	19995136	24992
46	34.880218	114827264	81932288	17453680	24992
47	35.754277	114827264	81932288	15573456	24992
48	36.415289	114827264	81932288	14354456	24992
49	36.977554	114827264	81932288	13796256	24992
50	37.693045	114827264	81932288	13899776	24992
51	38.455035	114827264	81932288	14664608	24992
52	39.360387	114827264	81932288	16090520	24992
53	40.363899	114827264	81932288	18177536	24992
54	41.181003	114827264	81932288	20925376	24992
55	42.420393	114827264	81932288	24334032	24992
56	42.990792	114827264	81932288	28403224	24992
57	43.870176	114827264	81932288	16640584	24992
58	43.986713	114827264	81932288	22029848	24992
59	45.033851	114827264	81932288	28079704	24992
60	45.950986	114827264	81932288	18297264	24992
61	47.072046	114827264	81932288	25677904	24992
62	47.024482	114827264	81932288	17264032	24992
63	47.921526	114827264	81932288	26002976	24992
64	48.910686	114827264	81932288	18910024	24992
65	49.186157	114827264	81932288	28979800	24992
66	50.154293	114827264	81932288	23227600	24992
67	50.78749	114827264	81932288	18139728	24992
68	51.967626	114827264	81932288	30190392	24992
69	52.675642	114827264	81932288	26423008	24992
70	54.511888	114827264	81932288	23317728	24992
71	54.034958	114827264	81932288	20876032	24992
72	55.244895	114827264	81932288	19084728	24992
73	56.070098	114827264	81932288	17963328	24992
74	56.686436	114827264	81932288	17503088	24992
75	57.416673	114827264	81932288	17704432	24992
76	58.008268	114827264	81932288	18567352	24992
77	59.661083	114827264	81932288	20092208	24992
78	60.01715	114827264	81932288	22278176	24992
79	60.603093	114827264	81932288	25123712	24992
80	61.171485	115097600	81932288	28625952	24992
81	62.282183	115097600	81932288	32785256	24992
82	63.768714	115097600	81932288	21131200	24992
83	63.919661	115367936	81932288	26626112	24992
84	68.687843	115367936	81932288	32782440	24992
85	66.842582	115367936	81932288	23102312	24992
86	66.857286	115367936	81932288	30581864	24992
87	68.983861	115638272	81932288	22229880	24992
88	68.042527	115638272	81932288	31032464	24992
89	69.635838	115638272	81932288	24004120	24992
90	70.055783	115638272	81932288	34128232	24992
91	72.410048	115638272	81932288	28426552	24992
92	72.418751	115638272	81932288	23379840	24992
93	74.102498	115638272	81932288	19007352	24992
94	73.285669	115638272	81932288	31773344	24992
95	74.513915	115638272	81932288	28714856	24992
96	76.272041	115638272	81932288	26312536	24992
97	76.804918	115908608	81932288	24565488	24992
98	78.383788	115908608	81932288	23490072	24992
99	78.46045	115908608	81932288	23076784	24992
100	79.924931	115908608	81932288	23325456	24992
101	80.141367	115908608	81932288	24235600	24992
102	0.834214	115908608	81932288	25416160	24992
103	1.562934	115908608	81932288	26754024	24992
104	2.305366	115908608	81932288	28751168	24992
105	3.255018	115908608	81932288	31407720	24992
106	3.771772	115908608	81932288	34724200	24992
107	5.863149	115908608	81932288	22243688	24992
108	5.641803	115908608	81932288	26878960	24992
109	5.947771	115908608	81932288	32173640	24992
110	8.26775	115908608	81932288	21704200	24992
111	7.524776	115908608	81932288	28318648	24992
112	8.328116	115908608	81932288	35592496	24992
113	10.577364	115908608	81932288	27105544	24992
114	10.042845	115908608	81932288	35698224	24992
115	11.848434	115908608	81932288	28530984	24992
116	12.823512	115908608	81932288	22000736	24992
117	12.149837	115908608	81932288	32571624	24992
118	14.025255	115908608	81932288	27367936	24992
119	15.047515	115908608	81932288	22827272	24992
120	14.213769	115908608	81932288	35378576	24992
121	16.415507	115908608	81932288	32162872	24992
122	17.075738	115908608	81932288	29609888	24992
123	18.169356	115908608	81932288	27696504	24992
124	18.65718	115908608	81932288	26444720	24992
125	19.531057	115908608	81932288	25854464	24992
126	20.330145	115908608	81932288	25926224	24992
127	21.360783	115908608	81932288	26659464	24992
128	21.628454	115908608	81932288	28053792	24992
129	22.860815	115908608	81932288	30109744	24992
130	23.503251	115908608	81932288	32827168	24992
131	24.228919	115908608	81932288	36205720	24992
132	26.29353	115908608	81932288	23788256	24992
133	26.000125	115908608	81932288	28462232	24992
134	26.631168	115908608	81932288	33834608	24992
135	28.874819	115908608	81932288	23415440	24992
136	28.014522	115908608	81932288	30077624	24992
137	28.607932	115908608	81932288	37438712	24992
138	31.46423	115908608	81932288	28963408	24992
139	31.431784	115908608	81932288	21196872	24992
140	31.197475	115908608	81932288	30501120	24992
141	33.020375	115908608	81932288	24060400	24992
142	32.841888	115908608	81932288	34689496	24992
143	35.002143	115908608	81932288	29573456	24992
144	35.364864	115908608	81932288	25082312	24992
145	34.582834	115908608	81932288	37689504	24992
146	37.145307	115908608	81932288	34536024	24992
147	37.462539	115908608	81932288	32040304	24992
148	38.391239	115908608	81932288	30195608	24992
149	39.335609	115908608	81932288	29008824	24992
150	39.917531	115908608	81932288	28483560	24992
151	40.459208	115908608	81932288	28620672	24992
152	41.724491	115908608	81932288	29419752	24992
153	41.954633	115908608	81932288	30880520	24992
154	43.165069	115908608	81932288	33003032	24992
155	43.959469	115908608	81932288	35786896	24992
156	46.426755	115908608	81932288	22739336	24992
157	45.855693	115908608	81932288	26846712	24992
158	46.53515	115908608	81932288	31616152	24992
159	47.061739	115908608	81932288	37046688	24992
160	49.382927	115908608	81932288	26645656	24992
161	48.677039	115908608	81932288	33399848	24992
162	51.275922	115908608	81932288	24323816	24992
163	50.385935	115908608	81932288	32397264	24992
164	52.964409	115908608	81932288	24644808	24992
165	51.847948	115908608	81932288	34041880	24992
166	54.261524	115908608	81932288	27620296	24992
167	53.122187	115908608	81932288	38348336	24992
168	56.122351	115908608	81932288	33258568	24992
169	56.837595	115908608	81932288	28832424	24992
170	58.49249	115908608	81932288	25065856	24992
171	56.720751	115908608	81932288	38456376	24992
172	59.203663	115908608	81932288	36012800	24992
173	59.51193	115908608	81932288	34230896	24992
174	60.976154	115908608	81932288	33113792	24992
175	61.604623	115908608	82456576	32642584	24992
176	63.094219	115908608	82456576	32832832	24992
177	64.004401	116178944	82456576	33692640	24992
178	64.508062	116178944	82456576	35205840	24992
179	65.737186	116178944	82456576	37380568	24992
180	65.730285	116449280	82980864	40215120	24992
181	68.840628	116449280	82980864	27237984	24992
182	67.161182	116719616	82980864	31408624	24992
183	68.237322	116719616	82980864	36241144	24992
184	68.77642	116719616	82980864	41732248	24992
185	72.408588	116719616	82980864	31388304	24992
186	70.611042	116719616	82980864	38206000	24992
187	73.554941	116719616	82980864	29192392	24992
188	72.619043	116719616	82980864	37333872	24992
189	75.719518	116719616	82980864	29640576	24992
190	73.872563	116719616	82980864	39101800	24992
191	76.71915	116719616	82980864	32734640	24992
192	75.735234	116719616	82980864	43522152	24992
193	78.986292	116719616	82980864	38477704	24992
194	79.629061	116719616	82980864	34092472	24992
195	80.493348	116719616	82980864	30368400	24992
196	79.126289	116719616	82980864	43795912	24992
197	82.774333	116719616	82980864	41397016	24992
198	83.157069	116719616	82980864	39662400	24992
199	83.691582	116719616	82980864	38588360	24992
200	84.683344	116989952	83505152	38170736	24992
201	85.725948	116989952	83505152	38407280	24992
202	0.815292	116989952	83505152	38919304	24992
203	1.535101	116989952	83505152	40257056	24992
204	2.245194	116989952	83505152	42254200	24992
205	3.034048	116989952	83505152	44910752	24992
206	6.833171	116989952	83505152	31759120	24992
207	4.671863	116989952	83505152	35735056	24992
208	5.4455	116989952	83505152	40370328	24992
209	5.980573	116989952	83505152	45665008	24992
210	9.63895	116989952	83505152	35186984	24992
211	7.400678	116989952	83505152	41801432	24992
212	11.109789	117260288	83505152	32645736	24992
213	9.196158	117260288	83505152	40578992	24992
214	12.552703	117260288	83505152	32735800	24992
215	10.364041	117260288	83505152	41987872	24992
216	14.026496	117260288	83505152	35469568	24992
217	14.762101	117260288	83505152	29600072	24992
218	12.550186	117260288	83505152	40832208	24992
219	16.550765	117260288	83505152	36289200	24992
220	17.057715	117260288	83505152	32409544	24992
221	14.754843	117260288	83505152	45620304	24992
222	18.458152	117260288	83505152	43064488	24992
223	19.262386	117260288	83505152	41172056	24992
224	20.0963	117260288	83505152	39918488	24992
225	21.006752	117260288	83505152	39326912	24992
226	21.8748	117260288	83505152	39396936	24992
227	22.584744	117260288	83505152	40128424	24992
228	23.556384	117260288	83505152	41521496	24992
229	24.124397	117260288	83505152	43581376	24992
230	24.874069	117260288	83505152	46299720	24992
231	28.481295	117260288	83505152	33200568	24992
232	26.63259	117260288	83505152	37225232	24992
233	26.977717	117260288	83505152	41929232	24992
234	31.175359	117260288	83505152	30847160	24992
235	28.788925	117260288	83505152	36848448	24992
236	29.463927	117260288	83505152	43545368	24992
237	33.176571	117260288	83505152	34450352	24992
238	31.079617	117260288	83505152	42433400	24992
239	35.094328	117260288	83505152	34667864	24992
240	32.497336	117260288	83505152	43971984	24992
241	36.130333	117260288	83505152	37531600	24992
242	36.830768	117260288	83505152	31716448	24992
243	34.946278	117260288	83505152	43002056	24992
244	38.446367	117260288	83505152	38546128	24992
245	39.081641	117260288	83505152	34715888	24992
246	40.431157	117260288	83505152	31544080	24992
247	37.706697	117260288	83505152	45471864	24992
248	41.382275	117260288	83505152	43666176	24992
249	42.744794	117260288	83505152	42480640	24992
250	43.09918	117260288	83505152	41957504	24992
251	43.807228	117260288	83505152	42095960	24992
252	45.04922	117260288	83505152	42894544	24992
253	45.266654	117260288	83505152	44353728	24992
254	46.092437	117260288	83505152	46475456	24992
255	50.054692	117260288	83505152	32769432	24992
256	47.660412	117260288	83505152	36214672	24992
257	49.350537	117260288	83505152	40321792	24992
258	50.626745	117260288	83505152	45090032	24992
259	54.475123	117260288	83505152	34037824	24992
260	50.736841	117260288	83505152	40129512	24992
261	51.812058	117260288	83505152	46882616	24992
262	55.664955	117260288	83505152	37804264	24992
263	52.726416	117260288	83505152	45880800	24992
264	57.131187	117260288	83505152	38125400	24992
265	54.878619	117260288	83505152	47525400	24992
266	58.951222	117260288	83505152	41101792	24992
267	61.225757	117260288	83505152	35351840	24992
268	57.458316	117260288	83505152	46740600	24992
269	61.442656	117260288	83505152	42312392	24992
270	62.05747	117260288	83505152	38547144	24992
271	63.199694	117260288	83505152	35432896	24992
272	59.904403	117260288	83505152	49475288	24992
273	64.280821	117260288	83505152	47693624	24992
274	65.446253	117260288	83505152	46572968	24992
275	66.307695	117260288	83505152	46114080	24992
276	67.250504	117260288	83505152	46316520	24992
277	67.791527	117260288	83505152	47180728	24992
278	69.031944	117260288	83505152	48706520	24992
279	69.018016	117260288	83505152	50894016	24992
280	73.897741	117260288	83505152	37254840	24992
281	70.774379	117260288	83505152	40763896	24992
282	72.247586	117260288	83505152	44934024	24992
283	72.74699	117260288	83505152	49763184	24992
284	77.592184	117260288	83505152	38757544	24992
285	74.584362	117530624	84029440	44914296	24992
286	75.070534	117530624	84029440	51728952	24992
287	80.522359	117800960	84029440	42708544	24992
288	81.886256	114696192	80883712	17269696	24992
289	66.828026	114696192	80883712	26013624	24992
290	69.218995	114696192	80883712	18939984	24992
291	68.190353	114696192	80883712	12507584	24992
292	69.092857	114696192	80883712	23227856	24992
293	69.570817	114696192	80883712	18122888	24992
294	70.357781	114696192	80883712	13684208	24992
295	71.792638	114696192	80883712	26390968	24992
296	72.553386	114696192	80883712	23262856	24992
297	72.484656	114696192	80883712	20793120	24992
298	73.027551	114696192	80883712	18978744	24992
299	73.747603	114696192	80883712	17826624	24992
300	74.894512	114696192	80883712	17340672	24992
301	75.200596	114696192	80883712	17515640	24992
302	0.839457	114696192	80883712	18008968	24992
303	1.536933	114696192	80883712	19346720	24992
304	2.30482	114696192	80883712	21343864	24992
305	3.140919	114696192	80883712	24000416	24992
306	3.928756	114696192	80883712	27316896	24992
307	4.990501	114696192	80883712	14817168	24992
308	5.396479	114696192	80883712	19452472	24992
309	6.000655	114696192	80883712	24747152	24992
310	7.031221	114696192	80883712	14238304	24992
311	7.404989	114696192	80883712	20852752	24992
312	8.16023	114696192	80883712	28126600	24992
313	9.895131	114696192	80883712	19599648	24992
314	9.689948	114696192	80883712	28192328	24992
315	10.781521	114696192	80883712	20980520	24992
316	11.398002	114696192	80883712	14421248	24992
317	11.834359	114696192	80883712	24992168	24992
318	13.181211	114696192	80883712	19755480	24992
319	13.679375	114696192	80883712	15179904	24992
320	14.312561	114696192	80883712	27731208	24992
321	15.295492	114696192	80883712	24476696	24992
322	16.219593	114696192	80883712	21883264	24992
323	16.881859	114696192	80883712	19943888	24992
324	17.687703	114696192	80883712	18665072	24992
325	18.636984	114696192	80883712	18048496	24992
326	19.261667	114696192	80883712	18091256	24992
327	19.719165	114696192	80883712	18794440	24992
328	20.850687	114696192	80883712	20159632	24992
329	21.234009	114696192	80883712	22182792	24992
330	22.258538	114696192	80883712	24866304	24992
331	22.672772	114696192	80883712	28209856	24992
332	23.803506	114696192	80883712	15744968	24992
333	24.401123	114696192	80883712	20406512	24992
334	24.858915	114696192	80883712	25739240	24992
335	26.271028	114696192	80883712	15265392	24992
336	26.897331	114696192	80883712	21913768	24992
337	28.168562	114696192	80883712	29239656	24992
338	28.734435	114696192	80883712	20777688	24992
339	29.093667	114696192	80883712	29420656	24992
340	30.433016	114696192	80883712	22309640	24992
341	30.635344	114696192	80883712	15833312	24992
342	31.420909	114696192	80883712	26458744	24992
343	32.338686	114696192	80883712	21332280	24992
344	32.927383	114696192	80883712	16840680	24992
345	33.655369	114696192	80883712	29447552	24992
346	34.353995	114696192	80883712	26308328	24992
347	35.578404	114696192	80883712	23799752	24992
348	36.252367	114696192	80883712	21954712	24992
349	37.032386	114696192	80883712	20767472	24992
350	37.661233	114696192	80883712	20241656	24992
351	38.353082	114696192	80883712	20378616	24992
352	39.091286	114696192	80883712	21177560	24992
353	40.419871	114696192	80883712	22637760	24992
354	40.782482	114696192	80883712	24759640	24992
355	41.951991	114696192	80883712	27543432	24992
356	41.977097	114696192	80883712	30986808	24992
357	43.62477	114696192	80883712	18603568	24992
358	43.929744	114696192	80883712	23372424	24992
359	44.534862	114696192	80883712	28802472	24992
360	46.018216	114696192	80883712	18414264	24992
361	45.745733	114696192	80883712	25167904	24992
362	46.512231	114696192	80883712	32582920	24992
363	48.264524	114696192	80883712	24163032	24992
364	48.149883	114696192	80883712	32901112	24992
365	49.452061	114696192	80883712	25806520	24992
366	50.61515	114696192	80883712	19384832	24992
367	50.180286	114696192	80883712	30112096	24992
368	52.338565	114696192	80883712	25022000	24992
369	53.079182	114696192	80883712	20597872	24992
370	53.245453	114696192	80883712	33310104	24992
371	53.975664	114696192	80883712	30202440	24992
372	54.979668	114696192	80883712	27758696	24992
373	56.264804	114696192	80883712	25978240	24992
374	56.450671	114696192	80883712	24845128	24992
375	57.803928	114696192	80883712	24374496	24992
376	57.939816	114696192	80883712	24573384	24992
377	59.878008	114696192	80883712	25440864	24992
378	59.904769	114696192	80883712	26957680	24992
379	61.906733	114696192	80883712	29140776	24992
380	61.280495	114696192	80883712	31976624	24992
381	62.928966	114696192	80883712	18993096	24992
382	62.976784	114696192	80883712	23164248	24992
383	64.103362	114696192	80883712	27998208	24992
384	64.388936	114696192	80883712	33490088	24992
385	66.196025	114696192	80883712	23146696	24992
386	66.234619	114696192	80883712	29965704	24992
387	67.843199	114696192	80883712	20949888	24992
388	67.840881	114696192	80883712	29088256	24992
389	69.760578	114696192	80883712	21393376	24992
390	70.148367	114696192	80883712	30851360	24992
391	71.027799	114696192	80883712	24482024	24992
392	71.352936	114696192	80883712	35267192	24992
393	72.594455	114696192	80883712	30223320	24992
394	74.208453	114696192	80883712	25836264	24992
395	74.674927	114696192	80883712	22114048	24992
396	74.597412	114696192	80883712	35541864	24992
397	76.543957	114696192	80883712	33145432	24992
398	76.846518	114696192	80883712	31411040	24992
399	77.791294	114696192	80883712	30332360	24992
400	79.307416	114696192	80883712	29908144	24992
401	81.135189	114696192	80883712	30145552	24992
402	0.81263	114696192	80883712	30657576	24992
403	1.531699	114696192	80883712	31995328	24992
404	2.250607	114696192	80883712	33992472	24992
405	3.197327	114696192	80883712	36649024	24992
406	5.358751	114696192	80883712	23500416	24992
407	4.675451	114696192	80883712	27476288	24992
408	5.169812	114696192	80883712	32111560	24992
409	5.916038	114696192	80883712	37406240	24992
410	8.208434	114696192	80883712	26936656	24992
411	7.601294	114696192	80883712	33551168	24992
412	9.878507	114696192	80883712	24399432	24992
413	8.867606	114696192	80883712	32332736	24992
414	11.106075	114696192	80883712	24490208	24992
415	10.784064	114696192	80883712	33742280	24992
416	12.742388	114696192	80883712	27226648	24992
417	11.987805	114696192	80883712	37797520	24992
418	14.545826	114696192	80883712	32610776	24992
419	14.945123	114696192	80883712	28070128	24992
420	15.509122	114696192	80883712	24172600	24992
421	14.947553	114696192	80883712	37383312	24992
422	17.392252	114696192	80883712	34830112	24992
423	18.060988	114696192	80883712	32939840	24992
424	19.120464	114696192	80883712	31688040	24992
425	19.522881	114696192	80883712	31097752	24992
426	20.316404	114696192	80883712	31169000	24992
427	21.282886	114696192	80883712	31901792	24992
428	22.649676	114696192	80883712	33296120	24992
429	22.650325	114696192	80883712	35351768	24992
430	23.085147	114696192	80883712	38068728	24992
431	25.513442	114696192	80883712	24989192	24992
432	24.866418	114696192	80883712	28999584	24992
433	25.688543	114696192	80883712	33704920	24992
434	26.300281	114696192	80883712	39076648	24992
435	28.847153	114696192	80883712	28656728	24992
436	27.592103	114696192	80883712	35318640	24992
437	30.427511	114696192	80883712	26228960	24992
438	29.133525	114696192	80883712	34212200	24992
439	31.992119	114696192	80883712	26449624	24992
440	30.849256	114696192	80883712	35753952	24992
441	32.898681	114696192	80883712	29310976	24992
442	32.149634	114696192	80883712	39936120	24992
443	34.757149	114696192	80883712	34801264	24992
444	35.139998	114696192	80883712	30319872	24992
445	35.974647	114696192	80883712	26486544	24992
446	35.328118	114696192	80883712	39754120	24992
447	37.558666	114696192	80883712	37286200	24992
448	38.39876	114696192	80883712	35439648	24992
449	39.180398	114696192	80883712	34255520	24992
450	40.604607	114696192	80883712	33741400	24992
451	40.58884	114696192	80883712	33878784	24992
452	43.001508	114696192	80883712	34687384	24992
453	42.233704	114696192	80883712	36148136	24992
454	43.611612	114696192	80883712	38270328	24992
455	44.01228	114696192	80883712	41054096	24992
456	46.798632	114696192	80883712	28008248	24992
457	45.56776	114696192	80883712	32115656	24992
458	46.68631	114696192	80883712	36884152	24992
459	48.777148	114696192	80883712	25821120	24992
460	47.694395	114696192	80883712	31913176	24992
461	50.74403	114696192	80883712	38674440	24992
462	52.418593	114696192	80883712	29595880	24992
463	50.442548	114696192	80883712	37672688	24992
464	52.794253	114696192	80883712	29917496	24992
465	51.972759	114696192	80883712	39318072	24992
466	54.457269	114696192	80883712	32894448	24992
467	55.132576	114696192	80883712	27146000	24992
468	54.243697	114696192	80883712	38538240	24992
469	56.519194	114696192	80883712	34109568	24992
470	58.015995	114696192	80883712	30345376	24992
471	58.343135	114696192	80883712	27231368	24992
472	57.096727	114696192	80883712	41273552	24992
473	59.681409	114696192	80883712	39491216	24992
474	60.77322	114696192	80883712	38370544	24992
475	61.166099	114696192	80883712	37912232	24992
476	62.375515	114696192	80883712	38109224	24992
477	62.645114	114696192	80883712	38959704	24992
478	63.694922	114696192	80883712	40478144	24992
479	64.693411	114696192	80883712	42666792	24992
480	67.767782	114696192	80883712	29030784	24992
481	66.6656	114696192	80883712	32539808	24992
482	67.467705	114696192	80883712	36710752	24992
483	67.374109	114696192	80883712	41540008	24992
484	70.868178	114696192	80883712	30534512	24992
485	69.498983	114696192	80883712	36691104	24992
486	70.624849	114696192	80883712	43505440	24992
487	73.186054	114696192	80883712	34484792	24992
488	71.850526	114696192	80883712	42625744	24992
489	74.850548	114696192	80883712	34935264	24992
490	73.049957	114696192	80883712	44399440	24992
491	76.499762	114696192	80883712	38031608	24992
492	77.401467	114696192	80883712	32320720	24992
493	78.13528	114696192	80883712	43763168	24992
494	79.134701	114696192	80883712	39380768	24992
495	79.445141	114696192	80883712	35655096	24992
496	80.933683	114696192	80883712	32593984	24992
497	79.529199	114696192	80883712	46683200	24992
498	83.445898	114696192	80883712	44948280	24992
499	83.39345	114696192	80883712	43874320	24992
500	84.1442	114696192	80883712	43461912	24992
501	84.528972	114696192	80883712	43711176	24992
502	0.818116	114696192	80883712	44235456	24992
503	1.524275	114696192	80883712	45573208	24992
504	2.263641	114696192	80883712	47570432	24992
505	5.793975	114696192	80883712	33758520	24992
506	3.962063	114696192	80883712	37075016	24992
507	4.494932	114696192	80883712	41050888	24992
508	5.275343	114696192	80883712	45686160	24992
509	8.866546	114696192	80883712	34539528	24992
510	6.713517	114696192	80883712	40494584	24992
511	7.805535	114696192	80883712	47109048	24992
512	10.87572	114696192	80883712	37960144	24992
513	9.093754	114696192	80883712	45893432	24992
514	12.393547	114696192	80883712	38058848	24992
515	10.561665	114696192	80883712	47310920	24992
516	14.061452	114696192	80883712	40792696	24992
517	14.914133	114696192	80883712	34923048	24992
518	12.793367	114696192	80883712	46155192	24992
519	16.256844	114696192	80883712	41611928	24992
520	16.860204	114696192	80883712	37732336	24992
521	18.210906	114696192	80883712	34495048	24992
522	15.65634	114696192	80883712	48365168	24992
523	19.723903	114696192	80883712	46463896	24992
524	20.268816	114696192	80883712	45233936	24992
525	20.84732	114696192	80883712	44649816	24992
526	21.540711	114696192	80883712	44719312	24992
527	23.033911	114696192	80883712	45450400	24992
528	22.955828	114696192	80883712	46842944	24992
529	23.908028	114696192	80883712	48896984	24992
530	27.38162	114696192	80883712	35116776	24992
531	25.312989	114696192	80883712	38495264	24992
532	26.717566	114696192	80883712	42534744	24992
533	26.908368	114696192	80883712	47238464	24992
534	30.867353	114696192	80883712	36155208	24992
535	28.523881	114696192	80883712	42156584	24992
536	29.454801	114696192	80883712	48855512	24992
537	33.34353	114696192	80883712	39754496	24992
538	30.811141	114696192	80883712	47739976	24992
539	35.453009	114696192	80883712	39970344	24992
540	32.694431	114696192	80883712	49273664	24992
541	36.610694	114696192	80883712	42809056	24992
542	36.628746	114696192	80883712	37007216	24992
543	34.660079	114696192	80883712	48292888	24992
544	38.221364	114696192	80883712	43836752	24992
545	39.238326	114696192	80883712	40006640	24992
546	39.726629	114696192	80883712	36834432	24992
547	40.550932	114696192	80883712	34324264	24992
548	38.167731	114696192	80883712	48912480	24992
549	41.62078	114696192	80883712	47768816	24992
550	42.709269	114696192	80883712	47244832	24992
551	43.01365	114696192	80883712	47383224	24992
552	43.882488	114696192	80883712	48183520	24992
553	44.821134	114696192	80883712	49645472	24992
554	49.218534	114696192	80883712	35277248	24992
555	46.850577	114696192	80883712	38060888	24992
556	47.345362	114696192	80883712	41526784	24992
557	47.905897	114696192	80883712	45633344	24992
558	49.098658	114696192	80883712	50400624	24992
559	52.543963	114696192	80883712	39339976	24992
560	50.687988	114696192	80883712	45432064	24992
561	56.552494	114696192	80883712	35693696	24992
562	52.858342	114696192	80883712	43105152	24992
563	52.8731	114696192	80883712	51181512	24992
564	57.208108	114696192	80883712	43426064	24992
565	57.844349	114696192	80883712	36334528	24992
566	55.57098	114696192	80883712	46400584	24992
567	59.318007	114696192	80883712	40649320	24992
568	56.743024	114696192	80883712	52045048	24992
569	61.30025	114696192	80883712	47613240	24992
570	61.756982	114696192	80883712	43846136	24992
571	62.452276	114696192	80883712	40742448	24992
572	63.812401	114696192	80883712	38289752	24992
573	72.281998	112672768	78786560	18183232	24992
574	55.472471	112672768	78786560	16998624	24992
575	56.346904	112672768	78786560	16482520	24992
576	56.940807	112672768	78786560	16628376	24992
577	57.517415	112672768	78786560	17435312	24992
578	58.748468	112672768	78786560	18902632	24992
579	59.064352	112672768	78786560	21029208	24992
580	60.287066	112672768	78786560	23811456	24992
581	60.720914	112672768	78786560	27249032	24992
582	61.498984	112672768	78786560	14873616	24992
583	62.846701	112672768	78786560	19646944	24992
584	63.053862	112672768	78786560	25077440	24992
585	63.565038	112672768	78786560	14672040	24992
586	64.180048	112943104	79310848	21428288	24992
587	64.637803	112943104	80883712	28841968	24992
588	66.064858	112943104	82980864	20420608	24992
589	67.3599	113213440	84553728	29155672	24992
590	67.262709	113213440	86650880	22054640	24992
591	68.268447	113483776	88748032	15616592	24992
592	68.933336	113483776	90320896	26331088	24992
593	69.496076	113754112	92418048	21220056	24992
594	70.310622	113754112	94515200	16764720	24992
595	71.101602	113754112	94515200	29463368	24992
596	72.839481	114024448	94515200	26346888	24992
597	72.983245	114024448	94515200	23949808	24992
598	73.470978	114294784	94515200	22209600	24992
599	74.340733	114294784	94515200	21123536	24992
600	75.045883	114565120	94515200	20704120	24992
601	75.735358	114565120	94515200	20951648	24992
602	0.820651	114835456	94515200	21473696	24992
603	1.584603	114835456	94515200	22811448	24992
604	2.254475	114835456	94515200	24808592	24992
605	3.039023	114835456	94515200	27465144	24992
606	3.779811	114835456	94515200	30781624	24992
607	4.961816	114835456	94515200	18301064	24992
608	5.251117	114835456	94515200	22936336	24992
609	5.921686	114835456	94515200	28231016	24992
610	7.218987	114835456	94515200	17761592	24992
611	7.53703	114835456	94515200	24376040	24992
612	8.260289	114835456	94515200	31649888	24992
613	9.680251	114835456	94515200	23162936	24992
614	9.610805	114835456	94515200	31755648	24992
615	11.057297	114835456	94515200	24588328	24992
616	11.819962	114835456	94515200	18058032	24992
617	12.072807	114835456	94515200	28628984	24992
618	13.202513	114835456	94515200	23425184	24992
619	14.23918	114835456	94515200	18884536	24992
620	14.31174	114835456	94515200	31435840	24992
621	15.713093	114835456	94515200	28219464	24992
622	16.594801	115105792	94515200	25666480	24992
623	16.80192	115105792	94515200	23753096	24992
624	18.039768	115105792	94515200	22501440	24992
625	18.382123	115105792	94515200	21911152	24992
626	19.603553	115105792	94515200	21982400	24992
627	20.261709	115105792	94515200	22715304	24992
628	20.83961	115105792	94515200	24109632	24992
629	21.970643	115105792	94515200	26165504	24992
630	22.860752	115105792	94515200	28882960	24992
631	23.187283	115376128	94515200	32261464	24992
632	24.671073	115376128	94515200	19840648	24992
633	25.000526	115376128	94515200	24514536	24992
634	25.758948	115376128	94515200	29882160	24992
635	27.417292	115376128	94515200	19455408	24992
636	27.1642	115376128	94515200	26117448	24992
637	28.265499	115646464	94515200	17021928	24992
638	29.054253	115646464	94515200	25005008	24992
639	29.991055	115646464	94515200	17230752	24992
640	30.482506	115646464	94515200	26534744	24992
641	31.188065	115646464	94515200	20085544	24992
642	31.9083	115646464	94515200	30711448	24992
643	32.832699	115646464	94515200	25584824	24992
644	33.874152	115916800	94515200	21093288	24992
645	34.515734	115916800	94515200	17260400	24992
646	35.174013	115916800	94515200	30527640	24992
647	35.95352	115916800	94515200	28050856	24992
648	37.026946	115916800	94515200	26205736	24992
649	38.089817	116187136	94515200	25021064	24992
650	39.105446	116187136	94515200	24495424	24992
651	40.118108	116187136	94515200	24632096	24992
652	40.176956	116187136	94515200	25430832	24992
653	40.716075	116457472	94515200	26891144	24992
654	41.43116	116457472	94515200	29013264	24992
655	41.953051	116457472	94515200	31795888	24992
656	43.5557	116457472	94515200	18749760	24992
657	44.094149	116727808	94515200	22856776	24992
658	45.341564	116727808	94515200	27634864	24992
659	45.750641	116727808	94515200	33065080	24992
660	47.035567	116727808	94515200	22663768	24992
661	47.068666	116998144	94515200	29417568	24992
662	49.287714	116998144	94515200	20349504	24992
663	48.818287	116998144	94515200	28424920	24992
664	50.187651	117268480	94515200	20672384	24992
665	50.232872	117268480	94515200	30069488	24992
666	52.252895	117538816	94515200	23647080	24992
667	51.543049	117538816	94515200	34382272	24992
668	53.019654	117538816	94515200	29292008	24992
669	53.936387	117809152	94515200	24865688	24992
670	54.98608	117809152	94515200	21089784	24992
671	54.315143	117809152	94515200	34473728	24992
672	56.120776	118079488	94515200	32030488	24992
673	57.240877	118079488	94515200	30248792	24992
674	57.923485	118349824	94515200	29130616	24992
675	58.592658	118349824	94515200	28659584	24992
676	59.970074	118620160	94515200	28850368	24992
677	60.467026	118620160	94515200	29702504	24992
678	61.281023	118890496	94515200	31216344	24992
679	61.878369	118890496	94515200	33391632	24992
680	62.41039	119160832	94515200	36226792	24992
681	65.007909	119160832	94515200	23249640	24992
682	64.028621	119431168	94515200	27420888	24992
683	65.053459	119431168	94515200	32254080	24992
684	65.787159	119431168	94515200	37744960	24992
685	68.196226	119701504	94515200	27410152	24992
686	67.349582	119701504	94515200	34228504	24992
687	70.128529	119971840	94515200	25215616	24992
688	69.552955	119971840	94515200	33358104	24992
689	71.762445	120242176	94515200	25668680	24992
690	70.733513	120242176	94515200	35134072	24992
691	73.073317	120242176	94515200	28767696	24992
692	72.166768	120512512	94515200	39556152	24992
693	74.640956	120512512	94515200	34509336	24992
694	75.275338	120782848	94515200	30127656	24992
695	76.23826	120782848	94515200	26408856	24992
696	75.216485	120782848	94515200	39840328	24992
697	77.927624	121053184	94515200	37442936	24992
698	78.743188	121053184	94515200	35708608	24992
699	79.09451	121323520	94515200	34635304	24992
700	80.430459	121323520	94515200	34220704	24992
701	81.305858	121593856	94515200	34461640	24992
702	0.831574	121593856	94515200	34973552	24992
703	1.76986	121593856	94515200	36311288	24992
704	2.448112	121593856	94515200	38308432	24992
705	3.04926	121593856	94515200	40973744	24992
706	5.513436	121593856	94515200	27824512	24992
707	4.744913	121593856	94515200	31800416	24992
708	5.173702	121593856	94515200	36435672	24992
709	7.902842	121593856	94515200	25294120	24992
710	6.675041	121593856	94515200	31249168	24992
711	8.361407	121593856	94515200	37872944	24992
712	10.189865	121864192	94515200	28720664	24992
713	9.174651	121864192	94515200	36653904	24992
714	11.765919	121864192	94515200	28821432	24992
715	10.45048	121864192	94515200	38073488	24992
716	13.428235	121864192	94515200	31555760	24992
717	13.637551	121864192	94515200	25686656	24992
718	12.943726	121864192	94515200	36918784	24992
719	15.305038	121864192	94515200	32376240	24992
720	15.91321	121864192	94515200	28497096	24992
721	17.076288	121864192	94515200	25260584	24992
722	15.963248	121864192	94515200	39131656	24992
723	18.636432	121864192	94515200	37239632	24992
724	19.079737	122134528	94515200	36010520	24992
725	19.878998	122134528	94515200	35419056	24992
726	21.013413	122134528	94515200	35489368	24992
727	21.152547	122134528	94515200	36221272	24992
728	22.184984	122134528	94515200	37614456	24992
729	23.453712	122134528	94515200	39668992	24992
730	26.043071	122134528	94515200	25925416	24992
731	24.388027	122134528	94515200	29274848	24992
732	25.838555	122404864	94515200	33315544	24992
733	26.180024	122404864	94515200	38019600	24992
734	29.756363	122404864	94515200	26945304	24992
735	27.909769	122404864	94515200	32946632	24992
736	28.209099	122404864	94515200	39645400	24992
737	30.978314	122404864	94515200	30550288	24992
738	29.86065	122404864	94515200	38533288	24992
739	32.708054	122675200	94515200	30767800	24992
740	31.177202	122675200	94515200	40071904	24992
741	34.116095	122675200	94515200	33631488	24992
742	34.889602	122675200	94515200	27816400	24992
743	33.448176	122675200	94515200	39102104	24992
744	36.466541	122945536	94515200	34645984	24992
745	37.00324	122945536	94515200	30815904	24992
746	37.968551	122945536	94515200	27644128	24992
747	36.414203	122945536	94515200	41571912	24992
748	39.403267	123215872	94515200	39766256	24992
749	40.477887	123215872	94515200	38580640	24992
750	40.698492	123215872	94515200	38056640	24992
751	42.265074	123215872	94515200	38196200	24992
752	42.538113	123215872	94515200	38995600	24992
753	43.341125	123486208	94515200	40456016	24992
754	44.338113	123486208	94515200	42579728	24992
755	46.723844	123486208	94515200	28872984	24992
756	46.229409	123486208	94515200	32318224	24992
757	46.365778	123756544	94515200	36424928	24992
758	47.13234	123756544	94515200	41193248	24992
759	50.082396	123756544	94515200	30129848	24992
760	49.237861	123756544	94515200	36221760	24992
761	49.258608	124026880	94515200	42974832	24992
762	52.411482	124026880	94515200	33896560	24992
763	50.583877	124026880	94515200	41972600	24992
764	53.227803	124297216	94515200	34217168	24992
765	52.711964	124297216	94515200	43616784	24992
766	55.500055	124297216	94515200	37192616	24992
767	56.918034	124567552	94515200	31442584	24992
768	54.97445	124567552	94515200	42832000	24992
769	57.833956	124567552	94515200	38403216	24992
770	58.901478	124837888	94515200	34638176	24992
771	59.466619	124837888	94515200	31523320	24992
772	58.476536	125108224	94515200	45565648	24992
773	61.072698	125108224	94515200	43780864	24992
774	61.619896	125108224	94515200	42660080	24992
775	62.897179	125378560	94515200	42200840	24992
776	66.049835	125378560	94515200	42403568	24992
777	64.391616	125648896	94515200	43267952	24992
778	64.72704	125648896	94515200	44793536	24992
779	68.385418	125648896	94515200	30493144	24992
780	66.7212	125919232	94515200	33340432	24992
781	67.321616	125919232	94515200	36849536	24992
782	67.955733	125919232	94515200	41019696	24992
783	69.020098	126189568	94515200	45848632	24992
784	72.307669	126189568	94515200	34842592	24992
785	71.164631	126459904	94515200	40999376	24992
786	71.044059	126459904	94515200	47813744	24992
787	74.262055	126730240	94515200	38789896	24992
788	72.879909	126730240	94515200	46927440	24992
789	76.025077	127000576	94515200	39229360	24992
790	77.052037	127000576	95039488	32195024	24992
791	75.368592	127270912	95039488	42313880	24992
792	78.422532	127541248	95039488	36602720	24992
793	76.966987	127541248	95039488	48045216	24992
794	80.32884	127811584	95039488	43663664	24992
795	80.927312	127811584	95563776	39940296	24992
796	82.141313	128081920	95563776	36872072	24992
797	83.43507	128081920	95563776	34475960	24992
798	81.173294	128352256	95563776	49227520	24992
799	84.891512	128352256	95563776	48154072	24992
800	85.189187	128622592	95563776	47741040	24992
801	86.335628	128622592	95563776	47990912	24992
802	0.821303	128622592	95563776	48515256	24992
803	1.531422	128622592	95563776	49852992	24992
804	5.314352	128622592	95563776	35376440	24992
805	3.01119	128622592	95563776	38032976	24992
806	3.72884	128622592	95563776	41349440	24992
807	4.558829	128622592	95563776	45325328	24992
808	5.389292	128622592	95563776	49960584	24992
809	9.365482	128892928	95563776	38813344	24992
810	7.021786	128892928	95563776	44768384	24992
811	10.510051	128892928	95563776	34953360	24992
812	8.272833	128892928	95563776	42227192	24992
813	9.130664	128892928	95563776	50160464	24992
814	13.086581	128892928	95563776	42325304	24992
815	13.437835	128892928	96088064	35143800	24992
816	11.361083	128892928	96088064	45055248	24992
817	15.184346	128892928	96088064	39185376	24992
818	12.92956	128892928	96088064	50417576	24992
819	16.726968	128892928	96088064	45891152	24992
820	17.181898	128892928	96088064	42011096	24992
821	18.357246	128892928	96088064	38773328	24992
822	19.282183	128892928	96088064	36197992	24992
823	16.409136	128892928	96088064	50727648	24992
824	20.465896	129163264	96088064	49497008	24992
825	21.095582	129163264	96088064	48929664	24992
826	22.275519	129163264	96088064	48998968	24992
827	22.771373	129163264	96088064	49729880	24992
828	24.036144	129163264	96088064	51122216	24992
829	27.615322	129163264	96088064	36701776	24992
830	25.059021	129163264	96088064	39400848	24992
831	26.010626	129163264	96088064	42779640	24992
832	26.477001	129433600	96088064	46818824	24992
833	27.475739	129433600	96088064	51522128	24992
834	31.287007	129433600	96088064	40398624	24992
835	29.053498	129433600	96088064	46432120	24992
836	33.00233	129433600	96088064	36675664	24992
837	30.778278	129433600	96088064	43998080	24992
838	34.504944	129703936	96088064	35570144	24992
839	31.943443	129703936	96088064	44213592	24992
840	35.985659	129703936	96612352	37109088	24992
841	33.974888	129703936	96612352	47073640	24992
842	37.471237	129703936	96612352	41293136	24992
843	38.792736	129974272	96612352	36137640	24992
844	35.926903	129974272	96612352	48083680	24992
845	39.68377	129974272	96612352	44290240	24992
846	40.966602	129974272	96612352	41121648	24992
847	41.440717	129974272	96612352	38611288	24992
848	42.596001	130244608	96612352	36762720	24992
849	39.604968	130244608	96612352	52011496	24992
850	43.935706	130244608	97136640	51561424	24992
851	44.761406	130244608	97136640	51690936	24992
852	53.143337	117329920	83505152	18361688	24992
853	39.709526	117329920	83505152	19783912	24992
854	40.500277	117329920	83505152	21866336	24992
855	40.985525	117329920	83505152	24609568	24992
856	41.900823	117329920	83505152	28011760	24992
857	42.386176	117329920	83505152	15587736	24992
858	43.253286	117329920	83505152	20314064	24992
859	44.271649	117329920	83505152	25700864	24992
860	45.551533	117329920	83505152	15255424	24992
861	45.066665	117329920	83505152	21964504	24992
862	46.153459	117329920	83505152	12843424	24992
863	46.986675	117329920	83505152	20870320	24992
864	48.134843	117329920	83505152	13070352	24992
865	48.191689	117329920	83505152	22419384	24992
866	49.0002	117329920	83505152	15949248	24992
867	49.791966	117329920	83505152	26627680	24992
868	50.519714	117329920	83505152	21487792	24992
869	51.674848	117329920	83505152	17010888	24992
870	52.72046	117329920	83505152	13184432	24992
871	53.030402	117329920	83505152	26513488	24992
872	53.950342	117329920	83505152	24017312	24992
873	54.405339	117329920	83505152	22182952	24992
874	55.355699	117329920	84553728	21003464	24992
875	55.996109	117329920	86126592	20477752	24992
876	56.702624	117600256	87699456	20614264	24992
877	57.595777	117600256	89272320	21415320	24992
878	58.529294	117600256	90845184	22875816	24992
879	60.233234	117870592	90845184	25003656	24992
880	60.556877	117870592	90845184	27838912	24992
881	60.604382	117870592	90845184	14854424	24992
882	61.533341	118140928	90845184	19025968	24992
883	62.164594	118140928	90845184	23859312	24992
884	62.706184	118411264	90845184	29350992	24992
885	63.569308	118411264	90845184	19007176	24992
886	64.663961	118411264	90845184	25825792	24992
887	68.319068	118681600	90845184	16809488	24992
888	67.016926	118681600	90845184	24947464	24992
889	67.332541	118951936	90845184	17251728	24992
890	67.713001	118951936	90845184	26709320	24992
891	68.558622	119222272	90845184	20339416	24992
892	69.28813	119222272	90845184	31123792	24992
893	70.208363	119492608	90845184	26079416	24992
894	73.406443	119492608	90845184	21691888	24992
895	73.168024	119762944	90845184	17969184	24992
896	72.417167	119762944	90845184	31396704	24992
897	74.028136	119762944	90845184	28999320	24992
898	74.545339	120033280	90845184	27264440	24992
899	75.69016	120033280	90845184	26185760	24992
900	77.167764	120303616	90845184	25763464	24992
901	77.397954	120573952	90845184	26000488	24992
902	0.826601	120573952	90845184	26512240	24992
903	1.523766	120573952	90845184	27849976	24992
904	2.257192	120573952	90845184	29847104	24992
905	2.972371	120573952	90845184	32503640	24992
906	4.613373	120573952	90845184	19354984	24992
907	4.683393	120573952	90845184	23330840	24992
908	5.39396	120573952	90845184	27966096	24992
909	6.16909	120573952	90845184	33260760	24992
910	7.741606	120573952	90845184	22791496	24992
911	7.396571	120573952	90845184	29405928	24992
912	9.006555	120573952	90845184	20254112	24992
913	9.062458	120573952	90845184	28187352	24992
914	10.694711	120573952	90845184	20344792	24992
915	10.315113	120573952	90845184	29596848	24992
916	12.262889	120844288	90845184	23081120	24992
917	12.01033	120844288	90845184	33651992	24992
918	13.621239	120844288	90845184	28465200	24992
919	14.537903	120844288	90845184	23924536	24992
920	15.113548	120844288	90845184	20026976	24992
921	14.746094	120844288	90845184	33237672	24992
922	16.861615	120844288	90845184	30684456	24992
923	17.154515	120844288	90845184	28794088	24992
924	18.484537	120844288	90845184	27542096	24992
925	18.631	120844288	90845184	26951888	24992
926	19.879768	121114624	90845184	27023104	24992
927	20.718447	121114624	90845184	27755896	24992
928	21.647453	121114624	90845184	29158568	24992
929	22.081406	121114624	90845184	31214248	24992
930	23.168962	121114624	90845184	33931416	24992
931	24.435889	121114624	90845184	20852008	24992
932	24.760361	121114624	90845184	24862384	24992
933	25.735224	121114624	90845184	29575648	24992
934	25.887895	121114624	90845184	34941264	24992
935	28.111343	121384960	90845184	24514056	24992
936	27.569073	121384960	90845184	31177288	24992
937	29.257583	121384960	90845184	22083592	24992
938	28.787923	121384960	90845184	30066880	24992
939	31.02086	121384960	90845184	22304016	24992
940	30.48066	121384960	90845184	31608504	24992
941	32.319546	121655296	90845184	25165672	24992
942	31.595458	121655296	90845184	35790320	24992
943	33.942714	121655296	90845184	30625944	24992
944	34.131014	121655296	90845184	26171480	24992
945	35.140424	121925632	90845184	22340008	24992
946	35.040758	121925632	90845184	35607536	24992
947	36.689479	121925632	90845184	33130864	24992
948	37.391193	121925632	90845184	31280920	24992
949	38.295252	121925632	90845184	30096872	24992
950	40.09683	122195968	90845184	29573688	24992
951	39.729267	122195968	90845184	29711104	24992
952	40.470261	122195968	90845184	30510424	24992
953	41.544421	122195968	90845184	31971288	24992
954	41.769939	122466304	90845184	34091864	24992
955	42.462359	122466304	90845184	36877632	24992
956	45.357325	122466304	90845184	23830712	24992
957	44.547186	122466304	90845184	27938408	24992
958	45.32194	122736640	90845184	32707224	24992
959	47.87282	122736640	90845184	21644672	24992
960	46.747391	122736640	90845184	27736888	24992
961	47.497273	122736640	90845184	34490536	24992
962	49.313112	123006976	90845184	25412920	24992
963	48.724233	123006976	90845184	33490416	24992
964	50.934782	123006976	90845184	25735864	24992
965	50.276155	123277312	90845184	35136840	24992
966	52.733949	123277312	90845184	28713488	24992
967	53.24823	123277312	90845184	22965840	24992
968	52.48393	123277312	90845184	34358560	24992
969	55.200861	123547648	90845184	29930320	24992
970	55.752265	123547648	90845184	26165632	24992
971	56.570469	123817984	90845184	23052152	24992
972	56.152833	123817984	90845184	37095088	24992
973	57.915134	123817984	90845184	35313440	24992
974	59.005715	123817984	90845184	34193312	24992
975	59.935294	123817984	90845184	33734952	24992
976	60.164987	123817984	90845184	33939040	24992
977	61.698939	123817984	90845184	34797288	24992
978	61.859361	123817984	90845184	36316352	24992
979	63.119787	123817984	90845184	38504624	24992
980	64.996262	124088320	90845184	24866112	24992
981	64.770767	124088320	90845184	28375696	24992
982	65.286781	124088320	91369472	32546816	24992
983	65.898189	124358656	91369472	37376824	24992
984	68.163302	124358656	91369472	26371760	24992
985	67.940932	124628992	91369472	32529024	24992
986	68.043601	124628992	91369472	39344256	24992
987	72.021365	124899328	91893760	30332336	24992
988	69.873891	124899328	91893760	38473688	24992
989	72.855906	125169664	91893760	30783816	24992
990	72.638052	125169664	91893760	40257784	24992
991	74.371874	125169664	92418048	33891456	24992
992	74.995078	125440000	92418048	28181144	24992
993	74.616805	125440000	92418048	39623832	24992
994	77.970141	125710336	92418048	35250232	24992
995	77.797432	125980672	92418048	31524288	24992
996	78.518319	125980672	92942336	28463176	24992
997	77.315441	125980672	92942336	42552648	24992
998	80.973482	126251008	92942336	40817600	24992
999	80.36854	126251008	92942336	39743672	24992
1000	82.14851	126521344	92942336	39331280	24992
