x	Duration	RSS	HeapTotal	HeapUsed	External
0	NA	105287680	70922240	11153448	24992
1	0.923933	105287680	70922240	11833536	24992
2	1.578195	105287680	70922240	13171880	24992
3	2.292193	105287680	70922240	15169640	24992
4	3.026713	105287680	70922240	17826872	24992
5	3.8575	105287680	70922240	21144224	24992
6	4.412391	105287680	70922240	25121064	24992
7	5.721666	105287680	70922240	13291328	24992
8	5.797365	105287680	70922240	18587264	24992
9	6.694608	105287680	70922240	24543704	24992
10	7.522585	105287680	70922240	14700544	24992
11	8.161954	105287680	70922240	21976096	24992
12	9.084994	105287680	70922240	13443864	24992
13	9.38104	105287680	70922240	22038488	24992
14	10.434109	105287680	70922240	14824568	24992
15	12.124789	105287680	70922240	24752280	24992
16	12.163617	105287680	70922240	18860552	24992
17	12.721373	105287680	70922240	13627072	24992
18	13.377822	105287680	70922240	25521608	24992
19	14.088533	105287680	70922240	21610296	24992
20	14.802728	105287680	70922240	18360120	24992
21	15.337509	105287680	70922240	15763568	24992
22	16.456789	105287680	70922240	13828544	24992
23	16.861417	105287680	70922240	12554016	24992
24	18.233469	105287680	70922240	11940008	24992
25	18.458037	105287680	70922240	11986552	24992
26	19.331288	105287680	70922240	12693680	24992
27	20.658223	105287680	70922240	14065112	24992
28	21.034758	105287680	70922240	16096712	24992
29	21.636962	105287680	70922240	18783488	24992
30	22.319367	105287680	70922240	22129856	24992
31	22.896831	105287680	70922240	26136480	24992
32	24.962007	105287680	70922240	14341344	24992
33	24.042003	105287680	70922240	19670824	24992
34	25.198031	105287680	70922240	25667224	24992
35	26.035899	105287680	70922240	15857104	24992
36	26.819149	105287680	70922240	23170424	24992
37	27.399053	105287680	70922240	14688040	24992
38	28.009905	105287680	70922240	23320192	24992
39	28.66369	105287680	70922240	16158328	24992
40	29.749022	105287680	70922240	26111232	24992
41	30.978704	105287680	70922240	20273080	24992
42	30.818163	105287680	70922240	15092352	24992
43	31.452171	105287680	70922240	27027248	24992
44	32.849797	105287680	70922240	23168848	24992
45	33.363295	105287680	70922240	19971928	24992
46	34.123432	105287680	70922240	17430488	24992
47	34.606427	105287680	70922240	15550184	24992
48	36.501526	105287680	70922240	14331152	24992
49	37.220803	105287680	71446528	13785864	24992
50	36.719213	105287680	71446528	13889384	24992
51	38.054626	105558016	71446528	14654248	24992
52	38.199963	105558016	71446528	16080240	24992
53	39.504824	105558016	71446528	18167256	24992
54	39.827056	105558016	71446528	20915160	24992
55	40.45018	105558016	71446528	24323736	24992
56	41.260936	105558016	71446528	28392104	24992
57	42.541913	105828352	71446528	16629528	24992
58	42.48673	105828352	71446528	22018744	24992
59	42.945852	105828352	71446528	28068520	24992
60	44.278677	105828352	71446528	18286112	24992
61	45.771794	105828352	71446528	25666688	24992
62	45.637112	105828352	71446528	17253664	24992
63	46.277392	105828352	71446528	25992448	24992
64	47.123565	105828352	71446528	18899416	24992
65	47.844977	105828352	71446528	28969208	24992
66	48.294759	105828352	71446528	23216944	24992
67	49.164376	105828352	71446528	18128832	24992
68	50.35725	105828352	71446528	30179688	24992
69	50.814411	105828352	71446528	26413200	24992
70	52.29153	105828352	71446528	23310512	24992
71	53.62914	105828352	71446528	20868768	24992
72	53.594981	105828352	71446528	19077480	24992
73	54.257575	105828352	71446528	17955776	24992
74	54.548515	105828352	71446528	17495584	24992
75	55.401017	105828352	71446528	17697280	24992
76	55.983039	105828352	71446528	18560232	24992
77	57.18921	105828352	71446528	20085232	24992
78	57.89424	105828352	71446528	22271152	24992
79	58.466056	105828352	71446528	25116576	24992
80	61.128783	105828352	71446528	28618752	24992
81	60.634023	105828352	71446528	32778056	24992
82	62.106968	105828352	71446528	21124272	24992
83	62.486276	105828352	71446528	26619184	24992
84	62.735015	105828352	71446528	32775512	24992
85	64.432614	105828352	71446528	23090720	24992
86	64.390633	105828352	71446528	30572760	24992
87	65.373532	105828352	71446528	22220712	24992
88	67.70889	105828352	71446528	31023344	24992
89	67.30356	105828352	71446528	23994952	24992
90	67.374673	105828352	71446528	34119128	24992
91	68.926728	105828352	71446528	28407504	24992
92	70.057097	105828352	71446528	23369104	24992
93	70.524695	105828352	71446528	18988352	24992
94	71.51083	105828352	71446528	31762168	24992
95	74.057041	105828352	71446528	28703536	24992
96	73.062379	105828352	71446528	26301376	24992
97	73.682949	105828352	71446528	24554312	24992
98	74.601648	105828352	71446528	23478896	24992
99	75.139749	105828352	71446528	23065496	24992
100	76.278291	105828352	71446528	23314360	24992
101	77.312656	105828352	71446528	24224520	24992
102	0.794611	105828352	71446528	25405112	24992
103	1.477288	105828352	71446528	26742864	24992
104	2.423843	105828352	71446528	28740008	24992
105	2.892875	105828352	71446528	31396560	24992
106	3.590681	105828352	71446528	34713040	24992
107	5.72064	105828352	71446528	22232432	24992
108	5.017767	105828352	71446528	26867704	24992
109	5.918731	105828352	71446528	32162384	24992
110	8.028461	105828352	71446528	21692912	24992
111	7.418892	105828352	71446528	28307360	24992
112	8.10572	105828352	71446528	35581208	24992
113	9.950894	105828352	71446528	27094256	24992
114	9.554389	105828352	71446528	35686936	24992
115	11.475374	105828352	71446528	28519664	24992
116	12.185961	105828352	71446528	21989432	24992
117	11.63723	105828352	71446528	32560416	24992
118	13.802761	105828352	71446528	27356728	24992
119	14.429935	105828352	71446528	22816064	24992
120	13.914187	105828352	71446528	35367368	24992
121	16.01412	105828352	71446528	32151664	24992
122	16.468227	105828352	71446528	29598680	24992
123	17.473013	105828352	71446528	27685296	24992
124	18.063096	105828352	71446528	26433464	24992
125	18.880196	105828352	71446528	25843176	24992
126	19.642117	105828352	71446528	25914872	24992
127	20.17657	105828352	71446528	26648128	24992
128	21.254858	105828352	71446528	28042456	24992
129	22.129961	105828352	71446528	30098520	24992
130	22.433749	105828352	71446528	32815944	24992
131	23.093879	105828352	71446528	36194656	24992
132	25.229385	105828352	71446528	23777080	24992
133	24.805867	105828352	71446528	28451080	24992
134	25.910789	105828352	71446528	33823480	24992
135	27.742792	105828352	71446528	23404344	24992
136	26.936412	105828352	71446528	30066576	24992
137	27.607449	105828352	71446528	37427696	24992
138	29.890481	105828352	71446528	28952408	24992
139	30.788189	105828352	71446528	21185888	24992
140	29.781616	105828352	71446528	30490088	24992
141	31.761681	105828352	71446528	24049304	24992
142	31.509067	105828352	71446528	34678384	24992
143	33.414945	105828352	71446528	29562552	24992
144	34.328777	105828352	71446528	25071504	24992
145	33.07154	105828352	71446528	37678584	24992
146	35.67836	105828352	71446528	34525224	24992
147	36.146509	105828352	71446528	32029096	24992
148	36.721007	105828352	71446528	30184384	24992
149	38.435977	105828352	71446528	28997600	24992
150	39.107716	105828352	71446528	28472416	24992
151	39.505558	105828352	71446528	28609816	24992
152	40.595053	105828352	71446528	29408864	24992
153	40.690462	105828352	71446528	30869648	24992
154	41.941858	105828352	71446528	32992144	24992
155	42.397202	105828352	71446528	35776008	24992
156	44.649281	105828352	71446528	22728608	24992
157	43.818289	105828352	71446528	26836032	24992
158	44.716728	105828352	71446528	31605392	24992
159	44.93551	105828352	71446528	37036072	24992
160	47.410159	105828352	71446528	26635392	24992
161	47.900949	105828352	71446528	33389664	24992
162	49.353738	105828352	71446528	24313728	24992
163	48.523028	105828352	71446528	32387192	24992
164	50.589842	105828352	71446528	24634656	24992
165	49.573904	105828352	71446528	34031968	24992
166	52.639167	105828352	71446528	27610432	24992
167	51.227934	105828352	71446528	38338264	24992
168	53.74421	105828352	71446528	33248560	24992
169	54.628458	105828352	71446528	28822432	24992
170	56.612094	105828352	71446528	25055872	24992
171	56.939991	105828352	71446528	38446280	24992
172	57.722713	105828352	71446528	36002656	24992
173	57.983099	105828352	71446528	34220624	24992
174	58.898713	105828352	71446528	33103328	24992
175	59.405938	105828352	71446528	32631992	24992
176	60.086872	105828352	71446528	32822288	24992
177	60.95828	105828352	71446528	33674112	24992
178	62.581528	105828352	71446528	35195696	24992
179	62.579412	105828352	71446528	37370352	24992
180	63.170924	105828352	71446528	40205088	24992
181	66.364528	105828352	71446528	27227952	24992
182	64.883951	105828352	71446528	31398512	24992
183	65.835685	105828352	71446528	36231000	24992
184	66.129487	105828352	71446528	41721936	24992
185	69.378707	105828352	71446528	31378400	24992
186	67.713787	105828352	71446528	38196144	24992
187	71.089168	105828352	71446528	29182584	24992
188	69.554008	105828352	71446528	37324176	24992
189	72.448563	105828352	71446528	29630992	24992
190	70.988664	105828352	71446528	39092168	24992
191	73.939204	105828352	71446528	32725136	24992
192	72.583658	105828352	71446528	43512744	24992
193	77.023292	105828352	71446528	38468616	24992
194	78.880119	105828352	71446528	34083432	24992
195	78.320528	105828352	71446528	30359280	24992
196	76.071233	105828352	71446528	43786456	24992
197	79.338191	105828352	71446528	41389240	24992
198	79.931171	105828352	71446528	39654512	24992
199	80.619222	105828352	71446528	38580568	24992
200	82.372377	105828352	71446528	38162816	24992
201	82.955272	105828352	71446528	38399536	24992
202	0.794956	105828352	71446528	38911368	24992
203	1.48229	105828352	71446528	40249120	24992
204	2.223015	105828352	71446528	42246264	24992
205	2.873365	105828352	71446528	44902816	24992
206	6.581284	105828352	71446528	31751184	24992
207	4.36258	105828352	71446528	35727056	24992
208	5.062617	105828352	71446528	40362328	24992
209	5.723154	105828352	71446528	45657008	24992
210	9.343939	105828352	71446528	35179144	24992
211	7.28628	105828352	71446528	41793592	24992
212	10.798338	105828352	71446528	32637904	24992
213	8.799628	105828352	71446528	40571160	24992
214	12.132157	105828352	71446528	32727864	24992
215	10.248708	105828352	71446528	41979936	24992
216	13.63537	105828352	71446528	35461632	24992
217	14.452837	105828352	71446528	29592072	24992
218	12.414961	105828352	71446528	40824208	24992
219	16.084165	105828352	71446528	36281216	24992
220	16.591056	105828352	71446528	32401560	24992
221	14.460962	105828352	71446528	45612288	24992
222	18.049369	105828352	71446528	43056472	24992
223	18.806283	105828352	71446528	41164040	24992
224	19.768191	105828352	71446528	39910472	24992
225	20.347705	105828352	71446528	39318960	24992
226	21.386198	105828352	71446528	39388920	24992
227	21.579364	105828352	71446528	40120424	24992
228	22.525906	105828352	71446528	41513480	24992
229	23.305824	105828352	71446528	43573360	24992
230	23.898484	105828352	71446528	46291752	24992
231	27.841568	105828352	71446528	33190224	24992
232	25.51336	105828352	71446528	37214016	24992
233	26.575887	105828352	71446528	41918016	24992
234	29.615286	105828352	71446528	30835896	24992
235	27.518582	105828352	71446528	36837120	24992
236	28.695763	105828352	71446528	43534024	24992
237	31.866393	105828352	71446528	34439008	24992
238	29.960185	105828352	71446528	42422008	24992
239	33.554908	105828352	71446528	34656472	24992
240	31.737974	105828352	71446528	43960560	24992
241	34.824097	105828352	71446528	37520144	24992
242	35.796103	105828352	71446528	31704976	24992
243	33.33248	105828352	71446528	42990616	24992
244	38.035865	105828352	71446528	38534560	24992
245	38.467011	105828352	71446528	34704448	24992
246	38.932604	105828352	71446528	31532688	24992
247	36.673992	105828352	71446528	45460424	24992
248	40.095528	105828352	71446528	43654800	24992
249	41.219169	105828352	71446528	42469280	24992
250	41.864916	105828352	71446528	41946128	24992
251	42.49092	105828352	71970816	42084552	24992
252	42.994736	106098688	71970816	42883120	24992
253	43.949568	106098688	71970816	44342256	24992
254	44.251754	106098688	71970816	46464096	24992
255	48.760327	106098688	71970816	32758008	24992
256	46.007248	106369024	71970816	36203184	24992
257	46.968177	106369024	71970816	40310320	24992
258	47.664497	106369024	71970816	45078560	24992
259	52.392773	106369024	71970816	34026360	24992
260	49.07467	106369024	71970816	40118080	24992
261	49.999295	106369024	71970816	46871104	24992
262	53.634094	106369024	71970816	37792672	24992
263	51.65352	106369024	71970816	45869176	24992
264	55.294992	106369024	72495104	38113776	24992
265	53.12032	106639360	72495104	47513824	24992
266	57.975016	106639360	72495104	41090216	24992
267	57.970494	106639360	72495104	35340088	24992
268	55.314445	106909696	72495104	46728704	24992
269	59.172117	106909696	73019392	42300176	24992
270	59.91052	107180032	73019392	38535056	24992
271	60.492408	107180032	73019392	35420808	24992
272	58.049986	107180032	73019392	49463120	24992
273	61.908869	107450368	73019392	47681216	24992
274	63.101149	107450368	73543680	46560528	24992
275	63.554584	107720704	73543680	46101464	24992
276	64.719439	107720704	73543680	46303952	24992
277	65.06586	107720704	73543680	47168224	24992
278	66.069559	107991040	73543680	48693920	24992
279	66.645186	107991040	74067968	50881304	24992
280	71.701806	108261376	74067968	37241920	24992
281	68.464163	108261376	74067968	40751008	24992
282	69.402739	108261376	74067968	44921152	24992
283	70.591405	108531712	74592256	49750312	24992
284	74.289106	108531712	74592256	38744552	24992
285	72.201923	108802048	74592256	44901248	24992
286	72.450382	108802048	74592256	51715776	24992
287	78.083406	109072384	75116544	42695656	24992
288	77.881687	107499520	73543680	15102496	24992
289	64.276858	107499520	73543680	23842376	24992
290	65.870774	107499520	73543680	16748704	24992
291	65.224383	107499520	73543680	26808912	24992
292	66.421229	107499520	73543680	21036448	24992
293	67.266983	107499520	73543680	15920360	24992
294	67.763936	107499520	73543680	27956880	24992
295	68.338097	107499520	73543680	24168976	24992
296	70.550896	107499520	73543680	21040816	24992
297	70.80281	107499520	75116544	18568664	24992
298	70.554569	107769856	77213696	16761336	24992
299	71.918166	107769856	79310848	15614920	24992
300	71.993949	108040192	81408000	15129728	24992
301	72.805996	108040192	83505152	15304960	24992
302	0.804077	108310528	85602304	15797904	24992
303	1.487903	108310528	85602304	17135656	24992
304	2.436308	108310528	85602304	19132800	24992
305	2.949455	108310528	85602304	21789352	24992
306	3.618257	108310528	85602304	25105832	24992
307	4.377096	108310528	85602304	29081800	24992
308	5.597439	108310528	86126592	17244512	24992
309	5.741495	108310528	86126592	22539192	24992
310	6.696514	108310528	86126592	28494248	24992
311	7.773749	108310528	86650880	18649064	24992
312	8.039001	108310528	86650880	25922912	24992
313	9.881831	108310528	86650880	17393168	24992
314	9.3002	108310528	86650880	25985848	24992
315	10.618884	108310528	86650880	18770080	24992
316	10.961803	108310528	86650880	28681544	24992
317	11.950043	108310528	86650880	22787072	24992
318	12.7723	108310528	86650880	17550832	24992
319	13.30629	108310528	86650880	29442368	24992
320	14.035642	108310528	86650880	25526464	24992
321	14.718586	108310528	86650880	22272144	24992
322	15.662413	108310528	86650880	19672360	24992
323	16.30272	108310528	86650880	17733032	24992
324	17.202789	108310528	86650880	16455000	24992
325	17.906464	108310528	86650880	15837360	24992
326	18.65089	108310528	86650880	15880184	24992
327	19.357429	108310528	86650880	16583352	24992
328	20.181538	108310528	86650880	17948400	24992
329	20.793676	108310528	86650880	19972360	24992
330	21.333384	108310528	86650880	22656032	24992
331	21.867436	108580864	86650880	25999936	24992
332	22.723251	108580864	86650880	30003776	24992
333	24.385837	108580864	86650880	18192440	24992
334	24.278088	108580864	86650880	23526704	24992
335	25.161339	108580864	86650880	29519680	24992
336	27.122838	108580864	86650880	19715352	24992
337	26.279393	108580864	86650880	27037488	24992
338	27.398065	108580864	86650880	18602296	24992
339	28.167503	108580864	86650880	27246016	24992
340	29.480644	108580864	86650880	20135688	24992
341	29.28599	108580864	86650880	30099696	24992
342	30.665723	108851200	86650880	24313752	24992
343	31.236843	108851200	86650880	19160712	24992
344	32.185493	108851200	86650880	14666248	24992
345	32.114949	108851200	86650880	27272928	24992
346	33.729777	109121536	86650880	24133736	24992
347	34.004075	109121536	86650880	21627112	24992
348	35.255333	109121536	86650880	19778152	24992
349	35.776187	109121536	86650880	18591120	24992
350	36.116875	109121536	86650880	18066056	24992
351	36.808917	109391872	86650880	18203320	24992
352	38.387468	109391872	86650880	19002488	24992
353	38.742949	109391872	86650880	20463568	24992
354	39.561111	109391872	86650880	22585720	24992
355	39.83086	109662208	86650880	25369400	24992
356	41.160853	109662208	86650880	28814840	24992
357	41.910666	109662208	86650880	16428368	24992
358	42.419512	109662208	86650880	21197096	24992
359	43.145825	109932544	86650880	26627096	24992
360	44.201252	109932544	86650880	16240648	24992
361	44.360446	109932544	86650880	22990576	24992
362	45.326597	110202880	86650880	30405368	24992
363	46.533559	110202880	86650880	21988776	24992
364	47.075454	110202880	86650880	30726664	24992
365	48.02304	110202880	86650880	23634168	24992
366	49.326983	110473216	86650880	17213912	24992
367	49.279477	110473216	86650880	27945032	24992
368	50.608779	110473216	86650880	22858208	24992
369	50.933722	110743552	86650880	18427616	24992
370	51.378224	110743552	86650880	31146840	24992
371	52.378449	111013888	86650880	28041624	24992
372	53.189223	111013888	86650880	25598648	24992
373	53.834113	111013888	86650880	23811128	24992
374	54.886491	111284224	86650880	22681712	24992
375	55.532342	111284224	86650880	22221184	24992
376	57.33526	111284224	86650880	22430952	24992
377	57.006002	111554560	86650880	23294000	24992
378	58.711956	111554560	86650880	24826016	24992
379	58.889658	111554560	86650880	27010328	24992
380	59.356253	111824896	86650880	29851000	24992
381	60.254097	111824896	86650880	33347880	24992
382	61.784696	112095232	86650880	21032936	24992
383	61.898412	112095232	86650880	25866720	24992
384	62.409257	112365568	86650880	31360392	24992
385	64.151587	112365568	86650880	21020432	24992
386	63.863029	112635904	86650880	27839312	24992
387	64.779254	112635904	86650880	35315944	24992
388	66.419757	112906240	86650880	26958224	24992
389	66.631028	112906240	86650880	35758032	24992
390	68.689539	113176576	86650880	28721792	24992
391	68.75352	113176576	86650880	22349912	24992
392	68.720288	113446912	86650880	33131456	24992
393	70.63259	113446912	86650880	28088064	24992
394	71.658955	113717248	86650880	23701168	24992
395	71.132622	113717248	86650880	36467480	24992
396	72.987031	113987584	86650880	33409648	24992
397	73.86477	113987584	86650880	31013104	24992
398	74.674206	114257920	86650880	29273272	24992
399	76.187217	114257920	86650880	28188224	24992
400	76.21939	114528256	86650880	27769152	24992
401	77.418286	114528256	86650880	28017216	24992
402	0.787389	114798592	86650880	28539768	24992
403	1.476441	114798592	86650880	29877520	24992
404	2.187655	114798592	86650880	31874664	24992
405	2.875264	114798592	86650880	34531216	24992
406	3.645865	114798592	86650880	37847696	24992
407	5.911601	114798592	86650880	25367120	24992
408	5.330971	114798592	86650880	30002456	24992
409	6.311359	114798592	86650880	35297136	24992
410	8.95282	114798592	86650880	24827696	24992
411	7.914637	114798592	86650880	31442176	24992
412	7.95292	114798592	86650880	38716088	24992
413	10.674183	114798592	86650880	30223776	24992
414	9.734845	114798592	86650880	38816440	24992
415	11.893494	114798592	86650880	31634496	24992
416	12.467331	114798592	86650880	25109320	24992
417	11.623375	114798592	86650880	35680192	24992
418	14.147042	114798592	86650880	30489032	24992
419	15.049603	114798592	86650880	25948400	24992
420	14.4291	114798592	86650880	38499736	24992
421	16.073387	114798592	86650880	35283312	24992
422	17.011787	115068928	86650880	32730328	24992
423	17.435244	115068928	86650880	30816976	24992
424	18.005594	115068928	86650880	29565224	24992
425	19.043732	115068928	86650880	28974936	24992
426	19.634546	115068928	86650880	29046184	24992
427	20.528132	115068928	86650880	29778976	24992
428	21.487795	115068928	86650880	31173320	24992
429	21.960129	115068928	86650880	33229192	24992
430	22.70689	115068928	86650880	35946440	24992
431	23.572999	115339264	86650880	39324832	24992
432	25.571099	115339264	86650880	26890304	24992
433	24.759268	115339264	86650880	31576704	24992
434	25.350838	115339264	86650880	36948888	24992
435	27.783325	115339264	86650880	26529608	24992
436	27.060358	115339264	86650880	33191888	24992
437	29.476968	115609600	86650880	24104368	24992
438	28.470256	115609600	86650880	32087544	24992
439	30.825605	115609600	86650880	24321352	24992
440	29.79683	115609600	86650880	33625680	24992
441	33.403079	115609600	86650880	27184848	24992
442	31.725486	115609600	86650880	37810504	24992
443	33.853564	115879936	86650880	32692648	24992
444	34.576069	115879936	86650880	28201520	24992
445	35.362484	115879936	86650880	24368816	24992
446	34.060105	115879936	86650880	37636280	24992
447	37.113064	116150272	86650880	35169080	24992
448	37.016548	116150272	86650880	33324480	24992
449	38.939753	116150272	86650880	32146584	24992
450	38.822185	116150272	86650880	31621416	24992
451	41.518689	116150272	86650880	31767824	24992
452	40.191978	116420608	86650880	32566936	24992
453	41.288678	116420608	86650880	34027480	24992
454	41.755087	116420608	86650880	36149784	24992
455	42.796868	116420608	86650880	38933456	24992
456	45.329915	116690944	86650880	25887448	24992
457	44.632875	116690944	86650880	29994680	24992
458	44.84392	116690944	86650880	34763704	24992
459	46.010235	116690944	86650880	40194128	24992
460	48.807508	116961280	86650880	29801224	24992
461	47.044151	116961280	86650880	36554824	24992
462	49.540278	116961280	86650880	27477152	24992
463	48.489053	117231616	86650880	35551872	24992
464	51.018292	117231616	86650880	27798632	24992
465	50.677453	117231616	86650880	37195080	24992
466	53.338256	117231616	86650880	30772288	24992
467	51.736548	117501952	86650880	41506344	24992
468	54.226715	117501952	86650880	36415440	24992
469	55.208527	117501952	86650880	31988608	24992
470	55.377122	117772288	86650880	28212096	24992
471	54.825677	117772288	86650880	41592776	24992
472	57.26506	117772288	86650880	39148960	24992
473	57.728927	118042624	86650880	37366656	24992
474	60.301247	118042624	86650880	36247584	24992
475	60.021506	118312960	86650880	35776008	24992
476	60.682679	118312960	86650880	35965952	24992
477	60.850513	118583296	86650880	36817728	24992
478	61.880792	118583296	86650880	38330928	24992
479	62.235106	118583296	86650880	40504584	24992
480	63.174753	118853632	86650880	43346216	24992
481	65.901803	118853632	86650880	30368456	24992
482	64.929783	119123968	86650880	34539096	24992
483	65.73928	119123968	86650880	39371760	24992
484	66.296076	119394304	86650880	44862104	24992
485	69.332506	119394304	86650880	34522752	24992
486	67.730463	119394304	86650880	41340448	24992
487	70.807545	119664640	86650880	32326856	24992
488	69.499193	119664640	86650880	40468400	24992
489	72.5043	119664640	86650880	32778048	24992
490	71.553533	119934976	87175168	42242880	24992
491	74.284968	119934976	87175168	35875784	24992
492	75.195811	120205312	87175168	30175488	24992
493	73.198611	120205312	87175168	41617872	24992
494	76.36683	120205312	87175168	37235440	24992
495	77.4197	120475648	87175168	33509208	24992
496	77.625979	120475648	87175168	46936544	24992
497	79.219611	120745984	87175168	44537232	24992
498	79.364638	120745984	87175168	42802568	24992
499	80.291695	121016320	87175168	41728688	24992
500	81.335049	121016320	87175168	41313576	24992
501	82.244982	121286656	87699456	41553744	24992
502	0.834793	121286656	87699456	42065544	24992
503	1.573057	121286656	87699456	43403296	24992
504	2.296498	121286656	87699456	45400440	24992
505	3.049825	121286656	87699456	48056992	24992
506	6.378174	121286656	87699456	34904720	24992
507	4.359666	121286656	87699456	38880592	24992
508	5.016579	121286656	87699456	43515912	24992
509	8.509969	121286656	87699456	32369400	24992
510	6.600564	121286656	87699456	38324488	24992
511	7.277942	121286656	87699456	44939048	24992
512	10.705369	121286656	87699456	35783256	24992
513	8.744248	121286656	87699456	43716608	24992
514	12.266264	121286656	87699456	35882248	24992
515	10.055919	121286656	87699456	45134400	24992
516	13.427434	121556992	87699456	38616064	24992
517	14.213054	121556992	87699456	32746416	24992
518	12.376115	121556992	87699456	43978560	24992
519	15.84878	121556992	87699456	39435504	24992
520	16.538994	121556992	87699456	35555864	24992
521	17.513219	121556992	87699456	32319048	24992
522	15.200859	121556992	87699456	46189192	24992
523	18.673796	121556992	87699456	44296704	24992
524	19.613468	121556992	87699456	43067016	24992
525	20.030532	121556992	87699456	42475216	24992
526	20.877327	121556992	87699456	42545208	24992
527	21.93651	121827328	88223744	43276760	24992
528	22.789554	121827328	88223744	44669368	24992
529	23.382116	121827328	88223744	46723488	24992
530	26.697079	121827328	88223744	32979432	24992
531	24.906478	121827328	88223744	36328640	24992
532	25.473422	121827328	88223744	40368984	24992
533	25.946773	121827328	88223744	45072752	24992
534	30.002074	122097664	88223744	33989784	24992
535	27.610191	122097664	88223744	39991112	24992
536	29.097851	122097664	88223744	46692440	24992
537	31.708228	122097664	88223744	37597328	24992
538	29.863558	122097664	88223744	45580424	24992
539	33.390407	122097664	88223744	37814904	24992
540	31.084755	122097664	88223744	47119024	24992
541	34.927227	122368000	88223744	40678608	24992
542	35.446142	122368000	88223744	34863552	24992
543	33.284693	122368000	88223744	46149128	24992
544	36.651683	122368000	88223744	41693072	24992
545	37.541454	122638336	88223744	37863184	24992
546	38.371882	122638336	88223744	34691424	24992
547	36.014377	122638336	88223744	48619144	24992
548	40.421796	122638336	88223744	46813568	24992
549	41.385472	122638336	88223744	45627984	24992
550	41.263659	122638336	88223744	45104016	24992
551	42.335003	122638336	88223744	45243368	24992
552	42.725132	122638336	88223744	46042768	24992
553	43.861927	122638336	88223744	47502944	24992
554	44.414191	122638336	88223744	49626672	24992
555	48.738909	122638336	88223744	35920008	24992
556	45.978459	122638336	88223744	39385712	24992
557	46.904556	122638336	88223744	43492544	24992
558	47.326788	122638336	88223744	48260848	24992
559	51.681405	122638336	88223744	37197448	24992
560	48.832622	122638336	88223744	43289472	24992
561	50.090991	122638336	88223744	50042976	24992
562	53.940722	122638336	88223744	40963856	24992
563	51.353667	122638336	88223744	49040168	24992
564	55.382961	122638336	88223744	41284992	24992
565	52.470038	122638336	88223744	50684736	24992
566	56.658989	122638336	88223744	44260600	24992
567	57.373045	122638336	88223744	38510568	24992
568	55.623634	122638336	88223744	49899360	24992
569	59.804674	122638336	88223744	45470560	24992
570	59.798582	122638336	88223744	41705360	24992
571	61.537395	122638336	88223744	38590472	24992
572	57.758307	122638336	88223744	52632816	24992
573	73.708303	118444032	84029440	14376328	24992
574	53.617713	118444032	84029440	13201352	24992
575	54.520576	118444032	84029440	12686376	24992
576	55.327523	118444032	84029440	12832296	24992
577	56.033279	118444032	84029440	13639200	24992
578	56.686296	118444032	84029440	15107200	24992
579	57.719469	118444032	84029440	17236072	24992
580	58.336405	118444032	84029440	20025448	24992
581	58.894728	118444032	84029440	23472320	24992
582	59.813854	118444032	84029440	27570680	24992
583	60.194636	118444032	84029440	15857048	24992
584	61.195112	118444032	84029440	21291656	24992
585	61.320647	118444032	84029440	27383184	24992
586	64.334262	118444032	84029440	17638824	24992
587	63.472597	118444032	84029440	25055752	24992
588	63.943622	118444032	84029440	16640408	24992
589	64.009022	118444032	84029440	25379568	24992
590	65.024956	118444032	85602304	18285800	24992
591	66.00508	118714368	87175168	28346408	24992
592	66.256697	118714368	89272320	22574024	24992
593	67.232569	118984704	91369472	17457840	24992
594	68.12139	118984704	92942336	29494424	24992
595	69.029267	118984704	92942336	25707888	24992
596	70.389118	119255040	92942336	22589520	24992
597	70.175701	119255040	92942336	20187432	24992
598	70.931138	119255040	92942336	18450600	24992
599	71.758803	119525376	92942336	17375528	24992
600	73.171592	119525376	92942336	16962680	24992
601	73.765695	119795712	92942336	17210720	24992
602	0.798597	119795712	92942336	17733312	24992
603	1.499763	119795712	92942336	19071064	24992
604	2.173784	119795712	92942336	21068208	24992
605	2.933834	119795712	92942336	23724760	24992
606	3.850202	119795712	92942336	27041240	24992
607	4.351004	119795712	92942336	31017112	24992
608	5.530725	119795712	92942336	19205536	24992
609	5.934073	119795712	92942336	24500216	24992
610	6.429347	119795712	92942336	30455368	24992
611	7.915431	119795712	92942336	20657856	24992
612	8.137696	119795712	92942336	27931704	24992
613	9.126875	119795712	92942336	19435880	24992
614	9.469164	119795712	92942336	28028544	24992
615	10.830627	120066048	92942336	20849192	24992
616	10.982226	120066048	92942336	30760656	24992
617	12.379529	120066048	92942336	24908360	24992
618	12.730955	120066048	92942336	19705112	24992
619	13.118134	120066048	92942336	31596696	24992
620	14.446748	120066048	92942336	27717664	24992
621	15.193035	120066048	92942336	24502128	24992
622	15.773528	120066048	92942336	21927200	24992
623	16.378133	120066048	92942336	20013864	24992
624	17.391241	120066048	92942336	18762928	24992
625	18.356796	120066048	92942336	18173584	24992
626	18.518897	120066048	92942336	18245776	24992
627	19.794321	120336384	92942336	18979496	24992
628	20.573408	120336384	92942336	20374848	24992
629	20.911809	120336384	92942336	22431648	24992
630	21.789423	120336384	92942336	25149248	24992
631	22.81944	120336384	92942336	28528200	24992
632	23.104002	120336384	92942336	32568240	24992
633	24.495025	120336384	92942336	20786712	24992
634	24.768507	120336384	92942336	26143576	24992
635	25.360826	120606720	92942336	32170736	24992
636	26.851405	120606720	92942336	22405552	24992
637	26.886305	120606720	92942336	29727384	24992
638	28.141877	120606720	92942336	21292224	24992
639	28.498497	120606720	92942336	29935976	24992
640	29.650739	120606720	92942336	22825760	24992
641	29.915742	120606720	92942336	32789736	24992
642	31.552404	120877056	92942336	26989512	24992
643	31.891644	120877056	92942336	21839448	24992
644	32.656465	120877056	92942336	17344312	24992
645	32.837791	120877056	92942336	29951040	24992
646	34.59912	121147392	92942336	26811960	24992
647	34.855308	121147392	92942336	24305432	24992
648	36.399584	121147392	92942336	22456536	24992
649	36.496879	121147392	92942336	21271912	24992
650	37.151151	121147392	92942336	20746784	24992
651	38.001545	121417728	92942336	20883984	24992
652	38.520833	121417728	92942336	21683296	24992
653	39.431013	121417728	92942336	23144152	24992
654	39.967274	121417728	92942336	25266336	24992
655	40.696663	121688064	92942336	28049888	24992
656	41.095584	121688064	92942336	31495280	24992
657	43.373131	121688064	92942336	19108824	24992
658	43.778084	121688064	92942336	23885800	24992
659	43.7178	121958400	92942336	29315608	24992
660	45.582122	121958400	92942336	18914904	24992
661	45.280731	121958400	92942336	25666656	24992
662	46.966104	122228736	92942336	33089600	24992
663	47.716948	122228736	92942336	24673368	24992
664	47.294481	122228736	92942336	33411728	24992
665	48.963793	122228736	92942336	26319136	24992
666	49.847262	122499072	92942336	19897584	24992
667	49.4549	122499072	92942336	30625096	24992
668	51.418934	122769408	92942336	25535376	24992
669	51.870206	122769408	92942336	21112448	24992
670	51.809509	122769408	92942336	33832320	24992
671	53.788166	123039744	92942336	30727416	24992
672	54.338774	123039744	92942336	28284928	24992
673	55.300024	123039744	92942336	26497864	24992
674	55.93688	123310080	92942336	25368664	24992
675	57.013383	123310080	92942336	24908240	24992
676	57.100029	123580416	92942336	25109672	24992
677	58.328156	123580416	92942336	25972888	24992
678	58.785399	123580416	92942336	27497144	24992
679	59.994104	123850752	92942336	29681760	24992
680	61.123647	123850752	92942336	32522464	24992
681	61.305052	124121088	92942336	36019232	24992
682	63.034526	124121088	92942336	23703616	24992
683	62.799345	124391424	92942336	28537336	24992
684	63.630715	124391424	92942336	34029144	24992
685	65.69993	124661760	92942336	23689904	24992
686	65.650463	124661760	92942336	30508736	24992
687	66.089348	124661760	92942336	37985480	24992
688	68.416301	124932096	92942336	29626992	24992
689	67.742534	125202432	92942336	38426784	24992
690	69.972264	125202432	92942336	31391072	24992
691	71.060373	125472768	92942336	25019544	24992
692	69.804771	125472768	92942336	35800976	24992
693	71.865274	125743104	92942336	30757712	24992
694	72.870524	125743104	92942336	26370672	24992
695	72.226489	126013440	92942336	39137000	24992
696	74.844707	126013440	92942336	36079136	24992
697	75.030347	126283776	92942336	33682592	24992
698	76.132299	126283776	92942336	31942696	24992
699	76.927831	126554112	92942336	30856784	24992
700	77.862321	126554112	93466624	30437728	24992
701	78.770385	126824448	93466624	30680296	24992
702	0.843476	126824448	93466624	31202992	24992
703	1.557415	126824448	93466624	32540728	24992
704	2.450149	126824448	93466624	34537856	24992
705	3.2113	126824448	93466624	37203168	24992
706	3.646229	126824448	93466624	40519632	24992
707	6.230341	126824448	93466624	28038352	24992
708	5.033425	126824448	93466624	32673608	24992
709	5.772933	126824448	93466624	37968272	24992
710	8.408333	127094784	93466624	27498704	24992
711	7.163912	127094784	93466624	34113136	24992
712	10.413958	127094784	93466624	24962296	24992
713	8.98179	127094784	93466624	32895536	24992
714	11.255918	127094784	93466624	25052032	24992
715	10.023671	127094784	93466624	34304088	24992
716	12.687295	127094784	93466624	27786920	24992
717	11.607918	127094784	93466624	38357944	24992
718	14.163587	127094784	93466624	33169368	24992
719	15.42387	127094784	93466624	28627296	24992
720	13.890113	127094784	93466624	41179560	24992
721	16.288426	127094784	93466624	37961672	24992
722	17.268132	127365120	93466624	35407296	24992
723	17.638106	127365120	93466624	33492960	24992
724	18.814818	127365120	93466624	32240176	24992
725	19.31155	127365120	93466624	31648984	24992
726	20.339851	127365120	93466624	31719552	24992
727	21.126873	127365120	93466624	32451376	24992
728	21.423787	127365120	93466624	33844752	24992
729	22.292249	127365120	93466624	35899656	24992
730	22.871044	127365120	93466624	38615904	24992
731	23.699123	127365120	93466624	41993360	24992
732	26.467108	127635456	93466624	29537712	24992
733	25.779095	127635456	93466624	34242256	24992
734	27.083413	127635456	93466624	39621840	24992
735	28.40286	127635456	93466624	29201776	24992
736	27.401829	127635456	93466624	35863656	24992
737	30.242102	127635456	93466624	26775000	24992
738	28.773933	127635456	93466624	34757840	24992
739	31.301326	127905792	93466624	26990912	24992
740	30.333606	127905792	93466624	36294952	24992
741	32.909003	127905792	93466624	29852952	24992
742	31.730792	127905792	93466624	40478704	24992
743	34.271954	127905792	93466624	35359856	24992
744	35.145315	127905792	93466624	30868216	24992
745	35.694522	127905792	93466624	27034840	24992
746	34.693986	127905792	93466624	40302016	24992
747	37.223468	127905792	93466624	37833696	24992
748	38.36016	127905792	93466624	35987288	24992
749	39.087711	127905792	93466624	34801976	24992
750	39.347738	127905792	93466624	34276120	24992
751	40.220452	127905792	93466624	34412992	24992
752	40.678749	127905792	93466624	35211496	24992
753	41.350223	127905792	93466624	36671736	24992
754	42.321988	127905792	93466624	38793608	24992
755	42.89526	127905792	93466624	41575984	24992
756	45.742521	127905792	93466624	28529704	24992
757	44.965428	127905792	93466624	32636776	24992
758	45.425359	127905792	93466624	37405192	24992
759	46.307277	127905792	93466624	42835296	24992
760	49.290491	127905792	93466624	32432952	24992
761	47.798296	127905792	93466624	39186584	24992
762	50.868564	127905792	93466624	30109008	24992
763	48.891658	127905792	93466624	38183760	24992
764	52.137942	127905792	93466624	30430376	24992
765	50.295905	127905792	93466624	39826888	24992
766	53.201016	127905792	93466624	33404160	24992
767	52.264477	127905792	93466624	44138232	24992
768	54.666743	127905792	93466624	39047280	24992
769	55.841038	127905792	93466624	34620464	24992
770	56.548299	127905792	93466624	30844368	24992
771	55.058436	127905792	93466624	44225048	24992
772	58.323512	127905792	93466624	41780496	24992
773	58.574808	127905792	93466624	39998464	24992
774	59.949439	127905792	93466624	38879424	24992
775	60.10839	127905792	93466624	38407784	24992
776	61.165825	127905792	93466624	38597712	24992
777	61.880488	127905792	93466624	39449248	24992
778	62.799032	127905792	93466624	40962528	24992
779	63.463457	127905792	93466624	43136280	24992
780	64.622107	127905792	93466624	45977896	24992
781	67.605493	127905792	93466624	33001336	24992
782	66.139322	127905792	93466624	37172088	24992
783	66.561903	127905792	93466624	42002912	24992
784	67.307848	127905792	93466624	47489568	24992
785	70.820166	127905792	93466624	37149736	24992
786	69.106187	127905792	93466624	43967560	24992
787	72.161668	127905792	93466624	34953952	24992
788	70.404543	127905792	93466624	43095704	24992
789	73.757492	127905792	93466624	35405304	24992
790	72.268618	127905792	93466624	44870488	24992
791	75.331631	127905792	93466624	38503168	24992
792	76.58636	127905792	93466624	32797680	24992
793	74.781122	127905792	93466624	44239856	24992
794	78.239763	127905792	93466624	39857520	24992
795	78.546049	127905792	93466624	36131384	24992
796	76.831798	127905792	93466624	49558576	24992
797	81.394793	127905792	93466624	47163584	24992
798	81.522486	127905792	93466624	45428872	24992
799	82.40927	127905792	93466624	44355152	24992
800	82.967597	127905792	93466624	43940056	24992
801	83.853272	127905792	93466624	44180128	24992
802	0.804737	127905792	93466624	44691800	24992
803	1.482002	127905792	93466624	46029536	24992
804	2.170436	127905792	93466624	48026664	24992
805	5.90134	127905792	93466624	34208088	24992
806	3.708208	127905792	93466624	37524544	24992
807	4.41037	127905792	93466624	41500400	24992
808	5.043813	127905792	93466624	46135656	24992
809	8.824449	127905792	93466624	34989120	24992
810	6.912868	127905792	93466624	40944160	24992
811	7.136822	127905792	93466624	47558592	24992
812	11.096361	127905792	93466624	38409992	24992
813	8.764496	127905792	93466624	46343232	24992
814	12.581774	127905792	93466624	38508856	24992
815	10.318287	127905792	93466624	47760912	24992
816	13.96314	127905792	93466624	41242480	24992
817	14.666169	127905792	93466624	35372816	24992
818	12.431887	127905792	93466624	46604944	24992
819	16.26677	127905792	93466624	42061936	24992
820	17.076685	127905792	93466624	38182296	24992
821	17.705624	127905792	93466624	34945432	24992
822	15.339085	127905792	93466624	48815528	24992
823	19.113632	127905792	93466624	46922992	24992
824	19.831811	127905792	93466624	45693272	24992
825	20.515258	127905792	93466624	45101280	24992
826	21.084988	127905792	93466624	45170984	24992
827	21.899436	127905792	93466624	45902264	24992
828	22.785056	127905792	93466624	47294840	24992
829	23.702965	127905792	93466624	49349056	24992
830	27.297801	127905792	93466624	35604920	24992
831	25.241575	127905792	93466624	38954240	24992
832	25.930663	127905792	93466624	42994552	24992
833	26.560868	127905792	93466624	47698416	24992
834	30.594307	127905792	93466624	36615384	24992
835	27.940988	127905792	93466624	42616648	24992
836	29.01325	127905792	93466624	49315688	24992
837	32.402418	127905792	93466624	40220512	24992
838	30.222889	127905792	93466624	48203592	24992
839	34.315164	127905792	93466624	40438040	24992
840	31.73812	127905792	93466624	49741824	24992
841	36.464377	127905792	93466624	43301376	24992
842	36.851953	127905792	93466624	37486240	24992
843	33.812108	127905792	93466624	48771800	24992
844	37.785402	127905792	93466624	44315696	24992
845	38.445147	127905792	93466624	40485552	24992
846	38.992378	127905792	93466624	37313968	24992
847	36.589482	127905792	93466624	51241640	24992
848	40.493649	127905792	93466624	49435232	24992
849	41.101957	127905792	93466624	48249600	24992
850	42.52369	127905792	93466624	47756696	24992
851	43.458716	127905792	93466624	47897384	24992
852	51.709578	120041472	85602304	12676224	24992
853	38.48277	120041472	85602304	14098656	24992
854	39.12909	120041472	85602304	16181336	24992
855	40.342727	120041472	85602304	18925144	24992
856	40.409172	120041472	85602304	22329160	24992
857	41.126184	120041472	85602304	26394016	24992
858	42.130295	120041472	85602304	14627064	24992
859	42.610581	120041472	85602304	20014232	24992
860	42.725412	120041472	85602304	26062120	24992
861	44.047791	120041472	85602304	16277520	24992
862	44.699405	120041472	85602304	23647672	24992
863	45.483388	120041472	85602304	15185888	24992
864	46.332114	120041472	85602304	23875960	24992
865	47.095528	120041472	85602304	16735264	24992
866	48.468853	120041472	85602304	26757008	24992
867	48.527226	120041472	85602304	20956408	24992
868	49.23403	120041472	85602304	15818504	24992
869	49.767831	120041472	85602304	27818816	24992
870	51.089327	120041472	85602304	24000232	24992
871	51.583483	120041472	85602304	20844072	24992
872	52.375051	120041472	85602304	18342496	24992
873	52.663326	120041472	85602304	16498344	24992
874	53.767281	120041472	85602304	15322640	24992
875	54.439654	120041472	85602304	14807664	24992
876	55.442066	120041472	87175168	14953712	24992
877	56.100719	120311808	88748032	15760504	24992
878	56.276534	120311808	90320896	17228272	24992
879	57.37468	120311808	90320896	19358616	24992
880	57.997708	120311808	90320896	22147656	24992
881	60.728587	120582144	90320896	25612232	24992
882	58.98951	120582144	90320896	29770488	24992
883	60.8032	120582144	90320896	18118512	24992
884	60.563069	120852480	90320896	23614360	24992
885	62.168591	120852480	90320896	29767352	24992
886	62.083483	121122816	90320896	20084920	24992
887	63.040395	121122816	90320896	27564832	24992
888	63.812764	121122816	90320896	19213432	24992
889	64.748351	121393152	90320896	28017352	24992
890	65.490913	121393152	90320896	20989176	24992
891	66.117619	121663488	90320896	31118528	24992
892	67.35082	121663488	90320896	25414504	24992
893	68.417623	121933824	90320896	20365752	24992
894	68.432815	121933824	90320896	32470600	24992
895	69.870409	122204160	90320896	28749728	24992
896	70.219656	122204160	90320896	25691112	24992
897	74.673033	122204160	90320896	23289224	24992
898	73.237205	122474496	90320896	21547528	24992
899	73.915626	122744832	90320896	20473272	24992
900	75.243572	122744832	90320896	20062888	24992
901	74.691778	123015168	90320896	20311416	24992
902	0.814444	123015168	90320896	20834576	24992
903	1.48304	123015168	90320896	22172312	24992
904	2.186267	123015168	90320896	24169440	24992
905	2.875978	123015168	90320896	26825976	24992
906	3.634215	123015168	90320896	30142440	24992
907	4.351915	123015168	90320896	34118312	24992
908	6.018468	123015168	90320896	22306080	24992
909	5.914231	123015168	90320896	27600832	24992
910	6.436323	123015168	90320896	33555864	24992
911	8.203161	123015168	90320896	23757680	24992
912	7.949389	123015168	90320896	31031512	24992
913	9.571963	123015168	90320896	22535576	24992
914	9.519416	123015168	90320896	31128240	24992
915	11.094926	123015168	90320896	23948840	24992
916	10.986899	123015168	90320896	33860336	24992
917	12.410201	123285504	90320896	28007416	24992
918	13.338386	123285504	90320896	22804152	24992
919	13.987437	123285504	90320896	18245232	24992
920	13.850854	123285504	90320896	30796512	24992
921	15.324371	123285504	90320896	27580936	24992
922	16.152649	123285504	90320896	25028528	24992
923	17.112879	123285504	90320896	23115128	24992
924	17.543122	123285504	90320896	21864176	24992
925	18.53359	123285504	90320896	21274848	24992
926	19.058592	123285504	90320896	21347008	24992
927	19.907976	123555840	90320896	22080696	24992
928	20.360476	123555840	90320896	23475920	24992
929	22.064869	123555840	90320896	25541032	24992
930	21.935737	123555840	90320896	28258424	24992
931	23.117559	123555840	90320896	31637376	24992
932	24.512243	123555840	90320896	19220552	24992
933	24.219885	123826176	90320896	23894352	24992
934	25.039282	123826176	90320896	29266952	24992
935	25.881866	123826176	90320896	35300944	24992
936	27.413553	123826176	90320896	25502704	24992
937	27.505862	123826176	90320896	32859440	24992
938	28.800203	124096512	90320896	24428152	24992
939	28.754025	124096512	90320896	33071616	24992
940	30.711289	124096512	90320896	25969592	24992
941	31.130346	124096512	90320896	19493464	24992
942	32.131793	124096512	90320896	30118704	24992
943	32.734316	124096512	90320896	25002736	24992
944	34.06824	124366848	90320896	20507624	24992
945	33.185689	124366848	90320896	33114592	24992
946	34.534364	124366848	90320896	29984592	24992
947	35.424933	124366848	90320896	27478320	24992
948	36.180967	124637184	90845184	25629864	24992
949	36.728227	124637184	90845184	24442984	24992
950	37.729377	124637184	90845184	23918376	24992
951	38.048636	124637184	90845184	24056128	24992
952	38.7716	124637184	90845184	24856000	24992
953	39.874507	124907520	90845184	26317416	24992
954	40.294825	124907520	90845184	28439656	24992
955	41.113291	124907520	90845184	31223712	24992
956	41.958025	124907520	90845184	34669224	24992
957	43.96021	125177856	91369472	22283224	24992
958	44.400968	125177856	91369472	27052360	24992
959	44.592592	125177856	91369472	32482624	24992
960	46.664002	125448192	91369472	22081480	24992
961	45.557039	125448192	91369472	28835656	24992
962	46.607972	125448192	91369472	36250936	24992
963	48.543849	125448192	91369472	27834048	24992
964	48.07061	125718528	91369472	36572568	24992
965	49.932895	125718528	91369472	29479240	24992
966	50.706956	125718528	91369472	23057816	24992
967	50.970819	125718528	91369472	33785344	24992
968	52.805489	125718528	91369472	28695592	24992
969	53.344854	125718528	91369472	24271000	24992
970	52.634308	125718528	91369472	36987024	24992
971	54.406297	125718528	91369472	33882152	24992
972	55.568633	125718528	91369472	31438768	24992
973	55.706489	125718528	91369472	29659088	24992
974	57.502587	125718528	91369472	28528032	24992
975	57.981218	125718528	91369472	28064112	24992
976	58.274955	125718528	91369472	28265176	24992
977	58.988755	125718528	91369472	29127944	24992
978	60.231082	125718528	91369472	30652280	24992
979	60.771515	125718528	91369472	32834768	24992
980	61.408023	125718528	91369472	35671832	24992
981	61.945377	125718528	91369472	39168872	24992
982	64.394618	125718528	91369472	26853352	24992
983	64.218745	125718528	91369472	31687264	24992
984	64.744166	125718528	91369472	37179048	24992
985	66.861991	125718528	91369472	26835576	24992
986	66.162476	125718528	91369472	33654584	24992
987	67.359238	125718528	91369472	41140088	24992
988	69.280882	125718528	91369472	32781184	24992
989	70.220556	125718528	91369472	25086048	24992
990	70.281718	125718528	91369472	34553200	24992
991	72.099515	125718528	91369472	28181880	24992
992	71.837924	125718528	91369472	38962944	24992
993	73.659278	125718528	91369472	33919264	24992
994	75.12969	125718528	91369472	29539936	24992
995	73.39696	125718528	91369472	42305576	24992
996	75.724682	125718528	91369472	39244224	24992
997	76.19421	125718528	91369472	36846976	24992
998	77.522499	125718528	91369472	35109480	24992
999	78.139319	125718528	91369472	34026648	24992
1000	79.244981	125718528	91369472	33601728	24992
