x	Duration	RSS	HeapTotal	HeapUsed	External
0	NA	112467968	78262272	11156624	24992
1	1.275515	112467968	78262272	11836712	24992
2	2.245246	112467968	78262272	13175056	24992
3	3.431952	112467968	78262272	15172816	24992
4	3.309938	112467968	78262272	17830048	24992
5	3.701376	112467968	78262272	21147400	24992
6	4.565855	112467968	78262272	25124240	24992
7	5.585419	112467968	78262272	13294504	24992
8	5.917664	112467968	78262272	18590440	24992
9	6.766851	112467968	78262272	24546880	24992
10	7.548346	112467968	78262272	14703720	24992
11	9.05188	112467968	78262272	21993208	24992
12	8.985612	112467968	78262272	13461328	24992
13	9.68128	112467968	78262272	22055952	24992
14	10.512687	112467968	78262272	14842432	24992
15	10.780761	112467968	78262272	24756176	24992
16	11.950713	112467968	78262272	18864448	24992
17	12.655487	112467968	78262272	13630904	24992
18	13.154964	112467968	78262272	25525200	24992
19	14.159398	112467968	78262272	21613792	24992
20	15.16684	112467968	78262272	18363472	24992
21	16.081473	112467968	78262272	15766952	24992
22	16.257489	112467968	78262272	13831880	24992
23	16.761143	112467968	78262272	12557336	24992
24	17.979357	112467968	78262272	11943328	24992
25	18.748989	112467968	78262272	11989888	24992
26	19.392207	112467968	78262272	12697064	24992
27	20.11315	112467968	78262272	14064760	24992
28	21.628095	112467968	78262272	16101888	24992
29	21.505747	112467968	78262272	18788728	24992
30	22.123767	112467968	78262272	22135160	24992
31	23.087955	112467968	78262272	26141864	24992
32	24.855558	112467968	78262272	14344552	24992
33	25.123792	112467968	78262272	19674064	24992
34	25.512282	112467968	78262272	25670448	24992
35	26.610416	112467968	78262272	15860440	24992
36	26.75151	112467968	78262272	23173808	24992
37	27.529481	112467968	78262272	14691488	24992
38	27.983073	112467968	78262272	23323608	24992
39	29.46325	112467968	78262272	16163856	24992
40	29.349723	112467968	78262272	26116552	24992
41	30.716219	112467968	78262272	20278368	24992
42	31.406645	112467968	78262272	15097848	24992
43	31.474227	112467968	78262272	27031464	24992
44	32.397224	112467968	78262272	23172936	24992
45	32.95176	112467968	78262272	19976064	24992
46	34.019309	112467968	78262272	17434608	24992
47	35.268129	112467968	78262272	15554384	24992
48	35.703361	112467968	78262272	14335384	24992
49	36.780091	112467968	78262272	13777184	24992
50	37.600406	112467968	78262272	13882184	24992
51	37.870114	112467968	78262272	14643128	24992
52	38.283466	112467968	78262272	16064912	24992
53	38.890279	112467968	78262272	18147672	24992
54	39.84232	112467968	78262272	20891112	24992
55	41.413423	112467968	78262272	24308216	24992
56	41.239355	112467968	78262272	28372336	24992
57	42.151273	112467968	78262272	16607888	24992
58	42.619443	112467968	78262272	21995408	24992
59	43.075732	112467968	78262272	28043280	24992
60	43.78527	112467968	78262272	18259016	24992
61	45.599044	112467968	78262272	25637512	24992
62	45.632365	112467968	78262272	17222104	24992
63	46.476593	112467968	78262272	25960744	24992
64	46.832288	112467968	78262272	18867696	24992
65	47.77145	112467968	78262272	28937520	24992
66	48.412471	112467968	78262272	23185944	24992
67	49.316591	112467968	78262272	18097992	24992
68	49.691541	112467968	78262272	30148832	24992
69	51.157487	112467968	78262272	26382104	24992
70	51.746016	112467968	78262272	23276936	24992
71	52.639418	112467968	78262272	20835176	24992
72	53.014268	112467968	78262272	19043984	24992
73	53.967134	112467968	78262272	17922440	24992
74	55.150461	112467968	78262272	17464728	24992
75	55.290558	112467968	78262272	17666008	24992
76	56.188273	112467968	78262272	18530352	24992
77	56.567488	112467968	78262272	20055032	24992
78	57.668641	112467968	78262272	22241368	24992
79	58.461257	112467968	78262272	25086936	24992
80	59.570659	112467968	78262272	28589096	24992
81	60.763719	112467968	78262272	32749416	24992
82	61.980407	112467968	78262272	21096080	24992
83	61.470115	112467968	78262272	26591088	24992
84	62.631273	112467968	78262272	32747344	24992
85	63.707251	112467968	78262272	23065104	24992
86	64.18443	112467968	78262272	30547320	24992
87	65.35009	112467968	78262272	22195384	24992
88	66.764691	112467968	78262272	30998032	24992
89	67.584481	112467968	78262272	23969448	24992
90	67.147322	112467968	78262272	34093624	24992
91	69.67071	112467968	78786560	28392504	24992
92	69.595827	112738304	78786560	23346160	24992
93	72.293189	112738304	78786560	18973688	24992
94	70.264707	113008640	78786560	31739744	24992
95	72.955467	113008640	78786560	28681096	24992
96	73.52501	113008640	78786560	26278968	24992
97	73.898547	113008640	78786560	24531936	24992
98	75.344642	113008640	78786560	23456616	24992
99	75.438211	113008640	78786560	23043312	24992
100	76.552733	113008640	78786560	23291904	24992
101	81.015641	113008640	78786560	24202112	24992
102	0.790163	113008640	78786560	25382560	24992
103	1.533792	113008640	78786560	26720312	24992
104	2.220068	113008640	78786560	28717456	24992
105	3.082973	113008640	78786560	31374008	24992
106	3.926235	113008640	78786560	34690488	24992
107	5.574838	113008640	78786560	22209944	24992
108	5.277466	113008640	78786560	26845216	24992
109	5.705273	113008640	78786560	32139896	24992
110	7.907891	113008640	78786560	21670424	24992
111	7.142281	113008640	78786560	28284872	24992
112	7.848389	113008640	78786560	35558720	24992
113	10.36225	113008640	78786560	27071768	24992
114	9.648089	113008640	78786560	35664464	24992
115	11.422225	113008640	78786560	28497144	24992
116	12.378711	113008640	78786560	21967344	24992
117	11.676067	113008640	78786560	32538232	24992
118	13.696229	113008640	78786560	27334544	24992
119	14.387282	113008640	78786560	22793880	24992
120	13.738522	113008640	78786560	35345184	24992
121	15.784277	113008640	78786560	32129448	24992
122	16.774745	113008640	78786560	29576464	24992
123	17.356212	113008640	78786560	27663080	24992
124	18.150618	113008640	78786560	26411296	24992
125	18.514853	113008640	78786560	25821072	24992
126	19.581429	113008640	78786560	25892864	24992
127	20.120062	113008640	78786560	26626344	24992
128	21.042504	113008640	78786560	28020672	24992
129	21.812441	113008640	78786560	30076592	24992
130	22.90229	113008640	78786560	32794160	24992
131	23.069525	113008640	78786560	36172664	24992
132	25.424953	113008640	78786560	23755136	24992
133	24.596764	113008640	78786560	28429112	24992
134	25.702903	113008640	78786560	33801424	24992
135	28.097311	113008640	78786560	23382288	24992
136	27.218791	113008640	78786560	30044536	24992
137	27.603698	113008640	78786560	37405624	24992
138	29.875284	113008640	78786560	28929368	24992
139	30.651537	113008640	78786560	21162768	24992
140	29.65873	113008640	78786560	30466952	24992
141	31.816047	113008640	78786560	24026072	24992
142	31.808049	113008640	78786560	34655152	24992
143	34.546558	113008640	78786560	29539128	24992
144	33.999718	113008640	78786560	25047888	24992
145	33.712401	113008640	78786560	37655240	24992
146	36.446396	113008640	78786560	34504000	24992
147	36.492695	113008640	78786560	32006296	24992
148	37.08362	113008640	78786560	30161648	24992
149	38.148643	113008640	78786560	28974944	24992
150	38.730137	113008640	78786560	28449712	24992
151	39.649182	113008640	78786560	28586776	24992
152	40.338284	113008640	78786560	29385792	24992
153	40.829599	113008640	78786560	30846544	24992
154	41.495553	113008640	78786560	32969232	24992
155	42.451455	113008640	78786560	35753064	24992
156	44.755644	113008640	78786560	22705456	24992
157	44.077927	113008640	78786560	26812912	24992
158	44.683253	113008640	78786560	31582272	24992
159	46.132799	113008640	78786560	37012840	24992
160	47.852075	113008640	78786560	26611712	24992
161	47.299603	113008640	78786560	33365888	24992
162	49.823438	113008640	78786560	24289856	24992
163	48.646527	113008640	78786560	32363304	24992
164	51.309181	113008640	78786560	24610704	24992
165	49.526755	113008640	78786560	34007744	24992
166	52.785907	113008640	78786560	27586224	24992
167	51.305713	113008640	78786560	38313976	24992
168	53.709745	113008640	78786560	33224352	24992
169	54.893347	113008640	78786560	28798160	24992
170	56.397264	113008640	78786560	25031520	24992
171	54.666378	113008640	78786560	38412872	24992
172	58.37206	113008640	78786560	35979216	24992
173	58.517843	113008640	78786560	34197296	24992
174	58.777164	113008640	78786560	33079920	24992
175	59.610971	113008640	78786560	32608632	24992
176	61.674704	113008640	78786560	32807216	24992
177	61.366583	113008640	78786560	33658640	24992
178	62.009728	113008640	78786560	35171808	24992
179	62.831155	113008640	78786560	37346584	24992
180	63.410187	113008640	78786560	40181088	24992
181	66.197985	113008640	78786560	27203968	24992
182	65.017882	113008640	78786560	31374592	24992
183	65.604142	113008640	78786560	36207080	24992
184	66.221632	113008640	78786560	41698128	24992
185	69.84675	113008640	78786560	31354528	24992
186	68.289023	113008640	78786560	38172272	24992
187	72.808125	113008640	78786560	29158728	24992
188	69.992362	113008640	78786560	37300288	24992
189	72.668686	113008640	78786560	29607232	24992
190	71.369195	113008640	78786560	39068440	24992
191	74.581038	113008640	78786560	32701216	24992
192	73.597958	113008640	78786560	43488520	24992
193	76.073191	113008640	78786560	38442104	24992
194	78.575868	113008640	78786560	34057176	24992
195	78.045567	113008640	78786560	30332640	24992
196	75.755365	113008640	78786560	43760104	24992
197	79.49272	113008640	78786560	41363304	24992
198	79.95654	113008640	78786560	39628592	24992
199	80.888166	113008640	78786560	38554632	24992
200	82.333842	113008640	78786560	38136832	24992
201	82.652319	113008640	78786560	38373808	24992
202	0.801192	113008640	78786560	38885640	24992
203	1.477981	113008640	78786560	40223392	24992
204	2.176581	113008640	78786560	42220536	24992
205	2.895021	113008640	78786560	44877088	24992
206	6.561084	113008640	78786560	31725456	24992
207	4.368018	113008640	78786560	35701376	24992
208	5.039982	113008640	78786560	40336648	24992
209	6.039584	113008640	78786560	45631328	24992
210	9.292806	113008640	78786560	35153112	24992
211	7.186282	113008640	78786560	41767560	24992
212	10.949376	113008640	78786560	32611864	24992
213	8.941638	113008640	78786560	40545120	24992
214	12.445348	113008640	78786560	32699960	24992
215	10.185437	113008640	78786560	41952032	24992
216	13.604956	113008640	78786560	35433728	24992
217	14.530056	113008640	78786560	29564168	24992
218	12.327205	113008640	78786560	40796304	24992
219	15.773353	113008640	78786560	36253280	24992
220	17.110415	113008640	78786560	32373624	24992
221	14.510411	113008640	78786560	45584416	24992
222	18.153973	113008640	78786560	43028736	24992
223	18.822568	113008640	78786560	41136312	24992
224	19.502587	113008640	78786560	39882744	24992
225	20.244726	113008640	78786560	39291232	24992
226	21.086322	113008640	78786560	39361176	24992
227	22.494861	113008640	78786560	40092680	24992
228	22.854681	113008640	78786560	41485736	24992
229	23.468652	113008640	78786560	43545680	24992
230	23.984379	113008640	78786560	46264264	24992
231	27.519613	113008640	78786560	33166792	24992
232	25.853498	113008640	78786560	37188864	24992
233	26.343785	113008640	78786560	41892848	24992
234	29.871441	113008640	78786560	30810712	24992
235	27.561824	113008640	78786560	36812016	24992
236	28.707983	113008640	78786560	43508968	24992
237	32.360784	113008640	78786560	34413936	24992
238	29.989668	113008640	78786560	42396968	24992
239	34.527273	113008640	78786560	34631496	24992
240	31.201292	113008640	78786560	43935584	24992
241	35.463987	113008640	78786560	37495184	24992
242	35.856284	113008640	78786560	31680096	24992
243	33.608046	113008640	78786560	42965624	24992
244	37.638463	113008640	78786560	38509520	24992
245	38.162517	113008640	78786560	34679248	24992
246	39.141448	113008640	78786560	31507520	24992
247	36.444342	113008640	78786560	45435256	24992
248	40.467657	113008640	78786560	43629520	24992
249	41.041923	113008640	78786560	42444128	24992
250	41.881718	113008640	78786560	41921184	24992
251	43.087838	113008640	78786560	42059720	24992
252	43.114523	113008640	78786560	42858944	24992
253	43.888979	113008640	78786560	44318144	24992
254	44.516947	113008640	78786560	46439856	24992
255	48.864771	113008640	78786560	32733912	24992
256	46.584589	113008640	78786560	36179120	24992
257	47.35355	113008640	78786560	40286368	24992
258	48.231412	113008640	78786560	45054640	24992
259	52.703964	113008640	78786560	34002520	24992
260	49.22537	113008640	78786560	40094256	24992
261	50.392225	113008640	78786560	46847424	24992
262	54.321178	113008640	78786560	37768960	24992
263	51.667097	113008640	78786560	45845416	24992
264	55.901752	113008640	78786560	38090096	24992
265	53.372029	113008640	78786560	47490112	24992
266	57.154365	113008640	78786560	41066552	24992
267	58.110699	113008640	78786560	35316408	24992
268	55.51188	113008640	78786560	46705024	24992
269	59.925414	113008640	78786560	42276240	24992
270	60.22564	113008640	78786560	38511056	24992
271	61.175636	113008640	78786560	35396648	24992
272	58.229541	113008640	78786560	49439024	24992
273	62.200765	113008640	78786560	47657568	24992
274	63.13677	113008640	78786560	46536816	24992
275	64.056469	113008640	78786560	46077816	24992
276	64.773566	113008640	78786560	46280320	24992
277	65.552118	113008640	78786560	47144448	24992
278	66.824439	113008640	78786560	48670256	24992
279	66.967899	113008640	78786560	50857704	24992
280	71.756124	113008640	78786560	37218672	24992
281	68.86719	113008640	78786560	40727696	24992
282	69.647922	113008640	79310848	44897824	24992
283	70.640599	113278976	79310848	49726952	24992
284	75.363072	113278976	79310848	38721424	24992
285	72.304507	113278976	79310848	44878288	24992
286	72.66592	113549312	79835136	51692848	24992
287	77.922571	113819648	79835136	42670840	24992
288	78.738956	111198208	77213696	14881008	24992
289	64.51873	111198208	77213696	23620920	24992
290	65.522436	111198208	77213696	16527376	24992
291	65.586513	111198208	77213696	26587632	24992
292	66.90299	111198208	77213696	20815312	24992
293	67.541865	111198208	77213696	15699192	24992
294	67.848886	111198208	77213696	27735728	24992
295	68.79779	111198208	77213696	23946832	24992
296	69.087373	111198208	77213696	20818704	24992
297	70.34413	111198208	77213696	18346392	24992
298	71.187106	111198208	77213696	16538824	24992
299	71.446626	111198208	77737984	15392488	24992
300	72.229785	111198208	79835136	14906840	24992
301	72.949369	111468544	81932288	15082224	24992
302	0.813331	111468544	84029440	15575168	24992
303	1.482366	111468544	84029440	16912920	24992
304	2.196365	111468544	84029440	18910096	24992
305	3.167275	111468544	84029440	21566648	24992
306	3.638964	111468544	84029440	24883144	24992
307	4.355885	111468544	84029440	28859016	24992
308	5.441388	111468544	84553728	17022368	24992
309	5.78149	111468544	84553728	22317048	24992
310	6.514237	111468544	84553728	28272104	24992
311	7.685846	111468544	85078016	18426936	24992
312	7.948812	111468544	85078016	25700816	24992
313	9.666769	111738880	85078016	17171168	24992
314	9.497451	111738880	85078016	25763832	24992
315	10.530073	111738880	85078016	18548080	24992
316	11.003091	111738880	85078016	28459560	24992
317	11.806773	111738880	85078016	22565072	24992
318	12.669406	111738880	85078016	17328832	24992
319	13.055531	111738880	85078016	29220432	24992
320	14.174413	111738880	85078016	25304624	24992
321	14.736345	111738880	85078016	22050320	24992
322	15.659388	111738880	85078016	19450760	24992
323	16.22053	111738880	85078016	17511432	24992
324	16.975737	111738880	85078016	16233368	24992
325	17.83582	111738880	85078016	15615696	24992
326	18.551492	111738880	85078016	15658456	24992
327	19.451529	111738880	85078016	16361592	24992
328	20.3824	111738880	85078016	17726592	24992
329	20.395997	111738880	85078016	19750552	24992
330	21.696542	111738880	85078016	22434016	24992
331	22.179206	111738880	85078016	25777936	24992
332	22.910744	111738880	85078016	29781776	24992
333	23.953231	111738880	85078016	17980368	24992
334	24.095657	111738880	85078016	23306704	24992
335	24.714741	111738880	85078016	29299840	24992
336	27.109522	111738880	85078016	19495592	24992
337	27.119546	111738880	85078016	26818208	24992
338	27.882792	112009216	85078016	18382984	24992
339	27.597058	112009216	85078016	27027008	24992
340	28.564543	112009216	85078016	19916744	24992
341	29.511303	112009216	85078016	29880656	24992
342	30.605163	112009216	85078016	24094584	24992
343	31.3603	112279552	85078016	18941560	24992
344	31.483416	112279552	85078016	30887904	24992
345	32.655309	112279552	85078016	27034264	24992
346	33.904914	112279552	85078016	23894840	24992
347	34.33652	112279552	85078016	21388296	24992
348	34.881126	112279552	85078016	19539496	24992
349	35.927748	112549888	85078016	18352864	24992
350	36.556284	112549888	85078016	17827768	24992
351	37.35716	112549888	85078016	17964936	24992
352	38.297564	112549888	85078016	18764040	24992
353	38.450958	112820224	85078016	20224896	24992
354	39.727335	112820224	85078016	22347080	24992
355	40.102995	112820224	85078016	25130616	24992
356	41.433116	112820224	85078016	28576008	24992
357	42.27276	113090560	85078016	16189648	24992
358	42.206354	113090560	85078016	20958360	24992
359	43.057271	113090560	85078016	26388616	24992
360	44.030472	113090560	85078016	32493480	24992
361	44.952061	113360896	85078016	22752752	24992
362	45.461275	113360896	85078016	30168088	24992
363	46.769892	113360896	85078016	21751368	24992
364	46.838308	113631232	85078016	30489240	24992
365	49.204416	113631232	85078016	23396808	24992
366	48.622844	113631232	85078016	16976664	24992
367	49.210915	113631232	85078016	27707256	24992
368	50.151182	113901568	85078016	22617832	24992
369	51.697079	113901568	85078016	18189648	24992
370	51.250304	113901568	85078016	30908840	24992
371	52.624864	114171904	85078016	27805960	24992
372	53.961154	114171904	85078016	25364040	24992
373	53.82058	114442240	85078016	23569424	24992
374	55.023154	114442240	85078016	22439720	24992
375	55.64893	114442240	85078016	21979080	24992
376	56.485717	114712576	85078016	22180520	24992
377	57.687921	114712576	85078016	23051896	24992
378	58.273927	114982912	85078016	24576096	24992
379	60.425689	114982912	85078016	26769832	24992
380	59.13092	114982912	85078016	29614112	24992
381	60.600691	115253248	85078016	33111616	24992
382	61.590791	115523584	85078016	20789512	24992
383	62.383691	115523584	85078016	25623344	24992
384	62.585351	115523584	85078016	31116872	24992
385	64.096659	115793920	85078016	20777008	24992
386	63.854918	115793920	85078016	27595888	24992
387	64.813522	116064256	85078016	35072584	24992
388	66.605039	116064256	85078016	26712784	24992
389	66.421062	116334592	85078016	35512496	24992
390	68.391519	116334592	85078016	28477536	24992
391	71.378227	116604928	85078016	22105608	24992
392	69.152027	116875264	85078016	32886912	24992
393	70.710567	116875264	85078016	27843600	24992
394	71.871749	116875264	85078016	23456512	24992
395	71.228622	117145600	85078016	36222776	24992
396	73.243631	117145600	85078016	33162784	24992
397	74.0385	117415936	85078016	30766272	24992
398	74.771327	117415936	85078016	29026568	24992
399	75.920345	117686272	85078016	27940720	24992
400	76.283924	117686272	85078016	27521648	24992
401	77.416279	117956608	85078016	27769568	24992
402	0.797556	117956608	85078016	28292328	24992
403	1.477664	117956608	85078016	29630080	24992
404	2.192005	117956608	85078016	31627224	24992
405	2.878794	117956608	85078016	34283776	24992
406	3.632775	117956608	85078016	37600256	24992
407	5.831467	117956608	85078016	25119632	24992
408	5.068009	117956608	85078016	29754904	24992
409	5.757825	117956608	85078016	35049584	24992
410	8.160122	117956608	85078016	24580208	24992
411	7.447346	117956608	85078016	31194656	24992
412	7.908858	117956608	85078016	38468504	24992
413	10.058717	118226944	85078016	29981552	24992
414	9.493908	118226944	85078016	38574264	24992
415	11.642857	118226944	85078016	31406944	24992
416	12.220749	118226944	85078016	24876648	24992
417	11.84406	118226944	85078016	35447520	24992
418	13.833326	118226944	85078016	30243832	24992
419	14.459012	118226944	85078016	25703184	24992
420	13.991987	118226944	85078016	38254488	24992
421	15.722511	118226944	85078016	35038032	24992
422	16.96195	118226944	85078016	32485048	24992
423	17.4202	118226944	85078016	30571664	24992
424	18.152825	118497280	85078016	29319832	24992
425	19.088061	118497280	85078016	28729640	24992
426	19.870748	118497280	85078016	28801032	24992
427	20.206272	118497280	85078016	29533872	24992
428	21.407436	118497280	85078016	30928296	24992
429	22.195783	118497280	85078016	32984184	24992
430	22.579049	118497280	85078016	35701624	24992
431	23.325605	118497280	85078016	39080224	24992
432	25.352895	118497280	85078016	26663016	24992
433	24.740009	118497280	85078016	31334288	24992
434	25.540227	118497280	85078016	36706472	24992
435	28.101215	118497280	85078016	26287240	24992
436	27.677113	118497280	85078016	32949456	24992
437	29.674197	118767616	85078016	23861744	24992
438	28.501715	118767616	85078016	31844920	24992
439	31.241659	118767616	85078016	24078776	24992
440	30.039548	118767616	85078016	33383088	24992
441	33.004034	119037952	85602304	26942272	24992
442	31.386029	119037952	85602304	37567688	24992
443	33.757117	119037952	85602304	32449928	24992
444	34.635042	119037952	85602304	27958848	24992
445	35.567995	119037952	85602304	24126240	24992
446	34.104124	119037952	85602304	37393816	24992
447	37.264507	119308288	85602304	34926440	24992
448	37.431442	119308288	85602304	33081680	24992
449	39.160798	119308288	86126592	31903768	24992
450	38.733548	119578624	86126592	31378568	24992
451	40.485261	119578624	86126592	31524912	24992
452	40.565965	119578624	86126592	32323672	24992
453	41.453626	119848960	86126592	33784280	24992
454	42.451037	119848960	86126592	35906616	24992
455	43.258644	119848960	86126592	38690336	24992
456	45.206483	119848960	86650880	25644344	24992
457	44.035756	120119296	86650880	29751608	24992
458	44.496462	120119296	86650880	34520744	24992
459	45.872065	120119296	86650880	39951312	24992
460	47.901028	120119296	86650880	29549960	24992
461	48.281998	120389632	86650880	36311992	24992
462	49.662091	120389632	86650880	27235128	24992
463	48.624023	120389632	87175168	35308064	24992
464	51.206856	120659968	87175168	27554856	24992
465	49.80191	120659968	87175168	36951256	24992
466	52.258254	120659968	87175168	30528528	24992
467	51.632456	120659968	87175168	41263400	24992
468	54.790596	120930304	87175168	36172336	24992
469	54.962977	120930304	87175168	31745648	24992
470	55.890328	121200640	87699456	27969200	24992
471	54.663266	121200640	87699456	41349784	24992
472	56.906373	121200640	87699456	38905904	24992
473	58.001331	121470976	87699456	37123616	24992
474	59.029424	121470976	87699456	36004848	24992
475	60.08793	121741312	88223744	35533192	24992
476	60.544566	121741312	88223744	35723216	24992
477	61.210967	122011648	88223744	36574832	24992
478	61.717444	122011648	88223744	38088304	24992
479	62.454152	122281984	88223744	40262792	24992
480	63.303635	122281984	88748032	43097184	24992
481	66.02755	122281984	88748032	30119488	24992
482	65.057457	122552320	88748032	34290288	24992
483	65.539248	122552320	88748032	39125736	24992
484	66.481336	122822656	88748032	44615760	24992
485	69.465895	122822656	88748032	34276680	24992
486	67.762156	122822656	88748032	41094520	24992
487	71.039164	122822656	88748032	32080768	24992
488	72.086561	122822656	88748032	40222472	24992
489	73.628677	122822656	88748032	32529304	24992
490	71.619348	122822656	88748032	41990672	24992
491	74.179888	122822656	88748032	35623640	24992
492	72.618778	122822656	88748032	46411328	24992
493	75.78674	122822656	88748032	41366784	24992
494	76.481218	122822656	88748032	36984400	24992
495	77.47224	122822656	88748032	33263568	24992
496	75.833397	122822656	88748032	46690872	24992
497	79.112258	122822656	88748032	44293016	24992
498	80.039525	122822656	88748032	42558320	24992
499	80.51803	122822656	88748032	41484376	24992
500	81.729934	122822656	88748032	41069200	24992
501	82.354335	122822656	88748032	41309560	24992
502	0.848354	122822656	88748032	41821312	24992
503	1.485236	122822656	88748032	43159064	24992
504	2.224081	122822656	88748032	45156208	24992
505	2.900493	122822656	88748032	47812760	24992
506	6.5395	122822656	88748032	34660472	24992
507	4.358101	122822656	88748032	38636344	24992
508	5.337641	122822656	88748032	43271616	24992
509	8.626341	122822656	88748032	32125072	24992
510	6.464676	122822656	88748032	38080144	24992
511	7.351391	122822656	88748032	44694592	24992
512	10.623864	122822656	88748032	35538912	24992
513	8.784298	122822656	88748032	43472168	24992
514	12.475898	122822656	88748032	35637824	24992
515	10.276821	122822656	88748032	44889896	24992
516	13.511956	122822656	88748032	38371480	24992
517	14.605731	122822656	88748032	32501880	24992
518	12.217688	122822656	88748032	43734024	24992
519	15.858927	122822656	88748032	39191032	24992
520	16.735306	122822656	88748032	35311376	24992
521	14.802047	122822656	88748032	48522088	24992
522	18.170076	122822656	88748032	45941632	24992
523	19.024695	122822656	88748032	44049120	24992
524	19.348498	122822656	88748032	42818816	24992
525	20.200387	122822656	88748032	42227048	24992
526	21.482464	122822656	88748032	42297152	24992
527	21.520451	122822656	88748032	43028672	24992
528	22.322382	122822656	88748032	44421520	24992
529	23.426667	122822656	88748032	46475656	24992
530	26.964532	122822656	88748032	32731568	24992
531	24.505568	122822656	88748032	36080792	24992
532	25.736508	122822656	88748032	40121120	24992
533	26.209847	122822656	88748032	44824856	24992
534	29.978653	122822656	88748032	33741824	24992
535	28.231168	122822656	88748032	39743120	24992
536	28.32328	122822656	88748032	46442416	24992
537	32.41992	122822656	88748032	37349800	24992
538	30.184595	122822656	88748032	45332848	24992
539	33.114753	122822656	88748032	37567312	24992
540	31.071043	122822656	88748032	46871400	24992
541	35.206343	122822656	88748032	40431096	24992
542	35.350685	122822656	88748032	34615960	24992
543	33.765727	122822656	88748032	45901584	24992
544	36.827419	122822656	88748032	41445480	24992
545	37.831432	122822656	88748032	37615288	24992
546	38.186902	122822656	88748032	34443560	24992
547	36.312379	122822656	88748032	48371280	24992
548	40.017335	122822656	88748032	46565688	24992
549	40.585536	122822656	88748032	45380104	24992
550	41.881829	122822656	88748032	44857016	24992
551	42.523817	122822656	88748032	44994352	24992
552	42.94548	122822656	88748032	45793768	24992
553	43.488927	122822656	88748032	47253928	24992
554	44.401841	122822656	88748032	49377496	24992
555	47.762334	122822656	88748032	35670800	24992
556	45.607176	122822656	88748032	39136608	24992
557	46.544708	122822656	88748032	43243800	24992
558	47.321521	122822656	88748032	48012104	24992
559	51.297848	122822656	88748032	36948768	24992
560	48.842943	122822656	88748032	43040536	24992
561	49.438899	122822656	88748032	49793656	24992
562	53.596535	122822656	88748032	40715160	24992
563	51.020323	122822656	88748032	48791264	24992
564	55.326822	122822656	88748032	41036184	24992
565	52.389384	122822656	88748032	50436032	24992
566	57.017595	122822656	88748032	44011824	24992
567	58.032155	122822656	88748032	38261280	24992
568	55.517452	122822656	88748032	49652584	24992
569	59.384126	122822656	88748032	45223720	24992
570	60.121319	122822656	88748032	41458552	24992
571	60.83839	122822656	88748032	38343744	24992
572	58.346255	122822656	88748032	52386072	24992
573	73.891724	113909760	79835136	13677544	24992
574	53.807245	113909760	79835136	12502584	24992
575	54.46997	113909760	79835136	11987576	24992
576	55.938115	113909760	79835136	12133368	24992
577	56.292366	113909760	79835136	12943008	24992
578	56.892919	113909760	79835136	14410712	24992
579	57.273277	113909760	79835136	16539496	24992
580	57.935153	113909760	79835136	19329016	24992
581	58.966589	113909760	79835136	22775584	24992
582	58.849372	113909760	79835136	26875800	24992
583	60.45638	113909760	79835136	15148248	24992
584	60.792781	113909760	79835136	20582680	24992
585	61.712958	113909760	79835136	26674096	24992
586	62.381901	113909760	79835136	16929528	24992
587	62.470655	113909760	79835136	24346936	24992
588	63.425015	114180096	80883712	15931528	24992
589	63.912851	114180096	82456576	24670784	24992
590	64.94251	114180096	84553728	17577128	24992
591	66.050374	114450432	86126592	27638040	24992
592	69.800882	114450432	88223744	21866216	24992
593	67.577511	114720768	90320896	16749920	24992
594	67.898008	114720768	91893760	28786584	24992
595	69.55967	114991104	91893760	24998752	24992
596	70.418594	114991104	91893760	21877088	24992
597	70.700034	114991104	91893760	19471088	24992
598	71.40323	115261440	91893760	17734176	24992
599	72.212841	115261440	91893760	16662512	24992
600	72.911379	115531776	91893760	16248864	24992
601	75.436408	115531776	91893760	16497080	24992
602	0.798073	115531776	91893760	17019624	24992
603	1.481793	115531776	91893760	18357376	24992
604	2.208429	115531776	91893760	20354520	24992
605	2.937166	115531776	91893760	23011072	24992
606	3.612631	115531776	91893760	26327568	24992
607	4.363301	115531776	91893760	30303464	24992
608	5.519849	115531776	91893760	18491864	24992
609	6.122881	115531776	91893760	23786544	24992
610	6.504739	115531776	91893760	29741600	24992
611	7.95013	115802112	91893760	19944104	24992
612	7.863446	115802112	91893760	27217984	24992
613	9.070743	115802112	91893760	18722288	24992
614	9.542994	115802112	91893760	27314952	24992
615	10.783422	115802112	91893760	20135616	24992
616	11.093415	115802112	91893760	30047144	24992
617	12.26833	115802112	91893760	24194848	24992
618	12.914767	115802112	91893760	18991744	24992
619	13.055214	115802112	91893760	30883296	24992
620	14.404656	115802112	91893760	27005024	24992
621	15.097297	115802112	91893760	23789464	24992
622	15.808167	115802112	91893760	21214584	24992
623	16.435401	115802112	91893760	19301760	24992
624	17.172546	116072448	91893760	18051016	24992
625	18.107109	116072448	91893760	17461672	24992
626	18.667539	116072448	91893760	17533800	24992
627	19.647006	116072448	91893760	18267472	24992
628	20.510872	116072448	91893760	19662696	24992
629	22.05822	116072448	91893760	21719528	24992
630	22.324715	116072448	91893760	24437400	24992
631	22.550196	116072448	91893760	27816384	24992
632	23.02912	116072448	91893760	31856488	24992
633	24.776911	116342784	91893760	20104568	24992
634	24.655035	116342784	91893760	25443800	24992
635	25.403962	116342784	91893760	31471088	24992
636	26.880643	116342784	91893760	21706624	24992
637	26.778083	116342784	91893760	29028824	24992
638	28.395225	116342784	91893760	20593776	24992
639	28.427365	116342784	91893760	29237400	24992
640	29.801282	116613120	91893760	22127168	24992
641	30.009137	116613120	91893760	32091512	24992
642	31.219006	116613120	91893760	26306104	24992
643	32.147193	116613120	91893760	21153016	24992
644	31.836066	116613120	91893760	33099392	24992
645	33.271495	116883456	91893760	29276880	24992
646	33.794324	116883456	91893760	26117208	24992
647	34.498159	116883456	91893760	23610488	24992
648	36.001187	116883456	91893760	21763872	24992
649	36.644685	116883456	91893760	20577256	24992
650	37.283067	117153792	91893760	20052128	24992
651	38.35948	117153792	91893760	20189264	24992
652	38.769857	117153792	91893760	20988496	24992
653	39.445594	117153792	91893760	22449776	24992
654	40.76993	117424128	91893760	24572304	24992
655	40.94434	117424128	91893760	27355744	24992
656	41.824857	117424128	91893760	30801088	24992
657	43.135056	117424128	91893760	18414696	24992
658	43.740289	117694464	91893760	23191656	24992
659	43.717325	117694464	91893760	28621960	24992
660	44.783189	117694464	91893760	34713784	24992
661	46.431832	117694464	91893760	24973568	24992
662	46.872647	117964800	91893760	32396544	24992
663	48.223771	117964800	91893760	23980280	24992
664	47.790873	118235136	91893760	32719104	24992
665	49.24738	118235136	91893760	25626368	24992
666	49.04569	118235136	91893760	35696088	24992
667	50.926823	118505472	91893760	29943656	24992
668	51.315193	118505472	91893760	24855568	24992
669	51.985442	118505472	91893760	20418096	24992
670	51.775507	118775808	91893760	33137744	24992
671	55.336315	118775808	91893760	30032872	24992
672	54.448138	119046144	91893760	27591472	24992
673	55.189749	119046144	91893760	25797216	24992
674	55.882991	119316480	91893760	24668192	24992
675	56.797006	119316480	91893760	24208408	24992
676	57.066409	119316480	91893760	24410256	24992
677	58.065759	119586816	91893760	25273712	24992
678	58.802614	119586816	91893760	26798480	24992
679	59.776626	119586816	91893760	28984456	24992
680	60.802904	119857152	91893760	31828752	24992
681	61.320705	119857152	91893760	35326576	24992
682	63.579044	120127488	91893760	23004392	24992
683	62.873382	120127488	91893760	27838112	24992
684	63.529943	120397824	91893760	33333696	24992
685	66.12112	120397824	91893760	23000712	24992
686	65.259829	120668160	91893760	29819576	24992
687	65.869909	120668160	91893760	37296176	24992
688	68.169722	120668160	91893760	28937272	24992
689	67.72243	120938496	91893760	37738840	24992
690	69.581811	120938496	91893760	30707968	24992
691	70.855619	121208832	91893760	24336072	24992
692	69.627549	121208832	91893760	35117296	24992
693	71.969841	121479168	91893760	30073888	24992
694	73.258536	121479168	91893760	25686864	24992
695	72.457395	121749504	91893760	38453192	24992
696	74.504335	121749504	91893760	35394208	24992
697	75.408807	122019840	91893760	32997648	24992
698	76.41136	122019840	91893760	31258056	24992
699	77.023695	122019840	91893760	30172160	24992
700	77.528233	122290176	91893760	29758440	24992
701	78.609045	122560512	91893760	30006360	24992
702	0.793278	122560512	91893760	30530528	24992
703	1.484868	122560512	91893760	31868264	24992
704	2.200814	122560512	91893760	33865392	24992
705	3.04819	122560512	91893760	36530704	24992
706	3.643988	122560512	91893760	39847184	24992
707	6.1067	122560512	91893760	27366560	24992
708	5.072863	122560512	91893760	32001816	24992
709	5.767688	122560512	91893760	37296480	24992
710	8.484513	122560512	91893760	26826976	24992
711	8.143687	122560512	91893760	33450672	24992
712	7.863287	122560512	91893760	40724536	24992
713	10.698971	122560512	91893760	32236704	24992
714	9.571098	122560512	91893760	40829352	24992
715	11.925493	122830848	91893760	33660160	24992
716	12.855769	122830848	91893760	27128440	24992
717	11.721192	122830848	91893760	37699296	24992
718	14.157417	122830848	91893760	32494304	24992
719	15.216836	122830848	91893760	27952296	24992
720	13.8741	122830848	91893760	40504576	24992
721	16.297037	122830848	91893760	37287376	24992
722	17.166089	122830848	91893760	34733032	24992
723	17.757603	122830848	91893760	32818712	24992
724	18.51517	122830848	91893760	31565928	24992
725	19.461361	122830848	91893760	30974864	24992
726	20.392501	123101184	91893760	31045592	24992
727	20.910862	123101184	91893760	31777864	24992
728	21.179589	123101184	91893760	33171384	24992
729	22.003407	123101184	91893760	35226288	24992
730	23.340056	123101184	91893760	37942760	24992
731	23.767062	123101184	91893760	41320312	24992
732	26.539854	123101184	91893760	28901280	24992
733	25.246175	123101184	91893760	33574744	24992
734	26.907013	123371520	91893760	38954624	24992
735	28.427595	123371520	91893760	28534912	24992
736	27.969913	123371520	91893760	35196856	24992
737	30.164246	123371520	91893760	26108248	24992
738	28.944839	123371520	91893760	34091024	24992
739	31.530112	123371520	91893760	26323872	24992
740	30.630934	123371520	91893760	35627864	24992
741	32.834288	123641856	91893760	29185992	24992
742	31.841752	123641856	91893760	39811120	24992
743	34.110592	123641856	91893760	34692560	24992
744	35.099047	123641856	91893760	30200776	24992
745	33.631436	123641856	91893760	42807504	24992
746	36.155813	123912192	91893760	39640544	24992
747	37.143608	123912192	91893760	37154624	24992
748	38.413604	123912192	91893760	35309256	24992
749	39.558513	123912192	91893760	34121912	24992
750	39.484973	124182528	91893760	33596024	24992
751	40.842644	124182528	91893760	33732496	24992
752	41.080575	124182528	91893760	34530968	24992
753	41.599964	124182528	91893760	35991064	24992
754	42.987571	124452864	91893760	38113048	24992
755	43.224701	124452864	91893760	40896416	24992
756	46.522809	124452864	91893760	27848168	24992
757	44.801014	124452864	91893760	31954952	24992
758	46.011161	124723200	91893760	36723672	24992
759	46.600939	124723200	91893760	42153904	24992
760	49.713101	124723200	91893760	31752184	24992
761	47.959849	124723200	91893760	38505688	24992
762	50.946852	124993536	91893760	29429032	24992
763	49.139142	124993536	91893760	37501968	24992
764	52.455847	124993536	91893760	29748680	24992
765	50.903235	125263872	91893760	39145080	24992
766	53.291234	125263872	91893760	32723144	24992
767	52.364814	125263872	92418048	43450368	24992
768	55.213322	125534208	92418048	38360072	24992
769	57.030239	125534208	92418048	33933272	24992
770	56.76517	125804544	92418048	30157160	24992
771	55.463121	125804544	92418048	43537872	24992
772	58.228943	125804544	92942336	41093960	24992
773	58.965092	126074880	92942336	39311576	24992
774	59.843718	126074880	92942336	38192728	24992
775	60.853654	126345216	92942336	37721248	24992
776	60.966236	126345216	92942336	37911064	24992
777	63.019048	126345216	92942336	38762600	24992
778	62.847446	126615552	93466624	40275704	24992
779	64.114303	126885888	93466624	42450384	24992
780	64.342066	126885888	93466624	45284904	24992
781	67.703377	126885888	93466624	32307048	24992
782	65.989422	127156224	93466624	36477720	24992
783	67.114594	127156224	93466624	41310320	24992
784	67.235778	127426560	93466624	46801448	24992
785	71.06546	127426560	93466624	36458216	24992
786	68.827261	127426560	93466624	43275832	24992
787	72.732697	127696896	93466624	34262256	24992
788	70.733511	127696896	93466624	42403784	24992
789	74.394175	127696896	93466624	34710536	24992
790	72.104448	127696896	93466624	44171680	24992
791	75.315464	127696896	93466624	37804408	24992
792	74.005625	127696896	93466624	48591808	24992
793	77.335949	127696896	93466624	43544576	24992
794	77.416525	127696896	93466624	39162144	24992
795	78.885393	127696896	93466624	35441344	24992
796	77.20231	127696896	93466624	48868440	24992
797	81.23913	127696896	93466624	46473896	24992
798	81.051086	127696896	93466624	44739200	24992
799	81.977027	127696896	93466624	43665288	24992
800	82.702043	127696896	93466624	43247584	24992
801	83.896613	127696896	93466624	43484320	24992
802	0.802042	127696896	93466624	43996056	24992
803	1.532357	127696896	93466624	45333792	24992
804	2.222657	127696896	93466624	47330920	24992
805	2.955882	127696896	93466624	49987456	24992
806	6.902663	127696896	93466624	36835120	24992
807	4.357176	127696896	93466624	40810976	24992
808	5.048097	127696896	93466624	45446296	24992
809	8.820527	127696896	93466624	34299768	24992
810	6.593688	127696896	93466624	40254808	24992
811	7.186396	127696896	93466624	46869288	24992
812	11.22223	127696896	93466624	37713576	24992
813	8.871419	127696896	93466624	45646864	24992
814	12.409814	127696896	93466624	37812488	24992
815	10.251779	127696896	93466624	47064576	24992
816	14.207599	127696896	93466624	40546304	24992
817	14.765458	127696896	93466624	34676664	24992
818	12.670347	127696896	93466624	45908800	24992
819	16.90034	127696896	93466624	41365744	24992
820	16.77724	127696896	93466624	37486088	24992
821	14.552729	127696896	93466624	50696848	24992
822	18.459849	127696896	93466624	48138616	24992
823	19.234934	127696896	93466624	46246112	24992
824	19.563001	127696896	93466624	44992968	24992
825	20.776523	127696896	93466624	44401152	24992
826	21.953243	127696896	93466624	44471160	24992
827	21.823621	127696896	93466624	45202664	24992
828	22.870627	127696896	93466624	46595496	24992
829	23.954255	127696896	93466624	48649648	24992
830	24.692607	127696896	93466624	51365160	24992
831	28.479406	127696896	93466624	38247960	24992
832	26.055952	127696896	93466624	42287568	24992
833	26.552427	127696896	93466624	46991504	24992
834	30.618275	127696896	93466624	35908440	24992
835	28.51671	127696896	93466624	41909656	24992
836	28.873983	127696896	93466624	48608440	24992
837	32.573287	127696896	93466624	39513392	24992
838	30.322673	127696896	93466624	47496472	24992
839	34.427511	127696896	93466624	39731016	24992
840	32.008223	127696896	93466624	49035136	24992
841	36.40197	127696896	93466624	42595040	24992
842	36.11856	127696896	93466624	36779920	24992
843	34.543898	127696896	93466624	48065464	24992
844	37.572522	127696896	93466624	43609392	24992
845	38.823543	127696896	93466624	39779200	24992
846	39.28103	127696896	93466624	36607568	24992
847	36.880908	127696896	93466624	50535224	24992
848	40.812658	127696896	93466624	48729568	24992
849	41.411131	127696896	93466624	47544000	24992
850	42.157074	127696896	93466624	47051880	24992
851	43.412956	127696896	93466624	47191608	24992
852	51.418405	118259712	84029440	27803880	24992
853	38.977954	118259712	84029440	12736344	24992
854	38.966158	118259712	84029440	14818784	24992
855	40.150244	118259712	84029440	17562336	24992
856	41.269481	118259712	84029440	20966176	24992
857	41.058769	118259712	84029440	25031336	24992
858	42.058968	118259712	84029440	13263488	24992
859	42.891447	118259712	84029440	18650608	24992
860	43.373119	118259712	84029440	24698224	24992
861	44.128686	118259712	84029440	14913736	24992
862	44.712812	118259712	84029440	22283664	24992
863	45.53856	118259712	84029440	13822880	24992
864	46.642978	118259712	84029440	22510864	24992
865	47.359777	118259712	84029440	15372056	24992
866	47.769177	118259712	84029440	25390104	24992
867	49.003986	118259712	84029440	19589472	24992
868	48.888898	118259712	84029440	14453216	24992
869	50.391378	118259712	84029440	26456928	24992
870	50.579162	118259712	84029440	22638840	24992
871	51.536063	118259712	84029440	19483832	24992
872	52.303607	118259712	84029440	16978456	24992
873	53.021762	118259712	84029440	15142128	24992
874	53.551727	118259712	84029440	13966392	24992
875	53.891187	118259712	85078016	29939192	24992
876	54.878831	118530048	86650880	30084936	24992
877	56.02328	118530048	88748032	14403616	24992
878	56.235732	118530048	90320896	15871304	24992
879	57.135616	118800384	90320896	18001808	24992
880	57.564829	118800384	90320896	20791568	24992
881	59.177877	118800384	90320896	24249912	24992
882	58.825788	119070720	90320896	28413256	24992
883	60.800841	119070720	90320896	16745768	24992
884	60.73925	119070720	90320896	22240952	24992
885	61.676667	119341056	90320896	28393856	24992
886	62.370908	119341056	90320896	18711496	24992
887	63.387135	119341056	90320896	26191784	24992
888	64.095189	119611392	90320896	17837096	24992
889	64.70267	119611392	90320896	26637000	24992
890	65.763758	119881728	90320896	19608064	24992
891	66.212576	119881728	90320896	29734848	24992
892	67.557552	120152064	90320896	24029536	24992
893	68.370195	120152064	90320896	18980344	24992
894	68.684499	120152064	90320896	31084672	24992
895	69.387225	120422400	90320896	27363616	24992
896	70.407828	120422400	90320896	24301904	24992
897	71.326276	120692736	90320896	21895872	24992
898	72.211703	120692736	90320896	20158960	24992
899	73.488734	120963072	90320896	19084968	24992
900	75.040949	120963072	90320896	18673776	24992
901	74.633084	121233408	90320896	18921656	24992
902	0.797664	121233408	90320896	19448024	24992
903	1.513786	121233408	90320896	20785760	24992
904	2.21369	121233408	90320896	22782888	24992
905	2.931942	121233408	90320896	25439424	24992
906	3.629426	121233408	90320896	28755888	24992
907	4.345352	121233408	90320896	32731760	24992
908	5.838525	121233408	90320896	20920136	24992
909	5.776556	121233408	90320896	26214800	24992
910	6.658504	121233408	90320896	32169840	24992
911	7.969178	121233408	90320896	22372312	24992
912	7.88526	121233408	90320896	29646224	24992
913	9.441547	121233408	90320896	21150416	24992
914	9.286001	121233408	90320896	29743064	24992
915	10.848916	121233408	90320896	22563760	24992
916	10.695408	121233408	90320896	32475208	24992
917	12.44667	121503744	90320896	26622896	24992
918	13.30586	121503744	90320896	21419648	24992
919	13.136972	121503744	90320896	33311232	24992
920	14.509931	121503744	90320896	29433056	24992
921	15.805446	121503744	90320896	26217480	24992
922	15.805993	121503744	90320896	23642568	24992
923	17.303313	121503744	90320896	21730016	24992
924	18.275654	121503744	90320896	20479192	24992
925	18.214779	121503744	90320896	19889832	24992
926	18.963267	121503744	90320896	19961944	24992
927	19.879481	121774080	90320896	20695600	24992
928	20.588412	121774080	90320896	22090808	24992
929	21.996783	121774080	90320896	24155888	24992
930	21.987153	121774080	90320896	26873792	24992
931	22.966223	121774080	90320896	30252712	24992
932	23.440967	121774080	90320896	34292784	24992
933	26.231266	121774080	90320896	22549768	24992
934	24.785014	121774080	90320896	27889112	24992
935	25.824531	122044416	90320896	33923624	24992
936	27.313672	122044416	90320896	24166760	24992
937	26.962142	122044416	90320896	31489200	24992
938	29.014745	122044416	90320896	23062008	24992
939	28.901739	122044416	90320896	31705888	24992
940	30.551815	122314752	90320896	24603992	24992
941	30.140123	122314752	90320896	34568544	24992
942	31.778878	122314752	90320896	28791048	24992
943	33.257363	122314752	90320896	23638416	24992
944	32.430832	122314752	90320896	35585032	24992
945	33.988722	122314752	90320896	31771016	24992
946	35.265154	122585088	90320896	28611848	24992
947	35.169008	122585088	90320896	26105616	24992
948	35.956869	122585088	90320896	24257048	24992
949	37.533235	122585088	90320896	23070856	24992
950	37.871181	122855424	90320896	22546056	24992
951	38.557124	122855424	90320896	22683680	24992
952	39.28469	122855424	90320896	23483400	24992
953	39.931484	122855424	90320896	24944872	24992
954	40.610176	123125760	90320896	27067816	24992
955	41.41635	123125760	90320896	29851728	24992
956	42.34203	123125760	90320896	33297480	24992
957	43.914291	123125760	90320896	20911528	24992
958	43.841362	123396096	90320896	25680504	24992
959	44.407679	123396096	90320896	31111152	24992
960	44.598457	123396096	90320896	37203208	24992
961	46.869432	123396096	90320896	27462536	24992
962	46.142302	123666432	90320896	34877672	24992
963	48.060826	123666432	90320896	26461536	24992
964	48.19868	123666432	90320896	35200680	24992
965	49.522983	123936768	90320896	28108040	24992
966	49.481704	123936768	90320896	38177712	24992
967	51.774728	123936768	90320896	32425248	24992
968	52.391305	124207104	90320896	27337080	24992
969	53.086747	124207104	90845184	22899672	24992
970	52.498216	124477440	90845184	35619384	24992
971	54.739863	124477440	90845184	32514432	24992
972	55.149059	124477440	90845184	30073128	24992
973	55.929081	124747776	90845184	28278840	24992
974	57.076433	124747776	91369472	27149784	24992
975	57.841581	125018112	91369472	26690000	24992
976	58.608992	125018112	91369472	26891768	24992
977	59.144512	125018112	91369472	27755176	24992
978	60.113023	125288448	91369472	29279832	24992
979	60.448095	125288448	91893760	31465744	24992
980	61.666482	125558784	91893760	34310072	24992
981	62.092184	125558784	91893760	37807864	24992
982	64.908854	125829120	91893760	25485648	24992
983	63.999653	125829120	91893760	30319272	24992
984	65.246446	126099456	92418048	35816152	24992
985	67.465949	126099456	92418048	25483544	24992
986	66.631604	126099456	92418048	32302312	24992
987	66.716672	126369792	92418048	39779216	24992
988	70.489784	126369792	92418048	31429760	24992
989	68.419611	126640128	92942336	40231280	24992
990	72.010385	126640128	92942336	33208920	24992
991	72.113753	126910464	92942336	26837760	24992
992	70.745658	126910464	92942336	37618696	24992
993	73.467393	127180800	92942336	32575016	24992
994	75.537434	127180800	92942336	28195656	24992
995	73.250863	127180800	92942336	40961456	24992
996	76.026637	127180800	92942336	37901768	24992
997	76.370069	127180800	92942336	35504520	24992
998	77.698818	127180800	92942336	33764784	24992
999	78.528994	127180800	92942336	32678232	24992
1000	78.758048	127180800	92942336	32263984	24992
