x	Duration	RSS	HeapTotal	HeapUsed	External
0	NA	111349760	77737984	11153552	24992
1	1.010695	111349760	77737984	11833600	24992
2	1.721558	111349760	77737984	13171952	24992
3	2.549669	111349760	77737984	15169632	24992
4	3.325085	111349760	77737984	17826864	24992
5	4.256333	111349760	77737984	21144184	24992
6	4.801137	111349760	77737984	25121024	24992
7	5.448263	111349760	77737984	13291280	24992
8	6.101185	111349760	77737984	18587216	24992
9	6.590926	111349760	77737984	24543656	24992
10	7.607753	111349760	77737984	14700488	24992
11	8.155156	111349760	77737984	21976120	24992
12	8.950296	111349760	77737984	13443760	24992
13	10.378825	111349760	77737984	22052320	24992
14	10.463522	111349760	77737984	14838800	24992
15	10.941846	111349760	77737984	24752576	24992
16	11.80696	111349760	77737984	18860848	24992
17	12.521405	111349760	77737984	13627432	24992
18	12.956082	111349760	77737984	25521712	24992
19	13.988609	111349760	77737984	21610400	24992
20	15.004468	111349760	77737984	18360224	24992
21	15.703459	111349760	77737984	15763672	24992
22	16.385316	111349760	77737984	13828648	24992
23	17.486686	111349760	77737984	12559328	24992
24	17.890344	111349760	77737984	11945320	24992
25	18.656421	111349760	77737984	11991864	24992
26	19.556591	111349760	77737984	12698992	24992
27	19.995884	111349760	77737984	14066688	24992
28	21.108754	111349760	77737984	16094888	24992
29	21.930558	111349760	77737984	18783616	24992
30	22.145234	111349760	77737984	22132000	24992
31	22.841296	111349760	77737984	26140768	24992
32	25.149948	111349760	77737984	14358592	24992
33	25.257734	111349760	77737984	19694000	24992
34	25.403012	111349760	77737984	25690416	24992
35	25.800871	111349760	77737984	15880312	24992
36	26.77721	111349760	77737984	23193792	24992
37	27.723718	111349760	77737984	14711392	24992
38	28.252546	111349760	77737984	23343496	24992
39	29.075767	111349760	77737984	16183664	24992
40	30.238452	111349760	77737984	26138920	24992
41	30.933838	111349760	77737984	20300736	24992
42	31.194399	111349760	77737984	15120008	24992
43	31.404406	111349760	77737984	27053496	24992
44	32.903313	111349760	77737984	23195016	24992
45	33.359062	111349760	77737984	19998096	24992
46	34.453195	111349760	77737984	17456720	24992
47	34.664584	111349760	77737984	15576464	24992
48	35.953508	111349760	77737984	14357432	24992
49	36.41857	111349760	77737984	13799232	24992
50	37.245872	111349760	77737984	13902752	24992
51	37.492338	111349760	77737984	14667632	24992
52	38.979607	111349760	77737984	16093688	24992
53	38.857232	111349760	77737984	18180752	24992
54	40.412533	111349760	77737984	20928848	24992
55	40.75341	111349760	77737984	24337424	24992
56	41.170722	111349760	77737984	28405568	24992
57	43.43427	111349760	77737984	16652144	24992
58	42.937027	111349760	77737984	22041392	24992
59	43.491257	111349760	77737984	28091216	24992
60	43.833795	111349760	77737984	18308712	24992
61	45.430601	111349760	77737984	25680560	24992
62	46.548391	111349760	77737984	17230480	24992
63	47.41316	111349760	77737984	25969024	24992
64	47.466969	111349760	77737984	18875784	24992
65	47.904868	111349760	77737984	28945224	24992
66	48.802359	111349760	77737984	23192832	24992
67	49.23588	111349760	77737984	18104400	24992
68	49.855119	111349760	77737984	30154808	24992
69	50.930263	111349760	77737984	26388496	24992
70	52.333242	111620096	77737984	23282896	24992
71	53.644327	111620096	77737984	20840864	24992
72	53.135851	111620096	77737984	19049288	24992
73	54.453748	111890432	77737984	17927344	24992
74	54.968255	111890432	78262272	17468896	24992
75	55.394834	111890432	78262272	17669968	24992
76	59.531661	112160768	78262272	18532616	24992
77	59.141595	112160768	78262272	20056944	24992
78	58.192674	112431104	78262272	22242656	24992
79	59.26121	112431104	78262272	25087824	24992
80	59.506464	112431104	78262272	28589728	24992
81	60.265348	112431104	78786560	32748512	24992
82	62.025623	112701440	78786560	21094456	24992
83	61.788207	112701440	78786560	26589144	24992
84	62.923845	112701440	78786560	32745136	24992
85	64.513022	112971776	79310848	23066592	24992
86	64.509399	113242112	79310848	30545984	24992
87	65.614626	113242112	79310848	22193728	24992
88	66.394883	113242112	79310848	30996328	24992
89	67.464022	113512448	79835136	23967568	24992
90	67.451902	113512448	79835136	34091472	24992
91	69.760388	113782784	79835136	28390192	24992
92	69.835978	113782784	79835136	23343224	24992
93	71.927726	113782784	79835136	18970528	24992
94	70.844403	114053120	80359424	31736232	24992
95	73.043257	114053120	80359424	28677280	24992
96	73.067125	114323456	80359424	26274752	24992
97	74.347225	114323456	80359424	24527544	24992
98	75.056448	114593792	80359424	23451776	24992
99	75.969245	114593792	80359424	23038168	24992
100	76.860566	114593792	80359424	23286520	24992
101	78.552267	114593792	80359424	24196296	24992
102	0.797266	114593792	80359424	25376488	24992
103	1.506367	114593792	80359424	26714240	24992
104	2.177759	114593792	80359424	28711384	24992
105	3.124794	114593792	80359424	31367936	24992
106	3.641787	114593792	80359424	34684416	24992
107	5.689075	114593792	80359424	22201008	24992
108	5.490737	114593792	80359424	26836280	24992
109	5.949809	114593792	80359424	32130960	24992
110	7.803872	114593792	80359424	21657264	24992
111	7.42787	114593792	80359424	28271712	24992
112	7.866469	114593792	80359424	35545560	24992
113	10.234217	114593792	80359424	27055768	24992
114	9.535982	114593792	80359424	35648496	24992
115	11.597508	114593792	80359424	28478880	24992
116	12.109458	114593792	80359424	21947160	24992
117	11.664722	114593792	80359424	32518032	24992
118	13.820995	114593792	80359424	27312928	24992
119	14.641031	114593792	80359424	22770856	24992
120	13.817125	114593792	80359424	35322160	24992
121	15.936043	114593792	80359424	32105088	24992
122	16.978341	114593792	80359424	29550696	24992
123	17.400022	114593792	80359424	27636376	24992
124	18.353302	114593792	80359424	26383592	24992
125	18.619149	114593792	80359424	25792400	24992
126	19.812763	114593792	80359424	25863176	24992
127	20.631687	114593792	80359424	26595512	24992
128	21.137926	114593792	80359424	27988904	24992
129	21.910019	114593792	80359424	30043904	24992
130	22.751984	114593792	80359424	32760488	24992
131	23.132017	114593792	80359424	36138072	24992
132	25.469192	114593792	80359424	23719104	24992
133	24.700526	114593792	80359424	28392600	24992
134	25.777424	114593792	80359424	33764328	24992
135	28.043417	114593792	80359424	23344776	24992
136	26.851989	114593792	80359424	30006944	24992
137	27.81824	114593792	80359424	37367728	24992
138	30.186569	114593792	80359424	28891552	24992
139	30.827259	114593792	80359424	21124536	24992
140	30.02727	114593792	80359424	30428576	24992
141	32.067823	114593792	80359424	23987248	24992
142	31.616395	114593792	80359424	34616200	24992
143	33.580803	114593792	80359424	29499856	24992
144	34.647742	114593792	80359424	25008024	24992
145	33.364825	114593792	80359424	37615152	24992
146	36.245679	114593792	80359424	34463672	24992
147	36.878288	114593792	80359424	31965664	24992
148	37.415189	114593792	80359424	30120760	24992
149	38.085289	114593792	80359424	28933720	24992
150	38.768923	114593792	80359424	28408216	24992
151	39.699819	114593792	80359424	28545008	24992
152	40.275298	114593792	80359424	29343816	24992
153	41.549735	114593792	80359424	30804328	24992
154	41.839781	114593792	80359424	32926648	24992
155	42.168173	114593792	80359424	35710272	24992
156	45.075416	114593792	80359424	22662440	24992
157	44.236954	114593792	80359424	26769528	24992
158	44.554552	114593792	80359424	31538680	24992
159	47.19974	114593792	80359424	36969040	24992
160	47.746628	114593792	80359424	26567768	24992
161	46.966288	114593792	80359424	33321656	24992
162	49.191743	114593792	80359424	24245576	24992
163	48.136893	114593792	80359424	32318736	24992
164	51.329581	114593792	80359424	24565752	24992
165	49.759041	114593792	80359424	33962520	24992
166	52.462451	114593792	80359424	27541000	24992
167	51.218815	114593792	80359424	38268496	24992
168	53.776628	114593792	80359424	33178504	24992
169	55.338094	114593792	80359424	28752120	24992
170	56.409371	114593792	80359424	24985320	24992
171	54.586894	114593792	80359424	38366448	24992
172	56.871976	114593792	80359424	35923048	24992
173	58.217696	114593792	80359424	34140968	24992
174	58.664321	114593792	80359424	33023560	24992
175	59.386634	114593792	80359424	32551712	24992
176	60.345708	114593792	80359424	32742312	24992
177	62.645996	114593792	80359424	33602104	24992
178	61.907483	114593792	80359424	35115240	24992
179	62.990733	114593792	80359424	37289872	24992
180	63.15682	114593792	80359424	40124392	24992
181	66.51252	114593792	80359424	27147240	24992
182	64.692404	114593792	80359424	31317672	24992
183	65.767508	114593792	80359424	36150240	24992
184	66.356641	114593792	80359424	41641224	24992
185	71.113362	114593792	80359424	31297800	24992
186	69.228505	114593792	80359424	38115608	24992
187	71.081868	114593792	80359424	29101968	24992
188	70.113473	114593792	80359424	37243752	24992
189	72.483322	114593792	80359424	29550664	24992
190	71.228544	114593792	80359424	39012408	24992
191	74.271328	114593792	80359424	32645320	24992
192	72.976174	114593792	80359424	43432864	24992
193	76.017622	114593792	80359424	38388624	24992
194	78.06998	114593792	80359424	34003472	24992
195	78.231846	114593792	80359424	30279048	24992
196	76.613576	114593792	80359424	43706208	24992
197	79.402873	114593792	80359424	41307488	24992
198	80.832996	114593792	80359424	39572776	24992
199	81.17946	114593792	80359424	38498880	24992
200	82.121093	114593792	80359424	38081160	24992
201	82.888261	114593792	80359424	38317880	24992
202	0.797068	114593792	80359424	38829856	24992
203	1.553817	114593792	80359424	40167608	24992
204	2.17461	114593792	80359424	42164752	24992
205	2.945511	114593792	80359424	44821304	24992
206	6.450036	114593792	80359424	31669672	24992
207	4.556213	114593792	80359424	35645544	24992
208	5.014041	114593792	80359424	40280816	24992
209	6.220073	114593792	80359424	45575496	24992
210	9.338388	114593792	80359424	35099840	24992
211	7.26581	114593792	80359424	41714288	24992
212	10.914545	114593792	80359424	32558592	24992
213	8.811883	114593792	80359424	40491848	24992
214	12.175529	114593792	80359424	32646656	24992
215	10.000267	114593792	80359424	41898728	24992
216	13.933577	114593792	80359424	35380424	24992
217	14.563655	114593792	80359424	29510880	24992
218	12.477479	114593792	80359424	40743016	24992
219	15.949534	114593792	80359424	36199992	24992
220	17.033247	114593792	80359424	32320336	24992
221	14.39787	114593792	80359424	45531112	24992
222	18.152682	114593792	80359424	42975424	24992
223	19.019647	114593792	80359424	41082992	24992
224	19.750792	114593792	80359424	39829424	24992
225	20.148124	114593792	80359424	39237864	24992
226	21.421431	114593792	80359424	39307808	24992
227	22.193417	114593792	80359424	40039328	24992
228	22.490711	114593792	80359424	41432384	24992
229	23.359148	114593792	80359424	43492312	24992
230	23.63624	114593792	80359424	46210688	24992
231	27.612039	114593792	80359424	33113816	24992
232	26.034866	114593792	80359424	37135768	24992
233	26.459817	114593792	80359424	41839704	24992
234	29.979331	114593792	80359424	30757568	24992
235	27.887769	114593792	80359424	36758792	24992
236	28.785345	114593792	80359424	43455728	24992
237	32.44127	114593792	80359424	34360712	24992
238	29.794385	114593792	80359424	42343728	24992
239	34.041645	114593792	80359424	34578176	24992
240	31.50941	114593792	80359424	43882264	24992
241	35.280835	114593792	80359424	37441800	24992
242	36.197477	114593792	80359424	31626632	24992
243	33.815457	114593792	80359424	42912192	24992
244	37.354112	114593792	80359424	38456104	24992
245	38.401833	114593792	80359424	34625848	24992
246	38.797488	114593792	80359424	31454152	24992
247	37.242565	114593792	80359424	45381856	24992
248	40.336949	114593792	80359424	43576264	24992
249	41.354194	114593792	80359424	42390936	24992
250	42.311335	114593792	80359424	41867800	24992
251	42.629479	114593792	80359424	42006224	24992
252	43.660406	114593792	80359424	42805096	24992
253	44.999217	114593792	80359424	44264264	24992
254	45.275716	114593792	80359424	46385960	24992
255	48.838941	114593792	80359424	32679920	24992
256	46.515147	114593792	80359424	36125112	24992
257	46.83182	114593792	80359424	40232264	24992
258	47.568727	114593792	80359424	45000552	24992
259	52.404886	114593792	80359424	33948368	24992
260	49.17974	114593792	80359424	40040088	24992
261	49.834091	114593792	80359424	46793176	24992
262	53.856436	114593792	80359424	37714712	24992
263	51.973876	114593792	80359424	45791168	24992
264	55.740591	114593792	80359424	38035912	24992
265	53.245653	114593792	80359424	47435912	24992
266	56.841405	114593792	80359424	41012304	24992
267	57.550852	114593792	80359424	35262384	24992
268	55.230388	114593792	80359424	46651048	24992
269	59.097864	114593792	80359424	42222200	24992
270	60.314601	114593792	80359424	38456920	24992
271	60.754344	114593792	80359424	35342448	24992
272	59.606165	114593792	80359424	49384776	24992
273	62.89683	114593792	80359424	47600776	24992
274	63.082164	114593792	80359424	46479992	24992
275	63.92329	114593792	80359424	46020944	24992
276	64.97445	114593792	80359424	46223544	24992
277	65.254108	114593792	80359424	47087704	24992
278	66.556125	114593792	80359424	48613432	24992
279	67.690178	114593792	80359424	50800912	24992
280	73.810606	114593792	80359424	37160504	24992
281	69.318965	114593792	80359424	40669528	24992
282	70.001466	114593792	80359424	44839704	24992
283	70.774587	114593792	80359424	49668848	24992
284	74.908991	114593792	80359424	38663240	24992
285	72.603513	114593792	80359424	44819992	24992
286	73.220803	114593792	80359424	51634648	24992
287	77.915709	114593792	80359424	42614096	24992
288	82.298239	113065984	78786560	15363848	24992
289	64.42385	113065984	78786560	24096584	24992
290	65.448957	113065984	78786560	17002928	24992
291	65.187749	113065984	78786560	27063104	24992
292	66.324326	113065984	78786560	21292944	24992
293	67.080828	113065984	78786560	16176680	24992
294	68.095842	113065984	78786560	28213248	24992
295	68.914959	113065984	78786560	24424512	24992
296	69.877145	113065984	78786560	21296240	24992
297	70.464399	113065984	78786560	18824024	24992
298	70.376183	113065984	78786560	17011328	24992
299	71.975814	113065984	78786560	15864608	24992
300	72.763024	113065984	80883712	15379120	24992
301	73.188686	113336320	82980864	15554392	24992
302	0.803138	113336320	85078016	16047352	24992
303	1.483492	113336320	85078016	17385104	24992
304	2.238801	113336320	85078016	19382360	24992
305	2.94881	113336320	85078016	22038912	24992
306	3.623634	113336320	85078016	25355408	24992
307	4.387113	113336320	85078016	29331280	24992
308	5.449315	113336320	85602304	17493992	24992
309	5.755767	113336320	85602304	22788672	24992
310	6.466477	113336320	85602304	28743728	24992
311	7.72624	113336320	86126592	18898576	24992
312	7.888255	113336320	86126592	26172424	24992
313	9.425141	113336320	86126592	17642792	24992
314	9.473413	113336320	86126592	26235456	24992
315	10.501845	113336320	86126592	19019688	24992
316	10.916466	113336320	86126592	28931200	24992
317	11.902453	113336320	86126592	23036728	24992
318	12.627979	113336320	86126592	17800488	24992
319	13.322759	113336320	86126592	29692024	24992
320	13.96327	113336320	86126592	25776440	24992
321	14.686719	113336320	86126592	22522280	24992
322	15.290322	113336320	86126592	19922496	24992
323	16.132849	113336320	86126592	17983232	24992
324	16.795607	113336320	86126592	16705168	24992
325	17.79895	113336320	86126592	16087544	24992
326	18.420966	113606656	86126592	16130272	24992
327	19.389168	113606656	86126592	16833472	24992
328	20.211271	113606656	86126592	18198456	24992
329	20.9814	113606656	86126592	20222400	24992
330	21.370101	113606656	86126592	22905928	24992
331	22.28596	113606656	86126592	26249816	24992
332	22.496973	113606656	86126592	30253656	24992
333	24.699785	113606656	86126592	18425968	24992
334	24.72491	113606656	86126592	23758952	24992
335	26.246396	113606656	86126592	29761392	24992
336	26.051264	113606656	86126592	19974992	24992
337	26.857848	113606656	86126592	27296824	24992
338	27.899442	113606656	86126592	18861808	24992
339	27.8649	113606656	86126592	27505640	24992
340	29.263859	113876992	86126592	20395232	24992
341	29.408151	113876992	86126592	30359288	24992
342	30.893337	113876992	86126592	24556872	24992
343	31.058036	113876992	86126592	19409168	24992
344	32.330498	113876992	86126592	14914192	24992
345	32.191703	113876992	86126592	27520920	24992
346	33.935833	114147328	86126592	24381776	24992
347	33.852384	114147328	86126592	21875168	24992
348	36.149029	114147328	86126592	20026272	24992
349	36.188043	114147328	86126592	18839224	24992
350	36.527666	114417664	86126592	18314224	24992
351	37.387125	114417664	86126592	18451440	24992
352	37.727144	114417664	86126592	19250624	24992
353	38.880408	114417664	86126592	20711640	24992
354	39.221412	114688000	86126592	22833440	24992
355	40.115828	114688000	86126592	25617056	24992
356	41.062071	114688000	86126592	29062320	24992
357	41.659465	114688000	86126592	16675864	24992
358	42.428644	114958336	86126592	21444656	24992
359	43.17984	114958336	86126592	26874496	24992
360	44.691782	114958336	86126592	16487120	24992
361	44.687875	114958336	86126592	23238760	24992
362	45.742449	115228672	86126592	30653568	24992
363	47.189787	115228672	86126592	22237024	24992
364	47.452604	115228672	86126592	30975008	24992
365	48.248554	115499008	86126592	23882496	24992
366	49.229816	115499008	86126592	17460568	24992
367	49.107859	115499008	86126592	28187704	24992
368	50.489384	115769344	86126592	23097400	24992
369	51.681932	115769344	86126592	18676648	24992
370	51.175906	115769344	86126592	31395904	24992
371	52.78558	116039680	86126592	28290528	24992
372	55.681678	116039680	86126592	25847632	24992
373	55.027412	116310016	86126592	24060176	24992
374	54.947347	116310016	86126592	22930680	24992
375	56.014748	116310016	86126592	22469704	24992
376	57.178162	116580352	86126592	22670872	24992
377	57.799659	116580352	86126592	23541960	24992
378	58.524951	116580352	86126592	25065808	24992
379	59.759996	116850688	86126592	27258064	24992
380	60.060693	116850688	86126592	30098888	24992
381	60.508728	117121024	86126592	33595624	24992
382	62.498251	117121024	86126592	21280136	24992
383	61.925236	117391360	86126592	26113840	24992
384	62.673953	117391360	86126592	31605800	24992
385	64.370877	117661696	86126592	21262520	24992
386	64.178346	117661696	86126592	28081336	24992
387	64.992782	117932032	86126592	35558160	24992
388	67.194093	117932032	86126592	27199512	24992
389	66.928943	118202368	86126592	35999304	24992
390	68.670884	118202368	86126592	28963688	24992
391	68.886409	118472704	86126592	22591904	24992
392	69.066859	118472704	86126592	33373272	24992
393	70.890701	118743040	86126592	28329960	24992
394	71.720056	118743040	86126592	23942856	24992
395	71.195825	119013376	86126592	36709296	24992
396	73.202518	119013376	86126592	33650520	24992
397	74.156711	119283712	86126592	31253928	24992
398	74.394452	119283712	86126592	29514112	24992
399	77.159294	119554048	86126592	28437512	24992
400	76.508916	119554048	86126592	28012816	24992
401	77.25177	119824384	86126592	28255176	24992
402	0.827074	119824384	86126592	28777520	24992
403	1.575111	119824384	86126592	30115272	24992
404	2.3022	119824384	86126592	32112416	24992
405	2.980708	119824384	86126592	34768968	24992
406	3.666369	119824384	86126592	38085448	24992
407	5.784702	119824384	86126592	25601352	24992
408	5.481093	119824384	86126592	30236624	24992
409	5.766958	119824384	86126592	35531304	24992
410	8.355983	119824384	86126592	25057496	24992
411	7.303462	119824384	86126592	31671944	24992
412	9.671895	119824384	86126592	22509512	24992
413	8.777432	119824384	86126592	30442768	24992
414	11.040392	119824384	86126592	22598400	24992
415	10.378956	119824384	86126592	31850472	24992
416	12.501686	119824384	86126592	25333320	24992
417	11.845356	119824384	86126592	35904272	24992
418	13.928116	119824384	86126592	30715720	24992
419	14.437355	120094720	86126592	26173680	24992
420	13.952341	120094720	86126592	38724984	24992
421	16.006798	120094720	86650880	35507112	24992
422	16.783383	120094720	86650880	32952720	24992
423	17.546085	120094720	86650880	31038480	24992
424	18.525998	120094720	86650880	29785712	24992
425	19.100797	120094720	86650880	29194520	24992
426	19.891486	120094720	86650880	29264832	24992
427	20.641009	120094720	86650880	29996688	24992
428	21.690685	120094720	86650880	31390128	24992
429	21.976852	120365056	86650880	33445048	24992
430	22.857781	120365056	86650880	36161296	24992
431	23.348935	120365056	86650880	39538880	24992
432	25.894998	120365056	86650880	27084152	24992
433	25.340562	120365056	86650880	31788776	24992
434	25.651385	120365056	86650880	37160376	24992
435	28.280564	120365056	86650880	26740744	24992
436	27.811394	120365056	86650880	33402944	24992
437	29.480027	120635392	86650880	24314864	24992
438	28.705841	120635392	86650880	32297864	24992
439	31.319192	120635392	86650880	24531256	24992
440	29.882211	120635392	86650880	33835408	24992
441	32.35234	120635392	86650880	27393952	24992
442	31.831177	120635392	86650880	38019304	24992
443	33.898271	120905728	86650880	32901304	24992
444	35.216362	120905728	86650880	28410000	24992
445	35.085557	120905728	86650880	24576992	24992
446	34.14392	120905728	86650880	37844360	24992
447	36.664222	120905728	86650880	35376600	24992
448	37.250483	120905728	86650880	33530656	24992
449	38.800458	120905728	86650880	32354392	24992
450	39.170209	120905728	86650880	31829144	24992
451	39.550545	120905728	86650880	31966000	24992
452	40.472037	120905728	86650880	32764792	24992
453	40.974654	120905728	86650880	34225368	24992
454	42.080673	120905728	86650880	36348696	24992
455	42.586653	120905728	86650880	39131456	24992
456	45.403522	120905728	86650880	26085560	24992
457	43.963744	120905728	86650880	30192824	24992
458	45.314141	120905728	86650880	34961576	24992
459	45.644018	120905728	86650880	40392128	24992
460	48.954593	120905728	86650880	29998568	24992
461	47.270665	120905728	86650880	36752392	24992
462	50.178665	120905728	86650880	27674752	24992
463	48.794394	120905728	86650880	35749616	24992
464	51.440999	120905728	86650880	27996152	24992
465	50.139087	120905728	86650880	37392648	24992
466	52.850203	120905728	86650880	30968960	24992
467	52.066335	120905728	86650880	41710352	24992
468	53.820974	120905728	86650880	36621080	24992
469	55.378869	120905728	86650880	32194136	24992
470	55.896642	120905728	86650880	28417656	24992
471	55.028185	120905728	86650880	41798352	24992
472	57.494365	120905728	86650880	39353832	24992
473	57.948063	120905728	86650880	37571560	24992
474	58.794505	120905728	86650880	36452440	24992
475	59.423037	120905728	86650880	35981008	24992
476	60.142827	120905728	86650880	36170952	24992
477	61.336632	120905728	86650880	37022568	24992
478	62.174001	120905728	86650880	38535800	24992
479	63.187722	120905728	86650880	40709664	24992
480	63.426703	120905728	86650880	43551680	24992
481	67.065814	120905728	86650880	30572832	24992
482	65.172807	120905728	86650880	34743488	24992
483	65.903192	120905728	86650880	39574632	24992
484	66.174596	120905728	86650880	45060280	24992
485	69.57031	120905728	86650880	34728840	24992
486	67.970521	120905728	86650880	41546584	24992
487	71.36809	120905728	86650880	32532880	24992
488	69.831744	120905728	86650880	40674536	24992
489	72.812115	120905728	86650880	32984104	24992
490	71.398975	120905728	86650880	42449016	24992
491	74.184585	120905728	86650880	36081776	24992
492	75.365323	120905728	86650880	30376272	24992
493	73.243198	120905728	86650880	41818400	24992
494	77.004248	120905728	86650880	37436160	24992
495	77.725183	120905728	86650880	33710312	24992
496	75.636308	120905728	86650880	47137792	24992
497	79.105202	120905728	86650880	44739520	24992
498	80.136044	120905728	86650880	43004760	24992
499	81.496945	120905728	86650880	41930736	24992
500	82.936604	120905728	86650880	41515560	24992
501	82.519504	120905728	86650880	41758384	24992
502	0.792108	120905728	86650880	42273664	24992
503	1.475602	120905728	86650880	43611416	24992
504	2.192597	120905728	86650880	45608560	24992
505	5.601593	120905728	86650880	31789984	24992
506	3.683911	120905728	86650880	35106456	24992
507	4.35543	120905728	86650880	39082328	24992
508	5.020272	120905728	86650880	43717600	24992
509	8.498128	120905728	86650880	32571080	24992
510	6.569385	120905728	86650880	38526136	24992
511	7.494192	120905728	86650880	45140584	24992
512	10.750088	120905728	86650880	35991808	24992
513	8.635019	120905728	86650880	43925064	24992
514	12.322116	120905728	86650880	36090704	24992
515	10.262016	120905728	86650880	45342776	24992
516	13.659648	120905728	86650880	38824360	24992
517	14.684024	120905728	86650880	32954712	24992
518	12.302712	120905728	86650880	44186856	24992
519	15.95618	120905728	86650880	39643832	24992
520	16.65005	120905728	86650880	35764208	24992
521	17.561345	120905728	86650880	32527360	24992
522	15.397956	120905728	86650880	46397520	24992
523	19.029906	120905728	86650880	44505016	24992
524	19.231384	120905728	86650880	43275280	24992
525	20.464631	120905728	86650880	42683256	24992
526	21.522337	120905728	86650880	42753056	24992
527	22.197766	120905728	86650880	43484336	24992
528	22.643486	120905728	86650880	44876928	24992
529	23.461627	120905728	86650880	46931144	24992
530	26.779878	120905728	86650880	33187104	24992
531	24.738199	120905728	86650880	36536344	24992
532	25.83009	120905728	86650880	40576672	24992
533	26.167827	120905728	86650880	45280488	24992
534	29.580531	120905728	86650880	34197440	24992
535	27.832795	120905728	86650880	40198752	24992
536	28.200857	120905728	86650880	46897584	24992
537	32.631644	120905728	86650880	37804984	24992
538	29.651852	120905728	86650880	45788064	24992
539	33.569107	120905728	86650880	38022432	24992
540	31.051058	120905728	86650880	47326168	24992
541	35.137356	120905728	86650880	40885672	24992
542	35.415997	120905728	86650880	35070648	24992
543	33.669255	120905728	86650880	46356304	24992
544	37.726699	120905728	86650880	41900152	24992
545	37.819113	120905728	86650880	38069992	24992
546	38.576909	120905728	86650880	34898376	24992
547	36.534751	120905728	86650880	48826112	24992
548	40.396826	120905728	86650880	47019752	24992
549	40.673973	120905728	86650880	45834184	24992
550	41.554139	120905728	86650880	45310184	24992
551	42.830911	120905728	86650880	45449632	24992
552	42.798296	120905728	86650880	46249432	24992
553	44.354437	120905728	86650880	47709736	24992
554	44.63713	120905728	86650880	49833304	24992
555	48.444556	120905728	86650880	36126672	24992
556	46.377411	120905728	86650880	39592392	24992
557	47.184848	120905728	86650880	43699256	24992
558	47.481243	120905728	86650880	48467656	24992
559	51.936504	120905728	86650880	37404336	24992
560	48.912145	120905728	86650880	43496136	24992
561	50.365651	120905728	86650880	50249256	24992
562	53.552131	120905728	86650880	41170184	24992
563	51.638062	120905728	86650880	49246288	24992
564	58.258533	120905728	86650880	41491000	24992
565	54.31852	120905728	86650880	50890664	24992
566	56.717853	120905728	86650880	44466544	24992
567	57.591472	120905728	86650880	38716544	24992
568	55.438277	120905728	86650880	50105208	24992
569	59.221325	120905728	86650880	45676552	24992
570	60.163977	120905728	86650880	41910536	24992
571	60.302365	120905728	86650880	38795744	24992
572	58.333242	120905728	86650880	52838088	24992
573	73.686301	113041408	78786560	14268744	24992
574	53.924058	113041408	78786560	13093736	24992
575	54.500901	113041408	78786560	12578824	24992
576	55.632164	113041408	78786560	12724712	24992
577	55.915685	113041408	78786560	13531616	24992
578	56.398627	113041408	78786560	14999416	24992
579	57.589582	113041408	78786560	17128216	24992
580	58.128806	113041408	78786560	19917416	24992
581	58.549581	113041408	78786560	23364032	24992
582	60.207914	113041408	78786560	27463320	24992
583	61.628732	113041408	78786560	15742432	24992
584	61.778628	113041408	78786560	21176960	24992
585	61.694362	113041408	78786560	27268552	24992
586	62.380624	113041408	78786560	17524144	24992
587	63.253837	113041408	79310848	24941200	24992
588	63.520908	113041408	81408000	16525792	24992
589	64.347017	113311744	82980864	25264840	24992
590	64.745246	113311744	85078016	18171168	24992
591	65.813933	113582080	86650880	28231744	24992
592	67.116538	113582080	88748032	22459376	24992
593	67.908677	113852416	90845184	17343240	24992
594	67.657847	113852416	92418048	29379568	24992
595	69.74124	113852416	92418048	25593416	24992
596	70.55853	114122752	92418048	22475096	24992
597	70.177164	114122752	92418048	20072784	24992
598	71.087788	114122752	92418048	18335952	24992
599	71.536011	114393088	92418048	17261168	24992
600	72.725403	114393088	92418048	16847680	24992
601	73.467797	114663424	92418048	17095752	24992
602	0.80436	114663424	92418048	17618312	24992
603	1.484707	114663424	92418048	18956064	24992
604	2.195198	114663424	92418048	20953208	24992
605	2.889923	114663424	92418048	23609856	24992
606	3.653649	114663424	92418048	26926336	24992
607	4.351743	114663424	92418048	30902208	24992
608	5.579776	114663424	92418048	19090600	24992
609	5.842388	114663424	92418048	24385280	24992
610	6.666614	114663424	92418048	30340336	24992
611	7.873877	114663424	92418048	20542824	24992
612	7.873921	114663424	92418048	27816784	24992
613	9.341254	114663424	92418048	19320976	24992
614	9.535015	114663424	92418048	27913640	24992
615	10.727941	114663424	92418048	20734288	24992
616	10.773262	114663424	92418048	30645752	24992
617	12.297568	114933760	92418048	24793456	24992
618	12.899131	114933760	92418048	19590272	24992
619	13.007861	114933760	92418048	31481872	24992
620	14.289578	114933760	92418048	27602808	24992
621	15.029472	114933760	92418048	24387256	24992
622	15.783926	114933760	92418048	21812344	24992
623	17.067917	114933760	92418048	19898992	24992
624	17.845854	114933760	92418048	18648056	24992
625	17.988893	114933760	92418048	18058744	24992
626	18.700082	114933760	92418048	18130936	24992
627	19.552417	115204096	92418048	18864720	24992
628	20.391837	115204096	92418048	20259944	24992
629	21.679334	115204096	92418048	22316728	24992
630	21.538589	115204096	92418048	25034216	24992
631	22.423462	115204096	92418048	28413184	24992
632	23.508272	115204096	92418048	32453224	24992
633	24.486265	115204096	92418048	20684160	24992
634	24.579992	115204096	92418048	26036696	24992
635	25.883754	115474432	92418048	32063840	24992
636	26.959784	115474432	92418048	22298688	24992
637	26.777124	115474432	92418048	29620600	24992
638	28.535511	115474432	92418048	21185392	24992
639	28.57417	115474432	92418048	29829128	24992
640	29.546397	115474432	92418048	22718896	24992
641	29.60889	115474432	92418048	32682840	24992
642	31.24905	115744768	92418048	26892696	24992
643	31.827219	115744768	92418048	21735160	24992
644	32.833028	115744768	92418048	17240520	24992
645	32.648026	115744768	92418048	29847680	24992
646	33.932164	116015104	92418048	26708536	24992
647	34.849654	116015104	92418048	24202184	24992
648	35.820553	116015104	92418048	22353288	24992
649	36.274487	116015104	92418048	21168776	24992
650	37.115788	116015104	92418048	20643664	24992
651	37.960379	116285440	92418048	20780864	24992
652	38.269827	116285440	92418048	21579984	24992
653	39.171848	116285440	92418048	23040872	24992
654	39.943796	116285440	92418048	25163072	24992
655	40.425122	116555776	92418048	27946688	24992
656	41.069655	116555776	92418048	31391888	24992
657	42.911668	116555776	92418048	19005704	24992
658	43.67511	116555776	92418048	23782744	24992
659	43.726497	116826112	92418048	29212616	24992
660	45.513037	116826112	92418048	18811864	24992
661	45.143677	116826112	92418048	25563504	24992
662	47.55422	116826112	92418048	32986528	24992
663	47.396785	117096448	92418048	24570312	24992
664	47.746292	117096448	92418048	33308608	24992
665	49.345176	117366784	92418048	26215872	24992
666	50.318699	117366784	92418048	19796208	24992
667	49.759561	117637120	92418048	30527296	24992
668	51.467172	117637120	92418048	25438312	24992
669	51.947257	117637120	92418048	21008144	24992
670	52.020742	117907456	92418048	33727872	24992
671	53.274483	117907456	92418048	30622888	24992
672	54.566606	117907456	92418048	28180368	24992
673	54.938652	118177792	92418048	26393448	24992
674	55.995656	118177792	92418048	25264200	24992
675	56.848358	118448128	92418048	24804016	24992
676	57.241308	118448128	92418048	25006216	24992
677	58.847676	118448128	92418048	25869240	24992
678	59.045677	118718464	92418048	27393720	24992
679	59.815097	118718464	92418048	29578160	24992
680	60.224371	118988800	92418048	32418944	24992
681	61.605304	118988800	92418048	35915616	24992
682	63.298836	119259136	92418048	23600128	24992
683	64.407597	119259136	92418048	28433800	24992
684	64.292299	119529472	92418048	33927496	24992
685	68.074029	119529472	92418048	23591928	24992
686	65.27482	119529472	92418048	30411288	24992
687	66.012457	119799808	92418048	37887872	24992
688	67.938585	119799808	92418048	29528360	24992
689	67.221725	120070144	92418048	38328280	24992
690	69.634956	120340480	92418048	31292568	24992
691	70.361503	120340480	92418048	24920904	24992
692	71.059184	120610816	92418048	35702232	24992
693	72.280804	120610816	92418048	30659176	24992
694	72.855535	120881152	92418048	26272072	24992
695	72.726777	120881152	92418048	39038368	24992
696	74.907603	121151488	92418048	35978040	24992
697	75.364399	121151488	92418048	33581400	24992
698	76.464831	121151488	92418048	31841568	24992
699	77.639204	121421824	92418048	30755576	24992
700	78.037726	121692160	92418048	30336776	24992
701	78.74337	121692160	92418048	30584760	24992
702	0.810953	121962496	92418048	31116688	24992
703	1.733819	121962496	92418048	32454424	24992
704	2.195646	121962496	92418048	34451600	24992
705	2.99335	121962496	92418048	37116912	24992
706	3.649187	121962496	92418048	40433424	24992
707	6.294048	121962496	92418048	27950000	24992
708	5.205568	121962496	92418048	32585256	24992
709	5.730035	121962496	92418048	37879920	24992
710	8.221381	121962496	92418048	27406208	24992
711	7.370969	121962496	92418048	34020640	24992
712	7.869769	121962496	92418048	41294488	24992
713	10.638683	121962496	92418048	32789096	24992
714	11.090582	121962496	92418048	24944648	24992
715	10.445789	121962496	92418048	34196696	24992
716	12.718539	121962496	92418048	27678912	24992
717	11.440742	121962496	92418048	38249768	24992
718	14.181254	121962496	92418048	33061280	24992
719	14.867627	121962496	92418048	28519192	24992
720	13.767383	121962496	92418048	41070480	24992
721	16.281291	121962496	92418048	37852768	24992
722	17.050354	122232832	92418048	35298392	24992
723	17.958169	122232832	92418048	33385048	24992
724	18.852038	122232832	92418048	32132248	24992
725	19.256935	122232832	92418048	31541008	24992
726	20.265981	122232832	92418048	31611288	24992
727	21.295727	122232832	92418048	32343336	24992
728	21.322619	122232832	92418048	33736728	24992
729	22.551564	122232832	92418048	35791744	24992
730	23.673848	122232832	92418048	38508184	24992
731	23.576731	122503168	92418048	41885688	24992
732	26.806416	122503168	92418048	29443968	24992
733	25.150449	122503168	92418048	34134760	24992
734	26.359818	122503168	92418048	39506376	24992
735	30.064343	122503168	92418048	29095136	24992
736	27.557201	122503168	92418048	35757048	24992
737	29.908551	122773504	92418048	26668376	24992
738	28.744472	122773504	92418048	34651232	24992
739	31.723269	122773504	92418048	26884128	24992
740	30.01088	122773504	92418048	36188120	24992
741	32.92409	122773504	92418048	29746312	24992
742	31.555998	122773504	92418048	40371504	24992
743	34.572359	123043840	92418048	35252656	24992
744	35.775062	123043840	92418048	30761080	24992
745	35.675031	123043840	92418048	26927896	24992
746	34.756444	123043840	92418048	40195072	24992
747	37.295126	123043840	92418048	37726784	24992
748	37.704908	123314176	92418048	35880408	24992
749	38.332972	123314176	92418048	34694984	24992
750	39.581421	123314176	92418048	34169128	24992
751	40.046703	123314176	92418048	34305632	24992
752	40.719662	123584512	92418048	35104072	24992
753	41.726302	123584512	92418048	36564200	24992
754	42.249336	123584512	92418048	38686248	24992
755	42.824925	123584512	92418048	41468784	24992
756	46.267632	123854848	92418048	28422376	24992
757	45.039683	123854848	92418048	32529240	24992
758	45.843881	123854848	92418048	37297752	24992
759	46.039315	123854848	92418048	42727712	24992
760	49.230454	124125184	92418048	32326008	24992
761	48.112805	124125184	92418048	39079608	24992
762	50.496464	124125184	92418048	30002240	24992
763	49.237974	124125184	92418048	38077216	24992
764	51.851476	124395520	92418048	30323992	24992
765	50.581963	124395520	92418048	39720424	24992
766	53.693409	124395520	92418048	33299552	24992
767	51.995815	124665856	92418048	44033640	24992
768	55.072428	124665856	92418048	38942640	24992
769	55.618615	124936192	92418048	34515712	24992
770	56.70034	124936192	92418048	30739184	24992
771	54.847323	125206528	92418048	44119864	24992
772	58.20637	125206528	92418048	41676640	24992
773	58.815072	125206528	92418048	39894208	24992
774	59.33971	125476864	92942336	38775104	24992
775	60.611018	125476864	92942336	38303464	24992
776	61.300724	125747200	92942336	38493552	24992
777	62.173642	125747200	92942336	39345040	24992
778	62.593797	126017536	92942336	40858288	24992
779	63.934402	126017536	93466624	43031880	24992
780	63.985134	126287872	93466624	45873576	24992
781	67.907938	126287872	93466624	32897496	24992
782	66.179569	126558208	93466624	37068232	24992
783	66.961773	126558208	93466624	41900736	24992
784	67.752195	126558208	93466624	47391368	24992
785	71.20529	126828544	93466624	37051200	24992
786	69.576353	126828544	93466624	43868880	24992
787	72.472995	127098880	93990912	34855480	24992
788	70.881047	127098880	93990912	42997504	24992
789	73.560971	127369216	93990912	35307152	24992
790	73.869277	127369216	93990912	44772032	24992
791	75.585309	127369216	93990912	38404696	24992
792	76.333093	127639552	93990912	32704800	24992
793	74.548189	127639552	93990912	44146960	24992
794	78.341663	127909888	93990912	39764624	24992
795	79.52349	127909888	94515200	36038328	24992
796	77.047826	128180224	94515200	49466016	24992
797	81.318198	128180224	94515200	47069088	24992
798	81.027884	128450560	94515200	45335408	24992
799	82.558458	128450560	94515200	44261312	24992
800	83.192896	128720896	94515200	43846136	24992
801	84.238856	128720896	94515200	44086128	24992
802	0.832822	128720896	94515200	44597848	24992
803	1.566835	128720896	94515200	45935584	24992
804	2.321022	128720896	94515200	47932712	24992
805	3.050766	128720896	94515200	50589248	24992
806	6.778561	128720896	94515200	37435840	24992
807	4.395066	128720896	94515200	41411696	24992
808	5.078292	128720896	94515200	46046952	24992
809	8.875251	128720896	94515200	34900416	24992
810	6.680923	128720896	94515200	40855456	24992
811	7.138555	128720896	94515200	47469920	24992
812	11.151871	128720896	94515200	38315128	24992
813	8.642608	128720896	94515200	46248400	24992
814	12.584426	128720896	94515200	38414024	24992
815	10.215577	128720896	94515200	47666112	24992
816	13.801047	128720896	94515200	41147712	24992
817	15.000486	128720896	94515200	35278048	24992
818	12.355803	128720896	94515200	46510208	24992
819	16.151482	128720896	94515200	41967168	24992
820	16.900864	128720896	94515200	38087512	24992
821	17.416229	128720896	94515200	34850664	24992
822	15.500196	128720896	94515200	48720792	24992
823	18.863861	128720896	94515200	46828288	24992
824	20.218799	128720896	94515200	45598616	24992
825	20.447988	128720896	94515200	45007040	24992
826	21.127083	128720896	94515200	45076744	24992
827	21.996919	128720896	94515200	45807992	24992
828	22.541496	128720896	94515200	47200584	24992
829	23.756355	128720896	94515200	49254688	24992
830	27.526097	128720896	94515200	35510600	24992
831	25.153088	128720896	94515200	38859312	24992
832	25.834274	128720896	94515200	42899752	24992
833	26.480456	128720896	94515200	47603536	24992
834	30.587769	128720896	94515200	36520456	24992
835	28.138014	128720896	94515200	42521800	24992
836	28.759945	128720896	94515200	49220600	24992
837	32.664671	128720896	94515200	40125424	24992
838	30.460269	128720896	94515200	48108456	24992
839	33.969566	128720896	94515200	40342856	24992
840	31.601011	128720896	94515200	49646976	24992
841	35.731375	128720896	94515200	43206608	24992
842	36.306642	128720896	94515200	37391504	24992
843	33.488436	128720896	94515200	48677080	24992
844	37.716565	128720896	94515200	44220912	24992
845	38.638263	128720896	94515200	40390688	24992
846	39.34766	128720896	94515200	37218976	24992
847	36.737838	128720896	94515200	51146648	24992
848	40.402956	128720896	94515200	49341024	24992
849	42.058947	128720896	94515200	48155392	24992
850	42.889127	128720896	94515200	47662344	24992
851	43.948789	128720896	94515200	47803160	24992
852	51.949943	116137984	81932288	13027552	24992
853	39.051796	116137984	81932288	14452688	24992
854	40.556717	116137984	81932288	16552376	24992
855	39.761572	116137984	81932288	19299320	24992
856	40.266005	116137984	81932288	22706952	24992
857	40.676385	116137984	81932288	26774544	24992
858	42.409365	116137984	81932288	15012904	24992
859	42.926894	116137984	81932288	20403928	24992
860	43.686324	116137984	81932288	26455544	24992
861	44.417018	116137984	81932288	16674928	24992
862	44.549895	116137984	81932288	24049032	24992
863	46.264028	116137984	81932288	15590408	24992
864	46.130077	116137984	81932288	24289408	24992
865	46.765823	116137984	81932288	17148712	24992
866	47.558315	116137984	81932288	27170072	24992
867	48.251182	116137984	81932288	21369488	24992
868	49.0212	116137984	81932288	16232176	24992
869	49.308118	116137984	81932288	28232424	24992
870	50.17769	116137984	81932288	24413888	24992
871	51.315556	116137984	81932288	21256768	24992
872	51.81759	116137984	81932288	18762528	24992
873	52.644797	116137984	81932288	16918008	24992
874	53.126367	116137984	81932288	15742272	24992
875	53.887184	116137984	81932288	15227424	24992
876	55.237013	116137984	81932288	15373392	24992
877	55.540801	116137984	81932288	16180456	24992
878	56.276855	116137984	81932288	17648352	24992
879	57.060135	116137984	81932288	19778728	24992
880	58.19025	116137984	81932288	22568008	24992
881	58.738777	116137984	81932288	26015704	24992
882	59.952268	116137984	81932288	30122920	24992
883	59.806203	116137984	81932288	18470440	24992
884	60.837331	116137984	81932288	23965992	24992
885	61.407909	116137984	81932288	30119216	24992
886	62.640985	116137984	81932288	20435032	24992
887	62.858963	116137984	81932288	27914504	24992
888	64.714765	116137984	81932288	19562696	24992
889	64.943645	116137984	81932288	28366192	24992
890	66.120619	116137984	81932288	21337496	24992
891	66.333925	116137984	81932288	31463704	24992
892	67.613402	116137984	81932288	25759576	24992
893	68.185022	116137984	81932288	20710512	24992
894	68.636501	116137984	81932288	32814408	24992
895	69.757252	116137984	81932288	29092952	24992
896	70.929265	116137984	81932288	26033864	24992
897	71.908891	116137984	81932288	23631680	24992
898	71.865332	116137984	81932288	21884064	24992
899	73.467757	116137984	81932288	20808888	24992
900	74.483867	116137984	81932288	20398048	24992
901	74.51469	116137984	81932288	20646168	24992
902	1.034705	116137984	81932288	21169032	24992
903	1.482526	116137984	81932288	22506768	24992
904	2.186967	116137984	81932288	24503896	24992
905	2.88219	116137984	81932288	27160432	24992
906	3.678059	116137984	81932288	30476896	24992
907	5.150992	116137984	81932288	17996360	24992
908	5.265584	116137984	81932288	22631624	24992
909	5.764915	116137984	81932288	27926288	24992
910	6.656205	116137984	81932288	33881456	24992
911	7.945114	116137984	81932288	24083312	24992
912	7.993388	116137984	81932288	31357144	24992
913	9.57764	116137984	81932288	22870976	24992
914	9.563151	116137984	81932288	31463688	24992
915	10.843806	116137984	81932288	24284224	24992
916	10.845267	116137984	81932288	34195672	24992
917	12.430939	116137984	81932288	28340736	24992
918	13.167519	116137984	81932288	23137480	24992
919	14.109034	116137984	81932288	18579424	24992
920	13.830566	116137984	81932288	31130712	24992
921	15.30301	116137984	81932288	27915040	24992
922	16.441566	116137984	81932288	25362488	24992
923	16.645495	116137984	81932288	23449152	24992
924	17.58571	116137984	81932288	22197752	24992
925	18.291848	116137984	81932288	21608392	24992
926	19.214403	116137984	81932288	21680632	24992
927	19.754206	116137984	81932288	22414320	24992
928	21.011172	116137984	81932288	23817856	24992
929	21.191411	116137984	81932288	25874160	24992
930	21.621651	116137984	81932288	28591584	24992
931	22.42055	116137984	81932288	31970536	24992
932	24.261261	116137984	81932288	19553712	24992
933	25.690726	116137984	82456576	24235520	24992
934	25.076374	116137984	82456576	29601992	24992
935	26.82714	116137984	82456576	19184728	24992
936	26.801083	116137984	82456576	25846912	24992
937	27.73627	116408320	82456576	33204224	24992
938	29.132735	116408320	82456576	24772672	24992
939	28.42587	116408320	82456576	33415736	24992
940	30.270929	116408320	82456576	26313664	24992
941	31.645885	116408320	82456576	19837632	24992
942	30.798142	116408320	82456576	30462904	24992
943	32.717196	116678656	82456576	25345976	24992
944	33.215533	116678656	82456576	20852800	24992
945	33.182454	116678656	82456576	33459720	24992
946	34.465236	116678656	82456576	30329936	24992
947	35.156687	116678656	82456576	27823432	24992
948	35.847723	116678656	82456576	25975040	24992
949	36.748094	116678656	82456576	24788096	24992
950	37.381854	116678656	82456576	24263040	24992
951	38.430246	116678656	82456576	24400792	24992
952	39.556978	116678656	82456576	25200640	24992
953	40.550014	116678656	82456576	26661600	24992
954	40.538742	116678656	82456576	28783936	24992
955	41.946768	116678656	82456576	31567976	24992
956	41.864538	116678656	82456576	35012624	24992
957	44.292141	116678656	82456576	22628544	24992
958	43.936348	116678656	82456576	27397792	24992
959	44.534943	116678656	82456576	32828168	24992
960	46.041609	116678656	82456576	22427104	24992
961	45.988223	116678656	82456576	29181072	24992
962	46.638773	116678656	82456576	36596368	24992
963	48.370094	116678656	82456576	28179544	24992
964	50.384194	116678656	82456576	36918032	24992
965	50.09557	116678656	82456576	29824896	24992
966	51.19615	116678656	82456576	23403392	24992
967	49.873451	116678656	82456576	34131064	24992
968	52.257803	116678656	82456576	29041280	24992
969	52.981318	116678656	82456576	24616816	24992
970	52.37421	116678656	82980864	37333016	24992
971	54.719873	116948992	82980864	34227600	24992
972	55.203276	116948992	82980864	31784296	24992
973	57.306825	116948992	82980864	30004568	24992
974	57.662945	117219328	82980864	28871960	24992
975	58.186598	117219328	83505152	28404304	24992
976	58.59825	117489664	83505152	28605320	24992
977	59.774674	117489664	83505152	29468344	24992
978	59.829081	117489664	83505152	30992776	24992
979	60.683975	117760000	83505152	33175328	24992
980	61.410219	117760000	83505152	36012248	24992
981	62.325657	117760000	83505152	39508872	24992
982	64.417631	117760000	83505152	27194056	24992
983	63.831073	117760000	83505152	32028144	24992
984	64.227102	117760000	83505152	37519912	24992
985	66.951187	117760000	83505152	27176600	24992
986	66.017453	117760000	83505152	33995560	24992
987	69.503447	117760000	83505152	24985912	24992
988	67.572878	117760000	83505152	33120688	24992
989	70.722279	117760000	83505152	25425536	24992
990	70.340501	117760000	83505152	34892800	24992
991	72.138462	117760000	83505152	28521512	24992
992	71.182103	117760000	83505152	39302704	24992
993	73.285199	117760000	83505152	34259152	24992
994	75.129832	117760000	83505152	29879904	24992
995	75.314785	117760000	83505152	26160552	24992
996	74.591654	117760000	83505152	39587504	24992
997	76.634534	117760000	83505152	37193216	24992
998	77.360665	117760000	83505152	35458472	24992
999	78.088395	117760000	83505152	34379248	24992
1000	78.577076	117760000	83505152	33954344	24992
