x	Duration	RSS	HeapTotal	HeapUsed	External
0	NA	108789760	74592256	11159488	24992
1	0.923769	108789760	74592256	11839608	24992
2	1.519373	108789760	74592256	13178000	24992
3	2.269455	108789760	74592256	15175808	24992
4	2.931304	108789760	74592256	17833120	24992
5	3.950778	108789760	74592256	21150600	24992
6	4.463626	108789760	74592256	25127552	24992
7	5.944038	108789760	74592256	13297944	24992
8	6.12424	108789760	74592256	18594024	24992
9	6.528549	108789760	74592256	24550624	24992
10	7.613527	108789760	74592256	14707624	24992
11	8.210473	108789760	74592256	21983368	24992
12	8.970102	108789760	74592256	13451168	24992
13	10.651245	108789760	74592256	22059976	24992
14	10.414862	108789760	74592256	14846728	24992
15	11.022272	108789760	74592256	24760776	24992
16	11.970689	108789760	74592256	18869320	24992
17	12.566387	108789760	74592256	13636112	24992
18	13.172007	108789760	74592256	25530664	24992
19	14.361463	108789760	74592256	21619592	24992
20	14.883774	108789760	74592256	18369784	24992
21	15.566783	108789760	74592256	15773600	24992
22	16.093443	108789760	74592256	13838896	24992
23	17.429405	108789760	74592256	12570120	24992
24	17.748725	108789760	74592256	11956512	24992
25	18.603734	108789760	74592256	12003472	24992
26	19.797242	108789760	74592256	12711272	24992
27	20.079082	108789760	74592256	14080536	24992
28	21.127087	108789760	74592256	16109200	24992
29	21.932324	108789760	74592256	18797944	24992
30	22.208066	108789760	74592256	22146344	24992
31	22.609859	108789760	74592256	26155080	24992
32	24.100581	108789760	74592256	14359960	24992
33	24.877988	108789760	74592256	19691616	24992
34	25.423981	108789760	74592256	25690664	24992
35	26.520672	108789760	74592256	15886656	24992
36	26.680712	108789760	74592256	23201472	24992
37	28.669814	108789760	74592256	14719016	24992
38	28.318759	108789760	74592256	23351136	24992
39	29.808119	108789760	74592256	16191416	24992
40	29.398602	108789760	74592256	26144128	24992
41	30.890613	108789760	74592256	20305992	24992
42	31.260239	108789760	74592256	15125248	24992
43	31.421677	108789760	74592256	27058704	24992
44	32.715516	108789760	74592256	23200224	24992
45	33.147625	108789760	74592256	20003352	24992
46	34.248056	108789760	74592256	17461864	24992
47	34.519383	108789760	74592256	15581672	24992
48	35.218298	108789760	74592256	14362688	24992
49	36.384697	108789760	74592256	13804504	24992
50	36.643473	108789760	74592256	13908440	24992
51	37.64036	108789760	74592256	14673272	24992
52	38.611003	108789760	74592256	16099216	24992
53	39.088573	108789760	74592256	18186280	24992
54	39.598654	108789760	74592256	20934056	24992
55	40.398451	108789760	74592256	24342648	24992
56	41.306585	108789760	74592256	28413080	24992
57	41.950535	108789760	74592256	16649040	24992
58	42.97424	108789760	74592256	22038368	24992
59	44.663544	108789760	74592256	28088288	24992
60	43.975101	108789760	74592256	18305928	24992
61	45.441632	108789760	74592256	25678824	24992
62	46.205079	108789760	74592256	17227408	24992
63	46.192251	108789760	74592256	25966112	24992
64	47.077176	108789760	74592256	18873096	24992
65	47.40532	108789760	74592256	28942824	24992
66	48.872216	108789760	74592256	23190480	24992
67	49.55126	108789760	74592256	18102272	24992
68	49.600635	108789760	74592256	30152936	24992
69	51.27727	108789760	74592256	26385552	24992
70	51.564099	108789760	74592256	23280272	24992
71	52.783145	108789760	74592256	20838576	24992
72	53.410851	108789760	75116544	19047272	24992
73	54.399299	108789760	75116544	17925872	24992
74	54.801641	109060096	75116544	17465632	24992
75	55.385142	109060096	75116544	17666976	24992
76	56.825655	109060096	75116544	18529896	24992
77	57.016725	109330432	75116544	20054752	24992
78	57.577989	109330432	75116544	22240720	24992
79	58.151589	109330432	75116544	25086256	24992
80	60.237569	109330432	75116544	28588496	24992
81	60.295876	109330432	75116544	32747720	24992
82	61.79782	109330432	75116544	21093664	24992
83	62.079833	109330432	75116544	26588576	24992
84	62.331749	109330432	75116544	32744904	24992
85	64.247111	109330432	75116544	23064776	24992
86	63.826815	109330432	75116544	30544328	24992
87	65.568973	109330432	75116544	22192344	24992
88	65.879322	109330432	75116544	30994928	24992
89	66.72748	109330432	75116544	23966584	24992
90	67.193816	109330432	75116544	34090696	24992
91	70.486248	109330432	75116544	28389016	24992
92	70.590993	109330432	75116544	23342304	24992
93	71.140672	109330432	75116544	18969816	24992
94	70.277515	109330432	75116544	31735808	24992
95	71.974429	109330432	75116544	28677320	24992
96	72.486377	109330432	75116544	26275000	24992
97	73.365969	109330432	75116544	24527952	24992
98	74.714231	109330432	75116544	23452536	24992
99	75.320352	109330432	75116544	23039248	24992
100	76.289503	109330432	75116544	23287920	24992
101	76.361624	109330432	75116544	24198064	24992
102	0.79782	109330432	75116544	25378624	24992
103	1.510355	109330432	75116544	26716488	24992
104	2.176224	109330432	75116544	28713632	24992
105	2.93705	109330432	75116544	31370184	24992
106	3.639441	109330432	75116544	34686664	24992
107	5.447066	109330432	75116544	22206152	24992
108	5.330612	109330432	75116544	26841424	24992
109	5.933866	109330432	75116544	32136104	24992
110	7.637587	109330432	75116544	21666664	24992
111	7.420286	109330432	75116544	28281112	24992
112	7.879305	109330432	75116544	35554960	24992
113	9.811011	109330432	75116544	27068008	24992
114	9.544951	109330432	75116544	35660688	24992
115	11.622995	109330432	75116544	28493448	24992
116	12.395509	109330432	75116544	21963200	24992
117	11.752262	109330432	75116544	32534088	24992
118	13.587396	109330432	75116544	27330400	24992
119	14.343077	109330432	75116544	22789736	24992
120	13.764684	109330432	75116544	35341040	24992
121	15.733175	109330432	75116544	32125336	24992
122	16.128338	109330432	75116544	29572352	24992
123	17.382341	109330432	75116544	27658968	24992
124	17.888454	109330432	75116544	26407184	24992
125	18.887259	109330432	75116544	25816928	24992
126	19.340325	109330432	75116544	25888688	24992
127	20.07962	109330432	75116544	26621928	24992
128	21.102408	109330432	75116544	28016256	24992
129	21.529428	109330432	75116544	30072208	24992
130	22.271286	109330432	75116544	32789632	24992
131	22.925059	109330432	75116544	36168184	24992
132	25.633857	109330432	75116544	23750720	24992
133	24.883382	109330432	75116544	28424696	24992
134	25.344309	109330432	75116544	33797072	24992
135	27.342892	109330432	75116544	23377904	24992
136	26.729491	109330432	75116544	30040088	24992
137	27.725278	109330432	75116544	37401176	24992
138	29.81253	109330432	75116544	28925872	24992
139	30.406507	109330432	75116544	21159336	24992
140	30.195896	109330432	75116544	30463584	24992
141	32.082133	109330432	75116544	24022864	24992
142	32.134646	109330432	75116544	34651960	24992
143	33.343694	109330432	75116544	29535920	24992
144	33.845642	109330432	75116544	25044776	24992
145	33.50804	109330432	75116544	37651968	24992
146	35.580777	109330432	75116544	34498488	24992
147	36.135977	109330432	75116544	32002768	24992
148	36.634072	109330432	75116544	30158072	24992
149	37.270367	109330432	75116544	28971288	24992
150	38.393599	109330432	75116544	28446024	24992
151	39.036723	109330432	75116544	28583136	24992
152	39.720137	109330432	75116544	29382216	24992
153	40.588497	109330432	75116544	30842984	24992
154	41.553567	109330432	75116544	32965496	24992
155	42.048152	109330432	75116544	35749360	24992
156	43.992977	109330432	75116544	22701800	24992
157	43.557078	109330432	75116544	26809176	24992
158	44.142604	109330432	75116544	31578616	24992
159	44.819312	109330432	75116544	37009152	24992
160	47.151837	109330432	75116544	26608120	24992
161	46.281534	109330432	75116544	33362312	24992
162	48.645541	109330432	75116544	24286280	24992
163	47.750519	109330432	75116544	32359728	24992
164	49.973791	109330432	75116544	24607272	24992
165	49.267628	109330432	75116544	34004344	24992
166	51.677246	109330432	75116544	27582760	24992
167	51.064505	109330432	75116544	38310800	24992
168	52.758292	109330432	75116544	33221032	24992
169	53.950357	109330432	75116544	28794888	24992
170	54.535601	109330432	75116544	25019352	24992
171	54.871466	109330432	75116544	38409384	24992
172	57.555083	109330432	75116544	35975360	24992
173	57.216746	109330432	75116544	34193344	24992
174	58.747225	109330432	75116544	33076064	24992
175	59.444419	109330432	75116544	32604984	24992
176	60.134387	109330432	75116544	32795440	24992
177	60.897155	109330432	75116544	33655248	24992
178	61.832633	109330432	75116544	35168448	24992
179	61.725901	109330432	75116544	37343176	24992
180	62.324497	109330432	75116544	40177728	24992
181	64.670357	109330432	75116544	27200592	24992
182	64.100742	109330432	75116544	31371232	24992
183	65.360108	109330432	75116544	36203752	24992
184	65.627716	109330432	75116544	41694856	24992
185	68.218296	109330432	75116544	31350912	24992
186	67.207281	109330432	75116544	38168608	24992
187	69.842786	109330432	75116544	29155000	24992
188	68.53927	109330432	75116544	37296480	24992
189	72.081668	109330432	75116544	29603184	24992
190	70.267464	109330432	75116544	39064408	24992
191	72.926681	109330432	75116544	32697248	24992
192	71.510955	109330432	75116544	43484760	24992
193	74.854858	109330432	75116544	38440312	24992
194	75.307765	109330432	75116544	34055080	24992
195	76.03681	109330432	75116544	30331008	24992
196	75.285092	109330432	75116544	43758520	24992
197	77.622423	109330432	75116544	41359624	24992
198	78.532933	109330432	75116544	39625008	24992
199	79.573224	109330432	75116544	38550968	24992
200	79.927685	109330432	75116544	38133344	24992
201	81.067885	109330432	75116544	38369888	24992
202	0.835968	109330432	75116544	38881912	24992
203	1.554813	109330432	75116544	40219664	24992
204	2.303285	109330432	75116544	42216808	24992
205	3.227541	109330432	75116544	44873360	24992
206	6.068953	109330432	75116544	31721728	24992
207	4.379933	109330432	75116544	35697664	24992
208	5.443832	109330432	75116544	40332936	24992
209	5.7273	109330432	75116544	45627616	24992
210	9.124893	109330432	75116544	35149592	24992
211	7.200716	109330432	75116544	41764040	24992
212	10.41672	109330432	75116544	32608344	24992
213	8.853102	109330432	75116544	40541600	24992
214	11.969685	109330432	75116544	32698408	24992
215	10.143721	109330432	75116544	41950480	24992
216	13.327658	109330432	75116544	35432176	24992
217	14.343353	109330432	75116544	29562680	24992
218	12.382398	109330432	75116544	40794816	24992
219	15.780596	109330432	75116544	36251808	24992
220	16.096447	109330432	75116544	32372152	24992
221	14.621851	109330432	75116544	45582912	24992
222	17.701262	109330432	75116544	43027096	24992
223	18.631594	109330432	75116544	41134664	24992
224	19.007361	109330432	75116544	39881096	24992
225	20.49433	109330432	75116544	39289520	24992
226	21.087396	109330432	75116544	39359544	24992
227	21.520271	109330432	75116544	40091032	24992
228	22.543736	109330432	75116544	41484104	24992
229	22.908271	109330432	75116544	43543984	24992
230	23.799795	109330432	75116544	46262328	24992
231	26.9611	109330432	75116544	33163176	24992
232	24.952556	109330432	75116544	37187840	24992
233	25.791209	109330432	75116544	41891840	24992
234	29.069817	109330432	75116544	30809768	24992
235	27.545087	109330432	75116544	36811056	24992
236	28.094047	109330432	75116544	43507976	24992
237	31.815511	109330432	75116544	34412960	24992
238	29.405677	109330432	75116544	42396008	24992
239	32.857804	109330432	75116544	34630472	24992
240	31.091299	109330432	75116544	43934592	24992
241	34.13021	109330432	75116544	37494208	24992
242	35.153391	109330432	75116544	31679056	24992
243	33.305585	109330432	75116544	42964664	24992
244	36.470341	109330432	75116544	38508736	24992
245	37.510284	109330432	75116544	34678496	24992
246	38.183031	109330432	75116544	31506688	24992
247	38.036067	109330432	75116544	45434472	24992
248	40.869604	109330432	75116544	43628784	24992
249	40.134645	109330432	75116544	42443248	24992
250	41.482398	109330432	75116544	41920112	24992
251	41.741701	109330432	75116544	42058568	24992
252	42.487406	109330432	75116544	42857152	24992
253	43.256387	109330432	75116544	44316336	24992
254	43.575538	109330432	75116544	46438064	24992
255	47.791114	109330432	75116544	32732040	24992
256	45.016324	109330432	75116544	36177280	24992
257	46.26419	109330432	75116544	40284400	24992
258	46.954347	109330432	75116544	45052640	24992
259	51.305009	109330432	75116544	34000832	24992
260	48.261588	109330432	75116544	40092552	24992
261	49.546759	109330432	75116544	46848488	24992
262	52.494701	109330432	75116544	37770056	24992
263	50.966749	109330432	75116544	45846528	24992
264	53.754228	109330432	75116544	38091192	24992
265	52.214003	109330432	75116544	47491256	24992
266	55.975183	109330432	75116544	41067680	24992
267	56.677104	109330432	75116544	35317616	24992
268	54.039222	109330432	75116544	46706200	24992
269	58.852285	109330432	75116544	42277816	24992
270	60.845181	109330432	75116544	38512568	24992
271	60.065835	109330432	75116544	35398320	24992
272	57.270189	109330432	75116544	49440712	24992
273	60.736977	109330432	75116544	47659048	24992
274	61.669966	109330432	75116544	46538392	24992
275	62.362685	109330432	75116544	46079504	24992
276	63.55294	109330432	75116544	46281944	24992
277	63.879859	109330432	75116544	47146152	24992
278	66.646157	109330432	75116544	48671944	24992
279	66.145965	109330432	75116544	50859440	24992
280	70.092624	109330432	75116544	37220264	24992
281	67.783552	109330432	75116544	40729320	24992
282	68.284329	109330432	75116544	44899448	24992
283	69.306761	109330432	75116544	49728608	24992
284	72.707777	109330432	75116544	38722968	24992
285	71.779955	109330432	75116544	44879720	24992
286	71.128857	109330432	75116544	51694376	24992
287	75.862002	109330432	75116544	42673968	24992
288	77.872834	108486656	74067968	13408944	24992
289	64.479228	108486656	74067968	22145344	24992
290	66.238059	108486656	74067968	15049016	24992
291	66.122242	108486656	74067968	25106336	24992
292	66.831758	108486656	74067968	19334384	24992
293	67.513293	108486656	74067968	14218264	24992
294	67.676748	108486656	74067968	26254528	24992
295	68.785374	108486656	74067968	22465376	24992
296	69.730862	108486656	74067968	19331792	24992
297	70.107161	108486656	75116544	16852040	24992
298	70.849393	108486656	77213696	15044888	24992
299	71.679444	108756992	79310848	13898408	24992
300	72.13762	108756992	81408000	13412664	24992
301	73.081381	109027328	83505152	13587792	24992
302	0.811692	109027328	85602304	14081680	24992
303	1.50712	109027328	85602304	15419432	24992
304	2.188264	109027328	85602304	17416576	24992
305	2.943538	109027328	85602304	20073192	24992
306	3.652873	109027328	85602304	23389672	24992
307	4.365132	109027328	85602304	27365544	24992
308	5.426989	109027328	86126592	15528840	24992
309	6.006638	109027328	86126592	20823520	24992
310	6.46109	109027328	86126592	26778576	24992
311	7.551881	109027328	86650880	16932968	24992
312	8.015838	109027328	86650880	24206816	24992
313	9.43652	109027328	86650880	15677344	24992
314	9.495787	109027328	86650880	24270008	24992
315	10.465691	109027328	86650880	17054480	24992
316	10.738941	109027328	86650880	26965944	24992
317	11.895281	109027328	86650880	21071680	24992
318	12.715021	109027328	86650880	15835440	24992
319	13.189371	109027328	86650880	27727056	24992
320	14.037843	109027328	86650880	23811888	24992
321	15.346644	109297664	86650880	20558080	24992
322	15.351538	109297664	86650880	17958328	24992
323	16.293826	109297664	86650880	16019928	24992
324	17.056321	109297664	86650880	14741848	24992
325	17.721791	109297664	86650880	14124184	24992
326	18.520344	109297664	86650880	14167008	24992
327	19.329772	109297664	86650880	14870152	24992
328	20.433505	109297664	86650880	16233720	24992
329	21.377973	109297664	86650880	18259256	24992
330	21.448655	109297664	86650880	20943648	24992
331	22.145992	109297664	86650880	24287552	24992
332	23.414414	109297664	86650880	28291600	24992
333	24.187943	109297664	86650880	16490736	24992
334	24.649183	109297664	86650880	21817024	24992
335	25.717559	109297664	86650880	27818640	24992
336	26.36599	109297664	86650880	18032728	24992
337	26.932522	109297664	86650880	25356264	24992
338	27.893665	109568000	86650880	16921928	24992
339	28.010492	109568000	86650880	25565624	24992
340	28.846372	109568000	86650880	18454440	24992
341	29.697104	109568000	86650880	28419272	24992
342	30.566322	109568000	86650880	22632056	24992
343	31.672472	109568000	86650880	17478904	24992
344	31.61653	109568000	86650880	29425312	24992
345	33.185012	109838336	86650880	25623664	24992
346	33.494609	109838336	86650880	22454232	24992
347	34.720844	109838336	86650880	19945624	24992
348	34.829759	109838336	86650880	18097032	24992
349	36.078308	110108672	86650880	16910752	24992
350	36.61023	110108672	86650880	16385480	24992
351	37.238247	110108672	86650880	16522680	24992
352	38.119253	110108672	86650880	17321688	24992
353	38.958922	110379008	86650880	18782400	24992
354	39.423331	110379008	86650880	20905016	24992
355	39.8264	110379008	86650880	23688424	24992
356	41.268988	110379008	86650880	27133704	24992
357	41.329216	110649344	86650880	31238720	24992
358	42.987665	110649344	86650880	19517096	24992
359	43.276701	110649344	86650880	24947624	24992
360	44.097157	110649344	86650880	31052776	24992
361	45.443481	110919680	86650880	21312304	24992
362	45.481152	110919680	86650880	28727528	24992
363	46.738571	110919680	86650880	20310760	24992
364	46.715219	111190016	86650880	29049368	24992
365	48.556583	111190016	86650880	21956792	24992
366	48.591861	111190016	86650880	32026024	24992
367	49.961829	111190016	86650880	26273616	24992
368	50.451887	111460352	86650880	21185456	24992
369	50.89709	111460352	86650880	33236120	24992
370	52.833574	111730688	86650880	29472696	24992
371	52.770175	111730688	86650880	26367400	24992
372	53.719993	111730688	86650880	23925592	24992
373	53.975014	112001024	86650880	22134656	24992
374	55.021785	112001024	86650880	21012488	24992
375	55.913971	112271360	86650880	20552120	24992
376	56.811014	112271360	86650880	20753448	24992
377	58.256064	112271360	86650880	21624632	24992
378	58.466597	112541696	86650880	23149856	24992
379	60.299871	112541696	86650880	25343912	24992
380	59.925999	112541696	86650880	28189840	24992
381	61.022676	112812032	86650880	31692072	24992
382	61.749691	113082368	86650880	19362760	24992
383	62.468453	113082368	86650880	24196416	24992
384	62.658207	113082368	86650880	29691480	24992
385	63.554561	113352704	86650880	35844008	24992
386	65.688077	113352704	86650880	26169216	24992
387	65.271288	113623040	86650880	33647608	24992
388	66.576811	113623040	86650880	25292584	24992
389	66.758547	113893376	86650880	34095848	24992
390	68.312106	113893376	86650880	27067672	24992
391	69.056465	113893376	86650880	20695872	24992
392	69.187702	114163712	86650880	31477256	24992
393	70.608379	114163712	86650880	26433848	24992
394	71.906042	114434048	86650880	22058520	24992
395	71.196834	114434048	86650880	34825072	24992
396	73.19179	114704384	86650880	31766536	24992
397	74.224708	114704384	86650880	29367048	24992
398	74.628666	114974720	86650880	27623736	24992
399	75.916349	114974720	86650880	26548752	24992
400	76.696472	115245056	86650880	26138656	24992
401	77.705245	115245056	86650880	26387120	24992
402	0.789911	115515392	86650880	26910552	24992
403	1.489188	115515392	86650880	28248304	24992
404	2.188584	115515392	86650880	30245448	24992
405	2.940249	115515392	86650880	32902000	24992
406	3.875446	115515392	86650880	36218480	24992
407	5.98506	115515392	86650880	23737808	24992
408	5.269331	115515392	86650880	28373128	24992
409	5.726169	115515392	86650880	33667888	24992
410	7.97509	115515392	86650880	23198384	24992
411	7.47664	115515392	86650880	29812848	24992
412	7.992707	115515392	86650880	37086696	24992
413	10.467454	115515392	86650880	28600416	24992
414	9.447804	115515392	86650880	37193080	24992
415	11.817174	115515392	86650880	30026528	24992
416	12.445825	115515392	86650880	23496280	24992
417	11.524396	115515392	86650880	34067184	24992
418	13.997902	115515392	86650880	28863496	24992
419	14.616847	115515392	86650880	24322848	24992
420	13.94354	115515392	86650880	36874152	24992
421	16.137441	115515392	86650880	33658416	24992
422	16.519699	115785728	86650880	31105480	24992
423	17.774004	115785728	86650880	29192176	24992
424	18.372946	115785728	86650880	27940616	24992
425	19.30561	115785728	86650880	27350776	24992
426	19.943317	115785728	86650880	27422952	24992
427	20.409282	115785728	86650880	28156672	24992
428	21.686723	115785728	86650880	29551448	24992
429	22.313104	115785728	86650880	31607448	24992
430	22.596685	115785728	86650880	34324904	24992
431	23.607186	116056064	86650880	37703408	24992
432	25.85677	116056064	86650880	25286504	24992
433	24.84563	116056064	86650880	29960400	24992
434	25.523906	116056064	86650880	35332712	24992
435	27.990571	116056064	86650880	24913672	24992
436	27.591831	116056064	86650880	31575952	24992
437	27.850467	116056064	86650880	38937232	24992
438	30.256173	116326400	86650880	30505040	24992
439	29.604406	116326400	86650880	39148184	24992
440	32.013375	116326400	86650880	32045568	24992
441	32.337148	116326400	86650880	25569648	24992
442	31.774536	116326400	86650880	36195048	24992
443	33.661635	116596736	86650880	31077464	24992
444	35.174682	116596736	86650880	26586288	24992
445	33.442586	116596736	86650880	39193352	24992
446	36.252515	116596736	86650880	36062736	24992
447	36.544248	116867072	86650880	33554632	24992
448	38.732432	116867072	86650880	31718840	24992
449	38.224575	116867072	86650880	30532056	24992
450	39.362386	116867072	86650880	30006776	24992
451	40.56913	117137408	86650880	30153184	24992
452	40.61023	117137408	86650880	30952232	24992
453	41.595928	117137408	86650880	32412632	24992
454	42.053294	117407744	86650880	34535720	24992
455	42.637234	117407744	86650880	37319632	24992
456	43.052671	117407744	86650880	40763208	24992
457	46.341947	117407744	86650880	28378808	24992
458	44.668433	117678080	86650880	33147752	24992
459	45.954058	117678080	86650880	38578000	24992
460	48.259421	117678080	86650880	28176552	24992
461	47.955021	117678080	86650880	34938344	24992
462	50.582408	117948416	86650880	25861768	24992
463	48.551959	117948416	86650880	33934672	24992
464	51.131477	117948416	86650880	26181304	24992
465	50.133814	118218752	86650880	35577752	24992
466	52.671988	118218752	86650880	29156248	24992
467	51.585442	118218752	86650880	39883408	24992
468	54.32015	118218752	86650880	34792952	24992
469	55.479525	118489088	86650880	30366088	24992
470	53.616173	118489088	86650880	43078184	24992
471	56.474957	118759424	86650880	39970624	24992
472	57.532843	118759424	86650880	37526536	24992
473	57.986247	119029760	86650880	35745864	24992
474	58.848691	119029760	86650880	34613976	24992
475	59.436853	119300096	86650880	34142240	24992
476	60.352921	119300096	86650880	34333976	24992
477	61.189573	119570432	86650880	35190720	24992
478	63.879729	119570432	86650880	36707368	24992
479	62.488395	119570432	86650880	38882176	24992
480	63.525889	119840768	86650880	41717352	24992
481	66.215656	119840768	87175168	28732912	24992
482	65.617568	120111104	87175168	32903616	24992
483	65.806642	120111104	87175168	37736584	24992
484	66.61373	120111104	87175168	43227968	24992
485	70.011155	120381440	87175168	32885328	24992
486	69.753225	120381440	87175168	39703776	24992
487	71.41088	120651776	87699456	30687512	24992
488	69.487686	120651776	87699456	38825320	24992
489	72.940867	120922112	87699456	31129416	24992
490	71.232654	120922112	87699456	40586872	24992
491	74.951337	121192448	87699456	34216800	24992
492	73.4902	121192448	88223744	45000960	24992
493	76.153858	121462784	88223744	39956464	24992
494	76.962837	121462784	88223744	35568624	24992
495	77.432177	121733120	88223744	31845992	24992
496	76.024574	121733120	88223744	45273024	24992
497	79.046074	122003456	88748032	42875184	24992
498	79.902343	122003456	88748032	41140456	24992
499	83.283008	122273792	88748032	40060944	24992
500	81.957311	122273792	88748032	39636120	24992
501	82.194632	122544128	89272320	39872888	24992
502	0.803128	122544128	89272320	40384608	24992
503	1.480971	122544128	89272320	41722360	24992
504	2.23871	122544128	89272320	43719504	24992
505	2.916598	122544128	89272320	46376056	24992
506	6.330489	122544128	89272320	33224360	24992
507	4.372778	122544128	89272320	37200264	24992
508	5.079484	122544128	89272320	41835536	24992
509	5.72321	122544128	89272320	47130216	24992
510	9.267163	122544128	89272320	36655040	24992
511	7.191111	122544128	89272320	43269632	24992
512	10.925164	122814464	89272320	34113944	24992
513	8.869624	122814464	89272320	42047200	24992
514	12.32672	122814464	89272320	34202128	24992
515	10.360103	122814464	89272320	43454200	24992
516	13.685562	122814464	89272320	36935896	24992
517	11.452324	122814464	89272320	47506912	24992
518	15.139745	122814464	89272320	42317544	24992
519	15.900366	122814464	89272320	37774944	24992
520	16.65822	122814464	89272320	33876112	24992
521	14.605289	122814464	89272320	47086904	24992
522	18.230537	122814464	89272320	44531808	24992
523	18.840192	122814464	89272320	42639552	24992
524	19.399891	122814464	89272320	41386224	24992
525	20.711513	123084800	89272320	40794712	24992
526	20.949614	123084800	89272320	40864736	24992
527	22.242016	123084800	89796608	41596288	24992
528	22.894908	123084800	89796608	42989328	24992
529	23.529013	123084800	89796608	45043800	24992
530	23.662348	123084800	89796608	47759504	24992
531	27.876525	123084800	89796608	34678032	24992
532	25.450098	123084800	89796608	38687864	24992
533	26.842141	123084800	89796608	43391944	24992
534	26.670239	123355136	89796608	48762896	24992
535	30.886932	123355136	89796608	38336192	24992
536	28.393005	123355136	89796608	44999016	24992
537	32.260173	123355136	89796608	35906840	24992
538	30.304313	123355136	89796608	43889840	24992
539	33.888631	123625472	89796608	36126016	24992
540	31.40413	123625472	89796608	45430136	24992
541	35.436744	123625472	90320896	38986248	24992
542	33.280974	123625472	90320896	49610592	24992
543	36.702008	123625472	90320896	44445960	24992
544	36.856231	123625472	90320896	39990168	24992
545	38.433863	123895808	90320896	36158040	24992
546	35.755105	123895808	90320896	49425280	24992
547	39.586613	123895808	90320896	46949960	24992
548	40.112769	123895808	90320896	45099032	24992
549	40.662813	124166144	90320896	43914360	24992
550	41.19638	124166144	90320896	43390408	24992
551	42.65643	124166144	90845184	43527120	24992
552	42.761019	124166144	90845184	44325800	24992
553	43.865169	124436480	90845184	45785960	24992
554	44.507468	124436480	90845184	47905912	24992
555	45.589496	124436480	90845184	50691136	24992
556	49.197747	124436480	90845184	37663768	24992
557	46.994749	124706816	90845184	41771032	24992
558	47.421071	124706816	90845184	46539256	24992
559	51.197172	124706816	91369472	35476208	24992
560	49.083948	124706816	91369472	41567784	24992
561	49.499574	124977152	91369472	48320968	24992
562	53.390632	124977152	91369472	39242456	24992
563	50.98056	124977152	91369472	47319296	24992
564	54.93916	125247488	91369472	39563992	24992
565	53.153586	125247488	91369472	48964296	24992
566	56.308836	125247488	91369472	42540640	24992
567	57.624179	125247488	91369472	36792368	24992
568	54.781457	125517824	91893760	48184480	24992
569	58.907558	125517824	91893760	43755632	24992
570	59.827295	125788160	91893760	39990432	24992
571	60.541577	125788160	91893760	36876376	24992
572	58.558868	126058496	91893760	50919440	24992
573	71.466614	119271424	85078016	12899720	24992
574	53.604893	119271424	85078016	11724648	24992
575	54.594089	119271424	85078016	27697400	24992
576	54.656484	119271424	85078016	27845544	24992
577	56.620355	119271424	85078016	12166784	24992
578	56.502286	119271424	85078016	13634536	24992
579	57.53157	119271424	85078016	15763256	24992
580	57.510007	119271424	85078016	18553032	24992
581	59.035883	119271424	85078016	22003152	24992
582	59.40554	119271424	85078016	26110808	24992
583	60.525114	119271424	85078016	14383192	24992
584	60.438728	119271424	85078016	19819576	24992
585	61.641094	119271424	85078016	25910976	24992
586	62.62778	119271424	85078016	16166408	24992
587	62.619064	119271424	85078016	23583592	24992
588	63.91321	119271424	85078016	15165384	24992
589	64.466069	119271424	85602304	23900680	24992
590	65.652249	119271424	87699456	16804192	24992
591	66.051818	119541760	89272320	26861528	24992
592	66.49467	119541760	91369472	21089608	24992
593	67.795632	119812096	93466624	15973200	24992
594	67.79189	119812096	93466624	28010928	24992
595	69.1553	119812096	93466624	24222336	24992
596	71.202134	120082432	93466624	21106968	24992
597	70.380259	120082432	93466624	18697656	24992
598	71.375627	120082432	93466624	16961520	24992
599	71.975593	120352768	93466624	15886904	24992
600	72.9323	120352768	93466624	15473632	24992
601	73.266929	120623104	93466624	15722256	24992
602	0.799793	120623104	93466624	16245080	24992
603	1.481877	120623104	93466624	17582832	24992
604	2.19102	120623104	93466624	19579976	24992
605	2.885153	120623104	93466624	22236528	24992
606	3.650464	120623104	93466624	25553008	24992
607	4.387246	120623104	93466624	29528880	24992
608	5.568829	120623104	93466624	17717208	24992
609	6.028819	120623104	93466624	23011888	24992
610	6.452337	120623104	93466624	28966960	24992
611	8.022652	120623104	93466624	19169752	24992
612	7.934283	120623104	93466624	26443600	24992
613	9.175088	120623104	93466624	17948016	24992
614	9.540871	120623104	93466624	26540728	24992
615	10.814176	120893440	93466624	19361616	24992
616	11.073691	120893440	93466624	29273080	24992
617	12.550477	120893440	93466624	23420832	24992
618	13.216885	120893440	93466624	18217600	24992
619	12.997405	120893440	93466624	30109136	24992
620	15.093301	120893440	93466624	26230760	24992
621	15.107758	120893440	93466624	23015544	24992
622	15.945209	120893440	93466624	20440616	24992
623	16.665839	120893440	93466624	18528128	24992
624	17.36778	120893440	93466624	17277192	24992
625	18.434411	120893440	93466624	16688040	24992
626	18.676923	120893440	93466624	16760232	24992
627	19.852717	121163776	93466624	17493936	24992
628	20.245551	121163776	93466624	18889208	24992
629	20.892414	121163776	93466624	20946040	24992
630	21.852177	121163776	93466624	23664344	24992
631	22.588666	121163776	93466624	27043328	24992
632	22.864359	121163776	93466624	31083368	24992
633	24.324113	121163776	93466624	19332416	24992
634	24.164336	121163776	93466624	24671840	24992
635	25.022204	121434112	93466624	30706352	24992
636	26.678258	121434112	93466624	20949536	24992
637	26.41766	121434112	93466624	28272456	24992
638	28.223857	121434112	93466624	19846224	24992
639	28.226097	121434112	93466624	28490112	24992
640	29.901327	121704448	93466624	21386320	24992
641	29.627774	121704448	93466624	31351352	24992
642	31.424951	121704448	93466624	25575256	24992
643	32.058856	121704448	93466624	20422544	24992
644	32.032871	121704448	93466624	32369096	24992
645	33.71558	121974784	93466624	28575912	24992
646	33.883108	121974784	93466624	25406920	24992
647	34.986305	121974784	93466624	22898832	24992
648	36.12027	121974784	93466624	21052608	24992
649	36.059422	121974784	93466624	19866304	24992
650	37.311764	122245120	93466624	19341536	24992
651	37.794201	122245120	93466624	19479016	24992
652	38.380709	122245120	93466624	20278560	24992
653	39.052037	122245120	93466624	21739872	24992
654	39.724815	122515456	93466624	23862928	24992
655	40.850113	122515456	93466624	26646952	24992
656	41.96653	122515456	93466624	30092304	24992
657	41.911561	122515456	93466624	34197696	24992
658	44.557659	122785792	93466624	22484776	24992
659	43.778012	122785792	93466624	27915792	24992
660	44.717854	122785792	93466624	34008088	24992
661	45.827126	122785792	93466624	24268024	24992
662	45.940164	123056128	93466624	31683112	24992
663	47.663508	123056128	93466624	23266848	24992
664	47.090738	123056128	93466624	32005928	24992
665	48.918159	123326464	93466624	24912648	24992
666	48.97447	123326464	93466624	34982336	24992
667	50.437312	123326464	93466624	29231760	24992
668	51.261533	123596800	93466624	24143896	24992
669	51.960435	123596800	93466624	19706872	24992
670	51.593188	123596800	93466624	32426488	24992
671	53.955398	123867136	93466624	29321552	24992
672	54.235678	123867136	93466624	26880248	24992
673	55.225399	124137472	93466624	25087736	24992
674	56.236145	124137472	93466624	23962400	24992
675	57.051172	124407808	93466624	23502584	24992
676	57.727681	124407808	93466624	23704496	24992
677	58.277645	124407808	93466624	24567952	24992
678	58.809121	124678144	93466624	26092960	24992
679	59.838951	124678144	93466624	28278952	24992
680	60.35265	124948480	93466624	31123216	24992
681	61.235161	124948480	93466624	34622064	24992
682	63.047463	125218816	93466624	22292800	24992
683	63.396662	125218816	93466624	27126472	24992
684	64.012529	125218816	93466624	32621952	24992
685	66.155789	125489152	93466624	22287096	24992
686	65.308698	125489152	93466624	29102296	24992
687	66.333899	125759488	93466624	36578960	24992
688	68.525744	125759488	93466624	28220440	24992
689	67.87249	126029824	93466624	37024088	24992
690	69.566929	126029824	93466624	29996008	24992
691	72.929993	126300160	93466624	23624016	24992
692	70.323802	126300160	93466624	34405288	24992
693	72.544633	126570496	93466624	29361944	24992
694	73.029523	126570496	93466624	24980296	24992
695	72.238468	126570496	93466624	37746072	24992
696	74.425915	126570496	93466624	34687600	24992
697	75.573952	126840832	93466624	32290976	24992
698	76.497615	126840832	93990912	30551400	24992
699	77.10669	127111168	93990912	29470728	24992
700	77.716789	127111168	93990912	29056944	24992
701	80.307077	127381504	93990912	29305488	24992
702	0.812034	127381504	94515200	29828424	24992
703	1.527211	127381504	94515200	31166160	24992
704	2.194698	127381504	94515200	33163288	24992
705	3.15962	127381504	94515200	35828600	24992
706	3.653569	127381504	94515200	39145064	24992
707	6.098627	127381504	94515200	26664424	24992
708	5.248807	127381504	94515200	31299680	24992
709	5.727701	127381504	94515200	36594344	24992
710	9.256222	127381504	94515200	26134088	24992
711	7.451439	127381504	94515200	32748920	24992
712	7.910438	127381504	94515200	40022752	24992
713	10.7506	127651840	94515200	31535048	24992
714	9.439638	127651840	94515200	40127696	24992
715	12.139852	127651840	94515200	32958672	24992
716	12.785447	127651840	94515200	26426936	24992
717	11.456905	127651840	94515200	36997808	24992
718	14.5133	127651840	94515200	31792688	24992
719	15.549071	127651840	94515200	27250600	24992
720	14.028166	127651840	94515200	39801888	24992
721	16.425311	127651840	94515200	36584688	24992
722	17.710752	127651840	94515200	34031256	24992
723	17.81771	127651840	94515200	32117160	24992
724	18.608065	127651840	94515200	30864408	24992
725	19.615632	127922176	94515200	30273632	24992
726	20.891399	127922176	94515200	30344824	24992
727	20.998333	127922176	94515200	31077592	24992
728	21.69793	127922176	94515200	32471416	24992
729	22.236598	127922176	94515200	34526416	24992
730	22.974876	127922176	94515200	37242904	24992
731	24.013124	127922176	94515200	40620536	24992
732	26.466948	128192512	95039488	28202208	24992
733	25.567238	128192512	95039488	32875672	24992
734	27.144712	128192512	95039488	38255640	24992
735	28.489693	128192512	95039488	27835816	24992
736	28.2964	128192512	95039488	34497680	24992
737	29.68832	128192512	95039488	41858112	24992
738	32.20787	128192512	95039488	33424928	24992
739	29.491176	128192512	95039488	42067704	24992
740	32.541112	128462848	95039488	34960352	24992
741	32.842007	128462848	95039488	28478960	24992
742	31.909525	128462848	95039488	39104008	24992
743	34.508275	128462848	95563776	33985272	24992
744	35.229506	128733184	95563776	29493520	24992
745	34.268539	128733184	95563776	42100248	24992
746	36.49974	128733184	95563776	38968656	24992
747	37.763467	128733184	95563776	36459864	24992
748	38.300685	128733184	95563776	34614704	24992
749	38.830202	129003520	95563776	33427376	24992
750	40.035588	129003520	95563776	32901456	24992
751	40.29259	129003520	95563776	33037816	24992
752	40.779559	129003520	95563776	33836144	24992
753	41.561514	129273856	95563776	35296224	24992
754	42.644825	129273856	95563776	37418000	24992
755	43.369405	129273856	95563776	40201416	24992
756	44.209754	129273856	95563776	43644576	24992
757	47.018772	129544192	95563776	31261840	24992
758	45.735507	129544192	95563776	36030560	24992
759	46.453176	129544192	95563776	41460616	24992
760	49.045826	129544192	95563776	31058752	24992
761	48.068051	129814528	95563776	37812304	24992
762	51.465838	129814528	95563776	28735760	24992
763	49.782228	129814528	95563776	36808600	24992
764	53.069159	129814528	95563776	29055504	24992
765	51.064183	129814528	95563776	38451824	24992
766	54.404342	129814528	95563776	32030080	24992
767	52.142643	129814528	95563776	42757240	24992
768	55.400588	129814528	95563776	37666816	24992
769	55.927374	129814528	95563776	33239992	24992
770	57.060119	129814528	95563776	29464304	24992
771	55.184113	129814528	95563776	42844984	24992
772	58.121353	129814528	95563776	40400896	24992
773	58.840793	129814528	95563776	38619408	24992
774	60.201069	129814528	95563776	37493352	24992
775	60.662324	129814528	95563776	37021664	24992
776	61.066692	129814528	95563776	37211400	24992
777	62.385182	129814528	95563776	38062936	24992
778	62.526465	129814528	95563776	39576056	24992
779	63.539223	129814528	95563776	41750960	24992
780	64.331075	129814528	95563776	44585320	24992
781	67.721997	129814528	95563776	31608104	24992
782	65.713146	129814528	95563776	35778632	24992
783	66.80959	129814528	95563776	40611648	24992
784	67.231733	129814528	95563776	46102680	24992
785	71.045247	129814528	95563776	35757960	24992
786	68.796383	129814528	95563776	42575928	24992
787	72.231027	129814528	95563776	33562304	24992
788	70.72643	129814528	95563776	41703848	24992
789	74.126033	129814528	95563776	34007944	24992
790	72.321485	129814528	95563776	43465496	24992
791	75.791989	129814528	95563776	37098272	24992
792	74.40626	129814528	95563776	47886088	24992
793	77.094734	129814528	95563776	42842776	24992
794	78.256436	129814528	95563776	38454776	24992
795	79.021915	129814528	95563776	34732032	24992
796	77.314377	129814528	95563776	48159176	24992
797	80.822429	129814528	95563776	45763928	24992
798	81.46801	129814528	95563776	44029216	24992
799	81.735298	129814528	95563776	42952456	24992
800	83.158672	129814528	95563776	42531064	24992
801	84.152282	129814528	95563776	42767816	24992
802	0.789656	129814528	95563776	43279600	24992
803	1.545863	129814528	95563776	44617336	24992
804	2.179298	129814528	95563776	46614488	24992
805	2.941712	129814528	95563776	49271032	24992
806	7.108356	129814528	95563776	36119352	24992
807	4.380251	129814528	95563776	40095208	24992
808	5.233733	129814528	95563776	44730464	24992
809	6.183546	129814528	95563776	50025128	24992
810	9.52607	129814528	95563776	39549232	24992
811	7.222383	129814528	95563776	46163664	24992
812	11.252032	129814528	95563776	37007960	24992
813	8.914794	129814528	95563776	44941200	24992
814	12.428718	129814528	95563776	37095824	24992
815	10.227651	129814528	95563776	46347880	24992
816	14.029936	129814528	95563776	39829560	24992
817	11.49579	129814528	95563776	50400416	24992
818	15.434277	129814528	95563776	45210344	24992
819	16.390649	129814528	95563776	40667568	24992
820	16.95993	129814528	95563776	36768288	24992
821	14.481944	129814528	95563776	49978984	24992
822	18.353977	129814528	95563776	47423888	24992
823	19.093532	129814528	95563776	45531600	24992
824	20.207251	129814528	95563776	44278320	24992
825	21.111496	129814528	95563776	43686744	24992
826	21.409275	129814528	95563776	43756688	24992
827	22.035656	129814528	95563776	44488208	24992
828	23.311944	129814528	95563776	45881312	24992
829	23.680326	129814528	95563776	47935448	24992
830	24.438288	129814528	95563776	50650976	24992
831	28.815938	129814528	95563776	37568864	24992
832	26.529463	129814528	95563776	41578632	24992
833	26.624595	129814528	95563776	46282680	24992
834	27.108759	129814528	95563776	51653392	24992
835	31.549585	129814528	95563776	41192232	24992
836	28.583898	129814528	95563776	47886552	24992
837	32.632152	129814528	95563776	38791816	24992
838	30.026088	129814528	95563776	46774800	24992
839	34.725302	129814528	95563776	39010144	24992
840	31.464268	129814528	95563776	48314192	24992
841	35.450631	129814528	95563776	41872024	24992
842	36.60925	129814528	95563776	36056840	24992
843	34.122408	129814528	95563776	47342352	24992
844	38.126567	129814528	95563776	42887336	24992
845	39.057612	129814528	95563776	39055192	24992
846	36.035814	129814528	95563776	52322432	24992
847	40.87255	129814528	95563776	49820152	24992
848	40.849982	129814528	95563776	47994760	24992
849	41.493736	129814528	95563776	46809176	24992
850	43.2158	129814528	95563776	46319592	24992
851	54.427577	119947264	85602304	16442696	24992
852	37.970651	119947264	85602304	17238560	24992
853	38.285984	119947264	85602304	18698760	24992
854	39.401414	119947264	85602304	20820624	24992
855	40.089329	119947264	85602304	23604352	24992
856	40.285728	119947264	85602304	27047760	24992
857	41.451944	119947264	85602304	14664424	24992
858	42.243911	119947264	85602304	19433200	24992
859	43.05117	119947264	85602304	24863136	24992
860	44.296298	119947264	85602304	14461616	24992
861	44.721674	119947264	85602304	21215192	24992
862	45.459563	119947264	85602304	28630192	24992
863	46.04915	119947264	85602304	20213568	24992
864	46.859886	119947264	85602304	28951744	24992
865	47.863145	119947264	85602304	21857880	24992
866	49.098527	119947264	85602304	15436096	24992
867	48.713034	119947264	85602304	26163296	24992
868	50.230538	119947264	85602304	21072976	24992
869	51.04516	119947264	85602304	16646248	24992
870	51.204869	119947264	85602304	29358400	24992
871	53.055717	119947264	85602304	26254144	24992
872	53.319513	119947264	85602304	23810336	24992
873	54.046246	119947264	85602304	22030072	24992
874	55.042371	120217600	87175168	20896976	24992
875	55.392859	120217600	88748032	20427120	24992
876	56.615641	120217600	90320896	20624296	24992
877	57.158248	120487936	91893760	21486656	24992
878	58.74754	120487936	93466624	23009016	24992
879	58.826366	120758272	95039488	25187568	24992
880	59.446261	120758272	96612352	28023856	24992
881	59.947788	121028608	98185216	31519992	24992
882	61.968341	121028608	100282368	19202160	24992
883	61.788749	121298944	101855232	24035616	24992
884	63.717902	121298944	101855232	29535160	24992
885	63.93123	121569280	101855232	19191736	24992
886	64.583178	121569280	101855232	26011048	24992
887	65.896819	121569280	101855232	16992752	24992
888	66.059916	121839616	101855232	25127560	24992
889	67.50309	121839616	101855232	17432408	24992
890	67.380137	122109952	101855232	26890344	24992
891	68.7253	122109952	101855232	20520992	24992
892	69.416591	122380288	101855232	31306432	24992
893	70.526483	122380288	101855232	26263184	24992
894	71.688402	122650624	101855232	21876272	24992
895	72.332676	122650624	101855232	18154456	24992
896	72.064699	122920960	101855232	31582288	24992
897	73.849708	122920960	101855232	29185664	24992
898	75.150203	123191296	101855232	27452176	24992
899	75.794983	123191296	101855232	26373496	24992
900	76.925628	123461632	101855232	25951624	24992
901	77.705769	123461632	101855232	26189112	24992
902	0.795937	123731968	101855232	26701120	24992
903	1.486169	123731968	101855232	28038856	24992
904	2.185144	123731968	101855232	30035984	24992
905	2.970671	123731968	101855232	32692520	24992
906	5.013603	123731968	101855232	19543848	24992
907	4.381197	123731968	101855232	23519768	24992
908	5.234692	123731968	101855232	28155024	24992
909	5.766958	123731968	101855232	33449688	24992
910	8.189087	123731968	101855232	22980136	24992
911	7.17769	123731968	101855232	29594568	24992
912	9.325267	123731968	101855232	20442976	24992
913	8.81095	123731968	101855232	28376216	24992
914	10.98518	123731968	101855232	20533672	24992
915	10.161303	123731968	101855232	29785728	24992
916	12.392771	123731968	101855232	23270224	24992
917	11.711282	123731968	101855232	33841160	24992
918	13.749715	124002304	101855232	28654408	24992
919	14.698561	124002304	101855232	24113736	24992
920	15.354308	124002304	101855232	20216624	24992
921	14.678591	124002304	101855232	33427432	24992
922	16.709853	124002304	101855232	30874216	24992
923	17.500218	124002304	101855232	28983816	24992
924	18.400893	124002304	101855232	27731968	24992
925	19.01182	124002304	101855232	27141712	24992
926	20.055548	124002304	101855232	27212928	24992
927	21.269296	124002304	101855232	27954048	24992
928	21.725758	124272640	101855232	29348360	24992
929	22.171041	124272640	101855232	31404232	24992
930	23.045135	124272640	101855232	34121256	24992
931	25.226986	124272640	101855232	21041752	24992
932	24.052481	124272640	101855232	25052256	24992
933	25.081067	124542976	101855232	29757992	24992
934	26.311152	124542976	101855232	35129752	24992
935	27.919774	124542976	101855232	24709816	24992
936	27.279394	124542976	101855232	31371680	24992
937	29.12443	124542976	101855232	22282736	24992
938	28.383436	124542976	101855232	30265984	24992
939	31.424114	124813312	101855232	22501496	24992
940	30.377085	124813312	101855232	31806112	24992
941	32.145398	124813312	101855232	25363232	24992
942	31.42024	124813312	101855232	35988296	24992
943	34.376968	124813312	101855232	30872168	24992
944	34.167479	125083648	101855232	26372192	24992
945	35.518121	125083648	101855232	22539056	24992
946	35.183182	125083648	101855232	35806584	24992
947	36.860073	125083648	101855232	33338568	24992
948	37.581616	125083648	101855232	31491936	24992
949	38.185345	125353984	101855232	30308688	24992
950	38.921571	125353984	101855232	29783712	24992
951	39.923817	125353984	101855232	29921208	24992
952	40.293312	125353984	101855232	30720448	24992
953	41.302988	125624320	101855232	32181440	24992
954	41.446784	125624320	101855232	34302848	24992
955	42.247371	125624320	101855232	37086904	24992
956	44.949621	125624320	101855232	24043776	24992
957	43.773622	125894656	101855232	28151408	24992
958	45.062693	125894656	101855232	32920080	24992
959	48.372596	125894656	101855232	21858296	24992
960	46.930104	125894656	101855232	27948752	24992
961	47.140702	126164992	101855232	34702288	24992
962	49.223404	126164992	101855232	25624368	24992
963	48.68162	126164992	101855232	33701784	24992
964	51.119062	126435328	101855232	25947120	24992
965	49.655117	126435328	101855232	35347984	24992
966	52.563724	126435328	101855232	28924552	24992
967	53.063074	126705664	101855232	23178600	24992
968	51.980263	126705664	101855232	34574896	24992
969	54.91228	126705664	101855232	30146768	24992
970	55.86053	126976000	101855232	26382080	24992
971	56.601734	126976000	101855232	23268520	24992
972	54.96781	126976000	101855232	37311296	24992
973	57.724887	127246336	101855232	35529696	24992
974	58.515195	127246336	101855232	34409648	24992
975	59.5494	127516672	101855232	33951992	24992
976	59.847628	127516672	101855232	34149512	24992
977	61.08035	127787008	101855232	35001384	24992
978	61.545979	127787008	101855232	36514152	24992
979	62.376139	128057344	101855232	38694792	24992
980	65.373614	128057344	101855232	25056688	24992
981	64.1805	128057344	101855232	28566256	24992
982	64.797664	128327680	101855232	32737824	24992
983	66.137986	128327680	101855232	37567656	24992
984	68.318302	128598016	101855232	26562496	24992
985	67.597718	128598016	101855232	32719872	24992
986	68.045436	128598016	101855232	39535200	24992
987	72.127547	128868352	101855232	30523984	24992
988	69.867615	129138688	101855232	38665528	24992
989	73.829438	129138688	101855232	30985032	24992
990	70.983011	129409024	101855232	40449640	24992
991	75.551757	129409024	101855232	34083776	24992
992	75.538313	129679360	101855232	28373208	24992
993	74.618871	129679360	101855232	39823976	24992
994	76.880514	129949696	101855232	35441656	24992
995	77.644068	129949696	101855232	31715728	24992
996	78.530401	130220032	101855232	28654520	24992
997	76.768464	130220032	101855232	42743448	24992
998	80.116598	130490368	101855232	41008352	24992
999	81.539063	130490368	101855232	39934608	24992
1000	81.778827	130490368	101855232	39522176	24992
