x	Duration	RSS	HeapTotal	HeapUsed	External
0	NA	108195840	74067968	11162408	24992
1	2.544342	108195840	74067968	11842528	24992
2	2.8726	108195840	74067968	13180920	24992
3	2.293217	108195840	74067968	15178728	24992
4	3.084274	108195840	74067968	17836040	24992
5	3.885362	108195840	74067968	21153520	24992
6	4.791575	108195840	74067968	25130472	24992
7	5.556378	108195840	74067968	13301112	24992
8	6.307001	108195840	74067968	18597192	24992
9	6.756443	108195840	74067968	24553792	24992
10	7.844497	108195840	74067968	14710792	24992
11	8.611913	108195840	74067968	21986536	24992
12	9.472409	108195840	74067968	13454336	24992
13	10.156301	108195840	74067968	22049184	24992
14	11.844976	108195840	74067968	14850048	24992
15	11.453358	108195840	74067968	24764064	24992
16	12.564539	108195840	74067968	18873744	24992
17	13.113173	108195840	74067968	13640616	24992
18	13.672845	108195840	74067968	25534896	24992
19	14.583994	108195840	74067968	21623440	24992
20	15.163611	108195840	74067968	18373152	24992
21	16.111108	108195840	74067968	15776648	24992
22	17.101999	108195840	74067968	13841576	24992
23	17.813435	108195840	74067968	12572272	24992
24	18.418583	108195840	74067968	11958264	24992
25	19.256673	108195840	74067968	12004808	24992
26	19.627973	108195840	74067968	12711936	24992
27	21.507534	108195840	74067968	14083400	24992
28	21.329823	108195840	74067968	16109728	24992
29	22.346987	108195840	74067968	18796536	24992
30	23.009755	108195840	74067968	22142904	24992
31	24.831662	108195840	74067968	26152072	24992
32	24.710348	108195840	74067968	14356872	24992
33	25.079967	108195840	74067968	19686400	24992
34	26.314962	108195840	74067968	25682816	24992
35	27.182056	108195840	74067968	15872744	24992
36	28.019823	108195840	74067968	23186000	24992
37	28.395311	108195840	74067968	14703664	24992
38	30.082324	108195840	74067968	23335784	24992
39	29.551725	108195840	74067968	16174064	24992
40	30.419583	108195840	74067968	26126744	24992
41	31.724738	108195840	74067968	20288560	24992
42	32.309795	108195840	74067968	15107912	24992
43	32.72572	108195840	74067968	27041480	24992
44	33.861592	108195840	74067968	23183000	24992
45	34.713884	108195840	74067968	19986144	24992
46	35.562425	108195840	74067968	17444672	24992
47	35.940165	108195840	74067968	15564448	24992
48	37.138918	108195840	74067968	14345416	24992
49	37.600251	108195840	74067968	13787392	24992
50	37.863313	108195840	74067968	13890912	24992
51	39.263291	108195840	74067968	14655792	24992
52	39.249707	108195840	74067968	16081752	24992
53	40.843737	108195840	74067968	18168800	24992
54	41.139366	108195840	74067968	20916624	24992
55	41.700386	108195840	74067968	24325312	24992
56	43.99148	108195840	74067968	28403456	24992
57	43.616107	108195840	74067968	16682080	24992
58	44.718371	108195840	74067968	22114424	24992
59	44.805147	108195840	74067968	28208160	24992
60	46.092993	108195840	74067968	18470224	24992
61	46.900175	108195840	74067968	25887248	24992
62	48.131907	108195840	74067968	17473256	24992
63	47.390237	108195840	74067968	26211936	24992
64	48.944915	108195840	74067968	19118832	24992
65	49.342198	108195840	74067968	29188392	24992
66	50.599512	108195840	74067968	23435928	24992
67	51.437896	108195840	74067968	18348600	24992
68	51.64941	108195840	74067968	30399328	24992
69	54.623932	108195840	74067968	26632136	24992
70	55.532054	108195840	74067968	23526984	24992
71	55.002606	108195840	74067968	21085320	24992
72	55.570747	108195840	74067968	19294064	24992
73	56.37256	108195840	74067968	18172408	24992
74	57.047584	108195840	74067968	17712440	24992
75	57.673352	108195840	74067968	17913736	24992
76	58.816619	108195840	74067968	18776704	24992
77	59.86435	108195840	74067968	20301384	24992
78	60.054917	108195840	74067968	22487400	24992
79	61.226361	108195840	74067968	25333208	24992
80	62.487826	108195840	74067968	28835496	24992
81	63.476864	108195840	74067968	16508120	24992
82	64.200325	108195840	74067968	21341760	24992
83	64.455053	108195840	74067968	26836848	24992
84	65.861655	108195840	74067968	32992952	24992
85	70.816372	108195840	74067968	23310544	24992
86	68.233386	108195840	74067968	30790680	24992
87	69.087146	108195840	74067968	22435104	24992
88	68.899925	108195840	74067968	31237768	24992
89	70.425534	108195840	74067968	24209104	24992
90	70.838311	108195840	74067968	17842008	24992
91	71.504246	108195840	74067968	28631056	24992
92	72.821132	108195840	74067968	23584104	24992
93	73.261059	108195840	74067968	19203432	24992
94	74.75161	108195840	74067968	31977168	24992
95	75.050921	108195840	74067968	28918488	24992
96	76.513871	108195840	74067968	26519000	24992
97	77.055241	108195840	74067968	24775560	24992
98	77.569984	108195840	74067968	23700144	24992
99	80.105584	108195840	74067968	23286744	24992
100	82.779319	108195840	74067968	23535320	24992
101	80.64803	108195840	74067968	24445768	24992
102	0.830314	108195840	74067968	25626184	24992
103	1.559884	108195840	74067968	26963936	24992
104	2.30932	108195840	74067968	28961080	24992
105	3.074475	108195840	74067968	31617632	24992
106	3.776537	108195840	74067968	34934112	24992
107	5.892022	108195840	74067968	22453504	24992
108	5.628818	108195840	74067968	27088792	24992
109	5.914879	108195840	74067968	32383520	24992
110	8.301561	108195840	74067968	21914048	24992
111	7.403898	108195840	74067968	28528528	24992
112	8.164131	108195840	74067968	35802376	24992
113	10.513638	108195840	74067968	27315536	24992
114	9.88598	108195840	74067968	35908200	24992
115	11.807892	108195840	74067968	28740944	24992
116	13.035867	108195840	74067968	22210664	24992
117	12.245018	108195840	74067968	32781536	24992
118	14.031866	108195840	74067968	27577880	24992
119	14.97535	108195840	74067968	23037216	24992
120	14.235113	108195840	74067968	35588536	24992
121	16.426872	108195840	74067968	32372816	24992
122	17.180373	108195840	74067968	29819880	24992
123	17.967227	108195840	74067968	27906512	24992
124	19.047671	108195840	74067968	26654792	24992
125	19.609778	108195840	74067968	26064504	24992
126	20.834834	108195840	74067968	26136248	24992
127	21.512832	108195840	74067968	26869504	24992
128	22.023042	108195840	74067968	28263880	24992
129	22.973543	108195840	74067968	30319784	24992
130	23.493913	108195840	74067968	33037240	24992
131	24.337816	108195840	74067968	36415728	24992
132	27.024715	108195840	74067968	23998136	24992
133	25.367074	108195840	74067968	28672128	24992
134	26.371413	108195840	74067968	34044472	24992
135	29.047776	108195840	74067968	23625320	24992
136	28.300395	108195840	74067968	30287536	24992
137	30.402304	108195840	74067968	21199872	24992
138	29.344662	108195840	74067968	29183048	24992
139	32.152495	108195840	74067968	21416872	24992
140	30.722731	108195840	74067968	30721120	24992
141	33.850896	108195840	74067968	24280368	24992
142	32.214521	108195840	74067968	34909512	24992
143	35.623284	108195840	74067968	29793504	24992
144	35.601385	108195840	74067968	25302392	24992
145	34.891723	108195840	74067968	37909488	24992
146	37.026014	108195840	74067968	34748720	24992
147	37.656389	108195840	74067968	32260288	24992
148	38.312186	108195840	74067968	30415656	24992
149	39.195588	108195840	74067968	29228936	24992
150	39.978074	108195840	74067968	28703880	24992
151	40.664363	108195840	74067968	28841072	24992
152	41.510232	108195840	74067968	29640152	24992
153	42.06371	108195840	74067968	31100872	24992
154	42.885865	108195840	74067968	33223400	24992
155	43.808732	108195840	74067968	36007296	24992
156	46.016932	108195840	74067968	22959752	24992
157	45.547213	108195840	74067968	27067336	24992
158	46.55206	108195840	74067968	31836728	24992
159	46.807666	108195840	74067968	37267344	24992
160	49.339376	108195840	74067968	26866344	24992
161	48.533828	108195840	74067968	33620808	24992
162	50.97376	108195840	74067968	24544776	24992
163	50.029277	108195840	74067968	32618464	24992
164	52.399147	108195840	74067968	24865832	24992
165	51.893594	108195840	74067968	34262888	24992
166	54.826211	108195840	74067968	27841336	24992
167	53.278562	108195840	74067968	38569280	24992
168	56.312428	108195840	74067968	33479576	24992
169	57.158477	108195840	74067968	29053576	24992
170	58.721988	108195840	74067968	25286912	24992
171	57.033388	108195840	74067968	38677448	24992
172	59.508923	108195840	74067968	36233872	24992
173	59.941806	108195840	74067968	34451840	24992
174	61.449771	108195840	74067968	33334288	24992
175	61.487852	108195840	74067968	32862952	24992
176	62.49807	108195840	74067968	33053152	24992
177	64.104545	108195840	74067968	33913008	24992
178	64.161581	108195840	74067968	35426160	24992
179	64.707077	108195840	74067968	37601160	24992
180	65.794634	108195840	74067968	40435696	24992
181	68.728199	108195840	74067968	27459488	24992
182	67.566934	108195840	74067968	31630080	24992
183	68.422672	108195840	74067968	36462664	24992
184	69.131849	108195840	74067968	41953712	24992
185	71.87376	108195840	74067968	31610000	24992
186	70.717224	108195840	74067968	38427664	24992
187	73.812547	108195840	74067968	29414192	24992
188	71.784235	108195840	74067968	37555872	24992
189	75.579006	108195840	74067968	29862864	24992
190	74.038291	108195840	74067968	39324072	24992
191	76.823471	108195840	74067968	32956784	24992
192	75.343584	108195840	74067968	43744248	24992
193	78.664384	108195840	74067968	38700152	24992
194	79.544318	108195840	74067968	34317704	24992
195	80.893498	108195840	74067968	30597016	24992
196	78.726894	108195840	74067968	44024288	24992
197	82.444058	108195840	74067968	41627136	24992
198	83.129208	108195840	74067968	39892312	24992
199	84.140263	108195840	74067968	38818384	24992
200	84.675338	108195840	74067968	38400472	24992
201	85.593937	108195840	74067968	38637096	24992
202	0.825223	108195840	74067968	39149112	24992
203	1.529764	108195840	74067968	40486856	24992
204	2.27489	108195840	74067968	42484000	24992
205	2.998185	108195840	74067968	45140552	24992
206	6.726507	108195840	74067968	31988232	24992
207	4.508902	108195840	74067968	35964104	24992
208	5.28628	108195840	74067968	40599376	24992
209	8.931043	108195840	74067968	29452896	24992
210	6.907726	108195840	74067968	35407952	24992
211	7.477373	108195840	74067968	42022400	24992
212	11.096328	108195840	74067968	32866704	24992
213	8.874585	108195840	74067968	40800264	24992
214	12.624718	108195840	74067968	32965904	24992
215	10.431218	108195840	74067968	42217992	24992
216	14.520651	108195840	74067968	35699688	24992
217	14.858802	108195840	74067968	29830080	24992
218	12.760622	108195840	74067968	41062216	24992
219	16.439052	108195840	74067968	36519176	24992
220	17.455495	108195840	74067968	32639520	24992
221	15.002912	108195840	74067968	45850248	24992
222	18.712135	108195840	74067968	43294432	24992
223	19.444821	108195840	74067968	41402000	24992
224	20.290152	108195840	74067968	40148736	24992
225	20.814985	108195840	74067968	39557160	24992
226	21.564926	108195840	74067968	39627168	24992
227	22.854303	108195840	74067968	40358688	24992
228	23.469806	108195840	74067968	41751504	24992
229	23.995157	108195840	74067968	43811400	24992
230	25.181633	108195840	74067968	46529760	24992
231	28.77307	108195840	74067968	33412256	24992
232	26.871789	108195840	74067968	37451912	24992
233	27.078544	108195840	74067968	42155880	24992
234	31.129083	108195840	74067968	31072832	24992
235	28.479677	108195840	74067968	37074176	24992
236	29.917545	108195840	74067968	43773056	24992
237	33.444503	108195840	74067968	34678024	24992
238	30.816851	108195840	74067968	42661008	24992
239	35.037594	108195840	74067968	34895456	24992
240	32.800655	108195840	74067968	44199880	24992
241	36.563272	108195840	74067968	37759416	24992
242	37.200748	108195840	74067968	31944328	24992
243	35.165872	108195840	74067968	43229872	24992
244	38.486089	108195840	74067968	38773848	24992
245	39.088416	108195840	74067968	34943608	24992
246	39.746192	108195840	74067968	31771816	24992
247	37.504159	108195840	74067968	45699520	24992
248	41.377612	108195840	74067968	43893896	24992
249	42.278118	108195840	74067968	42708344	24992
250	43.444079	108195840	74067968	42185192	24992
251	43.834875	108195840	74067968	42323616	24992
252	44.894359	108195840	74067968	43122024	24992
253	45.389844	108195840	74067968	44581224	24992
254	46.240677	108195840	74067968	46703000	24992
255	50.241054	108195840	74067968	32996928	24992
256	47.480489	108195840	74067968	36442184	24992
257	48.411799	108195840	74067968	40549512	24992
258	49.803757	108195840	74067968	45317752	24992
259	55.655281	108195840	74067968	34265648	24992
260	51.582667	108195840	74067968	40357384	24992
261	51.801686	108195840	74067968	47110424	24992
262	56.043852	108195840	74067968	38031944	24992
263	53.084158	108195840	74067968	46108400	24992
264	57.238585	108195840	74067968	38353016	24992
265	55.072726	108195840	74067968	47752600	24992
266	58.818632	108195840	74067968	41329056	24992
267	60.281555	108195840	74067968	35578912	24992
268	57.225617	108195840	74067968	46967528	24992
269	61.224572	108195840	74067968	42539064	24992
270	63.289571	108195840	74067968	38787136	24992
271	63.204433	108195840	74067968	35672728	24992
272	60.549296	108195840	74067968	49715024	24992
273	64.905287	108195840	74067968	47933200	24992
274	65.119634	108195840	74067968	46812448	24992
275	66.333028	108195840	74067968	46353352	24992
276	67.835438	108195840	74067968	46555840	24992
277	68.221419	108195840	74067968	47420160	24992
278	68.683801	108195840	74067968	48945904	24992
279	69.78464	108195840	74067968	51133480	24992
280	74.089726	108195840	74067968	37494736	24992
281	71.008644	108195840	74067968	41003856	24992
282	72.240798	108195840	74592256	45173984	24992
283	72.562224	108466176	74592256	50003224	24992
284	77.232819	108466176	74592256	38997792	24992
285	74.469367	108466176	74592256	45154640	24992
286	75.709256	108736512	75116544	51969184	24992
287	83.574893	106713088	73019392	25868864	24992
288	66.325237	106713088	73019392	17451192	24992
289	68.968114	106713088	73019392	26209344	24992
290	68.007617	106713088	73019392	19120792	24992
291	69.346932	106983424	73019392	12697184	24992
292	69.325075	106983424	73019392	23611464	24992
293	70.298373	106983424	73019392	18702656	24992
294	71.633345	106983424	73019392	14459696	24992
295	71.695923	106983424	73019392	27357376	24992
296	72.582526	106983424	73019392	24431256	24992
297	73.881908	106983424	73019392	22169152	24992
298	74.695463	106983424	73019392	20563792	24992
299	75.541966	106983424	73019392	19613720	24992
300	76.336519	106983424	73019392	19337208	24992
301	77.53007	106983424	73019392	19723752	24992
302	0.827105	106983424	73019392	20334840	24992
303	1.586877	106983424	73019392	21672592	24992
304	2.252055	106983424	73019392	23669736	24992
305	3.193735	106983424	73019392	26326288	24992
306	3.788259	106983424	73019392	29642864	24992
307	5.236851	106983424	73019392	17167888	24992
308	5.42391	106983424	73019392	21803160	24992
309	5.925247	106983424	73019392	27097840	24992
310	7.629932	106983424	73019392	16640648	24992
311	7.455707	106983424	73019392	23255128	24992
312	8.122204	106983424	73019392	30529104	24992
313	10.690384	106983424	73019392	22065200	24992
314	10.272505	106983424	73019392	30657864	24992
315	11.390305	106983424	73019392	23511936	24992
316	12.051591	106983424	73019392	16999216	24992
317	12.14381	106983424	73019392	27570088	24992
318	13.784286	106983424	73019392	22386240	24992
319	14.14167	106983424	73019392	17866848	24992
320	14.547957	106983424	73019392	30418184	24992
321	15.813018	106983424	73019392	27226216	24992
322	16.627016	106983424	73019392	24698392	24992
323	17.369801	106983424	73019392	22806160	24992
324	18.049303	106983424	73019392	21576464	24992
325	18.843805	106983424	73019392	21009408	24992
326	20.385032	106983424	73019392	21106336	24992
327	20.42636	106983424	73019392	21846232	24992
328	21.294786	106983424	73019392	23241120	24992
329	22.396313	106983424	73019392	25297472	24992
330	22.68633	106983424	73019392	28015360	24992
331	23.413002	106983424	73019392	31394344	24992
332	24.956829	106983424	73019392	18977504	24992
333	24.96944	106983424	73019392	23651480	24992
334	25.959725	106983424	73019392	29017648	24992
335	27.328303	106983424	73019392	18590624	24992
336	27.757609	106983424	73019392	25252536	24992
337	28.974661	106983424	73019392	16156760	24992
338	29.117087	106983424	73019392	24139696	24992
339	30.79939	106983424	73019392	16365168	24992
340	30.490496	106983424	73019392	25669096	24992
341	32.539909	106983424	73019392	19219512	24992
342	31.479483	106983424	73019392	29844704	24992
343	33.870123	106983424	73019392	24717760	24992
344	34.855138	106983424	73019392	20226024	24992
345	33.971266	106983424	73019392	32832800	24992
346	35.923496	106983424	73019392	29641328	24992
347	36.510294	106983424	73019392	27163960	24992
348	37.724108	106983424	73019392	25318544	24992
349	37.697514	106983424	73019392	24131264	24992
350	38.893007	106983424	73019392	23605408	24992
351	39.83383	106983424	73019392	23741944	24992
352	40.821502	106983424	73019392	24540448	24992
353	41.104756	106983424	73019392	26000640	24992
354	42.109439	106983424	73019392	28122544	24992
355	42.277002	106983424	73019392	30904920	24992
356	44.597346	106983424	73019392	17858736	24992
357	44.093888	106983424	73019392	21965504	24992
358	44.993034	106983424	73019392	26734528	24992
359	46.078354	106983424	73019392	32164824	24992
360	47.704318	106983424	73019392	21776496	24992
361	46.871594	106983424	73019392	28530128	24992
362	49.729084	106983424	73019392	19453488	24992
363	49.03361	106983424	73019392	27526424	24992
364	51.042933	106983424	73019392	19773864	24992
365	50.988781	106983424	73019392	29170328	24992
366	53.053613	106983424	73019392	22749048	24992
367	52.499436	106983424	73019392	33486192	24992
368	54.226834	106983424	73019392	28395472	24992
369	54.821193	106983424	73019392	23968920	24992
370	55.833524	106983424	73019392	20193024	24992
371	55.184008	106983424	73019392	33574120	24992
372	57.152699	106983424	73019392	31130136	24992
373	57.756426	106983424	73019392	29347992	24992
374	59.018166	106983424	73019392	28229456	24992
375	60.189964	106983424	73019392	27766456	24992
376	60.509112	106983424	73019392	27956568	24992
377	61.757968	106983424	73019392	28816424	24992
378	62.073374	106983424	73019392	30330328	24992
379	62.774984	106983424	73019392	32505552	24992
380	63.887235	106983424	73019392	35340584	24992
381	65.477355	106983424	73019392	22363448	24992
382	65.15966	106983424	73019392	26534760	24992
383	66.059713	106983424	73019392	31367904	24992
384	66.703953	106983424	73019392	36858552	24992
385	68.740218	106983424	73019392	26522256	24992
386	68.413057	106983424	73019392	33340624	24992
387	70.816754	106983424	73019392	24329496	24992
388	69.88196	106983424	73019392	32471840	24992
389	72.554301	106983424	73019392	24779344	24992
390	71.551515	106983424	73019392	34241240	24992
391	74.070989	106983424	73019392	27874720	24992
392	72.760332	106983424	73019392	38662872	24992
393	76.37824	106983424	73019392	33617352	24992
394	76.507341	106983424	73019392	29235592	24992
395	77.965766	106983424	73019392	25515464	24992
396	76.655935	106983424	73019392	38943792	24992
397	79.909893	106983424	73019392	36546656	24992
398	80.01675	106983424	73019392	34813608	24992
399	80.981649	106983424	73019392	33740336	24992
400	81.482182	106983424	73019392	33325864	24992
401	83.55387	106983424	73019392	33567024	24992
402	0.826556	106983424	73019392	34078968	24992
403	1.532711	106983424	73019392	35416720	24992
404	2.264711	106983424	73019392	37413864	24992
405	2.974203	106983424	73019392	40070448	24992
406	5.878446	106983424	73019392	26921232	24992
407	4.670495	106983424	73019392	30897104	24992
408	5.177681	106983424	73019392	35532376	24992
409	8.096754	106983424	73019392	24390840	24992
410	6.90084	106983424	73019392	30345888	24992
411	7.594845	106983424	73019392	36960336	24992
412	10.28082	106983424	73019392	27808536	24992
413	8.855062	106983424	73019392	35741792	24992
414	11.966357	106983424	73019392	27910752	24992
415	10.824529	106983424	73019392	37162824	24992
416	13.224861	106983424	73019392	30647112	24992
417	14.15539	106983424	73019392	24779416	24992
418	12.782972	106983424	73019392	36011656	24992
419	15.827673	106983424	73019392	31470560	24992
420	16.421475	106983424	73019392	27592872	24992
421	14.758397	106983424	73019392	40803584	24992
422	18.054985	106983424	73019392	38226352	24992
423	18.86189	106983424	73019392	36335808	24992
424	19.492414	106983424	73019392	35104888	24992
425	20.260759	106983424	73019392	34514424	24992
426	21.456778	106983424	73019392	34585736	24992
427	21.540473	106983424	73019392	35318624	24992
428	22.468062	106983424	73019392	36712728	24992
429	23.751794	106983424	73019392	38768216	24992
430	26.297147	106983424	73019392	25026112	24992
431	24.921691	106983424	73019392	28375992	24992
432	26.149716	106983424	73019392	32417608	24992
433	26.253222	106983424	73019392	37122696	24992
434	29.649314	106983424	73019392	26040568	24992
435	27.854459	106983424	73019392	32042232	24992
436	28.965586	106983424	73019392	38741752	24992
437	31.812456	106983424	73019392	29647568	24992
438	30.537477	106983424	73019392	37632000	24992
439	32.955518	106983424	73019392	29867464	24992
440	31.786675	106983424	73019392	39171936	24992
441	34.591204	106983424	73019392	32732600	24992
442	35.972922	106983424	73019392	26918160	24992
443	33.707234	106983424	73019392	38204056	24992
444	37.268501	106983424	73019392	33748944	24992
445	38.119539	106983424	73019392	29919424	24992
446	38.791788	106983424	73019392	26748352	24992
447	37.781498	106983424	73019392	40676328	24992
448	41.189705	106983424	73019392	38880568	24992
449	40.609379	106983424	73019392	37695656	24992
450	42.279084	106983424	73019392	37182392	24992
451	42.59988	106983424	73019392	37321136	24992
452	43.439416	106983424	73019392	38120024	24992
453	43.69751	106983424	73019392	39580632	24992
454	44.660472	106983424	73019392	41704552	24992
455	47.795728	106983424	73019392	27998304	24992
456	46.08816	106983424	73019392	31443928	24992
457	47.532256	106983424	73019392	35551480	24992
458	47.628835	106983424	73019392	40320104	24992
459	52.700625	106983424	73019392	29265408	24992
460	49.118355	106983424	73019392	35357144	24992
461	49.75078	106983424	73019392	42110264	24992
462	53.273505	106983424	73019392	33031752	24992
463	51.251805	106983424	73019392	41107824	24992
464	54.627258	106983424	73019392	33352456	24992
465	52.641214	106983424	73019392	42752136	24992
466	56.118945	107253760	73019392	36328016	24992
467	57.26753	107253760	73019392	30577952	24992
468	55.285181	107253760	73019392	41966824	24992
469	59.015531	107253760	73019392	37537992	24992
470	59.680468	107253760	73019392	33773048	24992
471	61.0684	107253760	73019392	30658160	24992
472	58.12426	107253760	73019392	44700536	24992
473	62.050322	107253760	73019392	42918440	24992
474	62.705394	107253760	73019392	41797768	24992
475	63.924138	107253760	73019392	41338672	24992
476	64.703895	107253760	73019392	41542024	24992
477	64.992543	107253760	73019392	42406040	24992
478	65.500288	107253760	73019392	43931640	24992
479	66.562489	107253760	73019392	46119072	24992
480	70.215702	107253760	73019392	32477448	24992
481	68.186093	107253760	73019392	35986552	24992
482	69.319458	107253760	73019392	40156712	24992
483	70.255251	107253760	73019392	44985936	24992
484	74.042841	107253760	73019392	33979576	24992
485	71.398841	107253760	73019392	40136568	24992
486	72.087995	107253760	73019392	46950968	24992
487	75.703866	107253760	73019392	37926736	24992
488	73.913969	107253760	73019392	46064264	24992
489	77.845701	107253760	73019392	38366024	24992
490	75.33524	107253760	73019392	47826808	24992
491	79.619933	107253760	73019392	41450304	24992
492	81.135947	107253760	73019392	35739352	24992
493	77.800838	107253760	73019392	47181896	24992
494	82.206146	107253760	73019392	42800024	24992
495	83.096603	107253760	73019392	39076528	24992
496	83.547528	107253760	73019392	36008320	24992
497	84.869824	107253760	73019392	33609824	24992
498	81.597013	107253760	73019392	48361592	24992
499	86.168597	107253760	73019392	47286608	24992
500	86.731666	107253760	73019392	46874312	24992
501	87.574501	107253760	73019392	47124136	24992
502	0.818523	107253760	73019392	47648464	24992
503	1.527847	107253760	73019392	48986216	24992
504	5.721427	107253760	73019392	34509664	24992
505	2.98914	107253760	73019392	37166216	24992
506	3.763245	107253760	73019392	40482696	24992
507	4.497484	107253760	73019392	44458568	24992
508	5.264458	107253760	73019392	49093840	24992
509	9.617526	107253760	73019392	37947272	24992
510	6.695264	107253760	73019392	43902328	24992
511	10.881939	107253760	73019392	34087320	24992
512	8.145193	107253760	73019392	41361168	24992
513	8.886004	107253760	73019392	49294424	24992
514	13.106818	107253760	73019392	41459200	24992
515	13.966281	107253760	73019392	34277712	24992
516	11.300131	107253760	73019392	44189176	24992
517	15.556885	107253760	73019392	38319320	24992
518	12.898865	107253760	73019392	49551480	24992
519	17.184821	107253760	73019392	45025112	24992
520	17.512201	107253760	73019392	41145072	24992
521	18.684362	107253760	73019392	37907320	24992
522	19.319145	107253760	73019392	35332032	24992
523	16.449279	107253760	73019392	49861656	24992
524	20.744153	107253760	73019392	48631032	24992
525	21.407898	107253760	73019392	48063752	24992
526	22.461642	107253760	73019392	48133072	24992
527	23.59604	107253760	73019392	48864000	24992
528	24.182193	107253760	73019392	50256352	24992
529	28.16686	107253760	73019392	35843424	24992
530	25.667767	107253760	73019392	38533944	24992
531	26.347586	107253760	73019392	41912704	24992
532	27.485192	107253760	73019392	45951984	24992
533	28.518016	107253760	73019392	50655304	24992
534	32.007409	107253760	73019392	39550672	24992
535	29.562897	107253760	73019392	45569504	24992
536	33.458572	107253760	73019392	35813928	24992
537	31.31981	107253760	73019392	43136288	24992
538	31.381663	107253760	73019392	51154616	24992
539	36.099335	107253760	73019392	43340240	24992
540	36.349341	107253760	73019392	36235424	24992
541	33.467087	107253760	73019392	46199960	24992
542	38.261116	107253760	73019392	40419520	24992
543	38.657735	107253760	73019392	35264456	24992
544	35.782672	107253760	73019392	47210496	24992
545	39.900493	107253760	73019392	43417040	24992
546	41.158522	107253760	73019392	40248560	24992
547	41.80299	107253760	73019392	37738072	24992
548	42.791258	107253760	73019392	35889360	24992
549	39.580243	107253760	73019392	51138120	24992
550	44.302682	107253760	73019392	50657104	24992
551	44.426744	107253760	73019392	50795640	24992
552	45.617004	107253760	73019392	51596112	24992
553	50.187313	107253760	73019392	36567312	24992
554	47.212338	107253760	73019392	38689232	24992
555	47.895453	107253760	73019392	41472984	24992
556	51.904044	107253760	73019392	44938640	24992
557	49.997051	107253760	73019392	49045328	24992
558	54.593141	107253760	73019392	37321720	24992
559	54.487463	107253760	73019392	25099728	24992
560	45.205266	107253760	73019392	14655048	24992
561	45.484224	107253760	73019392	21364096	24992
562	46.911197	107253760	74067968	12242488	24992
563	46.811636	107253760	75116544	20269448	24992
564	48.178793	107253760	76689408	12469576	24992
565	48.476193	107524096	77737984	21818624	24992
566	48.939427	107524096	79310848	15348504	24992
567	50.136938	107524096	80359424	26027000	24992
568	51.811391	107794432	81932288	20887176	24992
569	52.205929	107794432	83505152	16410288	24992
570	52.027589	107794432	85078016	12583784	24992
571	52.934934	108064768	86126592	25912984	24992
572	53.721149	108064768	87699456	23416776	24992
573	54.44982	108064768	89272320	21582352	24992
574	55.637624	108335104	90845184	20402768	24992
575	55.83813	108335104	92418048	19876720	24992
576	58.612358	108605440	93990912	20013312	24992
577	57.509556	108605440	95563776	20814448	24992
578	58.424908	108605440	97136640	22274752	24992
579	59.305351	108875776	98709504	24392432	24992
580	59.738699	108875776	100282368	27169952	24992
581	60.559821	108875776	102379520	14126944	24992
582	61.250921	109146112	103952384	18238264	24992
583	61.750797	109146112	105525248	23011176	24992
584	63.219518	109146112	105525248	28443200	24992
585	63.189479	109416448	105525248	18037928	24992
586	66.51718	109416448	105525248	24804064	24992
587	65.706001	109416448	105525248	15788752	24992
588	66.06409	109686784	105525248	23926824	24992
589	67.181874	109686784	105525248	16231344	24992
590	67.515857	109957120	105525248	25689128	24992
591	68.143569	109957120	105525248	19319336	24992
592	69.036537	110227456	105525248	30104048	24992
593	69.814729	110497792	105525248	25059640	24992
594	71.008357	110497792	105525248	20672240	24992
595	71.81409	110497792	105525248	16949632	24992
596	72.738265	110768128	105525248	30376848	24992
597	73.309034	110768128	105525248	27979880	24992
598	74.253951	111038464	105525248	26245016	24992
599	75.204513	111038464	105525248	25165960	24992
600	76.037113	111308800	105525248	24741384	24992
601	76.941101	111308800	105525248	24978320	24992
602	0.824568	111579136	105525248	25490472	24992
603	1.533494	111579136	105525248	26828224	24992
604	2.270405	111579136	105525248	28825416	24992
605	2.975294	111579136	105525248	31482032	24992
606	4.487906	111579136	105525248	18333408	24992
607	4.508919	111579136	105525248	22309280	24992
608	5.217232	111579136	105525248	26944552	24992
609	6.235254	111579136	105525248	32239232	24992
610	7.405896	111579136	105525248	21769648	24992
611	7.608005	111579136	105525248	28384096	24992
612	8.872142	111579136	105525248	19232344	24992
613	8.863382	111579136	105525248	27165600	24992
614	10.638355	111579136	105525248	19323056	24992
615	10.592221	111579136	105525248	28575128	24992
616	11.923668	111849472	105525248	22059416	24992
617	12.207828	111849472	105525248	32630288	24992
618	13.549879	111849472	105525248	27443560	24992
619	14.096738	111849472	105525248	22902928	24992
620	15.237314	111849472	105525248	19005544	24992
621	15.378938	111849472	105525248	32218792	24992
622	16.690632	111849472	105525248	29665592	24992
623	17.270352	111849472	105525248	27775288	24992
624	17.958785	111849472	105525248	26523568	24992
625	19.03183	111849472	105525248	25933296	24992
626	19.89501	112119808	105525248	26004544	24992
627	20.037166	112119808	105525248	26737336	24992
628	21.518612	112119808	105525248	28131728	24992
629	22.314881	112119808	105525248	30187440	24992
630	22.557615	112119808	105525248	32904384	24992
631	24.389736	112119808	105525248	19824912	24992
632	24.225628	112119808	105525248	23835384	24992
633	25.132752	112119808	105525248	28540512	24992
634	25.74859	112390144	105525248	33905856	24992
635	27.106873	112390144	105525248	23478432	24992
636	27.280125	112390144	105525248	30140152	24992
637	28.666522	112390144	105525248	21042536	24992
638	28.709864	112390144	105525248	29025568	24992
639	30.209932	112390144	105525248	21254624	24992
640	31.606386	112390144	105525248	30567168	24992
641	31.745509	112660480	105525248	24115776	24992
642	32.008565	112660480	105525248	34740264	24992
643	33.192792	112660480	105525248	29592800	24992
644	35.375429	112930816	105525248	25122800	24992
645	35.058688	112930816	105525248	21289392	24992
646	34.669267	112930816	105525248	34556984	24992
647	36.971475	112930816	105525248	32088984	24992
648	36.860392	113201152	105525248	30242400	24992
649	38.035917	113201152	105525248	29058336	24992
650	38.668815	113201152	105525248	28535216	24992
651	39.273212	113201152	105525248	28672552	24992
652	39.853676	113471488	105525248	29471872	24992
653	40.520379	113471488	105525248	30932768	24992
654	41.650937	113471488	105525248	33054160	24992
655	42.133517	113471488	105525248	35838264	24992
656	44.226472	113741824	105525248	22794144	24992
657	44.835728	113741824	105525248	26901920	24992
658	44.911599	113741824	105525248	31670688	24992
659	47.017134	113741824	105525248	20608056	24992
660	46.391334	114012160	105525248	26700560	24992
661	47.043993	114012160	105525248	33454256	24992
662	48.979976	114012160	105525248	24376384	24992
663	48.783405	114012160	105525248	32453856	24992
664	50.306886	114282496	105525248	24699488	24992
665	50.378882	114282496	105525248	34100528	24992
666	52.002502	114282496	105525248	27677160	24992
667	52.890988	114552832	105525248	21929352	24992
668	53.463391	114552832	105525248	33322264	24992
669	55.128146	114552832	105525248	28894088	24992
670	55.306337	114823168	105525248	25129336	24992
671	56.142582	114823168	105525248	22015840	24992
672	55.464073	115093504	105525248	36058664	24992
673	57.420259	115093504	105525248	34276984	24992
674	58.335848	115093504	105525248	33156808	24992
675	59.222402	115363840	105525248	32698240	24992
676	60.256828	115363840	105525248	32902152	24992
677	61.02378	115634176	105525248	33760480	24992
678	62.319564	115634176	105525248	35279592	24992
679	62.376983	115634176	105525248	37467536	24992
680	64.814607	115904512	105525248	23828776	24992
681	63.959642	115904512	105525248	27338456	24992
682	64.938983	116174848	105525248	31509992	24992
683	65.380329	116174848	105525248	36339888	24992
684	68.164385	116174848	105525248	25334960	24992
685	68.058043	116445184	105525248	31496040	24992
686	69.037559	116445184	105525248	38311352	24992
687	70.41348	116715520	105525248	29291248	24992
688	69.611713	116715520	105525248	37432792	24992
689	72.414339	116985856	105525248	29743016	24992
690	71.494349	116985856	105525248	39207832	24992
691	74.023487	117256192	105525248	32840688	24992
692	75.550846	117256192	105525248	27139248	24992
693	74.646121	117526528	105525248	38582368	24992
694	77.071822	117526528	105525248	34210000	24992
695	77.487482	117796864	105525248	30485352	24992
696	78.216155	117796864	105525248	27424512	24992
697	77.13091	118067200	105525248	41514176	24992
698	82.10288	118067200	105525248	39788232	24992
699	80.329021	118337536	105525248	38714416	24992
700	81.474163	118337536	105525248	38302008	24992
701	81.669786	118337536	105525248	38551336	24992
702	0.86249	118607872	105525248	39076992	24992
703	1.552175	118607872	105525248	40414728	24992
704	2.296939	118607872	105525248	42411856	24992
705	4.984701	118607872	105525248	28599944	24992
706	3.966227	118607872	105525248	31916408	24992
707	4.542133	118607872	105525248	35892264	24992
708	5.438699	118607872	105525248	40527616	24992
709	8.073343	118607872	105525248	29380968	24992
710	6.923578	118607872	105525248	35336008	24992
711	7.431797	118607872	105525248	41950440	24992
712	10.501828	118607872	105525248	32801584	24992
713	9.100158	118607872	105525248	40734824	24992
714	11.72758	118607872	105525248	32900224	24992
715	10.886413	118607872	105525248	42152280	24992
716	13.380224	118607872	105525248	35633736	24992
717	14.194359	118607872	105525248	29764072	24992
718	12.762756	118607872	105525248	40996200	24992
719	16.246035	118607872	105525248	36452952	24992
720	16.471949	118878208	105525248	32573312	24992
721	17.315288	118878208	105525248	29336008	24992
722	15.883754	118878208	105525248	43206224	24992
723	18.662186	118878208	105525248	41299576	24992
724	19.10325	118878208	105525248	40070008	24992
725	19.922686	118878208	105525248	39491448	24992
726	20.577617	118878208	105525248	39561184	24992
727	21.56529	118878208	105525248	40292208	24992
728	22.204229	118878208	105525248	41684704	24992
729	25.295969	119148544	105525248	27277952	24992
730	23.726398	119148544	105525248	29966664	24992
731	24.549959	119148544	105525248	33345504	24992
732	25.209953	119148544	105525248	37384688	24992
733	25.893653	119148544	105525248	42088408	24992
734	29.091158	119148544	105525248	31005200	24992
735	27.473736	119148544	105525248	37006640	24992
736	28.278753	119148544	105525248	43705536	24992
737	31.15274	119418880	105525248	34595240	24992
738	29.911845	119418880	105525248	42586848	24992
739	32.778047	119418880	105525248	34817424	24992
740	31.345465	119418880	105525248	44120824	24992
741	34.530426	119418880	105525248	37648552	24992
742	35.556572	119689216	105525248	31852552	24992
743	33.934702	119689216	105525248	43138240	24992
744	36.943542	119689216	105525248	38682056	24992
745	37.828071	119689216	105525248	34851848	24992
746	38.081874	119689216	105525248	31679464	24992
747	39.248675	119959552	105525248	29169328	24992
748	37.737214	119959552	105525248	43757528	24992
749	41.010272	119959552	105525248	42614248	24992
750	41.531287	119959552	105525248	42090200	24992
751	42.461498	119959552	105525248	42228528	24992
752	43.112256	120229888	105525248	43028968	24992
753	43.820974	120229888	105525248	44491000	24992
754	46.915889	120229888	105525248	30122696	24992
755	45.257116	120229888	105525248	32906304	24992
756	45.860057	120500224	105525248	36351784	24992
757	46.877447	120500224	105525248	40458344	24992
758	47.309623	120500224	105525248	45225784	24992
759	50.064603	120500224	105525248	34164800	24992
760	48.92631	120770560	105525248	40256936	24992
761	51.989028	120770560	105525248	30518472	24992
762	50.497216	120770560	105525248	37929720	24992
763	50.925098	121040896	105525248	46006096	24992
764	54.731305	121040896	105525248	38248152	24992
765	55.116443	121040896	105525248	31156664	24992
766	53.461513	121040896	105525248	41222736	24992
767	56.684787	121311232	105525248	35471584	24992
768	55.101444	121311232	105525248	46867280	24992
769	59.171834	121311232	105525248	42435136	24992
770	59.098937	121581568	105525248	38667984	24992
771	60.69444	121581568	105525248	35564232	24992
772	61.434773	121851904	105525248	33111312	24992
773	61.804962	121851904	105525248	31327616	24992
774	60.10891	121851904	105525248	46692960	24992
775	63.197189	122122240	105525248	46233224	24992
776	63.723863	122122240	105525248	46435776	24992
777	65.028002	122122240	105525248	47299296	24992
778	68.42697	122392576	105525248	32337088	24992
779	66.410175	122392576	105525248	34522744	24992
780	69.198524	122662912	105525248	37370320	24992
781	68.582957	122662912	105525248	40878928	24992
782	68.829716	122662912	105525248	45045888	24992
783	72.351878	122933248	105525248	33378216	24992
784	70.459906	122933248	105525248	38873136	24992
785	70.865099	123203584	105525248	45029456	24992
786	74.883594	123203584	105525248	35354128	24992
787	75.594043	123203584	105525248	42836840	24992
788	76.801474	123473920	105525248	34479328	24992
789	74.815566	123473920	105525248	43275248	24992
790	77.988284	123744256	105525248	36241264	24992
791	76.018759	124014592	105525248	46360472	24992
792	79.785987	124014592	105525248	40655008	24992
793	81.476657	124284928	105525248	35610952	24992
794	79.04151	124284928	105525248	47714776	24992
795	82.39271	124555264	105525248	43994096	24992
796	83.095209	124555264	105525248	40929480	24992
797	83.797228	124825600	105525248	38524992	24992
798	85.346143	124825600	105525248	36789080	24992
799	86.738788	125095936	105525248	35713696	24992
800	83.786101	125095936	105525248	51787480	24992
801	87.650909	125095936	105525248	52034248	24992
802	4.132071	125366272	105525248	36075464	24992
803	1.561201	125366272	105525248	37413192	24992
804	2.260917	125366272	105525248	39410320	24992
805	3.053688	125366272	105525248	42066920	24992
806	3.778054	125366272	105525248	45383384	24992
807	4.48549	125366272	105525248	49359240	24992
808	8.954596	125366272	105525248	37543272	24992
809	6.033373	125366272	105525248	42837936	24992
810	7.131303	125366272	105525248	48792976	24992
811	10.760596	125366272	105525248	38986264	24992
812	8.13748	125366272	105525248	46260112	24992
813	12.732915	125366272	105525248	37761496	24992
814	9.643991	125366272	105525248	46354144	24992
815	14.019087	125366272	105525248	39172648	24992
816	11.071859	125366272	105525248	49084096	24992
817	15.509577	125366272	105525248	43229320	24992
818	16.355347	125366272	105525248	38024152	24992
819	13.482861	125366272	105525248	49915704	24992
820	17.930988	125366272	105525248	46035368	24992
821	18.440577	125636608	105525248	42818296	24992
822	19.508222	125636608	105525248	40242112	24992
823	20.549865	125636608	105525248	38328496	24992
824	20.929845	125636608	105525248	37076240	24992
825	21.901611	125636608	105525248	36486512	24992
826	23.495431	125636608	105525248	36559064	24992
827	23.838463	125636608	105525248	37293168	24992
828	31.361219	109453312	76689408	21798624	24992
829	21.521116	109453312	76689408	23816592	24992
830	22.05762	109453312	76689408	26501184	24992
831	23.762039	109453312	76689408	13376384	24992
832	24.041576	109453312	76689408	17376712	24992
833	24.639241	109453312	76689408	22046232	24992
834	26.138318	109453312	76689408	27394840	24992
835	26.337392	109453312	76689408	16922368	24992
836	26.822035	109453312	76689408	23572776	24992
837	27.651808	109453312	76689408	14427552	24992
838	28.173981	109453312	76689408	22398792	24992
839	29.162873	109453312	76689408	14577968	24992
840	30.319708	109453312	76689408	23869672	24992
841	31.146182	109453312	76689408	17365600	24992
842	31.266237	109453312	76689408	27977672	24992
843	32.39112	109453312	76689408	22789856	24992
844	33.043884	109453312	76689408	18268640	24992
845	33.916233	109453312	76689408	14404296	24992
846	35.235994	109453312	76689408	27660952	24992
847	35.332488	109453312	76689408	25120416	24992
848	36.252985	109453312	76689408	23237936	24992
849	36.695731	109453312	76689408	22018024	24992
850	37.946267	109453312	76689408	21486712	24992
851	38.2316	109453312	76689408	21585976	24992
852	39.142459	109453312	76689408	22346632	24992
853	39.514214	109453312	76689408	23768224	24992
854	40.401618	109453312	76689408	25849416	24992
855	40.622637	109453312	76689408	28592552	24992
856	41.94248	109453312	76689408	15508632	24992
857	42.772474	109453312	76689408	19574064	24992
858	42.964594	109453312	76689408	24299800	24992
859	43.628845	109453312	76689408	29685928	24992
860	45.299922	109453312	76689408	19240824	24992
861	45.220226	109453312	76689408	25949296	24992
862	46.198434	109453312	76689408	16825752	24992
863	47.197605	109453312	76689408	24856616	24992
864	47.874621	109453312	76689408	17055632	24992
865	48.021342	109453312	76689408	26407008	24992
866	49.797382	109453312	76689408	19936552	24992
867	50.188362	109453312	76689408	14141168	24992
868	51.592284	109453312	76689408	25497232	24992
869	51.036011	109453312	76689408	21068584	24992
870	52.571449	109453312	76689408	17305328	24992
871	52.933024	109453312	76689408	30682664	24992
872	54.38229	109453312	76689408	28236680	24992
873	54.942451	109453312	76689408	26454496	24992
874	55.554323	109453312	76689408	25333928	24992
875	56.7059	109453312	76689408	24876776	24992
876	57.329597	109453312	76689408	25066888	24992
877	58.699282	109453312	76689408	25918592	24992
878	59.529551	109723648	76689408	27430792	24992
879	59.496802	109723648	76689408	29611104	24992
880	60.610596	109723648	76689408	15972400	24992
881	61.57849	109993984	76689408	19481592	24992
882	61.594895	109993984	76689408	23652640	24992
883	63.059962	109993984	76689408	28482000	24992
884	64.564665	109993984	76689408	17476480	24992
885	64.512744	109993984	76689408	23633176	24992
886	64.627326	109993984	76689408	30447696	24992
887	66.548034	109993984	76689408	21427136	24992
888	66.406459	109993984	76689408	29569240	24992
889	67.876102	109993984	76689408	21878864	24992
890	67.912327	109993984	76689408	31343720	24992
891	70.070435	109993984	76689408	24979120	24992
892	72.324874	109993984	76689408	19268320	24992
893	71.08561	109993984	76689408	30710888	24992
894	72.329507	109993984	76689408	26328688	24992
895	72.923269	109993984	76689408	22603008	24992
896	74.358656	109993984	76689408	19550616	24992
897	74.936047	109993984	76689408	33648608	24992
898	75.987858	109993984	76689408	31914824	24992
899	76.654903	109993984	76689408	30841488	24992
900	77.037506	109993984	76689408	30429784	24992
901	78.627596	109993984	76689408	30679656	24992
902	0.839673	109993984	76689408	31204240	24992
903	1.533337	109993984	76689408	32541976	24992
904	2.376465	109993984	76689408	34539104	24992
905	4.015347	109993984	76689408	20730232	24992
906	4.016132	109993984	76689408	24046696	24992
907	4.645602	109993984	76689408	28022552	24992
908	5.222041	109993984	76689408	32657824	24992
909	6.952299	109993984	76689408	21516296	24992
910	6.711217	109993984	76689408	27471336	24992
911	7.396877	109993984	76689408	34085800	24992
912	9.231364	109993984	76689408	24941424	24992
913	9.127049	109993984	76689408	32874680	24992
914	10.934752	109993984	76689408	25043432	24992
915	10.336856	109993984	76689408	34295616	24992
916	12.146481	109993984	76689408	27779664	24992
917	13.291875	109993984	76689408	21911952	24992
918	12.583729	109993984	76689408	33144096	24992
919	14.86729	109993984	76689408	28602872	24992
920	15.44448	109993984	76689408	24725168	24992
921	16.235631	109993984	76689408	21489696	24992
922	15.701757	109993984	76689408	35359800	24992
923	17.510975	109993984	76689408	33468504	24992
924	18.513333	109993984	76689408	32240528	24992
925	18.952704	109993984	76689408	31649776	24992
926	20.381366	109993984	76689408	31720624	24992
927	20.507818	109993984	76689408	32452968	24992
928	21.216364	109993984	76689408	33846848	24992
929	21.993948	109993984	76689408	35902032	24992
930	24.151576	109993984	76689408	22159208	24992
931	23.615592	109993984	76689408	25509104	24992
932	25.050971	109993984	76689408	29550400	24992
933	25.059699	109993984	76689408	34255504	24992
934	27.354535	109993984	76689408	23173152	24992
935	27.011775	109993984	76689408	29174832	24992
936	27.589858	109993984	76689408	35874496	24992
937	29.623229	109993984	76689408	26779656	24992
938	29.176248	109993984	76689408	34762208	24992
939	31.098916	109993984	76689408	26997536	24992
940	30.605239	109993984	76689408	36301128	24992
941	33.007281	109993984	76689408	29861032	24992
942	33.157185	109993984	76689408	24046728	24992
943	33.127829	109993984	76689408	35332936	24992
944	35.126283	109993984	76689408	30877656	24992
945	35.231785	109993984	76689408	27048312	24992
946	36.067361	109993984	76689408	23876520	24992
947	36.680338	109993984	76689408	21366880	24992
948	36.533897	109993984	76689408	35955608	24992
949	38.51966	110264320	76689408	34813496	24992
950	38.881124	110264320	76689408	34290296	24992
951	40.157467	110264320	76689408	34429296	24992
952	40.45435	110264320	76689408	35230264	24992
953	41.072529	110264320	76689408	36692792	24992
954	43.481044	110264320	76689408	22325736	24992
955	43.016095	110264320	76689408	25109936	24992
956	44.18566	110264320	76689408	28556088	24992
957	45.186172	110264320	76689408	32663656	24992
958	45.587507	110264320	76689408	37432520	24992
959	47.352903	110264320	76689408	26369280	24992
960	46.742099	110264320	76689408	32462024	24992
961	48.736219	110264320	76689408	22724520	24992
962	49.050455	110264320	76689408	30136344	24992
963	48.88239	110264320	76689408	38213472	24992
964	51.358431	110264320	76689408	30458376	24992
965	52.766769	110264320	76689408	23367672	24992
966	53.241459	110534656	76689408	33434032	24992
967	54.453215	110534656	76689408	27684608	24992
968	53.068804	110534656	76689408	39074104	24992
969	55.380085	110534656	76689408	34646488	24992
970	55.862077	110534656	76689408	30880792	24992
971	56.766621	110534656	77213696	27770344	24992
972	57.85478	110534656	77213696	25318512	24992
973	56.742331	110804992	77213696	40022992	24992
974	59.27723	110804992	77213696	38902400	24992
975	61.868635	110804992	77213696	38443912	24992
976	62.112674	111075328	77737984	38655912	24992
977	62.761129	111075328	77737984	39529912	24992
978	63.031252	111345664	77737984	41055416	24992
979	65.11297	111345664	77737984	26752912	24992
980	64.239907	111345664	77737984	29601640	24992
981	64.903622	111345664	77737984	33110888	24992
982	66.748562	111345664	77737984	37285960	24992
983	68.123787	111345664	77737984	25618304	24992
984	67.649848	111345664	77737984	31113112	24992
985	68.654298	111345664	77737984	37269192	24992
986	70.777872	111345664	77737984	27593912	24992
987	70.272419	111345664	77737984	35073824	24992
988	72.402884	111345664	77737984	26716552	24992
989	71.541289	111345664	77737984	35512232	24992
990	74.408941	111345664	77737984	28478120	24992
991	72.971066	111345664	77737984	38597648	24992
992	75.715363	111345664	77737984	32892184	24992
993	76.279455	111345664	77737984	27853784	24992
994	75.283805	111345664	77737984	39957464	24992
995	78.390749	111345664	77737984	36236560	24992
996	79.721477	111345664	77737984	33172184	24992
997	80.043952	111345664	77737984	30772904	24992
998	80.566674	111345664	77737984	29036896	24992
999	79.279155	111345664	77737984	44449208	24992
1000	82.882294	111345664	77737984	44034416	24992
