x	Duration	RSS	HeapTotal	HeapUsed	External
0	NA	108744704	69349376	11159712	24992
1	0.931043	108744704	69349376	11839800	24992
2	1.548741	108744704	69349376	13178144	24992
3	2.277834	108744704	69349376	15175904	24992
4	3.038035	108744704	69349376	17833136	24992
5	3.773603	108744704	69349376	21150488	24992
6	4.55345	108744704	69349376	25127328	24992
7	5.68202	108744704	69349376	13297840	24992
8	6.026572	108744704	69349376	18593776	24992
9	6.66066	108744704	69349376	24550216	24992
10	7.68928	108744704	69349376	14707056	24992
11	9.256811	108744704	69349376	21991856	24992
12	9.16438	108744704	69349376	13459560	24992
13	9.826864	108744704	69349376	22054184	24992
14	10.730456	108744704	69349376	14840312	24992
15	11.393389	108744704	69349376	24754088	24992
16	12.08226	108744704	69349376	18861992	24992
17	12.851725	108744704	69349376	13628128	24992
18	13.657864	108744704	69349376	25522472	24992
19	15.723087	108744704	69349376	21626216	24992
20	15.234183	108744704	69349376	18375864	24992
21	16.115145	108744704	69349376	15779376	24992
22	16.817418	108744704	69349376	13844320	24992
23	18.121004	108744704	69349376	12574968	24992
24	18.133292	108744704	69349376	11960960	24992
25	18.869494	108744704	69349376	12007504	24992
26	19.987139	108744704	69349376	12714616	24992
27	20.478947	108744704	69349376	14082264	24992
28	21.265133	108744704	69349376	16110448	24992
29	21.784752	108744704	69349376	18799192	24992
30	23.645017	108744704	69349376	22155576	24992
31	23.547903	108744704	69349376	26164360	24992
32	24.723729	108744704	69349376	14369176	24992
33	25.505927	108744704	69349376	19704472	24992
34	25.934087	108744704	69349376	25700904	24992
35	26.93485	108744704	69349376	15890752	24992
36	27.182515	108744704	69349376	23204056	24992
37	28.420606	108744704	69349376	14721640	24992
38	28.73339	108744704	69349376	23353744	24992
39	30.145034	108744704	69349376	16194200	24992
40	30.33871	108744704	69349376	26146976	24992
41	31.318603	108744704	69349376	20308776	24992
42	31.883108	108744704	69349376	15127112	24992
43	32.132058	108744704	69349376	27060600	24992
44	33.293066	108744704	69349376	23202120	24992
45	33.853266	108744704	69349376	20005200	24992
46	34.639222	108744704	69349376	17463776	24992
47	35.546447	108744704	69349376	15583568	24992
48	36.397763	108744704	69349376	14364536	24992
49	36.98716	108744704	69349376	13806416	24992
50	37.869847	108744704	69349376	13909920	24992
51	38.087322	108744704	69349376	14674816	24992
52	40.085055	108744704	69349376	16100968	24992
53	40.206614	108744704	69349376	18187952	24992
54	40.246572	108744704	69349376	20935856	24992
55	41.394483	108744704	69349376	24344432	24992
56	42.214026	108744704	69349376	28412544	24992
57	42.882165	108744704	69349376	16649936	24992
58	43.550938	108744704	69349376	22039520	24992
59	44.720101	108744704	69349376	28089312	24992
60	45.204987	108744704	69349376	18307176	24992
61	47.397467	108744704	69349376	25688784	24992
62	46.748749	109015040	69349376	17274240	24992
63	48.010708	109015040	69349376	26012352	24992
64	48.774767	109015040	69349376	18918776	24992
65	48.548671	109015040	69349376	28988168	24992
66	49.50261	109015040	69349376	23235248	24992
67	50.855458	109015040	69349376	18146512	24992
68	51.328895	109015040	69349376	30196536	24992
69	52.499621	109015040	69349376	26430000	24992
70	52.575322	109015040	69349376	23324080	24992
71	53.949985	109015040	69349376	20881712	24992
72	55.140023	109015040	69349376	19089928	24992
73	56.864643	109015040	69349376	17967536	24992
74	56.397966	109015040	69349376	17506704	24992
75	56.636763	109015040	69349376	17707472	24992
76	57.52399	109285376	69349376	18569816	24992
77	58.422809	109285376	69349376	20094032	24992
78	59.228682	109285376	69349376	22279472	24992
79	59.657935	109285376	69349376	25124352	24992
80	60.551373	109285376	69349376	28625984	24992
81	62.555136	109285376	69349376	32785792	24992
82	63.541609	109285376	69349376	21131256	24992
83	63.566094	109285376	69349376	26625704	24992
84	64.422376	109285376	69349376	32781456	24992
85	65.07877	109285376	69349376	23098752	24992
86	65.876893	109285376	69349376	30580224	24992
87	66.499817	109285376	69349376	22227600	24992
88	67.160054	109285376	69349376	31029704	24992
89	70.476033	109285376	69349376	24000928	24992
90	69.064858	109285376	69349376	34124416	24992
91	70.115782	109285376	69349376	28414504	24992
92	71.771834	109285376	69349376	23375528	24992
93	73.508204	109285376	69349376	19002384	24992
94	72.816206	109285376	69349376	31767704	24992
95	73.505945	109285376	69349376	28708416	24992
96	74.618533	109285376	69349376	26308160	24992
97	74.927935	109285376	69349376	24560808	24992
98	76.147692	109285376	69349376	23484704	24992
99	76.564895	109285376	69349376	23070632	24992
100	77.826776	109285376	69349376	23318552	24992
101	78.564771	109285376	69349376	24227992	24992
102	0.811243	109285376	69349376	25408440	24992
103	1.514907	109285376	69349376	26746224	24992
104	2.289939	109285376	69349376	28743368	24992
105	3.001337	109285376	69349376	31399920	24992
106	3.712129	109285376	69349376	34716400	24992
107	5.62616	109285376	69349376	22231776	24992
108	5.23481	109285376	69349376	26867048	24992
109	5.918238	109285376	69349376	32161728	24992
110	7.754197	109285376	69349376	21686296	24992
111	7.383632	109285376	69349376	28300744	24992
112	8.053064	109285376	69349376	35574592	24992
113	10.286352	109285376	69349376	27083744	24992
114	9.578787	109285376	69349376	35676424	24992
115	11.619636	109285376	69349376	28505944	24992
116	12.358449	109285376	69349376	21973696	24992
117	11.725976	109285376	69349376	32544600	24992
118	13.975039	109285376	69349376	27338968	24992
119	14.745406	109285376	69349376	22796416	24992
120	14.328563	109285376	69349376	35347720	24992
121	16.133582	109285376	69349376	32130008	24992
122	17.271138	109285376	69349376	29575088	24992
123	17.422215	109285376	69349376	27660416	24992
124	18.496216	109285376	69349376	26407312	24992
125	18.794566	109285376	69349376	25815800	24992
126	20.056015	109285376	69349376	25886384	24992
127	21.004213	109285376	69349376	26618432	24992
128	20.996208	109285376	69349376	28011472	24992
129	22.493922	109285376	69349376	30066088	24992
130	23.21972	109285376	69349376	32782192	24992
131	23.880797	109285376	69349376	36159456	24992
132	25.723777	109285376	69349376	23739976	24992
133	25.285769	109285376	69349376	28413280	24992
134	26.246991	109285376	69349376	33784800	24992
135	28.021816	109285376	69349376	23364912	24992
136	27.879102	109285376	69349376	30026856	24992
137	28.623166	109285376	69349376	37387288	24992
138	30.480056	109285376	69349376	28910632	24992
139	31.457417	109285376	69349376	21142960	24992
140	30.375206	109285376	69349376	30446872	24992
141	32.303027	109285376	69349376	24005064	24992
142	31.950045	109285376	69349376	34633856	24992
143	33.958397	109285376	69349376	29516888	24992
144	34.947248	109285376	69349376	25025168	24992
145	33.874525	109285376	69349376	37631992	24992
146	36.292798	109285376	69349376	34479304	24992
147	36.599886	109285376	69349376	31981080	24992
148	37.962441	109285376	69349376	30135856	24992
149	39.652246	109285376	69349376	28948496	24992
150	39.55997	109285376	69349376	28422624	24992
151	40.426804	109285376	69349376	28559016	24992
152	40.845935	109285376	69349376	29357520	24992
153	42.082878	109285376	69349376	30817632	24992
154	42.112464	109285376	69349376	32939760	24992
155	43.482325	109285376	69349376	35722952	24992
156	45.246312	109285376	69349376	22674768	24992
157	44.546393	109285376	69349376	26781504	24992
158	45.379665	109285376	69349376	31550336	24992
159	45.796969	109285376	69349376	36980248	24992
160	48.082744	109285376	69349376	26578512	24992
161	47.985055	109285376	69349376	33332048	24992
162	51.433276	109555712	69349376	24255592	24992
163	49.441154	109555712	69349376	32328440	24992
164	51.482678	109555712	69349376	24575104	24992
165	50.935588	109555712	69349376	33971440	24992
166	53.132895	109555712	69349376	27549648	24992
167	52.266939	109555712	69349376	38276808	24992
168	55.131037	109555712	69349376	33186400	24992
169	55.929222	109555712	69349376	28768392	24992
170	56.41457	109555712	69349376	24992296	24992
171	55.95759	109555712	69349376	38372960	24992
172	58.072231	109555712	69349376	35929176	24992
173	58.944464	109555712	69349376	34146872	24992
174	59.858928	109555712	69349376	33028168	24992
175	59.991759	109555712	69349376	32556240	24992
176	61.063317	109555712	69349376	32746440	24992
177	61.80373	109555712	69349376	33597912	24992
178	62.639709	109555712	69349376	35111088	24992
179	63.995449	109555712	69349376	37285920	24992
180	64.355819	109555712	69349376	40120360	24992
181	67.821096	109555712	69349376	27143208	24992
182	66.348902	109555712	69349376	31313992	24992
183	66.749602	109555712	69349376	36146512	24992
184	67.818754	109555712	69349376	41637560	24992
185	70.365146	109555712	69349376	31294072	24992
186	69.383217	109555712	69349376	38112104	24992
187	74.590141	109555712	69349376	29098464	24992
188	71.337974	109555712	69349376	37240248	24992
189	74.990324	109555712	69349376	29547160	24992
190	72.241017	109555712	69349376	39008904	24992
191	76.914467	109555712	69349376	32641816	24992
192	74.284508	109555712	69349376	43429360	24992
193	77.401588	109555712	69349376	38385120	24992
194	78.336867	109555712	69349376	33999968	24992
195	78.787941	109555712	69349376	30275544	24992
196	77.706798	109826048	69349376	43702704	24992
197	80.63596	109826048	69349376	41303984	24992
198	81.285543	109826048	69349376	39569272	24992
199	82.038599	109826048	69349376	38495376	24992
200	83.138587	109826048	69349376	38077656	24992
201	84.541958	109826048	69349376	38314376	24992
202	0.819751	109826048	69349376	38826352	24992
203	1.511337	109826048	69349376	40164104	24992
204	2.24496	109826048	69349376	42161248	24992
205	2.94539	109826048	69349376	44817800	24992
206	6.419334	109826048	69349376	31665848	24992
207	4.467918	109826048	69349376	35641720	24992
208	5.14601	109826048	69349376	40276992	24992
209	5.871207	109826048	69349376	45571672	24992
210	9.304975	109826048	69349376	35095800	24992
211	7.350993	109826048	69349376	41710248	24992
212	10.841473	109826048	69349376	32554552	24992
213	8.798668	109826048	69349376	40487808	24992
214	12.236015	109826048	69349376	32642600	24992
215	10.515719	109826048	69349376	41894672	24992
216	13.689359	109826048	69349376	35376368	24992
217	14.706428	109826048	69349376	29506744	24992
218	12.67806	109826048	69349376	40738880	24992
219	15.906848	109826048	69349376	36195872	24992
220	16.927935	109826048	69349376	32316216	24992
221	14.914912	109826048	69349376	45526976	24992
222	18.340971	109826048	69349376	42971368	24992
223	19.424844	109826048	69349376	41078984	24992
224	19.640918	109826048	69349376	39825416	24992
225	20.521615	109826048	69349376	39233840	24992
226	21.920822	109826048	69349376	39303864	24992
227	22.65401	109826048	69349376	40035384	24992
228	22.83937	109826048	69349376	41428488	24992
229	23.737611	109826048	69349376	43488416	24992
230	24.723513	109826048	69349376	46206856	24992
231	28.308938	109826048	69349376	33109984	24992
232	25.967156	109826048	69349376	37131936	24992
233	26.75144	109826048	69349376	41835872	24992
234	30.558876	109826048	69349376	30753736	24992
235	28.665541	109826048	69349376	36754960	24992
236	28.849785	109826048	69349376	43451896	24992
237	33.002392	109826048	69349376	34356880	24992
238	30.900181	109826048	69349376	42339896	24992
239	33.919861	109826048	69349376	34574344	24992
240	32.366418	109826048	69349376	43878432	24992
241	35.576982	109826048	69349376	37437968	24992
242	36.557613	109826048	69349376	31622800	24992
243	34.249252	109826048	69349376	42908360	24992
244	37.835552	109826048	69349376	38452272	24992
245	39.069475	109826048	69349376	34622016	24992
246	39.467451	109826048	69349376	31450320	24992
247	37.098372	109826048	69349376	45378024	24992
248	40.917974	109826048	69349376	43572432	24992
249	41.473332	109826048	69349376	42387104	24992
250	42.123829	109826048	69349376	41863968	24992
251	43.33378	109826048	69349376	42002392	24992
252	43.845629	109826048	69349376	42801264	24992
253	44.425696	109826048	69349376	44260432	24992
254	45.354178	109826048	69349376	46382128	24992
255	48.989	109826048	69349376	32676088	24992
256	47.456576	109826048	69873664	36121280	24992
257	47.96539	109826048	69873664	40228432	24992
258	48.441725	109826048	69873664	44996720	24992
259	53.268458	110096384	69873664	33944544	24992
260	49.752444	110096384	69873664	40036264	24992
261	50.869979	110096384	69873664	46789352	24992
262	54.954861	110366720	70397952	37710888	24992
263	52.29551	110366720	70397952	45787344	24992
264	56.279399	110366720	70397952	38032088	24992
265	55.176543	110637056	70397952	47432088	24992
266	57.741031	110637056	70397952	41008480	24992
267	58.269433	110907392	70922240	35258560	24992
268	56.04201	110907392	70922240	46647224	24992
269	59.662629	111177728	70922240	42218376	24992
270	60.760401	111177728	70922240	38453096	24992
271	61.602864	111177728	70922240	35338624	24992
272	59.207665	111448064	71446528	49380952	24992
273	63.3485	111448064	71446528	47596952	24992
274	64.315562	111718400	71446528	46476168	24992
275	65.290576	111718400	71446528	46017120	24992
276	65.656476	111718400	71446528	46219720	24992
277	66.535854	111988736	71970816	47083880	24992
278	67.241337	111988736	71970816	48609608	24992
279	67.573492	112259072	71970816	50797088	24992
280	72.608498	112259072	71970816	37156680	24992
281	71.892248	112259072	72495104	40665704	24992
282	70.796009	112529408	72495104	44835880	24992
283	71.427565	112799744	72495104	49665024	24992
284	75.378747	112799744	72495104	38659416	24992
285	72.90691	112799744	73019392	44816168	24992
286	73.869724	113070080	73019392	51630824	24992
287	78.824609	113340416	73019392	42610272	24992
288	83.571525	113340416	73019392	16335736	24992
289	67.372096	113340416	73019392	25087528	24992
290	66.893535	113340416	73019392	18001648	24992
291	67.222255	113340416	73019392	28066320	24992
292	68.397613	113340416	73019392	22296280	24992
293	68.778765	113340416	73019392	17188512	24992
294	69.449202	113340416	73019392	12747920	24992
295	71.162324	113340416	73019392	25453624	24992
296	71.061722	113340416	73019392	22325400	24992
297	71.955039	113340416	73019392	19853168	24992
298	72.082915	113340416	73019392	18035216	24992
299	73.255378	113340416	73019392	16888112	24992
300	73.529081	113340416	73019392	16402544	24992
301	74.66704	113340416	73019392	16578104	24992
302	0.824288	113340416	73019392	17074536	24992
303	1.516346	113340416	73019392	18412288	24992
304	2.249702	113340416	73019392	20409432	24992
305	2.97109	113340416	73019392	23065984	24992
306	3.908982	113340416	73019392	26382736	24992
307	4.73357	113340416	73019392	13883232	24992
308	5.295423	113340416	73019392	18518504	24992
309	5.89355	113340416	73019392	23813184	24992
310	6.603758	113340416	73019392	29768240	24992
311	7.846047	113340416	73019392	19919056	24992
312	8.289463	113340416	73019392	27192920	24992
313	9.128359	113340416	73019392	18661680	24992
314	9.547204	113340416	73019392	27254344	24992
315	10.734394	113340416	73019392	20038928	24992
316	11.475612	113340416	73019392	13479040	24992
317	11.743271	113340416	73019392	24049920	24992
318	13.075661	113340416	73019392	18813488	24992
319	14.094775	113340416	73019392	14238360	24992
320	14.164898	113340416	73019392	26789680	24992
321	15.154912	113340416	73019392	23535296	24992
322	15.741212	113340416	73019392	20942136	24992
323	16.828697	113340416	73019392	19002760	24992
324	17.183656	113340416	73019392	17724248	24992
325	18.459284	113340416	73019392	17106608	24992
326	18.894327	113340416	73019392	17149448	24992
327	19.901391	113340416	73019392	17852616	24992
328	20.794586	113340416	73019392	19217584	24992
329	21.033823	113340416	73019392	21241240	24992
330	21.89564	113340416	73019392	23924704	24992
331	22.874224	113340416	73019392	27268608	24992
332	24.099028	113340416	73019392	14803752	24992
333	24.062247	113340416	73019392	19465264	24992
334	25.282514	113340416	73019392	24798424	24992
335	26.398965	113340416	73019392	14326416	24992
336	27.477632	113340416	73019392	20984216	24992
337	27.132116	113340416	73019392	28312216	24992
338	28.21025	113340416	73019392	19872712	24992
339	29.179118	113340416	73019392	28515616	24992
340	29.617494	113340416	73019392	21405272	24992
341	30.962034	113340416	73019392	14928864	24992
342	30.861709	113340416	73019392	25553960	24992
343	31.944751	113340416	73019392	20428280	24992
344	32.764941	113340416	73019392	15934840	24992
345	33.331691	113340416	73019392	28541712	24992
346	34.26454	113340416	73019392	25402488	24992
347	35.238338	113340416	73019392	22895768	24992
348	35.855835	113340416	73019392	21047016	24992
349	37.290864	113340416	73019392	19859744	24992
350	37.219632	113340416	73019392	19334280	24992
351	38.248551	113340416	73019392	19471576	24992
352	39.08023	113340416	73019392	20270936	24992
353	40.040428	113340416	73019392	21731632	24992
354	40.106405	113340416	73019392	23853432	24992
355	41.581122	113340416	73019392	26637080	24992
356	41.693149	113340416	73019392	30081320	24992
357	43.123098	113340416	73019392	17696784	24992
358	43.390411	113340416	73019392	22465544	24992
359	44.16926	113340416	73019392	27895464	24992
360	45.468426	113340416	73019392	17507240	24992
361	45.711472	113340416	73019392	24260928	24992
362	46.290752	113340416	73019392	31675992	24992
363	48.130681	113340416	73019392	23258856	24992
364	47.716567	113340416	73019392	31996856	24992
365	49.513642	113340416	73019392	24903992	24992
366	50.194218	113340416	73019392	18482160	24992
367	50.02765	113340416	73019392	29209344	24992
368	51.97382	113340416	73019392	24121544	24992
369	52.705026	113340416	73019392	19696640	24992
370	52.666603	113340416	73019392	32412736	24992
371	54.137245	113340416	73019392	29306832	24992
372	54.498949	113340416	73019392	26863056	24992
373	56.006567	113340416	73019392	25083064	24992
374	56.074889	113340416	73019392	23949856	24992
375	57.347112	113340416	73019392	23481776	24992
376	58.034593	113340416	73019392	23690744	24992
377	59.020348	113340416	73019392	24553040	24992
378	59.277039	113340416	73019392	26077000	24992
379	60.912287	113340416	73019392	28267408	24992
380	61.159945	113340416	73019392	31104376	24992
381	62.090055	113340416	73019392	34601016	24992
382	63.607232	113340416	73019392	22286584	24992
383	63.304096	113340416	73019392	27120368	24992
384	64.065831	113340416	73019392	32612168	24992
385	66.136372	113340416	73019392	22268680	24992
386	66.027523	113340416	73019392	29087672	24992
387	68.106111	113340416	73019392	20069232	24992
388	67.613425	113340416	73019392	28203992	24992
389	69.646764	113340416	73019392	20508856	24992
390	69.072655	113340416	73019392	29966760	24992
391	70.765954	113340416	73019392	23594944	24992
392	70.727653	113340416	73019392	34376376	24992
393	72.629206	113340416	73019392	29333064	24992
394	73.704203	113340416	73019392	24946024	24992
395	74.482158	113340416	73019392	21224688	24992
396	73.989201	113340416	73019392	34652312	24992
397	76.195234	113340416	73019392	32255688	24992
398	77.84801	113340416	73019392	30526432	24992
399	77.921591	113340416	73019392	29448008	24992
400	78.150249	113340416	73019392	29023664	24992
401	79.461533	113340416	73019392	29260848	24992
402	0.802264	113340416	73019392	29772696	24992
403	1.521808	113340416	73019392	31110448	24992
404	2.227751	113340416	73019392	33107608	24992
405	2.955283	113340416	73019392	35764160	24992
406	5.34369	113340416	73019392	22615280	24992
407	4.432842	113340416	73019392	26591152	24992
408	5.38016	113340416	73019392	31226424	24992
409	5.872596	113340416	73019392	36521104	24992
410	8.431054	113340416	73019392	26051176	24992
411	7.428823	113340416	73019392	32665624	24992
412	9.883453	113340416	73019392	23514272	24992
413	8.8752	113340416	73019392	31447528	24992
414	11.227009	113340416	73019392	23604984	24992
415	10.469048	113340416	73019392	32857056	24992
416	12.491226	113340416	73019392	26341792	24992
417	11.930581	113340416	73019392	36912664	24992
418	14.385973	113340416	73019392	31725904	24992
419	14.748405	113340416	73019392	27185256	24992
420	15.857172	113340416	73019392	23288208	24992
421	14.766208	113340416	73019392	36498920	24992
422	17.197838	113340416	73019392	33945736	24992
423	18.376306	113340416	73019392	32055416	24992
424	18.636041	113340416	73019392	30803584	24992
425	19.721693	113340416	73019392	30213296	24992
426	20.539936	113340416	73019392	30284576	24992
427	20.780925	113340416	73019392	31017464	24992
428	21.658021	113340416	73019392	32411792	24992
429	23.951772	113340416	73019392	34467728	24992
430	24.294707	113340416	73019392	37184736	24992
431	26.07992	113340416	73019392	24105248	24992
432	24.683629	113340416	73019392	28115624	24992
433	25.988015	113340416	73019392	32821840	24992
434	26.100998	113340416	73019392	38193808	24992
435	28.978489	113340416	73019392	27774512	24992
436	27.853404	113340416	73019392	34436888	24992
437	30.47086	113340416	73019392	25348776	24992
438	29.110744	113340416	73019392	33332064	24992
439	31.803839	113340416	73019392	25565952	24992
440	31.051858	113340416	73019392	34870360	24992
441	33.44246	113340416	73019392	28428216	24992
442	32.559693	113340416	73019392	39053848	24992
443	34.718292	113340416	73019392	33937328	24992
444	35.583764	113340416	73019392	29446344	24992
445	36.565189	113340416	73019392	25613400	24992
446	35.181634	113340416	73019392	38881008	24992
447	37.997663	113340416	73019392	36413680	24992
448	38.366722	113340416	73019392	34567160	24992
449	40.089774	113340416	73019392	33393088	24992
450	40.41705	113340416	73019392	32868000	24992
451	40.531845	113340416	73019392	33005288	24992
452	41.652939	113340416	73019392	33813744	24992
453	42.335538	113340416	73019392	35274400	24992
454	42.789112	113340416	73019392	37396608	24992
455	44.176105	113340416	73019392	40179448	24992
456	46.084115	113340416	73019392	27134736	24992
457	45.022707	113340416	73019392	31242096	24992
458	46.049225	113340416	73019392	36010496	24992
459	47.298365	113340416	73019392	41440520	24992
460	50.10003	113340416	73019392	31039072	24992
461	49.952822	113340416	73019392	37800384	24992
462	50.662685	113340416	73019392	28721856	24992
463	50.36635	113340416	73019392	36798568	24992
464	52.826353	113340416	73019392	29044072	24992
465	50.946352	113340416	73019392	38442448	24992
466	53.753371	113340416	73019392	32018888	24992
467	52.986104	113340416	73019392	42759928	24992
468	55.339365	113340416	73019392	37666496	24992
469	56.967734	113340416	73019392	33238560	24992
470	57.837216	113340416	73019392	29467608	24992
471	56.752186	113340416	73019392	42844776	24992
472	59.071804	113340416	73019392	40399024	24992
473	60.149764	113340416	73019392	38616784	24992
474	60.4581	113340416	73019392	37496032	24992
475	61.582147	113340416	73019392	37038888	24992
476	62.63013	113340416	73019392	37228256	24992
477	62.733385	113340416	73019392	38079664	24992
478	63.598629	113340416	73019392	39592720	24992
479	64.149056	113340416	73019392	41765528	24992
480	64.538065	113340416	73019392	44614416	24992
481	68.296817	113340416	73019392	31635728	24992
482	66.560769	113340416	73019392	35806448	24992
483	67.777335	113340416	73019392	40635608	24992
484	70.824444	113340416	73019392	29629792	24992
485	69.549149	113340416	73019392	35786384	24992
486	70.113572	113340416	73019392	42600640	24992
487	72.808279	113340416	73019392	33579672	24992
488	71.470151	113340416	73019392	41720960	24992
489	74.581945	113340416	73019392	34030720	24992
490	73.289027	113340416	73019392	43495216	24992
491	76.19905	113340416	73019392	37127992	24992
492	78.407889	113340416	73019392	31416928	24992
493	75.804519	113340416	73019392	42859168	24992
494	78.832578	113340416	73019392	38477136	24992
495	79.408253	113340416	73019392	34751224	24992
496	80.595253	113340416	73019392	31690336	24992
497	78.504847	113340416	73019392	45779456	24992
498	81.900796	113340416	73019392	44044184	24992
499	82.843947	113340416	73019392	42970256	24992
500	84.18555	113340416	73019392	42557976	24992
501	84.40448	113340416	73019392	42807672	24992
502	0.816835	113340416	73019392	43331872	24992
503	1.515883	113340416	73019392	44669624	24992
504	2.239771	113340416	73019392	46666768	24992
505	5.718524	113340416	73019392	32855240	24992
506	3.741122	113340416	73019392	36171720	24992
507	4.460062	113340416	73019392	40147592	24992
508	5.146288	113340416	73019392	44782864	24992
509	8.693233	113340416	73019392	33636064	24992
510	6.652748	113340416	73019392	39591120	24992
511	7.541583	113340416	73019392	46205568	24992
512	11.091522	113340416	73019392	37056664	24992
513	8.843952	113340416	73019392	44989920	24992
514	12.588785	113340416	73019392	37155560	24992
515	10.27568	113340416	73019392	46407632	24992
516	14.565627	113340416	73019392	39889104	24992
517	14.761513	113340416	73019392	34019456	24992
518	12.587043	113340416	73019392	45251632	24992
519	16.397016	113340416	73019392	40708512	24992
520	17.626006	113340416	73019392	36828888	24992
521	18.274629	113340416	73019392	33592032	24992
522	15.823344	113340416	73019392	47462232	24992
523	19.235961	113340416	73019392	45569696	24992
524	20.633896	113340416	73019392	44339896	24992
525	21.20211	113340416	73019392	43747984	24992
526	21.357334	113340416	73019392	43817560	24992
527	22.259049	113340416	73019392	44548648	24992
528	23.402812	113340416	73019392	45941272	24992
529	24.244067	113340416	73019392	47995184	24992
530	27.466062	113340416	73019392	34250440	24992
531	25.353981	113340416	73019392	37599792	24992
532	26.436887	113340416	73019392	41639816	24992
533	26.614654	113340416	73019392	46343632	24992
534	31.074654	113340416	73019392	35260360	24992
535	28.582195	113340416	73019392	41261704	24992
536	29.568391	113340416	73019392	47963112	24992
537	33.152672	113340416	73019392	38868016	24992
538	30.772112	113340416	73019392	46850296	24992
539	34.331448	113340416	73019392	39084664	24992
540	32.070818	113340416	73019392	48387920	24992
541	36.139735	113340416	73019392	41946880	24992
542	37.127888	113340416	73019392	36132016	24992
543	34.405753	113340416	73019392	47417640	24992
544	38.15501	113340416	73019392	42961792	24992
545	39.281348	113340416	73019392	39131728	24992
546	39.904596	113340416	73019392	35959232	24992
547	37.248581	113340416	73019392	49887016	24992
548	41.272415	113340416	73019392	48048352	24992
549	41.654778	113340416	73019392	46884480	24992
550	42.71539	113340416	73019392	46360640	24992
551	43.312257	113340416	73019392	46499128	24992
552	44.345825	113340416	73019392	47299536	24992
553	44.562998	113340416	73019392	48761472	24992
554	49.104976	113340416	73019392	34393776	24992
555	46.424275	113340416	73019392	37177592	24992
556	47.15653	113340416	73019392	40643520	24992
557	47.945969	113340416	73019392	44750000	24992
558	48.168841	113340416	73019392	49518240	24992
559	52.384865	113340416	73019392	38454936	24992
560	49.931916	113340416	73019392	44546912	24992
561	50.529737	113340416	73019392	51300144	24992
562	54.819621	113340416	73019392	42217968	24992
563	52.45681	113340416	73019392	50294312	24992
564	56.630475	113340416	73019392	42538416	24992
565	54.256247	113340416	73019392	51938208	24992
566	58.215594	113340416	73019392	45511944	24992
567	59.077162	113340416	73019392	39761816	24992
568	56.42168	113340416	73019392	51150640	24992
569	60.386595	113340416	73019392	46721264	24992
570	61.325399	113340416	73019392	42954880	24992
571	62.234436	113340416	73019392	39845696	24992
572	63.980943	113340416	73019392	37399048	24992
573	63.836332	113340416	73019392	13142096	24992
574	55.842132	113340416	73019392	12121400	24992
575	55.548445	113340416	73019392	28250816	24992
576	57.424155	113610752	74067968	12067088	24992
577	57.541265	113881088	75640832	13034736	24992
578	58.088111	113881088	77213696	14665592	24992
579	59.210652	114151424	78786560	16959520	24992
580	60.296119	114421760	80359424	19916912	24992
581	60.878196	114421760	81932288	23533072	24992
582	61.486366	114692096	83505152	27804072	24992
583	63.288671	114962432	85602304	16257560	24992
584	63.775036	115232768	87175168	21867992	24992
585	64.372617	115232768	88748032	28137720	24992
586	65.545296	115503104	90845184	18573600	24992
587	66.145444	115773440	92418048	26173096	24992
588	67.943339	116043776	94515200	17942328	24992
589	68.244223	116043776	96088064	26868552	24992
590	69.66489	116314112	98185216	19963760	24992
591	69.589559	116584448	99758080	30215016	24992
592	71.267093	116854784	101855232	24635816	24992
593	72.168405	117125120	103952384	19715064	24992
594	72.069256	117125120	105525248	31949152	24992
595	74.979658	117395456	106049536	28287552	24992
596	75.107945	117395456	106049536	25228528	24992
597	75.749598	117665792	106049536	22826248	24992
598	76.369	117665792	106049536	21084160	24992
599	78.367537	117936128	106049536	20009040	24992
600	78.771202	117936128	106049536	19595568	24992
601	80.489134	118206464	106049536	19843528	24992
602	0.819287	118206464	106049536	20366224	24992
603	1.526887	118206464	106049536	21704056	24992
604	2.229321	118206464	106049536	23701200	24992
605	3.011372	118206464	106049536	26357752	24992
606	3.782548	118206464	106049536	29674392	24992
607	4.453334	118206464	106049536	33650264	24992
608	6.633853	118206464	106049536	21835856	24992
609	5.881505	118206464	106049536	27130600	24992
610	6.661197	118206464	106049536	33085656	24992
611	8.851167	118206464	106049536	23284608	24992
612	8.088989	118206464	106049536	30558456	24992
613	10.296814	118206464	106049536	22061408	24992
614	9.577618	118206464	106049536	30654072	24992
615	11.78623	118206464	106049536	23473696	24992
616	11.233923	118206464	106049536	33385160	24992
617	13.227706	118476800	106049536	27531408	24992
618	14.061215	118476800	106049536	22327472	24992
619	14.820718	118476800	106049536	17768008	24992
620	13.928894	118476800	106049536	30319312	24992
621	16.22125	118476800	106049536	27103104	24992
622	16.939709	118476800	106049536	24549880	24992
623	17.697138	118476800	106049536	22636088	24992
624	19.235619	118476800	106049536	21384744	24992
625	19.389652	118476800	106049536	20794880	24992
626	20.509921	118476800	106049536	20866616	24992
627	21.553812	118476800	106049536	21599880	24992
628	21.606013	118747136	106049536	22994648	24992
629	22.570664	118747136	106049536	25050992	24992
630	23.64979	118747136	106049536	27767976	24992
631	24.508397	118747136	106049536	31146536	24992
632	26.807052	118747136	106049536	18729072	24992
633	26.071419	118747136	106049536	23402744	24992
634	26.594186	118747136	106049536	28774920	24992
635	27.040742	118747136	106049536	34808392	24992
636	29.568875	119017472	106049536	25009040	24992
637	28.889232	119017472	106049536	32365344	24992
638	30.84678	119017472	106049536	23933312	24992
639	30.444089	119017472	106049536	32576584	24992
640	32.619627	119017472	106049536	25473776	24992
641	33.076816	119287808	106049536	18997240	24992
642	32.487609	119287808	106049536	29622352	24992
643	35.17643	119287808	106049536	24506360	24992
644	35.728367	119287808	106049536	20010808	24992
645	34.15487	119287808	106049536	32617712	24992
646	37.799435	119558144	106049536	29486984	24992
647	38.4607	119558144	106049536	26980632	24992
648	38.726166	119558144	106049536	25131864	24992
649	40.241783	119558144	106049536	23946840	24992
650	39.999499	119558144	106049536	23421872	24992
651	41.71391	119828480	106049536	23559120	24992
652	41.644886	119828480	106049536	24358448	24992
653	42.820059	119828480	106049536	25820368	24992
654	43.178518	119828480	106049536	27942368	24992
655	44.18117	120098816	106049536	30726104	24992
656	45.20645	120098816	106049536	34171440	24992
657	47.281608	120098816	106049536	21785184	24992
658	46.700404	120098816	106049536	26554144	24992
659	49.009355	120369152	106049536	31992496	24992
660	50.683815	120369152	106049536	21591192	24992
661	49.040822	120639488	106049536	28344824	24992
662	49.179218	120639488	106049536	35759864	24992
663	52.354824	120639488	106049536	27342800	24992
664	50.945351	120639488	106049536	36080920	24992
665	53.553392	120909824	106049536	28987352	24992
666	54.584161	120909824	106049536	22565608	24992
667	53.02397	121180160	106049536	33292880	24992
668	56.536006	121180160	106049536	28202856	24992
669	58.483649	121180160	106049536	23778008	24992
670	55.779312	121450496	106049536	36493952	24992
671	58.134434	121450496	106049536	33388840	24992
672	59.11554	121720832	106049536	30945280	24992
673	59.767204	121720832	106049536	29165344	24992
674	60.746454	121720832	106049536	28034080	24992
675	61.292044	121991168	106049536	27569696	24992
676	62.240176	121991168	106049536	27770456	24992
677	63.00201	122261504	106049536	28632824	24992
678	64.479225	122261504	106049536	30156840	24992
679	64.927173	122261504	106049536	32339088	24992
680	65.420625	122531840	106049536	35175880	24992
681	66.527781	122531840	106049536	38672296	24992
682	69.919739	122802176	106049536	26357784	24992
683	67.882268	122802176	106049536	31191376	24992
684	70.690754	123072512	106049536	36683328	24992
685	72.369861	123072512	106049536	26342840	24992
686	70.635951	123342848	106049536	33161400	24992
687	71.510948	123342848	106049536	40637840	24992
688	74.322954	123613184	106049536	32278152	24992
689	75.483234	123613184	106049536	24582696	24992
690	73.620226	123883520	106049536	34040232	24992
691	77.659868	123883520	106049536	27668080	24992
692	76.247096	124153856	106049536	38449224	24992
693	78.605193	124153856	106049536	33405512	24992
694	79.713604	124424192	106049536	29018152	24992
695	77.616052	124424192	106049536	41784128	24992
696	81.505877	124694528	106049536	38723320	24992
697	82.262049	124694528	106049536	36326424	24992
698	83.447023	124964864	106049536	34588848	24992
699	83.910814	124964864	106049536	33506304	24992
700	84.952183	125235200	106049536	33081432	24992
701	85.442511	125235200	106049536	33318504	24992
702	0.820719	125505536	106049536	33835464	24992
703	1.744714	125505536	106049536	35173200	24992
704	2.239107	125505536	106049536	37170376	24992
705	3.042606	125505536	106049536	39835688	24992
706	3.743007	125505536	106049536	43152152	24992
707	7.5205	125505536	106049536	30666648	24992
708	5.197754	125505536	106049536	35301904	24992
709	5.918614	125505536	106049536	40596568	24992
710	9.963157	125505536	106049536	30122336	24992
711	7.353779	125505536	106049536	36736768	24992
712	11.163374	125505536	106049536	27574688	24992
713	8.792051	125505536	106049536	35507928	24992
714	12.72258	125505536	106049536	27663576	24992
715	10.634839	125505536	106049536	36915632	24992
716	15.11798	125775872	106049536	30398464	24992
717	11.989216	125775872	106049536	40969352	24992
718	15.669396	125775872	106049536	35780672	24992
719	16.492871	125775872	106049536	31238584	24992
720	17.568392	125775872	106049536	27340528	24992
721	15.220873	125775872	106049536	40552304	24992
722	18.699247	125775872	106049536	37997784	24992
723	19.519606	125775872	106049536	36106200	24992
724	20.394265	125775872	106049536	34853512	24992
725	21.565555	125775872	106049536	34262320	24992
726	21.896567	125775872	106049536	34332680	24992
727	22.523998	126046208	106049536	35064584	24992
728	23.548165	126046208	106049536	36457992	24992
729	24.36034	126046208	106049536	38512960	24992
730	24.517284	126046208	106049536	41228984	24992
731	29.346888	126046208	106049536	28148008	24992
732	26.245052	126046208	106049536	32157856	24992
733	27.542304	126046208	106049536	36863104	24992
734	28.980459	126046208	106049536	42242776	24992
735	31.749357	126316544	106049536	31822760	24992
736	30.059809	126316544	106049536	38484704	24992
737	33.443264	126316544	106049536	29395920	24992
738	31.342801	126316544	106049536	37378936	24992
739	35.120588	126316544	106049536	29611864	24992
740	32.406617	126316544	106049536	38915856	24992
741	36.567809	126586880	106049536	32473952	24992
742	33.654691	126586880	106049536	43099128	24992
743	38.339487	126586880	106049536	37980344	24992
744	39.071743	126586880	106049536	33488640	24992
745	39.233673	126857216	106049536	29654976	24992
746	36.857744	126857216	106049536	42922216	24992
747	40.938454	126857216	106049536	40453864	24992
748	41.590423	126857216	106049536	38606608	24992
749	42.474168	126857216	106049536	37423056	24992
750	42.980948	127127552	106049536	36897376	24992
751	43.916462	127127552	106049536	37033944	24992
752	45.193843	127127552	106049536	37832768	24992
753	45.895707	127127552	106049536	39293040	24992
754	45.99047	127397888	106049536	41414832	24992
755	47.243328	127397888	106049536	44196504	24992
756	51.000879	127397888	106049536	31152000	24992
757	48.766029	127397888	106049536	35259008	24992
758	49.077828	127668224	106049536	40026992	24992
759	49.875215	127668224	106049536	45457320	24992
760	54.580431	127668224	106049536	35055088	24992
761	51.875854	127668224	106049536	41808416	24992
762	56.427531	127938560	106049536	32729936	24992
763	52.820756	127938560	106049536	40806600	24992
764	57.684443	127938560	106049536	33052976	24992
765	54.64252	128208896	106049536	42449456	24992
766	59.144353	128208896	106049536	36025816	24992
767	56.484535	128208896	106049536	46766760	24992
768	60.502186	128479232	106049536	41676720	24992
769	61.402791	128479232	106049536	37248688	24992
770	61.983875	128479232	106049536	33479496	24992
771	59.498185	128749568	106049536	46860192	24992
772	63.866166	128749568	106049536	44416792	24992
773	64.492323	129019904	106049536	42634408	24992
774	65.427171	129019904	106049536	41514472	24992
775	66.49607	129019904	106049536	41050008	24992
776	66.801454	129290240	106049536	41240112	24992
777	67.992477	129290240	106049536	42091664	24992
778	68.775521	129560576	106049536	43605872	24992
779	69.092812	129560576	106049536	45778648	24992
780	69.973089	129830912	106049536	48627520	24992
781	74.750411	129830912	106049536	35650080	24992
782	71.8077	130101248	106049536	39820896	24992
783	72.181706	130101248	106049536	44649944	24992
784	77.507989	130101248	106049536	33644176	24992
785	74.741287	130371584	106049536	39800752	24992
786	75.845969	130371584	106049536	46617152	24992
787	79.771108	130641920	106049536	37599952	24992
788	76.563462	130641920	106049536	45741736	24992
789	82.010249	130641920	106049536	38051368	24992
790	78.374697	130912256	106049536	47516424	24992
791	82.918347	130912256	106049536	41149104	24992
792	84.051417	131182592	106049536	35438120	24992
793	80.505424	131182592	106049536	46880392	24992
794	85.599798	131452928	106049536	42498248	24992
795	86.600921	131452928	106049536	38772208	24992
796	87.22288	131723264	106049536	35711864	24992
797	84.771521	131723264	106049536	49800776	24992
798	89.208629	131993600	106049536	48065408	24992
799	89.728461	131993600	106049536	46992176	24992
800	90.706627	132263936	106049536	46579776	24992
801	91.099126	132263936	106049536	46826432	24992
802	0.819803	132263936	106049536	47344400	24992
803	1.517704	132263936	106049536	48682136	24992
804	2.293385	132263936	106049536	50679264	24992
805	7.584066	132263936	106049536	36864000	24992
806	3.718514	132263936	106049536	40180464	24992
807	4.688819	132534272	106049536	44156432	24992
808	5.344682	132534272	106049536	48791768	24992
809	10.631643	132534272	106049536	37644936	24992
810	6.846385	132534272	106049536	43600008	24992
811	7.618476	132534272	106049536	50214440	24992
812	12.667413	132534272	106049536	41065536	24992
813	8.834049	132534272	106049536	48998776	24992
814	14.382456	132534272	106049536	41164448	24992
815	10.261748	132534272	106049536	50416504	24992
816	16.233633	132534272	106049536	43897960	24992
817	16.706853	132534272	106049536	38029240	24992
818	12.929724	132534272	106049536	49261368	24992
819	18.415056	132534272	106049536	44719744	24992
820	23.083934	132804608	106049536	40841768	24992
821	22.719056	114192384	78786560	21082256	24992
822	16.233397	114192384	78786560	18477936	24992
823	16.679345	114192384	78786560	16538600	24992
824	17.609659	114192384	78786560	15260536	24992
825	17.859451	114192384	78786560	14642976	24992
826	19.337446	114192384	78786560	14685688	24992
827	19.923093	114192384	78786560	15388808	24992
828	20.287619	114192384	78786560	16752536	24992
829	21.286311	114192384	78786560	18776032	24992
830	21.697837	114192384	78786560	21459480	24992
831	22.735536	114192384	78786560	24803320	24992
832	23.447808	114192384	78786560	12338512	24992
833	24.545869	114192384	78786560	17000040	24992
834	25.169152	114192384	78786560	22333200	24992
835	25.745707	114192384	78786560	11861352	24992
836	26.522954	114192384	78786560	18509664	24992
837	27.528724	114192384	78786560	25823376	24992
838	28.565944	114192384	78786560	17332800	24992
839	28.65637	114192384	78786560	25961528	24992
840	29.713078	114192384	78786560	18797216	24992
841	30.513514	114192384	78786560	12290120	24992
842	30.997902	114192384	78786560	22899552	24992
843	32.089599	114192384	78786560	17717208	24992
844	32.373355	114192384	78786560	13189016	24992
845	33.745512	114192384	78786560	25779200	24992
846	33.980928	114192384	78786560	22578040	24992
847	35.026008	114192384	78786560	20036504	24992
848	35.728534	114192384	78786560	18152480	24992
849	36.56845	114192384	78786560	16928816	24992
850	36.924652	114192384	78786560	16397824	24992
851	37.840699	114192384	78786560	16497536	24992
852	38.850753	114192384	78786560	17258464	24992
853	39.157907	114192384	78786560	18680376	24992
854	39.780487	114192384	78786560	20762400	24992
855	40.618858	114192384	78786560	23505536	24992
856	41.425672	114192384	79310848	26909680	24992
857	41.936204	114192384	80883712	14481432	24992
858	43.193928	114192384	81932288	19207696	24992
859	43.776684	114462720	82980864	24594336	24992
860	44.281855	114462720	84553728	14149784	24992
861	45.581925	114462720	85602304	20856776	24992
862	46.485536	114733056	85602304	28227688	24992
863	47.324888	114733056	85602304	19764952	24992
864	47.480164	114733056	85602304	28456280	24992
865	48.046913	114733056	85602304	21315696	24992
866	49.725653	114733056	85602304	14855464	24992
867	49.505037	115003392	85602304	25582584	24992
868	50.333823	115003392	85602304	20492360	24992
869	51.161488	115003392	85602304	16069008	24992
870	51.801392	115273728	85602304	28788248	24992
871	52.621638	115273728	85602304	25682920	24992
872	54.330984	115273728	85602304	23240152	24992
873	54.90672	115544064	85602304	21452680	24992
874	54.956717	115544064	85602304	20321456	24992
875	56.122503	115814400	85602304	19856792	24992
876	56.64985	115814400	85602304	20057768	24992
877	57.512711	115814400	85602304	20920448	24992
878	58.339229	116084736	85602304	22444456	24992
879	58.921744	116084736	85602304	24628456	24992
880	59.872464	116084736	85602304	27468768	24992
881	61.935958	116355072	85602304	30965000	24992
882	62.131899	116355072	85602304	18649056	24992
883	62.021118	116625408	85602304	23482304	24992
884	62.869351	116625408	85602304	28973584	24992
885	64.016172	116895744	85602304	18629592	24992
886	65.371375	116895744	85602304	25448744	24992
887	68.306055	116895744	85602304	32925064	24992
888	67.697683	117166080	85602304	24566344	24992
889	68.960047	117436416	85602304	33368120	24992
890	69.469267	117436416	85602304	26331168	24992
891	70.814408	117706752	85602304	19958880	24992
892	69.311312	117706752	85602304	30739840	24992
893	71.467208	117977088	85602304	25695960	24992
894	72.201985	117977088	85602304	21317272	24992
895	72.648687	118247424	85602304	34091248	24992
896	74.070056	118247424	85602304	31032904	24992
897	73.874933	118517760	85602304	28636232	24992
898	75.069908	118517760	85602304	26896288	24992
899	75.755515	118788096	85602304	25810376	24992
900	76.618995	118788096	85602304	25386160	24992
901	77.411582	119058432	85602304	25628712	24992
902	0.855818	119058432	85602304	26151520	24992
903	1.598213	119058432	85602304	27489256	24992
904	2.359707	119058432	85602304	29486384	24992
905	3.10508	119058432	85602304	32142920	24992
906	3.892362	119058432	85602304	35459384	24992
907	5.58962	119058432	85602304	22977800	24992
908	5.216127	119058432	85602304	27613056	24992
909	5.96797	119058432	85602304	32907720	24992
910	7.73077	119328768	85602304	22437872	24992
911	7.526783	119328768	85602304	29052304	24992
912	9.42657	119328768	85602304	19892216	24992
913	8.907883	119328768	85602304	27825456	24992
914	10.633225	119328768	85602304	19982976	24992
915	10.29694	119328768	85602304	29235032	24992
916	12.138375	119328768	85602304	22719832	24992
917	11.743869	119328768	85602304	33290688	24992
918	13.582666	119328768	85602304	28104008	24992
919	14.433684	119328768	85602304	23563456	24992
920	14.09681	119328768	85602304	36114744	24992
921	15.959532	119328768	85602304	32892208	24992
922	16.890277	119328768	85602304	30339104	24992
923	17.439408	119599104	85602304	28431328	24992
924	18.196052	119599104	85602304	27179496	24992
925	18.973128	119599104	85602304	26589256	24992
926	19.698282	119599104	85602304	26660504	24992
927	20.325148	119599104	85602304	27393296	24992
928	21.251266	119599104	85602304	28787608	24992
929	22.032773	119599104	85602304	30843480	24992
930	22.986711	119599104	85602304	33560712	24992
931	24.948518	119869440	85602304	20481320	24992
932	24.406075	119869440	85602304	24491632	24992
933	25.186003	119869440	85602304	29197816	24992
934	26.117622	119869440	85602304	34569784	24992
935	27.79182	119869440	85602304	24150472	24992
936	27.792253	119869440	85602304	30812704	24992
937	29.070431	119869440	85602304	21724800	24992
938	29.442578	119869440	85602304	29707992	24992
939	30.598723	120139776	85602304	21942040	24992
940	30.546689	120139776	85602304	31246400	24992
941	32.28744	120139776	85602304	24805296	24992
942	32.145499	120139776	85602304	35430760	24992
943	33.745722	120139776	85602304	30312952	24992
944	34.596666	120410112	85602304	25821904	24992
945	35.153525	120410112	85602304	21989328	24992
946	35.055839	120410112	85602304	35256808	24992
947	37.178939	120410112	85602304	32789416	24992
948	37.581808	120410112	85602304	30943680	24992
949	38.684202	120680448	85602304	29758864	24992
950	39.478451	120680448	85602304	29233696	24992
951	39.888737	120680448	85602304	29370920	24992
952	40.891106	120680448	85602304	30170304	24992
953	41.32443	120680448	85602304	31631264	24992
954	41.925982	120680448	85602304	33753824	24992
955	42.574718	120950784	85602304	36536216	24992
956	44.615236	120950784	85602304	23492416	24992
957	44.043536	120950784	85602304	27600248	24992
958	44.958516	120950784	85602304	32369312	24992
959	45.534286	120950784	85602304	37799720	24992
960	48.057309	120950784	85602304	27398304	24992
961	47.811303	121221120	85602304	34152128	24992
962	49.383856	121221120	85602304	25075224	24992
963	49.421863	121221120	85602304	33150680	24992
964	51.566311	121221120	85602304	25397968	24992
965	50.657795	121221120	85602304	34795312	24992
966	53.147918	121491456	85602304	28371960	24992
967	52.16521	121491456	85602304	39114056	24992
968	54.190576	121491456	85602304	34024720	24992
969	55.164667	121491456	85602304	29598272	24992
970	56.303616	121761792	85602304	25822432	24992
971	55.211213	121761792	85602304	39203832	24992
972	57.79338	121761792	85602304	36759856	24992
973	58.398983	122032128	85602304	34978128	24992
974	59.573617	122032128	85602304	33867576	24992
975	59.855485	122032128	85602304	33404104	24992
976	60.973934	122032128	85602304	33603936	24992
977	61.334038	122032128	85602304	34455920	24992
978	62.691538	122032128	85602304	35970432	24992
979	63.194607	122032128	85602304	38144472	24992
980	63.793199	122032128	85602304	40986392	24992
981	67.790853	122032128	85602304	28018232	24992
982	65.744947	122032128	85602304	32188952	24992
983	66.466586	122032128	85602304	37019888	24992
984	69.120987	122302464	85602304	26017840	24992
985	67.833092	122302464	85602304	32174256	24992
986	68.691638	122302464	85602304	38991968	24992
987	73.09085	122302464	85602304	29978344	24992
988	70.602469	122302464	85602304	38119936	24992
989	72.504658	122302464	85602304	30429440	24992
990	71.714778	122302464	85602304	39894272	24992
991	74.482074	122302464	85602304	33527320	24992
992	75.223586	122302464	85602304	27821656	24992
993	74.210905	122572800	85602304	39263800	24992
994	76.677259	122572800	85602304	34881512	24992
995	77.921311	122572800	85602304	31155328	24992
996	78.595671	122843136	85602304	28094904	24992
997	77.3954	122843136	85602304	42183816	24992
998	80.250679	123113472	85602304	40449168	24992
999	81.097835	123113472	85602304	39375112	24992
1000	81.833068	123113472	85602304	38962888	24992
